Position |MethodName|Relevancy
0.03225806451612903|android.app.ActivityThread$H.handleMessage|0.9314285714285714
0.06451612903225806|android.os.Handler.dispatchMessage|0.5328571428571428
0.0967741935483871|android.os.Looper.loop|0.5242857142857142
0.12903225806451613|android.app.ActivityThread.main|0.5157142857142857
0.16129032258064516|java.lang.reflect.Method.invoke|0.5071428571428571
0.1935483870967742|com.android.internal.os.ZygoteInit$MethodAndArgsCaller.run|0.49857142857142855
0.22580645161290322|com.android.internal.os.ZygoteInit.main|0.49
0.25806451612903225|com.bytestemplar.tonedef.DTMFActivity.onActivityResult|0.40428571428571425
0.2903225806451613|android.app.Activity.dispatchActivityResult|0.3957142857142857
0.3225806451612903|android.app.ActivityThread.deliverResults|0.3871428571428571
0.3548387096774194|android.app.ActivityThread.handleSendResult|0.37857142857142856
0.3870967741935484|android.app.ActivityThread.-wrap16|0.37
0.41935483870967744|com.bytestemplar.tonedef.DTMFActivity.onActivityResult|0.3642857142857143
0.45161290322580644|android.app.Activity.dispatchActivityResult|0.35571428571428576
0.4838709677419355|com.bytestemplar.tonedef.touchpad.TouchPadActivity.onActivityResult|0.35285714285714287
0.5161290322580645|android.app.ActivityThread.deliverResults|0.3471428571428572
0.5483870967741935|android.app.ActivityThread.handleSendResult|0.3385714285714286
0.5806451612903226|android.app.ActivityThread.access$1300|0.33
0.6129032258064516|com.bytestemplar.tonedef.touchpad.TouchPadActivity.onActivityResult|0.32619047619047614
0.6451612903225806|com.bytestemplar.tonedef.ContactList.parseResponse|0.30142857142857143
0.6774193548387096|com.bytestemplar.tonedef.ContactList.parseResponse|0.28809523809523807
0.7096774193548387|com.bytestemplar.tonedef.touchpad.TouchPadActivity.setup|0.25476190476190474
0.7419354838709677|com.bytestemplar.tonedef.DTMFActivity.onCreate|0.25285714285714284
0.7741935483870968|android.app.Activity.performCreate|0.24428571428571427
0.8064516129032258|android.app.Instrumentation.callActivityOnCreate|0.2357142857142857
0.8387096774193549|android.app.ActivityThread.performLaunchActivity|0.22714285714285715
0.8709677419354839|android.app.ActivityThread.handleLaunchActivity|0.21857142857142856
0.9032258064516129|android.app.ActivityThread.access$800|0.21
0.9354838709677419|android.content.ContentResolver.query|0.18
0.967741935483871|android.content.ContentResolver.query|0.16666666666666666
1.0|android.view.LayoutInflater.inflate|0.12666666666666665
