Position |MethodName|Relevancy
0.02040816326530612|de.robv.android.xposed.XposedBridge.main|0.78
0.04081632653061224|android.os.Handler.dispatchMessage|0.6921774193548388
0.061224489795918366|android.os.Handler.dispatchMessage|0.677983870967742
0.08163265306122448|android.view.View.sizeChange|0.5204032258064517
0.10204081632653061|android.view.View.setFrame|0.5133064516129032
0.12244897959183673|android.view.View.layout|0.5062096774193549
0.14285714285714285|android.widget.FrameLayout.layoutChildren|0.4991129032258065
0.16326530612244897|android.widget.FrameLayout.onLayout|0.4920161290322581
0.1836734693877551|android.view.View.layout|0.48491935483870974
0.20408163265306123|android.view.ViewGroup.layout|0.47782258064516137
0.22448979591836735|com.android.internal.widget.ActionBarOverlayLayout.onLayout|0.470725806451613
0.24489795918367346|android.view.View.layout|0.46362903225806457
0.2653061224489796|android.view.ViewGroup.layout|0.45653225806451614
0.2857142857142857|android.widget.FrameLayout.layoutChildren|0.44943548387096777
0.30612244897959184|android.widget.FrameLayout.onLayout|0.4423387096774194
0.32653061224489793|android.view.View.layout|0.435241935483871
0.3469387755102041|anupam.acrylic.EasyPaint.onCreate|0.43435483870967745
0.3673469387755102|android.view.ViewGroup.layout|0.42814516129032265
0.3877551020408163|android.app.Activity.performCreate|0.4272580645161291
0.40816326530612246|android.view.ViewRootImpl.performLayout|0.4210483870967742
0.42857142857142855|android.app.Instrumentation.callActivityOnCreate|0.42016129032258065
0.4489795918367347|dalvik.system.NativeStart.main|0.41750000000000004
0.46938775510204084|android.view.ViewRootImpl.performTraversals|0.41395161290322585
0.4897959183673469|android.app.ActivityThread.performLaunchActivity|0.4130645161290323
0.5102040816326531|android.view.ViewRootImpl.doTraversal|0.4068548387096775
0.5306122448979592|android.app.ActivityThread.handleLaunchActivity|0.4059677419354839
0.5510204081632653|android.os.Looper.loop|0.4050806451612904
0.5714285714285714|android.view.ViewRootImpl$TraversalRunnable.run|0.3997580645161291
0.5918367346938775|android.app.ActivityThread.access$800|0.39887096774193553
0.6122448979591837|android.app.ActivityThread.main|0.39798387096774196
0.6326530612244898|android.view.Choreographer$CallbackRecord.run|0.3926612903225807
0.6530612244897959|android.app.ActivityThread$H.handleMessage|0.3917741935483871
0.673469387755102|java.lang.reflect.Method.invokeNative|0.3908870967741936
0.6938775510204082|android.view.Choreographer.doCallbacks|0.3855645161290323
0.7142857142857143|android.app.ActivityThread.access$800|0.38467741935483873
0.7346938775510204|java.lang.reflect.Method.invoke|0.3837903225806452
0.7551020408163265|android.view.Choreographer.doFrame|0.37846774193548394
0.7755102040816326|android.app.ActivityThread$H.handleMessage|0.37758064516129036
0.7959183673469388|com.android.internal.os.ZygoteInit$MethodAndArgsCaller.run|0.37669354838709684
0.8163265306122449|android.view.Choreographer$FrameDisplayEventReceiver.run|0.37137096774193556
0.8367346938775511|com.android.internal.os.ZygoteInit.main|0.3695967741935484
0.8571428571428571|android.os.Handler.handleCallback|0.36427419354838714
0.8775510204081632|com.android.internal.os.ZygoteInit.main|0.36250000000000004
0.8979591836734694|android.view.Choreographer$FrameDisplayEventReceiver.run|0.35717741935483877
0.9183673469387755|android.os.Handler.handleCallback|0.3500806451612904
0.9387755102040817|anupam.acrylic.EasyPaint$MyView.onSizeChanged|0.2475
0.9591836734693877|anupam.acrylic.EasyPaint$MyView.onSizeChanged|0.2333064516129032
0.9795918367346939|android.view.WindowManagerImpl.getDefaultDisplay|0.1410483870967742
1.0|android.view.WindowManagerImpl.getDefaultDisplay|0.12685483870967743
