Position |MethodName|Relevancy
0.3333333333333333|org.asdtm.goodweather.MainActivity.onOptionsItemSelected|0.3979598662207358
0.6666666666666666|org.asdtm.goodweather.MainActivity.gpsRequestLocation|0.3955183946488295
1.0|org.asdtm.goodweather.MainActivity$1.onLocationChanged|0.27725752508361207
