Position |MethodName|Relevancy
0.09090909090909091|de.baumann.browser.Activity.BrowserActivity.onResume|0.44053574845334526
0.18181818181818182|de.baumann.browser.Activity.BrowserActivity.onCreate|0.41929778684865104
0.2727272727272727|de.baumann.browser.Activity.BrowserActivity.dispatchIntent|0.38540181134000895
0.36363636363636365|de.baumann.browser.Activity.BrowserActivity.pinAlbums|0.3302678742266726
0.45454545454545453|de.baumann.browser.View.NinjaWebView.initPreferences|0.28013393711333634
0.5454545454545454|de.baumann.browser.View.NinjaWebView.<init>|0.27513393711333634
0.6363636363636364|org.chromium.content.browser.ChildProcessLauncherHelperImpl.a|0.16006888194400154
0.7272727272727273|org.chromium.base.ThreadUtils.d|0.14511480324000253
0.8181818181818182|org.chromium.base.ThreadUtils.b|0.14011480324000256
0.9090909090909091|org.chromium.base.ApplicationStatus.registerThreadSafeNativeApplicationStateListener|0.13511480324000255
1.0|id.app.SharedPreferencesImpl.getString|0.020068881944001526
