digraph FULL {
"d11b0a5a-7823-481f-bec2-a8f34203458a" [label="de.robv.android.xposed.XposedBridge.main\n Susp=0,4"];
"d11b0a5a-7823-481f-bec2-a8f34203458a" -> "94753352-44b1-4f54-aed8-d3d0c5f93667";
"94753352-44b1-4f54-aed8-d3d0c5f93667" [label="com.android.internal.os.ZygoteInit.main\n Susp=0,4"];
"94753352-44b1-4f54-aed8-d3d0c5f93667" -> "7f32d4ad-0770-44ed-bcdf-4823bc260d9b";
"7f32d4ad-0770-44ed-bcdf-4823bc260d9b" [label="com.android.internal.os.ZygoteInit$MethodAndArgsCaller.run\n Susp=0,4"];
"7f32d4ad-0770-44ed-bcdf-4823bc260d9b" -> "d20f8780-67dd-452c-bd2b-b2e2d7d54bfb";
"d20f8780-67dd-452c-bd2b-b2e2d7d54bfb" [label="java.lang.reflect.Method.invoke\n Susp=0,4"];
"d20f8780-67dd-452c-bd2b-b2e2d7d54bfb" -> "9e21c21d-8b97-41f1-8c7e-0de85b700d64";
"9e21c21d-8b97-41f1-8c7e-0de85b700d64" [label="android.app.ActivityThread.main\n Susp=0,4"];
"9e21c21d-8b97-41f1-8c7e-0de85b700d64" -> "dfb3602d-ca6a-429d-8beb-bd990d5fbf44";
"dfb3602d-ca6a-429d-8beb-bd990d5fbf44" [label="android.os.Looper.loop\n Susp=0,4"];
"dfb3602d-ca6a-429d-8beb-bd990d5fbf44" -> "757f6cf4-4ae9-45fd-afa7-893192dac279";
"757f6cf4-4ae9-45fd-afa7-893192dac279" [label="android.os.Handler.dispatchMessage\n Susp=0,4"];
"757f6cf4-4ae9-45fd-afa7-893192dac279" -> "ede2e240-9876-46c8-ac2f-fe8c3e9f3e51";
"ede2e240-9876-46c8-ac2f-fe8c3e9f3e51" [label="android.app.ActivityThread$H.handleMessage\n Susp=1"];
"ede2e240-9876-46c8-ac2f-fe8c3e9f3e51" -> "ec98e355-b60f-4dca-aca1-b1ed86e451df";
"ec98e355-b60f-4dca-aca1-b1ed86e451df" [label="android.app.ActivityThread.-wrap11\n Susp=0,2033"];
"ec98e355-b60f-4dca-aca1-b1ed86e451df" -> "0a6e14fe-d638-4031-80a4-fad7688f403b";
"0a6e14fe-d638-4031-80a4-fad7688f403b" [label="android.app.ActivityThread.handleLaunchActivity\n Susp=0,2033"];
"0a6e14fe-d638-4031-80a4-fad7688f403b" -> "7ed38a67-213e-4711-9756-30a5ef87e27c";
"7ed38a67-213e-4711-9756-30a5ef87e27c" [label="android.app.ActivityThread.performLaunchActivity\n Susp=0,2033"];
"7ed38a67-213e-4711-9756-30a5ef87e27c" -> "f19ff487-73e4-48a9-b031-a306cd2de538";
"f19ff487-73e4-48a9-b031-a306cd2de538" [label="android.app.Instrumentation.callActivityOnCreate\n Susp=0,2033"];
"f19ff487-73e4-48a9-b031-a306cd2de538" -> "95ffe272-e104-4794-b196-10f55724c6a0";
"95ffe272-e104-4794-b196-10f55724c6a0" [label="android.app.Activity.performCreate\n Susp=0,2033"];
"95ffe272-e104-4794-b196-10f55724c6a0" -> "795928a3-cbd3-4974-836d-2ac30047ba99";
"795928a3-cbd3-4974-836d-2ac30047ba99" [label="be.uhasselt.privacypolice.PreferencesActivity.onCreate\n Susp=0,2033"];
"795928a3-cbd3-4974-836d-2ac30047ba99" -> "bdc54795-8b34-462d-b4e1-c1f8abcdd39f";
"bdc54795-8b34-462d-b4e1-c1f8abcdd39f" [label="de.robv.android.xposed.XposedBridge.handleHookedMethod\n Susp=0,2033"];
"bdc54795-8b34-462d-b4e1-c1f8abcdd39f" -> "01dc7d9c-45db-4dd5-99fa-a844b834f215";
"01dc7d9c-45db-4dd5-99fa-a844b834f215" [label="de.robv.android.xposed.XposedBridge.invokeOriginalMethodNative\n Susp=0,2033"];
"01dc7d9c-45db-4dd5-99fa-a844b834f215" -> "5121065e-ae41-41a5-af8d-385834204a94";
"5121065e-ae41-41a5-af8d-385834204a94" [label="be.uhasselt.privacypolice.PreferencesActivity.onCreate\n Susp=0,2033"];
"5121065e-ae41-41a5-af8d-385834204a94" -> "85690c24-26f6-4f9a-9957-18f99b142543";
"85690c24-26f6-4f9a-9957-18f99b142543" [label="android.app.BackStackRecord.replace\n Susp=0,2033"];
"85690c24-26f6-4f9a-9957-18f99b142543" -> "fd3e33ea-4ffe-4b19-a50d-4d27c011b741";
"fd3e33ea-4ffe-4b19-a50d-4d27c011b741" [label="de.robv.android.xposed.XposedBridge.handleHookedMethod\n Susp=0,2033"];
"fd3e33ea-4ffe-4b19-a50d-4d27c011b741" -> "e3771897-166c-4c48-b74a-e3d4ef93df86";
"e3771897-166c-4c48-b74a-e3d4ef93df86" [label="de.robv.android.xposed.XposedBridge.invokeOriginalMethodNative\n Susp=0,2033"];
"e3771897-166c-4c48-b74a-e3d4ef93df86" -> "d43cc35b-b9b2-4538-9074-bd3e16310755";
"d43cc35b-b9b2-4538-9074-bd3e16310755" [label="android.app.BackStackRecord.replace\n Susp=0,2033"];
"d43cc35b-b9b2-4538-9074-bd3e16310755" -> "2fcd71c2-ad71-4f3b-8b64-647f38aa590e";
"2fcd71c2-ad71-4f3b-8b64-647f38aa590e" [label="de.robv.android.xposed.XposedBridge.handleHookedMethod\n Susp=0,2033"];
"2fcd71c2-ad71-4f3b-8b64-647f38aa590e" -> "3b3c312a-8e73-444b-8b9b-74c1a27f2bb1";
"3b3c312a-8e73-444b-8b9b-74c1a27f2bb1" [label="it.unimib.disco.lta.unimiblogger.MyMethodHook.beforeHookedMethod\n Susp=0,2033"];
"3b3c312a-8e73-444b-8b9b-74c1a27f2bb1" -> "d6991b33-cd14-4ec0-8e39-7230cd8738f4";
"d6991b33-cd14-4ec0-8e39-7230cd8738f4" [label="java.lang.Thread.getStackTrace\n Susp=0,2033"];
"d6991b33-cd14-4ec0-8e39-7230cd8738f4" -> "e200ec28-bb41-4431-a1d0-3efb7ddbf979";
"e200ec28-bb41-4431-a1d0-3efb7ddbf979" [label="dalvik.system.VMStack.getThreadStackTrace\n Susp=0,0033"];
"ede2e240-9876-46c8-ac2f-fe8c3e9f3e51" -> "8efefb5d-7753-49fa-99aa-077026c4f61d";
"8efefb5d-7753-49fa-99aa-077026c4f61d" [label="android.app.ActivityThread.-wrap14\n Susp=0,3537"];
"8efefb5d-7753-49fa-99aa-077026c4f61d" -> "c05fdfc5-3e1e-4b5c-8dad-a44ecd65e809";
"c05fdfc5-3e1e-4b5c-8dad-a44ecd65e809" [label="android.app.ActivityThread.handleReceiver\n Susp=0,3537"];
"c05fdfc5-3e1e-4b5c-8dad-a44ecd65e809" -> "eb204d1c-b176-44a6-8d79-f5ffc3509a35";
"eb204d1c-b176-44a6-8d79-f5ffc3509a35" [label="be.uhasselt.privacypolice.ScanResultsChecker.onReceive\n Susp=0,3537"];
"eb204d1c-b176-44a6-8d79-f5ffc3509a35" -> "30245c15-0aea-4989-8d37-14148083d0d8";
"30245c15-0aea-4989-8d37-14148083d0d8" [label="de.robv.android.xposed.XposedBridge.handleHookedMethod\n Susp=0,3537"];
"30245c15-0aea-4989-8d37-14148083d0d8" -> "c1947576-fbf1-4ec8-809d-dccd8a7cf44f";
"c1947576-fbf1-4ec8-809d-dccd8a7cf44f" [label="de.robv.android.xposed.XposedBridge.invokeOriginalMethodNative\n Susp=0,3537"];
"c1947576-fbf1-4ec8-809d-dccd8a7cf44f" -> "68519294-25b4-4f5b-82fb-95209b5991cb";
"68519294-25b4-4f5b-82fb-95209b5991cb" [label="be.uhasselt.privacypolice.ScanResultsChecker.onReceive\n Susp=0,3537"];
"68519294-25b4-4f5b-82fb-95209b5991cb" -> "1d11c2da-42f0-4654-9d68-46ce0cf1a461";
"1d11c2da-42f0-4654-9d68-46ce0cf1a461" [label="be.uhasselt.privacypolice.ScanResultsChecker.checkResults\n Susp=0,3537"];
"1d11c2da-42f0-4654-9d68-46ce0cf1a461" -> "06c84a1f-7dbb-466c-ba42-28dc828e5101";
"06c84a1f-7dbb-466c-ba42-28dc828e5101" [label="de.robv.android.xposed.XposedBridge.handleHookedMethod\n Susp=0,3537"];
"06c84a1f-7dbb-466c-ba42-28dc828e5101" -> "aa5ff025-5c42-4853-9f1f-9a55d9f334df";
"aa5ff025-5c42-4853-9f1f-9a55d9f334df" [label="de.robv.android.xposed.XposedBridge.invokeOriginalMethodNative\n Susp=0,3537"];
"aa5ff025-5c42-4853-9f1f-9a55d9f334df" -> "4ac8f00b-cccb-4f19-9fe6-cee6e80652dd";
"4ac8f00b-cccb-4f19-9fe6-cee6e80652dd" [label="be.uhasselt.privacypolice.ScanResultsChecker.checkResults\n Susp=0,5537"];
"4ac8f00b-cccb-4f19-9fe6-cee6e80652dd" -> "d9d89c80-c074-4619-8369-c32eaa004b6e";
"d9d89c80-c074-4619-8369-c32eaa004b6e" [label="be.uhasselt.privacypolice.ScanResultsChecker.getNetworkSafety\n Susp=0,3504"];
"d9d89c80-c074-4619-8369-c32eaa004b6e" -> "32a6f218-a404-47f4-9ea7-d54ef7960433";
"32a6f218-a404-47f4-9ea7-d54ef7960433" [label="be.uhasselt.privacypolice.NotificationHandler.askNetworkPermission\n Susp=0,3504"];
"32a6f218-a404-47f4-9ea7-d54ef7960433" -> "b7b5b24e-7485-42eb-b34a-72c53ac880f0";
"b7b5b24e-7485-42eb-b34a-72c53ac880f0" [label="android.support.v4.app.NotificationCompat$Builder.build\n Susp=0,3504"];
"b7b5b24e-7485-42eb-b34a-72c53ac880f0" -> "0f937355-0331-409d-8678-4dd3bc3b3ea7";
"0f937355-0331-409d-8678-4dd3bc3b3ea7" [label="de.robv.android.xposed.XposedBridge.handleHookedMethod\n Susp=0,3504"];
"0f937355-0331-409d-8678-4dd3bc3b3ea7" -> "c5b5756c-61ab-40aa-b187-f3d7ac0bc5f6";
"c5b5756c-61ab-40aa-b187-f3d7ac0bc5f6" [label="it.unimib.disco.lta.unimiblogger.MyMethodHook.beforeHookedMethod\n Susp=0,3504"];
"c5b5756c-61ab-40aa-b187-f3d7ac0bc5f6" -> "6796fa4f-0747-48d4-a770-58e3f725f1d7";
"6796fa4f-0747-48d4-a770-58e3f725f1d7" [label="java.lang.Thread.getStackTrace\n Susp=0,3504"];
"6796fa4f-0747-48d4-a770-58e3f725f1d7" -> "04ab9add-7377-4d6e-8980-415a05ff10a9";
"04ab9add-7377-4d6e-8980-415a05ff10a9" [label="dalvik.system.VMStack.getThreadStackTrace\n Susp=0,1504"];
"4ac8f00b-cccb-4f19-9fe6-cee6e80652dd" -> "cde1d8f9-ef7d-4187-be51-754db76962da";
"cde1d8f9-ef7d-4187-be51-754db76962da" [label="android.net.wifi.WifiManager.disableNetwork\n Susp=0,2033"];
"cde1d8f9-ef7d-4187-be51-754db76962da" -> "fbe8cbb3-e093-40af-8489-4c9d7f0c9797";
"fbe8cbb3-e093-40af-8489-4c9d7f0c9797" [label="de.robv.android.xposed.XposedBridge.handleHookedMethod\n Susp=0,2033"];
"fbe8cbb3-e093-40af-8489-4c9d7f0c9797" -> "b9b41c26-2262-4a1f-8bab-86d0ffc4b024";
"b9b41c26-2262-4a1f-8bab-86d0ffc4b024" [label="it.unimib.disco.lta.unimiblogger.MyMethodHook.beforeHookedMethod\n Susp=0,2033"];
"b9b41c26-2262-4a1f-8bab-86d0ffc4b024" -> "b1e6c3dd-e06e-4015-9d68-de0fad7b9022";
"b1e6c3dd-e06e-4015-9d68-de0fad7b9022" [label="java.lang.Thread.getStackTrace\n Susp=0,2033"];
"b1e6c3dd-e06e-4015-9d68-de0fad7b9022" -> "0eb6bd35-9d89-467f-9a15-5d22eb976e3f";
"0eb6bd35-9d89-467f-9a15-5d22eb976e3f" [label="dalvik.system.VMStack.getThreadStackTrace\n Susp=0,0033"];
"ede2e240-9876-46c8-ac2f-fe8c3e9f3e51" -> "4923e0bc-58d6-4762-bf05-1c6056633662";
"4923e0bc-58d6-4762-bf05-1c6056633662" [label="android.app.ActivityThread.access$800\n Susp=0,2033"];
"4923e0bc-58d6-4762-bf05-1c6056633662" -> "59e19fdc-9fca-4a58-a283-b9fc498dfb56";
"59e19fdc-9fca-4a58-a283-b9fc498dfb56" [label="android.app.ActivityThread.handleLaunchActivity\n Susp=0,2033"];
"59e19fdc-9fca-4a58-a283-b9fc498dfb56" -> "f76b7781-84e9-4316-a2fc-0447484fd3d0";
"f76b7781-84e9-4316-a2fc-0447484fd3d0" [label="android.app.ActivityThread.performLaunchActivity\n Susp=0,2033"];
"f76b7781-84e9-4316-a2fc-0447484fd3d0" -> "2c0586e0-afa2-4183-8641-3b593a0101c5";
"2c0586e0-afa2-4183-8641-3b593a0101c5" [label="android.app.Instrumentation.callActivityOnCreate\n Susp=0,2033"];
"2c0586e0-afa2-4183-8641-3b593a0101c5" -> "6a221245-0b7e-4638-b9c6-22815bb3d94a";
"6a221245-0b7e-4638-b9c6-22815bb3d94a" [label="android.app.Activity.performCreate\n Susp=0,2033"];
"6a221245-0b7e-4638-b9c6-22815bb3d94a" -> "100137dc-a616-4b33-ad02-6c6ced3c842c";
"100137dc-a616-4b33-ad02-6c6ced3c842c" [label="be.uhasselt.privacypolice.PreferencesActivity.onCreate\n Susp=0,2033"];
"100137dc-a616-4b33-ad02-6c6ced3c842c" -> "82362b5c-d188-4fc1-9fb1-de99f0379300";
"82362b5c-d188-4fc1-9fb1-de99f0379300" [label="de.robv.android.xposed.XposedBridge.handleHookedMethod\n Susp=0,2033"];
"82362b5c-d188-4fc1-9fb1-de99f0379300" -> "06031603-b692-40d2-bd8b-f019729409e9";
"06031603-b692-40d2-bd8b-f019729409e9" [label="de.robv.android.xposed.XposedBridge.invokeOriginalMethodNative\n Susp=0,2033"];
"06031603-b692-40d2-bd8b-f019729409e9" -> "b6fb75e8-03e0-4c7d-bf3e-7ddab56dd2e7";
"b6fb75e8-03e0-4c7d-bf3e-7ddab56dd2e7" [label="be.uhasselt.privacypolice.PreferencesActivity.onCreate\n Susp=0,2033"];
"b6fb75e8-03e0-4c7d-bf3e-7ddab56dd2e7" -> "e1765251-8107-4d39-9475-9d947c6cffd1";
"e1765251-8107-4d39-9475-9d947c6cffd1" [label="android.app.BackStackRecord.replace\n Susp=0,2033"];
"e1765251-8107-4d39-9475-9d947c6cffd1" -> "66a1e7c9-dc31-4503-8ef2-5c53d6281c0a";
"66a1e7c9-dc31-4503-8ef2-5c53d6281c0a" [label="de.robv.android.xposed.XposedBridge.handleHookedMethod\n Susp=0,2033"];
"66a1e7c9-dc31-4503-8ef2-5c53d6281c0a" -> "9da19930-a125-4525-90fb-480bb6186fc2";
"9da19930-a125-4525-90fb-480bb6186fc2" [label="de.robv.android.xposed.XposedBridge.invokeOriginalMethodNative\n Susp=0,2033"];
"9da19930-a125-4525-90fb-480bb6186fc2" -> "935dcbc8-5c81-480f-ba8e-b80d36f9d31e";
"935dcbc8-5c81-480f-ba8e-b80d36f9d31e" [label="android.app.BackStackRecord.replace\n Susp=0,2033"];
"935dcbc8-5c81-480f-ba8e-b80d36f9d31e" -> "d897e2be-13d4-4575-9da1-07ea19776d92";
"d897e2be-13d4-4575-9da1-07ea19776d92" [label="de.robv.android.xposed.XposedBridge.handleHookedMethod\n Susp=0,2033"];
"d897e2be-13d4-4575-9da1-07ea19776d92" -> "6c714c36-49e8-449a-b19c-4eee2f3a9736";
"6c714c36-49e8-449a-b19c-4eee2f3a9736" [label="it.unimib.disco.lta.unimiblogger.MyMethodHook.beforeHookedMethod\n Susp=0,2033"];
"6c714c36-49e8-449a-b19c-4eee2f3a9736" -> "1dce3460-8e19-4482-b131-781d50f2cce4";
"1dce3460-8e19-4482-b131-781d50f2cce4" [label="java.lang.Thread.getStackTrace\n Susp=0,2033"];
"1dce3460-8e19-4482-b131-781d50f2cce4" -> "8294b9d3-3649-44c2-a7bd-a22ed523397f";
"8294b9d3-3649-44c2-a7bd-a22ed523397f" [label="dalvik.system.VMStack.getThreadStackTrace\n Susp=0,0033"];
"ede2e240-9876-46c8-ac2f-fe8c3e9f3e51" -> "aa033a8b-5fb9-473f-9865-407aa54a9eff";
"aa033a8b-5fb9-473f-9865-407aa54a9eff" [label="android.app.ActivityThread.access$1700\n Susp=0,2397"];
"aa033a8b-5fb9-473f-9865-407aa54a9eff" -> "9f100b82-bd29-48df-93e5-03321581a1b9";
"9f100b82-bd29-48df-93e5-03321581a1b9" [label="android.app.ActivityThread.handleReceiver\n Susp=0,2397"];
"9f100b82-bd29-48df-93e5-03321581a1b9" -> "87397d3d-d102-43b5-9251-1d998f80ff23";
"87397d3d-d102-43b5-9251-1d998f80ff23" [label="be.uhasselt.privacypolice.ScanResultsChecker.onReceive\n Susp=0,2397"];
"87397d3d-d102-43b5-9251-1d998f80ff23" -> "473e3f9f-0ba6-460b-89d7-2f4073b924ef";
"473e3f9f-0ba6-460b-89d7-2f4073b924ef" [label="de.robv.android.xposed.XposedBridge.handleHookedMethod\n Susp=0,2397"];
"473e3f9f-0ba6-460b-89d7-2f4073b924ef" -> "d75d7f5d-9f39-465e-b41e-454fef2afde9";
"d75d7f5d-9f39-465e-b41e-454fef2afde9" [label="de.robv.android.xposed.XposedBridge.invokeOriginalMethodNative\n Susp=0,2397"];
"d75d7f5d-9f39-465e-b41e-454fef2afde9" -> "b728c142-6217-4bb4-8ae9-e517e707f689";
"b728c142-6217-4bb4-8ae9-e517e707f689" [label="be.uhasselt.privacypolice.ScanResultsChecker.onReceive\n Susp=0,2397"];
"b728c142-6217-4bb4-8ae9-e517e707f689" -> "2723e63b-b947-4877-9560-241c25dc586e";
"2723e63b-b947-4877-9560-241c25dc586e" [label="be.uhasselt.privacypolice.ScanResultsChecker.checkResults\n Susp=0,2397"];
"2723e63b-b947-4877-9560-241c25dc586e" -> "9289097c-cde1-4f65-88f7-bc11ee85c446";
"9289097c-cde1-4f65-88f7-bc11ee85c446" [label="de.robv.android.xposed.XposedBridge.handleHookedMethod\n Susp=0,2397"];
"9289097c-cde1-4f65-88f7-bc11ee85c446" -> "91ae9b24-dc22-4eb9-a6b4-3d824fe7ad3c";
"91ae9b24-dc22-4eb9-a6b4-3d824fe7ad3c" [label="de.robv.android.xposed.XposedBridge.invokeOriginalMethodNative\n Susp=0,2397"];
"91ae9b24-dc22-4eb9-a6b4-3d824fe7ad3c" -> "08efd419-4479-4bfd-ab8b-25db227136d3";
"08efd419-4479-4bfd-ab8b-25db227136d3" [label="be.uhasselt.privacypolice.ScanResultsChecker.checkResults\n Susp=0,2397"];
"08efd419-4479-4bfd-ab8b-25db227136d3" -> "d81b9cf3-8133-4359-8b5d-3db1e4b34e3b";
"d81b9cf3-8133-4359-8b5d-3db1e4b34e3b" [label="be.uhasselt.privacypolice.ScanResultsChecker.getNetworkSafety\n Susp=0,4397"];
"d81b9cf3-8133-4359-8b5d-3db1e4b34e3b" -> "7fae517e-91ad-432d-9496-b8ceb82ffae2";
"7fae517e-91ad-432d-9496-b8ceb82ffae2" [label="be.uhasselt.privacypolice.PreferencesStorage.getOnlyConnectToKnownAccessPoints\n Susp=0,2231"];
"7fae517e-91ad-432d-9496-b8ceb82ffae2" -> "6671b537-e159-4e30-a647-f57531601638";
"6671b537-e159-4e30-a647-f57531601638" [label="android.app.SharedPreferencesImpl.getBoolean\n Susp=0,2231"];
"6671b537-e159-4e30-a647-f57531601638" -> "600b42b7-99a9-4517-ae43-f06eac278c87";
"600b42b7-99a9-4517-ae43-f06eac278c87" [label="de.robv.android.xposed.XposedBridge.handleHookedMethod\n Susp=0,2231"];
"600b42b7-99a9-4517-ae43-f06eac278c87" -> "1f42ac24-236b-4cf0-9767-8d1c36d31940";
"1f42ac24-236b-4cf0-9767-8d1c36d31940" [label="it.unimib.disco.lta.unimiblogger.MyMethodHook.beforeHookedMethod\n Susp=0,2231"];
"1f42ac24-236b-4cf0-9767-8d1c36d31940" -> "f50680d6-a267-438e-91cb-080b02159c6f";
"f50680d6-a267-438e-91cb-080b02159c6f" [label="java.lang.Thread.getStackTrace\n Susp=0,2231"];
"f50680d6-a267-438e-91cb-080b02159c6f" -> "b909c93f-456e-4541-a1e6-7a0df7eea09c";
"b909c93f-456e-4541-a1e6-7a0df7eea09c" [label="dalvik.system.VMStack.getThreadStackTrace\n Susp=0,0231"];
"d81b9cf3-8133-4359-8b5d-3db1e4b34e3b" -> "9289a88b-f7fa-4ddd-a041-f910db1c8b15";
"9289a88b-f7fa-4ddd-a041-f910db1c8b15" [label="be.uhasselt.privacypolice.PreferencesStorage.getAllowedBSSIDs\n Susp=0,2165"];
"9289a88b-f7fa-4ddd-a041-f910db1c8b15" -> "8e17830f-d3aa-413a-96e1-6940341f3cfe";
"8e17830f-d3aa-413a-96e1-6940341f3cfe" [label="be.uhasselt.privacypolice.PreferencesStorage.getBSSIDs\n Susp=0,2165"];
"8e17830f-d3aa-413a-96e1-6940341f3cfe" -> "3f30afa0-b6ca-4eb8-ae4e-84efabad920e";
"3f30afa0-b6ca-4eb8-ae4e-84efabad920e" [label="android.app.SharedPreferencesImpl.getStringSet\n Susp=0,2165"];
"3f30afa0-b6ca-4eb8-ae4e-84efabad920e" -> "d7089fad-7067-4956-b7a1-aa491147f5d1";
"d7089fad-7067-4956-b7a1-aa491147f5d1" [label="de.robv.android.xposed.XposedBridge.handleHookedMethod\n Susp=0,2165"];
"d7089fad-7067-4956-b7a1-aa491147f5d1" -> "fea7a682-5217-4876-a668-f7446f30f28e";
"fea7a682-5217-4876-a668-f7446f30f28e" [label="it.unimib.disco.lta.unimiblogger.MyMethodHook.beforeHookedMethod\n Susp=0,2165"];
"fea7a682-5217-4876-a668-f7446f30f28e" -> "68d8b295-701d-4150-8dd3-996f233005d7";
"68d8b295-701d-4150-8dd3-996f233005d7" [label="java.lang.Thread.getStackTrace\n Susp=0,2165"];
"68d8b295-701d-4150-8dd3-996f233005d7" -> "8aae4578-15cc-4536-a0b5-ff8fa8d9564d";
"8aae4578-15cc-4536-a0b5-ff8fa8d9564d" [label="dalvik.system.VMStack.getThreadStackTrace\n Susp=0,0165"];
}
