BEFORE be.uhasselt.privacypolice.PreferencesActivity.onCreate()
BEFORE android.app.Activity.onCreate()
AFTER android.app.Activity.onCreate
BEFORE android.app.Activity.setContentView(2130968577)
AFTER android.app.Activity.setContentView
BEFORE android.app.Activity.getFragmentManager()
AFTER android.app.Activity.getFragmentManager, returnValue: FragmentManager{6d66c65 in HostCallbacks{9711d3a}}
BEFORE android.app.FragmentManagerImpl.beginTransaction()
AFTER android.app.FragmentManagerImpl.beginTransaction, returnValue: BackStackEntry{ed4deb}, isEmpty: true
BEFORE android.app.BackStackRecord.replace(2131361795,be.uhasselt.privacypolice.PreferencesActivity$PrefsFragment)
BEFORE android.app.BackStackRecord.replace(2131361795,be.uhasselt.privacypolice.PreferencesActivity$PrefsFragment)
AFTER android.app.BackStackRecord.replace, returnValue: BackStackEntry{ed4deb}, isEmpty: false
AFTER android.app.BackStackRecord.replace, returnValue: BackStackEntry{ed4deb}, isEmpty: false
BEFORE android.app.BackStackRecord.commit()
AFTER android.app.BackStackRecord.commit, returnValue: -1
AFTER be.uhasselt.privacypolice.PreferencesActivity.onCreate
BEFORE be.uhasselt.privacypolice.PreferencesActivity$PrefsFragment.onCreate()
BEFORE android.preference.PreferenceFragment.onCreate()
AFTER android.preference.PreferenceFragment.onCreate
BEFORE android.preference.PreferenceFragment.addPreferencesFromResource(2131034112)
AFTER android.preference.PreferenceFragment.addPreferencesFromResource
BEFORE android.preference.PreferenceFragment.getPreferenceManager()
AFTER android.preference.PreferenceFragment.getPreferenceManager, returnValue: android.preference.PreferenceManager
BEFORE android.preference.PreferenceManager.getSharedPreferences()
AFTER android.preference.PreferenceManager.getSharedPreferences, returnValue: android.app.SharedPreferencesImpl
BEFORE android.app.SharedPreferencesImpl.registerOnSharedPreferenceChangeListener(be.uhasselt.privacypolice.PreferencesActivity$PrefsFragment)
AFTER android.app.SharedPreferencesImpl.registerOnSharedPreferenceChangeListener
BEFORE android.preference.PreferenceFragment.findPreference(modifyHotspots)
AFTER android.preference.PreferenceFragment.findPreference, returnValue: Known hotspots Remove hotspots from your list of trusted and blocked hotspots (advanced)
BEFORE android.preference.Preference.setOnPreferenceClickListener(be.uhasselt.privacypolice.PreferencesActivity$PrefsFragment$1)
AFTER android.preference.Preference.setOnPreferenceClickListener
AFTER be.uhasselt.privacypolice.PreferencesActivity$PrefsFragment.onCreate
BEFORE be.uhasselt.privacypolice.PreferencesActivity$PrefsFragment.onSharedPreferenceChanged(android.app.SharedPreferencesImpl,onlyConnectToKnownAccessPoints)
BEFORE android.app.Fragment.getActivity()
AFTER android.app.Fragment.getActivity, returnValue: be.uhasselt.privacypolice.PreferencesActivity
BEFORE android.app.Activity.getSystemService(wifi)
AFTER android.app.Activity.getSystemService, returnValue: android.net.wifi.WifiManager
BEFORE android.net.wifi.WifiManager.startScan()
AFTER android.net.wifi.WifiManager.startScan, returnValue: true
AFTER be.uhasselt.privacypolice.PreferencesActivity$PrefsFragment.onSharedPreferenceChanged
BEFORE be.uhasselt.privacypolice.ScanResultsChecker.onReceive(android.app.ReceiverRestrictedContext,android.content.Intent)
BEFORE android.content.ContextWrapper.getSystemService(wifi)
AFTER android.content.ContextWrapper.getSystemService, returnValue: android.net.wifi.WifiManager
BEFORE android.content.ContextWrapper.getSystemService(connectivity)
AFTER android.content.ContextWrapper.getSystemService, returnValue: android.net.ConnectivityManager
BEFORE android.preference.PreferenceManager.getDefaultSharedPreferences(android.app.ReceiverRestrictedContext)
AFTER android.preference.PreferenceManager.getDefaultSharedPreferences, returnValue: android.app.SharedPreferencesImpl
BEFORE android.content.ContextWrapper.getSystemService(wifi)
AFTER android.content.ContextWrapper.getSystemService, returnValue: android.net.wifi.WifiManager
BEFORE android.app.SharedPreferencesImpl.getAll()
AFTER android.app.SharedPreferencesImpl.getAll, returnValue: {onlyConnectToKnownAccessPoints=true, enableOnlyAvailableNetworks=true}, isEmpty: false
BEFORE android.content.ContextWrapper.getSystemService(notification)
AFTER android.content.ContextWrapper.getSystemService, returnValue: android.app.NotificationManager
BEFORE android.net.wifi.WifiManager.getScanResults()
AFTER android.net.wifi.WifiManager.getScanResults, returnValue: [SSID: WiredSSID, BSSID: 01:80:c2:00:00:03, capabilities: [ESS], level: -55, frequency: 2412, timestamp: 1614644371381, distance: ?(cm), distanceSd: ?(cm), passpoint: no, ChannelBandwidth: 0, centerFreq0: 0, centerFreq1: 0, 80211mcResponder: is not supported], isEmpty: false
BEFORE android.net.wifi.WifiManager.getConfiguredNetworks()
AFTER android.net.wifi.WifiManager.getConfiguredNetworks, returnValue: [ID: 0 SSID: "WiredSSID" PROVIDER-NAME: null BSSID: any FQDN: null PRIO: 12  disableReason 5  numAssociation 58  validatedInternetAccess  KeyMgmt: NONE Protocols: WPA RSN  AuthAlgorithms:  PairwiseCiphers: TKIP CCMP  GroupCiphers: TKIP CCMP  PSK:  Enterprise config: altsubject_match NULL password NULL subject_match NULL engine 0 client_cert NULL ca_cert NULL anonymous_identity NULL identity NULL domain_suffix_match NULL key_id NULL engine_id NULL phase2 NULL eap NULL IP config: IP assignment: DHCP Proxy settings: NONE  autoJoinBSSID=any cuid=-1 cname=null luid=1000 lname=null lcuid=-1 userApproved=USER_APPROVED noInternetAccessExpected=false roamingFailureBlackListTimeMilli: 1000 triggeredLow: 0 triggeredBad: 0 triggeredNotHigh: 0 ticksLow: 0 ticksBad: 0 ticksNotHigh: 0 triggeredJoin: 0 autoJoinBailedDueToLowRssi: false autoJoinUseAggressiveJoinAttemptThreshold: 0 ], isEmpty: false
BEFORE android.app.SharedPreferencesImpl.getBoolean(enableOnlyAvailableNetworks,true)
AFTER android.app.SharedPreferencesImpl.getBoolean, returnValue: true
BEFORE android.app.SharedPreferencesImpl.getBoolean(onlyConnectToKnownAccessPoints,false)
AFTER android.app.SharedPreferencesImpl.getBoolean, returnValue: true
BEFORE android.app.SharedPreferencesImpl.getStringSet(ABSSID//WiredSSID,java.util.HashSet)
AFTER android.app.SharedPreferencesImpl.getStringSet, returnValue: [], isEmpty: true
BEFORE android.app.SharedPreferencesImpl.getStringSet(BBSSID//WiredSSID,java.util.HashSet)
AFTER android.app.SharedPreferencesImpl.getStringSet, returnValue: [], isEmpty: true
BEFORE android.content.Intent.putExtra(SSID,WiredSSID)
BEFORE android.content.Intent.putExtra(SSID,WiredSSID)
AFTER android.content.Intent.putExtra, returnValue: Intent { cmp=be.uhasselt.privacypolicebug/be.uhasselt.privacypolice.PermissionChangeReceiver (has extras) }
AFTER android.content.Intent.putExtra, returnValue: Intent { cmp=be.uhasselt.privacypolicebug/be.uhasselt.privacypolice.PermissionChangeReceiver (has extras) }
BEFORE android.content.Intent.putExtra(BSSID,01:80:c2:00:00:03)
BEFORE android.content.Intent.putExtra(BSSID,01:80:c2:00:00:03)
AFTER android.content.Intent.putExtra, returnValue: Intent { cmp=be.uhasselt.privacypolicebug/be.uhasselt.privacypolice.PermissionChangeReceiver (has extras) }
AFTER android.content.Intent.putExtra, returnValue: Intent { cmp=be.uhasselt.privacypolicebug/be.uhasselt.privacypolice.PermissionChangeReceiver (has extras) }
BEFORE android.content.Intent.putExtra(enable,true)
BEFORE android.content.Intent.putExtra(enable,true)
AFTER android.content.Intent.putExtra, returnValue: Intent { cmp=be.uhasselt.privacypolicebug/be.uhasselt.privacypolice.PermissionChangeReceiver (has extras) }
AFTER android.content.Intent.putExtra, returnValue: Intent { cmp=be.uhasselt.privacypolicebug/be.uhasselt.privacypolice.PermissionChangeReceiver (has extras) }
BEFORE android.app.PendingIntent.getBroadcast(android.app.ReceiverRestrictedContext,0,android.content.Intent,268435456)
AFTER android.app.PendingIntent.getBroadcast, returnValue: android.app.PendingIntent
BEFORE android.content.Intent.putExtra(SSID,WiredSSID)
BEFORE android.content.Intent.putExtra(SSID,WiredSSID)
AFTER android.content.Intent.putExtra, returnValue: Intent { cmp=be.uhasselt.privacypolicebug/be.uhasselt.privacypolice.PermissionChangeReceiver (has extras) }
AFTER android.content.Intent.putExtra, returnValue: Intent { cmp=be.uhasselt.privacypolicebug/be.uhasselt.privacypolice.PermissionChangeReceiver (has extras) }
BEFORE android.content.Intent.putExtra(BSSID,01:80:c2:00:00:03)
BEFORE android.content.Intent.putExtra(BSSID,01:80:c2:00:00:03)
AFTER android.content.Intent.putExtra, returnValue: Intent { cmp=be.uhasselt.privacypolicebug/be.uhasselt.privacypolice.PermissionChangeReceiver (has extras) }
AFTER android.content.Intent.putExtra, returnValue: Intent { cmp=be.uhasselt.privacypolicebug/be.uhasselt.privacypolice.PermissionChangeReceiver (has extras) }
BEFORE android.content.Intent.putExtra(enable,false)
BEFORE android.content.Intent.putExtra(enable,false)
AFTER android.content.Intent.putExtra, returnValue: Intent { cmp=be.uhasselt.privacypolicebug/be.uhasselt.privacypolice.PermissionChangeReceiver (has extras) }
AFTER android.content.Intent.putExtra, returnValue: Intent { cmp=be.uhasselt.privacypolicebug/be.uhasselt.privacypolice.PermissionChangeReceiver (has extras) }
BEFORE android.app.PendingIntent.getBroadcast(android.app.ReceiverRestrictedContext,1,android.content.Intent,268435456)
AFTER android.app.PendingIntent.getBroadcast, returnValue: android.app.PendingIntent
BEFORE android.content.Intent.putExtra(SSID,WiredSSID)
BEFORE android.content.Intent.putExtra(SSID,WiredSSID)
AFTER android.content.Intent.putExtra, returnValue: Intent { cmp=be.uhasselt.privacypolicebug/be.uhasselt.privacypolice.AskPermissionActivity (has extras) }
AFTER android.content.Intent.putExtra, returnValue: Intent { cmp=be.uhasselt.privacypolicebug/be.uhasselt.privacypolice.AskPermissionActivity (has extras) }
BEFORE android.content.Intent.putExtra(BSSID,01:80:c2:00:00:03)
BEFORE android.content.Intent.putExtra(BSSID,01:80:c2:00:00:03)
AFTER android.content.Intent.putExtra, returnValue: Intent { cmp=be.uhasselt.privacypolicebug/be.uhasselt.privacypolice.AskPermissionActivity (has extras) }
AFTER android.content.Intent.putExtra, returnValue: Intent { cmp=be.uhasselt.privacypolicebug/be.uhasselt.privacypolice.AskPermissionActivity (has extras) }
BEFORE android.app.PendingIntent.getActivity(android.app.ReceiverRestrictedContext,2,android.content.Intent,268435456)
BEFORE android.app.PendingIntent.getActivity(android.app.ReceiverRestrictedContext,2,android.content.Intent,268435456)
AFTER android.app.PendingIntent.getActivity, returnValue: android.app.PendingIntent
AFTER android.app.PendingIntent.getActivity, returnValue: android.app.PendingIntent
BEFORE android.content.ContextWrapper.getResources()
AFTER android.content.ContextWrapper.getResources, returnValue: android.content.res.XResources
BEFORE android.content.res.Resources.getString(2131165199)
AFTER android.content.res.Resources.getString, returnValue: "%1$s" encountered, isEmpty: false
BEFORE android.content.res.Resources.getString(2131165186)
AFTER android.content.res.Resources.getString, returnValue: Are you sure network %1$s should be available right now?, isEmpty: false
BEFORE android.content.res.Resources.getString(2131165206)
AFTER android.content.res.Resources.getString, returnValue: Yes, isEmpty: false
BEFORE android.content.res.Resources.getString(2131165198)
AFTER android.content.res.Resources.getString, returnValue: No, isEmpty: false
BEFORE android.support.v4.app.NotificationCompat$Builder.setSmallIcon(2130837506)
AFTER android.support.v4.app.NotificationCompat$Builder.setSmallIcon, returnValue: android.support.v4.app.NotificationCompat$Builder
BEFORE android.support.v4.app.NotificationCompat$Builder.setPriority(2)
AFTER android.support.v4.app.NotificationCompat$Builder.setPriority, returnValue: android.support.v4.app.NotificationCompat$Builder
BEFORE android.support.v4.app.NotificationCompat$Builder.setContentTitle("WiredSSID" encountered)
AFTER android.support.v4.app.NotificationCompat$Builder.setContentTitle, returnValue: android.support.v4.app.NotificationCompat$Builder
BEFORE android.support.v4.app.NotificationCompat$Builder.setContentText(Are you sure network WiredSSID should be available right now?)
AFTER android.support.v4.app.NotificationCompat$Builder.setContentText, returnValue: android.support.v4.app.NotificationCompat$Builder
BEFORE android.support.v4.app.NotificationCompat$BigTextStyle.bigText(Are you sure network WiredSSID should be available right now?)
AFTER android.support.v4.app.NotificationCompat$BigTextStyle.bigText, returnValue: android.support.v4.app.NotificationCompat$BigTextStyle
BEFORE android.support.v4.app.NotificationCompat$Builder.setStyle(android.support.v4.app.NotificationCompat$BigTextStyle)
AFTER android.support.v4.app.NotificationCompat$Builder.setStyle, returnValue: android.support.v4.app.NotificationCompat$Builder
BEFORE android.support.v4.app.NotificationCompat$Builder.setContentIntent(android.app.PendingIntent)
AFTER android.support.v4.app.NotificationCompat$Builder.setContentIntent, returnValue: android.support.v4.app.NotificationCompat$Builder
BEFORE android.support.v4.app.NotificationCompat$Builder.addAction(17301533,No,android.app.PendingIntent)
AFTER android.support.v4.app.NotificationCompat$Builder.addAction, returnValue: android.support.v4.app.NotificationCompat$Builder
BEFORE android.support.v4.app.NotificationCompat$Builder.addAction(17301547,Yes,android.app.PendingIntent)
AFTER android.support.v4.app.NotificationCompat$Builder.addAction, returnValue: android.support.v4.app.NotificationCompat$Builder
BEFORE android.support.v4.app.NotificationCompat$Builder.build()
AFTER android.support.v4.app.NotificationCompat$Builder.build, returnValue: Notification(pri=2 contentView=be.uhasselt.privacypolicebug/0x1090085 vibrate=null sound=null defaults=0x0 flags=0x0 color=0x00000000 actions=2 vis=PRIVATE)
BEFORE android.app.NotificationManager.notify(0,android.app.Notification)
BEFORE android.app.NotificationManager.notify(0,android.app.Notification)
AFTER android.app.NotificationManager.notify
AFTER android.app.NotificationManager.notify
BEFORE android.net.wifi.WifiManager.disableNetwork(0)
AFTER android.net.wifi.WifiManager.disableNetwork, returnValue: true
AFTER be.uhasselt.privacypolice.ScanResultsChecker.onReceive
BEFORE be.uhasselt.privacypolice.ScanResultsChecker.onReceive(android.app.ReceiverRestrictedContext,android.content.Intent)
BEFORE android.net.wifi.WifiManager.getScanResults()
AFTER android.net.wifi.WifiManager.getScanResults, returnValue: [SSID: WiredSSID, BSSID: 01:80:c2:00:00:03, capabilities: [ESS], level: -55, frequency: 2412, timestamp: 1614644373136, distance: ?(cm), distanceSd: ?(cm), passpoint: no, ChannelBandwidth: 0, centerFreq0: 0, centerFreq1: 0, 80211mcResponder: is not supported], isEmpty: false
BEFORE android.net.wifi.WifiManager.getConfiguredNetworks()
AFTER android.net.wifi.WifiManager.getConfiguredNetworks, returnValue: [- DSBLE ID: 0 SSID: "WiredSSID" PROVIDER-NAME: null BSSID: any FQDN: null PRIO: 12  autoJoinStatus 161  disableReason 5  numAssociation 58  validatedInternetAccess  KeyMgmt: NONE Protocols: WPA RSN  AuthAlgorithms:  PairwiseCiphers: TKIP CCMP  GroupCiphers: TKIP CCMP  PSK:  Enterprise config: altsubject_match NULL password NULL subject_match NULL engine 0 client_cert NULL ca_cert NULL anonymous_identity NULL identity NULL domain_suffix_match NULL key_id NULL engine_id NULL phase2 NULL eap NULL IP config: IP assignment: DHCP Proxy settings: NONE  autoJoinBSSID=any cuid=-1 cname=null luid=1000 lname=null lcuid=-1 userApproved=USER_APPROVED noInternetAccessExpected=false roamingFailureBlackListTimeMilli: 1000 triggeredLow: 0 triggeredBad: 0 triggeredNotHigh: 0 ticksLow: 0 ticksBad: 0 ticksNotHigh: 0 triggeredJoin: 0 autoJoinBailedDueToLowRssi: false autoJoinUseAggressiveJoinAttemptThreshold: 0 ], isEmpty: false
BEFORE android.app.SharedPreferencesImpl.getBoolean(enableOnlyAvailableNetworks,true)
AFTER android.app.SharedPreferencesImpl.getBoolean, returnValue: true
BEFORE android.app.SharedPreferencesImpl.getBoolean(onlyConnectToKnownAccessPoints,false)
AFTER android.app.SharedPreferencesImpl.getBoolean, returnValue: true
BEFORE android.app.SharedPreferencesImpl.getStringSet(ABSSID//WiredSSID,java.util.HashSet)
AFTER android.app.SharedPreferencesImpl.getStringSet, returnValue: [], isEmpty: true
BEFORE android.app.SharedPreferencesImpl.getStringSet(BBSSID//WiredSSID,java.util.HashSet)
AFTER android.app.SharedPreferencesImpl.getStringSet, returnValue: [], isEmpty: true
BEFORE android.content.Intent.putExtra(SSID,WiredSSID)
BEFORE android.content.Intent.putExtra(SSID,WiredSSID)
AFTER android.content.Intent.putExtra, returnValue: Intent { cmp=be.uhasselt.privacypolicebug/be.uhasselt.privacypolice.PermissionChangeReceiver (has extras) }
AFTER android.content.Intent.putExtra, returnValue: Intent { cmp=be.uhasselt.privacypolicebug/be.uhasselt.privacypolice.PermissionChangeReceiver (has extras) }
BEFORE android.content.Intent.putExtra(BSSID,01:80:c2:00:00:03)
BEFORE android.content.Intent.putExtra(BSSID,01:80:c2:00:00:03)
AFTER android.content.Intent.putExtra, returnValue: Intent { cmp=be.uhasselt.privacypolicebug/be.uhasselt.privacypolice.PermissionChangeReceiver (has extras) }
AFTER android.content.Intent.putExtra, returnValue: Intent { cmp=be.uhasselt.privacypolicebug/be.uhasselt.privacypolice.PermissionChangeReceiver (has extras) }
BEFORE android.content.Intent.putExtra(enable,true)
BEFORE android.content.Intent.putExtra(enable,true)
AFTER android.content.Intent.putExtra, returnValue: Intent { cmp=be.uhasselt.privacypolicebug/be.uhasselt.privacypolice.PermissionChangeReceiver (has extras) }
AFTER android.content.Intent.putExtra, returnValue: Intent { cmp=be.uhasselt.privacypolicebug/be.uhasselt.privacypolice.PermissionChangeReceiver (has extras) }
BEFORE android.app.PendingIntent.getBroadcast(android.app.ReceiverRestrictedContext,0,android.content.Intent,268435456)
AFTER android.app.PendingIntent.getBroadcast, returnValue: android.app.PendingIntent
BEFORE android.content.Intent.putExtra(SSID,WiredSSID)
BEFORE android.content.Intent.putExtra(SSID,WiredSSID)
AFTER android.content.Intent.putExtra, returnValue: Intent { cmp=be.uhasselt.privacypolicebug/be.uhasselt.privacypolice.PermissionChangeReceiver (has extras) }
AFTER android.content.Intent.putExtra, returnValue: Intent { cmp=be.uhasselt.privacypolicebug/be.uhasselt.privacypolice.PermissionChangeReceiver (has extras) }
BEFORE android.content.Intent.putExtra(BSSID,01:80:c2:00:00:03)
BEFORE android.content.Intent.putExtra(BSSID,01:80:c2:00:00:03)
AFTER android.content.Intent.putExtra, returnValue: Intent { cmp=be.uhasselt.privacypolicebug/be.uhasselt.privacypolice.PermissionChangeReceiver (has extras) }
AFTER android.content.Intent.putExtra, returnValue: Intent { cmp=be.uhasselt.privacypolicebug/be.uhasselt.privacypolice.PermissionChangeReceiver (has extras) }
BEFORE android.content.Intent.putExtra(enable,false)
BEFORE android.content.Intent.putExtra(enable,false)
AFTER android.content.Intent.putExtra, returnValue: Intent { cmp=be.uhasselt.privacypolicebug/be.uhasselt.privacypolice.PermissionChangeReceiver (has extras) }
AFTER android.content.Intent.putExtra, returnValue: Intent { cmp=be.uhasselt.privacypolicebug/be.uhasselt.privacypolice.PermissionChangeReceiver (has extras) }
BEFORE android.app.PendingIntent.getBroadcast(android.app.ReceiverRestrictedContext,1,android.content.Intent,268435456)
AFTER android.app.PendingIntent.getBroadcast, returnValue: android.app.PendingIntent
BEFORE android.content.Intent.putExtra(SSID,WiredSSID)
BEFORE android.content.Intent.putExtra(SSID,WiredSSID)
AFTER android.content.Intent.putExtra, returnValue: Intent { cmp=be.uhasselt.privacypolicebug/be.uhasselt.privacypolice.AskPermissionActivity (has extras) }
AFTER android.content.Intent.putExtra, returnValue: Intent { cmp=be.uhasselt.privacypolicebug/be.uhasselt.privacypolice.AskPermissionActivity (has extras) }
BEFORE android.content.Intent.putExtra(BSSID,01:80:c2:00:00:03)
BEFORE android.content.Intent.putExtra(BSSID,01:80:c2:00:00:03)
AFTER android.content.Intent.putExtra, returnValue: Intent { cmp=be.uhasselt.privacypolicebug/be.uhasselt.privacypolice.AskPermissionActivity (has extras) }
AFTER android.content.Intent.putExtra, returnValue: Intent { cmp=be.uhasselt.privacypolicebug/be.uhasselt.privacypolice.AskPermissionActivity (has extras) }
BEFORE android.app.PendingIntent.getActivity(android.app.ReceiverRestrictedContext,2,android.content.Intent,268435456)
BEFORE android.app.PendingIntent.getActivity(android.app.ReceiverRestrictedContext,2,android.content.Intent,268435456)
AFTER android.app.PendingIntent.getActivity, returnValue: android.app.PendingIntent
AFTER android.app.PendingIntent.getActivity, returnValue: android.app.PendingIntent
BEFORE android.content.ContextWrapper.getResources()
AFTER android.content.ContextWrapper.getResources, returnValue: android.content.res.XResources
BEFORE android.content.res.Resources.getString(2131165199)
AFTER android.content.res.Resources.getString, returnValue: "%1$s" encountered, isEmpty: false
BEFORE android.content.res.Resources.getString(2131165186)
AFTER android.content.res.Resources.getString, returnValue: Are you sure network %1$s should be available right now?, isEmpty: false
BEFORE android.content.res.Resources.getString(2131165206)
AFTER android.content.res.Resources.getString, returnValue: Yes, isEmpty: false
BEFORE android.content.res.Resources.getString(2131165198)
AFTER android.content.res.Resources.getString, returnValue: No, isEmpty: false
BEFORE android.support.v4.app.NotificationCompat$Builder.setSmallIcon(2130837506)
AFTER android.support.v4.app.NotificationCompat$Builder.setSmallIcon, returnValue: android.support.v4.app.NotificationCompat$Builder
BEFORE android.support.v4.app.NotificationCompat$Builder.setPriority(2)
AFTER android.support.v4.app.NotificationCompat$Builder.setPriority, returnValue: android.support.v4.app.NotificationCompat$Builder
BEFORE android.support.v4.app.NotificationCompat$Builder.setContentTitle("WiredSSID" encountered)
AFTER android.support.v4.app.NotificationCompat$Builder.setContentTitle, returnValue: android.support.v4.app.NotificationCompat$Builder
BEFORE android.support.v4.app.NotificationCompat$Builder.setContentText(Are you sure network WiredSSID should be available right now?)
AFTER android.support.v4.app.NotificationCompat$Builder.setContentText, returnValue: android.support.v4.app.NotificationCompat$Builder
BEFORE android.support.v4.app.NotificationCompat$BigTextStyle.bigText(Are you sure network WiredSSID should be available right now?)
AFTER android.support.v4.app.NotificationCompat$BigTextStyle.bigText, returnValue: android.support.v4.app.NotificationCompat$BigTextStyle
BEFORE android.support.v4.app.NotificationCompat$Builder.setStyle(android.support.v4.app.NotificationCompat$BigTextStyle)
AFTER android.support.v4.app.NotificationCompat$Builder.setStyle, returnValue: android.support.v4.app.NotificationCompat$Builder
BEFORE android.support.v4.app.NotificationCompat$Builder.setContentIntent(android.app.PendingIntent)
AFTER android.support.v4.app.NotificationCompat$Builder.setContentIntent, returnValue: android.support.v4.app.NotificationCompat$Builder
BEFORE android.support.v4.app.NotificationCompat$Builder.addAction(17301533,No,android.app.PendingIntent)
AFTER android.support.v4.app.NotificationCompat$Builder.addAction, returnValue: android.support.v4.app.NotificationCompat$Builder
BEFORE android.support.v4.app.NotificationCompat$Builder.addAction(17301547,Yes,android.app.PendingIntent)
AFTER android.support.v4.app.NotificationCompat$Builder.addAction, returnValue: android.support.v4.app.NotificationCompat$Builder
BEFORE android.support.v4.app.NotificationCompat$Builder.build()
AFTER android.support.v4.app.NotificationCompat$Builder.build, returnValue: Notification(pri=2 contentView=be.uhasselt.privacypolicebug/0x1090085 vibrate=null sound=null defaults=0x0 flags=0x0 color=0x00000000 actions=2 vis=PRIVATE)
BEFORE android.app.NotificationManager.notify(0,android.app.Notification)
BEFORE android.app.NotificationManager.notify(0,android.app.Notification)
AFTER android.app.NotificationManager.notify
AFTER android.app.NotificationManager.notify
BEFORE android.net.wifi.WifiManager.disableNetwork(0)
AFTER android.net.wifi.WifiManager.disableNetwork, returnValue: true
AFTER be.uhasselt.privacypolice.ScanResultsChecker.onReceive
BEFORE be.uhasselt.privacypolice.PermissionChangeReceiver.onReceive(android.app.ReceiverRestrictedContext,android.content.Intent)
BEFORE android.preference.PreferenceManager.getDefaultSharedPreferences(android.app.ReceiverRestrictedContext)
AFTER android.preference.PreferenceManager.getDefaultSharedPreferences, returnValue: android.app.SharedPreferencesImpl
BEFORE android.content.ContextWrapper.getSystemService(wifi)
AFTER android.content.ContextWrapper.getSystemService, returnValue: android.net.wifi.WifiManager
BEFORE android.app.SharedPreferencesImpl.getAll()
AFTER android.app.SharedPreferencesImpl.getAll, returnValue: {onlyConnectToKnownAccessPoints=true, enableOnlyAvailableNetworks=true}, isEmpty: false
BEFORE android.content.ContextWrapper.getSystemService(notification)
AFTER android.content.ContextWrapper.getSystemService, returnValue: android.app.NotificationManager
BEFORE android.app.NotificationManager.cancel(0)
BEFORE android.app.NotificationManager.cancel(0)
AFTER android.app.NotificationManager.cancel
AFTER android.app.NotificationManager.cancel
BEFORE android.content.Intent.getBooleanExtra(enable,true)
AFTER android.content.Intent.getBooleanExtra, returnValue: true
BEFORE android.content.Intent.getStringExtra(SSID)
AFTER android.content.Intent.getStringExtra, returnValue: WiredSSID, isEmpty: false
BEFORE android.content.Intent.getStringExtra(BSSID)
AFTER android.content.Intent.getStringExtra, returnValue: 01:80:c2:00:00:03, isEmpty: false
BEFORE android.net.wifi.WifiManager.getScanResults()
AFTER android.net.wifi.WifiManager.getScanResults, returnValue: [SSID: WiredSSID, BSSID: 01:80:c2:00:00:03, capabilities: [ESS], level: -55, frequency: 2412, timestamp: 1614644373136, distance: ?(cm), distanceSd: ?(cm), passpoint: no, ChannelBandwidth: 0, centerFreq0: 0, centerFreq1: 0, 80211mcResponder: is not supported], isEmpty: false
BEFORE android.app.SharedPreferencesImpl.getStringSet(ABSSID//WiredSSID,java.util.HashSet)
AFTER android.app.SharedPreferencesImpl.getStringSet, returnValue: [], isEmpty: true
BEFORE android.app.SharedPreferencesImpl.edit()
AFTER android.app.SharedPreferencesImpl.edit, returnValue: android.app.SharedPreferencesImpl$EditorImpl
BEFORE android.app.SharedPreferencesImpl$EditorImpl.putStringSet(ABSSID//WiredSSID,java.util.HashSet)
AFTER android.app.SharedPreferencesImpl$EditorImpl.putStringSet, returnValue: android.app.SharedPreferencesImpl$EditorImpl
BEFORE android.app.SharedPreferencesImpl$EditorImpl.commit()
BEFORE be.uhasselt.privacypolice.PreferencesActivity$PrefsFragment.onSharedPreferenceChanged(android.app.SharedPreferencesImpl,ABSSID//WiredSSID)
BEFORE android.app.Fragment.getActivity()
AFTER android.app.Fragment.getActivity, returnValue: be.uhasselt.privacypolice.PreferencesActivity
BEFORE android.app.Activity.getSystemService(wifi)
AFTER android.app.Activity.getSystemService, returnValue: android.net.wifi.WifiManager
BEFORE android.net.wifi.WifiManager.startScan()
AFTER android.net.wifi.WifiManager.startScan, returnValue: true
AFTER be.uhasselt.privacypolice.PreferencesActivity$PrefsFragment.onSharedPreferenceChanged
AFTER android.app.SharedPreferencesImpl$EditorImpl.commit, returnValue: true
BEFORE android.content.ContextWrapper.getSystemService(wifi)
AFTER android.content.ContextWrapper.getSystemService, returnValue: android.net.wifi.WifiManager
BEFORE android.net.wifi.WifiManager.startScan()
AFTER android.net.wifi.WifiManager.startScan, returnValue: true
AFTER be.uhasselt.privacypolice.PermissionChangeReceiver.onReceive
BEFORE be.uhasselt.privacypolice.ScanResultsChecker.onReceive(android.app.ReceiverRestrictedContext,android.content.Intent)
BEFORE android.net.wifi.WifiManager.getScanResults()
AFTER android.net.wifi.WifiManager.getScanResults, returnValue: [SSID: WiredSSID, BSSID: 01:80:c2:00:00:03, capabilities: [ESS], level: -55, frequency: 2412, timestamp: 1614644383776, distance: ?(cm), distanceSd: ?(cm), passpoint: no, ChannelBandwidth: 0, centerFreq0: 0, centerFreq1: 0, 80211mcResponder: is not supported], isEmpty: false
BEFORE android.net.wifi.WifiManager.getConfiguredNetworks()
AFTER android.net.wifi.WifiManager.getConfiguredNetworks, returnValue: [- DSBLE ID: 0 SSID: "WiredSSID" PROVIDER-NAME: null BSSID: any FQDN: null PRIO: 12  autoJoinStatus 161  disableReason 5  numAssociation 58  validatedInternetAccess  KeyMgmt: NONE Protocols: WPA RSN  AuthAlgorithms:  PairwiseCiphers: TKIP CCMP  GroupCiphers: TKIP CCMP  PSK:  Enterprise config: altsubject_match NULL password NULL subject_match NULL engine 0 client_cert NULL ca_cert NULL anonymous_identity NULL identity NULL domain_suffix_match NULL key_id NULL engine_id NULL phase2 NULL eap NULL IP config: IP assignment: DHCP Proxy settings: NONE  autoJoinBSSID=any cuid=-1 cname=null luid=1000 lname=null lcuid=-1 userApproved=USER_APPROVED noInternetAccessExpected=false roamingFailureBlackListTimeMilli: 1000 triggeredLow: 0 triggeredBad: 0 triggeredNotHigh: 0 ticksLow: 0 ticksBad: 0 ticksNotHigh: 0 triggeredJoin: 0 autoJoinBailedDueToLowRssi: false autoJoinUseAggressiveJoinAttemptThreshold: 0 ], isEmpty: false
BEFORE android.app.SharedPreferencesImpl.getBoolean(enableOnlyAvailableNetworks,true)
AFTER android.app.SharedPreferencesImpl.getBoolean, returnValue: true
BEFORE android.app.SharedPreferencesImpl.getBoolean(onlyConnectToKnownAccessPoints,false)
AFTER android.app.SharedPreferencesImpl.getBoolean, returnValue: true
BEFORE android.app.SharedPreferencesImpl.getStringSet(ABSSID//WiredSSID,java.util.HashSet)
AFTER android.app.SharedPreferencesImpl.getStringSet, returnValue: [01:80:c2:00:00:03], isEmpty: false
BEFORE android.net.wifi.WifiManager.enableNetwork(0,false)
AFTER android.net.wifi.WifiManager.enableNetwork, returnValue: true
BEFORE android.net.wifi.WifiManager.reconnect()
AFTER android.net.wifi.WifiManager.reconnect, returnValue: true
BEFORE android.net.ConnectivityManager.getNetworkInfo(1)
AFTER android.net.ConnectivityManager.getNetworkInfo, returnValue: [type: WIFI[], state: DISCONNECTED/DISCONNECTED, reason: (unspecified), extra: (none), roaming: false, failover: false, isAvailable: true]
BEFORE android.net.NetworkInfo.isConnectedOrConnecting()
AFTER android.net.NetworkInfo.isConnectedOrConnecting, returnValue: false
BEFORE android.net.wifi.WifiManager.reassociate()
AFTER android.net.wifi.WifiManager.reassociate, returnValue: true
BEFORE android.app.NotificationManager.cancelAll()
AFTER android.app.NotificationManager.cancelAll
AFTER be.uhasselt.privacypolice.ScanResultsChecker.onReceive
BEFORE be.uhasselt.privacypolice.ScanResultsChecker.onReceive(android.app.ReceiverRestrictedContext,android.content.Intent)
BEFORE android.net.wifi.WifiManager.getScanResults()
AFTER android.net.wifi.WifiManager.getScanResults, returnValue: [], isEmpty: true
BEFORE android.net.wifi.WifiManager.getConfiguredNetworks()
AFTER android.net.wifi.WifiManager.getConfiguredNetworks, returnValue: [* ID: 0 SSID: "WiredSSID" PROVIDER-NAME: null BSSID: any FQDN: null PRIO: 12  disableReason 5  numAssociation 59  validatedInternetAccess  KeyMgmt: NONE Protocols: WPA RSN  AuthAlgorithms:  PairwiseCiphers: TKIP CCMP  GroupCiphers: TKIP CCMP  PSK:  Enterprise config: altsubject_match NULL password NULL subject_match NULL engine 0 client_cert NULL ca_cert NULL anonymous_identity NULL identity NULL domain_suffix_match NULL key_id NULL engine_id NULL phase2 NULL eap NULL IP config: IP assignment: DHCP Proxy settings: NONE  autoJoinBSSID=any cuid=-1 cname=null luid=1000 lname=null lcuid=-1 userApproved=USER_APPROVED noInternetAccessExpected=false roamingFailureBlackListTimeMilli: 1000 triggeredLow: 0 triggeredBad: 0 triggeredNotHigh: 0 ticksLow: 0 ticksBad: 0 ticksNotHigh: 0 triggeredJoin: 0 autoJoinBailedDueToLowRssi: false autoJoinUseAggressiveJoinAttemptThreshold: 0 ], isEmpty: false
BEFORE android.app.SharedPreferencesImpl.getBoolean(enableOnlyAvailableNetworks,true)
AFTER android.app.SharedPreferencesImpl.getBoolean, returnValue: true
BEFORE android.net.wifi.WifiManager.disableNetwork(0)
AFTER android.net.wifi.WifiManager.disableNetwork, returnValue: true
BEFORE android.app.NotificationManager.cancelAll()
AFTER android.app.NotificationManager.cancelAll
AFTER be.uhasselt.privacypolice.ScanResultsChecker.onReceive
BEFORE be.uhasselt.privacypolice.ScanResultsChecker.onReceive(android.app.ReceiverRestrictedContext,android.content.Intent)
BEFORE android.net.wifi.WifiManager.getScanResults()
AFTER android.net.wifi.WifiManager.getScanResults, returnValue: [], isEmpty: true
BEFORE android.net.wifi.WifiManager.getConfiguredNetworks()
AFTER android.net.wifi.WifiManager.getConfiguredNetworks, returnValue: [- DSBLE ID: 0 SSID: "WiredSSID" PROVIDER-NAME: null BSSID: any FQDN: null PRIO: 12  autoJoinStatus 161  disableReason 5  numAssociation 59  validatedInternetAccess  KeyMgmt: NONE Protocols: WPA RSN  AuthAlgorithms:  PairwiseCiphers: TKIP CCMP  GroupCiphers: TKIP CCMP  PSK:  Enterprise config: altsubject_match NULL password NULL subject_match NULL engine 0 client_cert NULL ca_cert NULL anonymous_identity NULL identity NULL domain_suffix_match NULL key_id NULL engine_id NULL phase2 NULL eap NULL IP config: IP assignment: DHCP Proxy settings: NONE  autoJoinBSSID=any cuid=-1 cname=null luid=1000 lname=null lcuid=-1 userApproved=USER_APPROVED noInternetAccessExpected=false roamingFailureBlackListTimeMilli: 1000 triggeredLow: 0 triggeredBad: 0 triggeredNotHigh: 0 ticksLow: 0 ticksBad: 0 ticksNotHigh: 0 triggeredJoin: 0 autoJoinBailedDueToLowRssi: false autoJoinUseAggressiveJoinAttemptThreshold: 0 ], isEmpty: false
BEFORE android.app.SharedPreferencesImpl.getBoolean(enableOnlyAvailableNetworks,true)
AFTER android.app.SharedPreferencesImpl.getBoolean, returnValue: true
BEFORE android.net.wifi.WifiManager.disableNetwork(0)
AFTER android.net.wifi.WifiManager.disableNetwork, returnValue: true
BEFORE android.app.NotificationManager.cancelAll()
AFTER android.app.NotificationManager.cancelAll
AFTER be.uhasselt.privacypolice.ScanResultsChecker.onReceive
BEFORE be.uhasselt.privacypolice.ScanResultsChecker.onReceive(android.app.ReceiverRestrictedContext,android.content.Intent)
BEFORE android.net.wifi.WifiManager.getScanResults()
AFTER android.net.wifi.WifiManager.getScanResults, returnValue: [], isEmpty: true
BEFORE android.net.wifi.WifiManager.getConfiguredNetworks()
AFTER android.net.wifi.WifiManager.getConfiguredNetworks, returnValue: [* ID: 0 SSID: "WiredSSID" PROVIDER-NAME: null BSSID: any FQDN: null PRIO: 12  disableReason 5  numAssociation 60  validatedInternetAccess  KeyMgmt: NONE Protocols: WPA RSN  AuthAlgorithms:  PairwiseCiphers: TKIP CCMP  GroupCiphers: TKIP CCMP  PSK:  Enterprise config: altsubject_match NULL password NULL subject_match NULL engine 0 client_cert NULL ca_cert NULL anonymous_identity NULL identity NULL domain_suffix_match NULL key_id NULL engine_id NULL phase2 NULL eap NULL IP config: IP assignment: DHCP Proxy settings: NONE  autoJoinBSSID=any cuid=-1 cname=null luid=1000 lname=null lcuid=-1 userApproved=USER_APPROVED noInternetAccessExpected=false roamingFailureBlackListTimeMilli: 1000 triggeredLow: 0 triggeredBad: 0 triggeredNotHigh: 0 ticksLow: 0 ticksBad: 0 ticksNotHigh: 0 triggeredJoin: 0 autoJoinBailedDueToLowRssi: false autoJoinUseAggressiveJoinAttemptThreshold: 0 ], isEmpty: false
BEFORE android.app.SharedPreferencesImpl.getBoolean(enableOnlyAvailableNetworks,true)
AFTER android.app.SharedPreferencesImpl.getBoolean, returnValue: true
BEFORE android.net.wifi.WifiManager.disableNetwork(0)
AFTER android.net.wifi.WifiManager.disableNetwork, returnValue: true
BEFORE android.app.NotificationManager.cancelAll()
AFTER android.app.NotificationManager.cancelAll
AFTER be.uhasselt.privacypolice.ScanResultsChecker.onReceive
BEFORE be.uhasselt.privacypolice.ScanResultsChecker.onReceive(android.app.ReceiverRestrictedContext,android.content.Intent)
BEFORE android.net.wifi.WifiManager.getScanResults()
AFTER android.net.wifi.WifiManager.getScanResults, returnValue: [], isEmpty: true
BEFORE android.net.wifi.WifiManager.getConfiguredNetworks()
AFTER android.net.wifi.WifiManager.getConfiguredNetworks, returnValue: [- DSBLE ID: 0 SSID: "WiredSSID" PROVIDER-NAME: null BSSID: any FQDN: null PRIO: 12  autoJoinStatus 161  disableReason 5  numAssociation 60  validatedInternetAccess  KeyMgmt: NONE Protocols: WPA RSN  AuthAlgorithms:  PairwiseCiphers: TKIP CCMP  GroupCiphers: TKIP CCMP  PSK:  Enterprise config: altsubject_match NULL password NULL subject_match NULL engine 0 client_cert NULL ca_cert NULL anonymous_identity NULL identity NULL domain_suffix_match NULL key_id NULL engine_id NULL phase2 NULL eap NULL IP config: IP assignment: DHCP Proxy settings: NONE  autoJoinBSSID=any cuid=-1 cname=null luid=1000 lname=null lcuid=-1 userApproved=USER_APPROVED noInternetAccessExpected=false roamingFailureBlackListTimeMilli: 1000 triggeredLow: 0 triggeredBad: 0 triggeredNotHigh: 0 ticksLow: 0 ticksBad: 0 ticksNotHigh: 0 triggeredJoin: 0 autoJoinBailedDueToLowRssi: false autoJoinUseAggressiveJoinAttemptThreshold: 0 ], isEmpty: false
BEFORE android.app.SharedPreferencesImpl.getBoolean(enableOnlyAvailableNetworks,true)
AFTER android.app.SharedPreferencesImpl.getBoolean, returnValue: true
BEFORE android.net.wifi.WifiManager.disableNetwork(0)
AFTER android.net.wifi.WifiManager.disableNetwork, returnValue: true
BEFORE android.app.NotificationManager.cancelAll()
AFTER android.app.NotificationManager.cancelAll
AFTER be.uhasselt.privacypolice.ScanResultsChecker.onReceive
BEFORE be.uhasselt.privacypolice.ScanResultsChecker.onReceive(android.app.ReceiverRestrictedContext,android.content.Intent)
BEFORE android.net.wifi.WifiManager.getScanResults()
AFTER android.net.wifi.WifiManager.getScanResults, returnValue: [], isEmpty: true
BEFORE android.net.wifi.WifiManager.getConfiguredNetworks()
AFTER android.net.wifi.WifiManager.getConfiguredNetworks, returnValue: [* ID: 0 SSID: "WiredSSID" PROVIDER-NAME: null BSSID: any FQDN: null PRIO: 13  disableReason 5  numAssociation 61  validatedInternetAccess  KeyMgmt: NONE Protocols: WPA RSN  AuthAlgorithms:  PairwiseCiphers: TKIP CCMP  GroupCiphers: TKIP CCMP  PSK:  Enterprise config: altsubject_match NULL password NULL subject_match NULL engine 0 client_cert NULL ca_cert NULL anonymous_identity NULL identity NULL domain_suffix_match NULL key_id NULL engine_id NULL phase2 NULL eap NULL IP config: IP assignment: DHCP Proxy settings: NONE  autoJoinBSSID=any cuid=-1 cname=null luid=1000 lname=null lcuid=1000 userApproved=USER_APPROVED noInternetAccessExpected=false roamingFailureBlackListTimeMilli: 1000 triggeredLow: 0 triggeredBad: 0 triggeredNotHigh: 0 ticksLow: 0 ticksBad: 0 ticksNotHigh: 0 triggeredJoin: 1 autoJoinBailedDueToLowRssi: false autoJoinUseAggressiveJoinAttemptThreshold: 0 ], isEmpty: false
BEFORE android.app.SharedPreferencesImpl.getBoolean(enableOnlyAvailableNetworks,true)
AFTER android.app.SharedPreferencesImpl.getBoolean, returnValue: true
BEFORE android.net.wifi.WifiManager.disableNetwork(0)
AFTER android.net.wifi.WifiManager.disableNetwork, returnValue: true
BEFORE android.app.NotificationManager.cancelAll()
AFTER android.app.NotificationManager.cancelAll
AFTER be.uhasselt.privacypolice.ScanResultsChecker.onReceive
BEFORE be.uhasselt.privacypolice.ScanResultsChecker.onReceive(android.app.ReceiverRestrictedContext,android.content.Intent)
BEFORE android.net.wifi.WifiManager.getScanResults()
AFTER android.net.wifi.WifiManager.getScanResults, returnValue: [], isEmpty: true
BEFORE android.net.wifi.WifiManager.getConfiguredNetworks()
AFTER android.net.wifi.WifiManager.getConfiguredNetworks, returnValue: [- DSBLE ID: 0 SSID: "WiredSSID" PROVIDER-NAME: null BSSID: any FQDN: null PRIO: 13  autoJoinStatus 161  disableReason 5  numAssociation 61  validatedInternetAccess  KeyMgmt: NONE Protocols: WPA RSN  AuthAlgorithms:  PairwiseCiphers: TKIP CCMP  GroupCiphers: TKIP CCMP  PSK:  Enterprise config: altsubject_match NULL password NULL subject_match NULL engine 0 client_cert NULL ca_cert NULL anonymous_identity NULL identity NULL domain_suffix_match NULL key_id NULL engine_id NULL phase2 NULL eap NULL IP config: IP assignment: DHCP Proxy settings: NONE  autoJoinBSSID=any cuid=-1 cname=null luid=1000 lname=null lcuid=1000 userApproved=USER_APPROVED noInternetAccessExpected=false roamingFailureBlackListTimeMilli: 1000 triggeredLow: 0 triggeredBad: 0 triggeredNotHigh: 0 ticksLow: 0 ticksBad: 0 ticksNotHigh: 0 triggeredJoin: 1 autoJoinBailedDueToLowRssi: false autoJoinUseAggressiveJoinAttemptThreshold: 0 ], isEmpty: false
BEFORE android.app.SharedPreferencesImpl.getBoolean(enableOnlyAvailableNetworks,true)
AFTER android.app.SharedPreferencesImpl.getBoolean, returnValue: true
BEFORE android.net.wifi.WifiManager.disableNetwork(0)
AFTER android.net.wifi.WifiManager.disableNetwork, returnValue: true
BEFORE android.app.NotificationManager.cancelAll()
AFTER android.app.NotificationManager.cancelAll
AFTER be.uhasselt.privacypolice.ScanResultsChecker.onReceive
