BEFORE de.hu_berlin.eduroam.WiFiEduroam.onCreate(), invoked by: dalvik.system.VMStack.getThreadStackTrace, java.lang.Thread.getStackTrace, it.unimib.disco.lta.unimiblogger.MyMethodHook.beforeHookedMethod, de.robv.android.xposed.XposedBridge.handleHookedMethod, de.hu_berlin.eduroam.WiFiEduroam.onCreate, android.app.Activity.performCreate, android.app.Instrumentation.callActivityOnCreate, android.app.ActivityThread.performLaunchActivity, android.app.ActivityThread.handleLaunchActivity, android.app.ActivityThread.access$800, android.app.ActivityThread$H.handleMessage, android.os.Handler.dispatchMessage, android.os.Looper.loop, android.app.ActivityThread.main, java.lang.reflect.Method.invoke, java.lang.reflect.Method.invoke, com.android.internal.os.ZygoteInit$MethodAndArgsCaller.run, com.android.internal.os.ZygoteInit.main, de.robv.android.xposed.XposedBridge.main
BEFORE android.app.Activity.onCreate(), invoked by: dalvik.system.VMStack.getThreadStackTrace, java.lang.Thread.getStackTrace, it.unimib.disco.lta.unimiblogger.MyMethodHook.beforeHookedMethod, de.robv.android.xposed.XposedBridge.handleHookedMethod, android.app.Activity.onCreate, de.hu_berlin.eduroam.WiFiEduroam.onCreate, de.robv.android.xposed.XposedBridge.invokeOriginalMethodNative, de.robv.android.xposed.XposedBridge.handleHookedMethod, de.hu_berlin.eduroam.WiFiEduroam.onCreate, android.app.Activity.performCreate, android.app.Instrumentation.callActivityOnCreate, android.app.ActivityThread.performLaunchActivity, android.app.ActivityThread.handleLaunchActivity, android.app.ActivityThread.access$800, android.app.ActivityThread$H.handleMessage, android.os.Handler.dispatchMessage, android.os.Looper.loop, android.app.ActivityThread.main, java.lang.reflect.Method.invoke, java.lang.reflect.Method.invoke, com.android.internal.os.ZygoteInit$MethodAndArgsCaller.run, com.android.internal.os.ZygoteInit.main, de.robv.android.xposed.XposedBridge.main
AFTER android.app.Activity.onCreate, invoked by: dalvik.system.VMStack.getThreadStackTrace, java.lang.Thread.getStackTrace, it.unimib.disco.lta.unimiblogger.MyMethodHook.beforeHookedMethod, de.robv.android.xposed.XposedBridge.handleHookedMethod, android.app.Activity.onCreate, de.hu_berlin.eduroam.WiFiEduroam.onCreate, de.robv.android.xposed.XposedBridge.invokeOriginalMethodNative, de.robv.android.xposed.XposedBridge.handleHookedMethod, de.hu_berlin.eduroam.WiFiEduroam.onCreate, android.app.Activity.performCreate, android.app.Instrumentation.callActivityOnCreate, android.app.ActivityThread.performLaunchActivity, android.app.ActivityThread.handleLaunchActivity, android.app.ActivityThread.access$800, android.app.ActivityThread$H.handleMessage, android.os.Handler.dispatchMessage, android.os.Looper.loop, android.app.ActivityThread.main, java.lang.reflect.Method.invoke, java.lang.reflect.Method.invoke, com.android.internal.os.ZygoteInit$MethodAndArgsCaller.run, com.android.internal.os.ZygoteInit.main, de.robv.android.xposed.XposedBridge.main
BEFORE android.app.Activity.setContentView(2130903040), invoked by: dalvik.system.VMStack.getThreadStackTrace, java.lang.Thread.getStackTrace, it.unimib.disco.lta.unimiblogger.MyMethodHook.beforeHookedMethod, de.robv.android.xposed.XposedBridge.handleHookedMethod, android.app.Activity.setContentView, de.hu_berlin.eduroam.WiFiEduroam.onCreate, de.robv.android.xposed.XposedBridge.invokeOriginalMethodNative, de.robv.android.xposed.XposedBridge.handleHookedMethod, de.hu_berlin.eduroam.WiFiEduroam.onCreate, android.app.Activity.performCreate, android.app.Instrumentation.callActivityOnCreate, android.app.ActivityThread.performLaunchActivity, android.app.ActivityThread.handleLaunchActivity, android.app.ActivityThread.access$800, android.app.ActivityThread$H.handleMessage, android.os.Handler.dispatchMessage, android.os.Looper.loop, android.app.ActivityThread.main, java.lang.reflect.Method.invoke, java.lang.reflect.Method.invoke, com.android.internal.os.ZygoteInit$MethodAndArgsCaller.run, com.android.internal.os.ZygoteInit.main, de.robv.android.xposed.XposedBridge.main
AFTER android.app.Activity.setContentView, invoked by: dalvik.system.VMStack.getThreadStackTrace, java.lang.Thread.getStackTrace, it.unimib.disco.lta.unimiblogger.MyMethodHook.beforeHookedMethod, de.robv.android.xposed.XposedBridge.handleHookedMethod, android.app.Activity.setContentView, de.hu_berlin.eduroam.WiFiEduroam.onCreate, de.robv.android.xposed.XposedBridge.invokeOriginalMethodNative, de.robv.android.xposed.XposedBridge.handleHookedMethod, de.hu_berlin.eduroam.WiFiEduroam.onCreate, android.app.Activity.performCreate, android.app.Instrumentation.callActivityOnCreate, android.app.ActivityThread.performLaunchActivity, android.app.ActivityThread.handleLaunchActivity, android.app.ActivityThread.access$800, android.app.ActivityThread$H.handleMessage, android.os.Handler.dispatchMessage, android.os.Looper.loop, android.app.ActivityThread.main, java.lang.reflect.Method.invoke, java.lang.reflect.Method.invoke, com.android.internal.os.ZygoteInit$MethodAndArgsCaller.run, com.android.internal.os.ZygoteInit.main, de.robv.android.xposed.XposedBridge.main
BEFORE android.app.Activity.getSystemService(wifi), invoked by: dalvik.system.VMStack.getThreadStackTrace, java.lang.Thread.getStackTrace, it.unimib.disco.lta.unimiblogger.MyMethodHook.beforeHookedMethod, de.robv.android.xposed.XposedBridge.handleHookedMethod, android.app.Activity.getSystemService, de.hu_berlin.eduroam.WiFiEduroam.eduroamExists, de.hu_berlin.eduroam.WiFiEduroam.onCreate, de.robv.android.xposed.XposedBridge.invokeOriginalMethodNative, de.robv.android.xposed.XposedBridge.handleHookedMethod, de.hu_berlin.eduroam.WiFiEduroam.onCreate, android.app.Activity.performCreate, android.app.Instrumentation.callActivityOnCreate, android.app.ActivityThread.performLaunchActivity, android.app.ActivityThread.handleLaunchActivity, android.app.ActivityThread.access$800, android.app.ActivityThread$H.handleMessage, android.os.Handler.dispatchMessage, android.os.Looper.loop, android.app.ActivityThread.main, java.lang.reflect.Method.invoke, java.lang.reflect.Method.invoke, com.android.internal.os.ZygoteInit$MethodAndArgsCaller.run, com.android.internal.os.ZygoteInit.main, de.robv.android.xposed.XposedBridge.main
AFTER android.app.Activity.getSystemService, returnValue: android.net.wifi.WifiManager, invoked by: dalvik.system.VMStack.getThreadStackTrace, java.lang.Thread.getStackTrace, it.unimib.disco.lta.unimiblogger.MyMethodHook.beforeHookedMethod, de.robv.android.xposed.XposedBridge.handleHookedMethod, android.app.Activity.getSystemService, de.hu_berlin.eduroam.WiFiEduroam.eduroamExists, de.hu_berlin.eduroam.WiFiEduroam.onCreate, de.robv.android.xposed.XposedBridge.invokeOriginalMethodNative, de.robv.android.xposed.XposedBridge.handleHookedMethod, de.hu_berlin.eduroam.WiFiEduroam.onCreate, android.app.Activity.performCreate, android.app.Instrumentation.callActivityOnCreate, android.app.ActivityThread.performLaunchActivity, android.app.ActivityThread.handleLaunchActivity, android.app.ActivityThread.access$800, android.app.ActivityThread$H.handleMessage, android.os.Handler.dispatchMessage, android.os.Looper.loop, android.app.ActivityThread.main, java.lang.reflect.Method.invoke, java.lang.reflect.Method.invoke, com.android.internal.os.ZygoteInit$MethodAndArgsCaller.run, com.android.internal.os.ZygoteInit.main, de.robv.android.xposed.XposedBridge.main
BEFORE android.net.wifi.WifiManager.getConfiguredNetworks(), invoked by: dalvik.system.VMStack.getThreadStackTrace, java.lang.Thread.getStackTrace, it.unimib.disco.lta.unimiblogger.MyMethodHook.beforeHookedMethod, de.robv.android.xposed.XposedBridge.handleHookedMethod, android.net.wifi.WifiManager.getConfiguredNetworks, de.hu_berlin.eduroam.WiFiEduroam.eduroamExists, de.hu_berlin.eduroam.WiFiEduroam.onCreate, de.robv.android.xposed.XposedBridge.invokeOriginalMethodNative, de.robv.android.xposed.XposedBridge.handleHookedMethod, de.hu_berlin.eduroam.WiFiEduroam.onCreate, android.app.Activity.performCreate, android.app.Instrumentation.callActivityOnCreate, android.app.ActivityThread.performLaunchActivity, android.app.ActivityThread.handleLaunchActivity, android.app.ActivityThread.access$800, android.app.ActivityThread$H.handleMessage, android.os.Handler.dispatchMessage, android.os.Looper.loop, android.app.ActivityThread.main, java.lang.reflect.Method.invoke, java.lang.reflect.Method.invoke, com.android.internal.os.ZygoteInit$MethodAndArgsCaller.run, com.android.internal.os.ZygoteInit.main, de.robv.android.xposed.XposedBridge.main
AFTER android.net.wifi.WifiManager.getConfiguredNetworks, returnValue: [], isEmpty: true, invoked by: dalvik.system.VMStack.getThreadStackTrace, java.lang.Thread.getStackTrace, it.unimib.disco.lta.unimiblogger.MyMethodHook.beforeHookedMethod, de.robv.android.xposed.XposedBridge.handleHookedMethod, android.net.wifi.WifiManager.getConfiguredNetworks, de.hu_berlin.eduroam.WiFiEduroam.eduroamExists, de.hu_berlin.eduroam.WiFiEduroam.onCreate, de.robv.android.xposed.XposedBridge.invokeOriginalMethodNative, de.robv.android.xposed.XposedBridge.handleHookedMethod, de.hu_berlin.eduroam.WiFiEduroam.onCreate, android.app.Activity.performCreate, android.app.Instrumentation.callActivityOnCreate, android.app.ActivityThread.performLaunchActivity, android.app.ActivityThread.handleLaunchActivity, android.app.ActivityThread.access$800, android.app.ActivityThread$H.handleMessage, android.os.Handler.dispatchMessage, android.os.Looper.loop, android.app.ActivityThread.main, java.lang.reflect.Method.invoke, java.lang.reflect.Method.invoke, com.android.internal.os.ZygoteInit$MethodAndArgsCaller.run, com.android.internal.os.ZygoteInit.main, de.robv.android.xposed.XposedBridge.main
BEFORE android.app.Activity.findViewById(2130837515), invoked by: dalvik.system.VMStack.getThreadStackTrace, java.lang.Thread.getStackTrace, it.unimib.disco.lta.unimiblogger.MyMethodHook.beforeHookedMethod, de.robv.android.xposed.XposedBridge.handleHookedMethod, android.app.Activity.findViewById, de.hu_berlin.eduroam.WiFiEduroam.onCreate, de.robv.android.xposed.XposedBridge.invokeOriginalMethodNative, de.robv.android.xposed.XposedBridge.handleHookedMethod, de.hu_berlin.eduroam.WiFiEduroam.onCreate, android.app.Activity.performCreate, android.app.Instrumentation.callActivityOnCreate, android.app.ActivityThread.performLaunchActivity, android.app.ActivityThread.handleLaunchActivity, android.app.ActivityThread.access$800, android.app.ActivityThread$H.handleMessage, android.os.Handler.dispatchMessage, android.os.Looper.loop, android.app.ActivityThread.main, java.lang.reflect.Method.invoke, java.lang.reflect.Method.invoke, com.android.internal.os.ZygoteInit$MethodAndArgsCaller.run, com.android.internal.os.ZygoteInit.main, de.robv.android.xposed.XposedBridge.main
AFTER android.app.Activity.findViewById, returnValue: android.widget.EditText{5f9c119 VFED..CL .F....ID 0,0-0,0 #7f02000b app:id/username}, invoked by: dalvik.system.VMStack.getThreadStackTrace, java.lang.Thread.getStackTrace, it.unimib.disco.lta.unimiblogger.MyMethodHook.beforeHookedMethod, de.robv.android.xposed.XposedBridge.handleHookedMethod, android.app.Activity.findViewById, de.hu_berlin.eduroam.WiFiEduroam.onCreate, de.robv.android.xposed.XposedBridge.invokeOriginalMethodNative, de.robv.android.xposed.XposedBridge.handleHookedMethod, de.hu_berlin.eduroam.WiFiEduroam.onCreate, android.app.Activity.performCreate, android.app.Instrumentation.callActivityOnCreate, android.app.ActivityThread.performLaunchActivity, android.app.ActivityThread.handleLaunchActivity, android.app.ActivityThread.access$800, android.app.ActivityThread$H.handleMessage, android.os.Handler.dispatchMessage, android.os.Looper.loop, android.app.ActivityThread.main, java.lang.reflect.Method.invoke, java.lang.reflect.Method.invoke, com.android.internal.os.ZygoteInit$MethodAndArgsCaller.run, com.android.internal.os.ZygoteInit.main, de.robv.android.xposed.XposedBridge.main
BEFORE android.app.Activity.findViewById(2130837509), invoked by: dalvik.system.VMStack.getThreadStackTrace, java.lang.Thread.getStackTrace, it.unimib.disco.lta.unimiblogger.MyMethodHook.beforeHookedMethod, de.robv.android.xposed.XposedBridge.handleHookedMethod, android.app.Activity.findViewById, de.hu_berlin.eduroam.WiFiEduroam.onCreate, de.robv.android.xposed.XposedBridge.invokeOriginalMethodNative, de.robv.android.xposed.XposedBridge.handleHookedMethod, de.hu_berlin.eduroam.WiFiEduroam.onCreate, android.app.Activity.performCreate, android.app.Instrumentation.callActivityOnCreate, android.app.ActivityThread.performLaunchActivity, android.app.ActivityThread.handleLaunchActivity, android.app.ActivityThread.access$800, android.app.ActivityThread$H.handleMessage, android.os.Handler.dispatchMessage, android.os.Looper.loop, android.app.ActivityThread.main, java.lang.reflect.Method.invoke, java.lang.reflect.Method.invoke, com.android.internal.os.ZygoteInit$MethodAndArgsCaller.run, com.android.internal.os.ZygoteInit.main, de.robv.android.xposed.XposedBridge.main
AFTER android.app.Activity.findViewById, returnValue: android.widget.EditText{168305de VFED..CL ......ID 0,0-0,0 #7f020005 app:id/password}, invoked by: dalvik.system.VMStack.getThreadStackTrace, java.lang.Thread.getStackTrace, it.unimib.disco.lta.unimiblogger.MyMethodHook.beforeHookedMethod, de.robv.android.xposed.XposedBridge.handleHookedMethod, android.app.Activity.findViewById, de.hu_berlin.eduroam.WiFiEduroam.onCreate, de.robv.android.xposed.XposedBridge.invokeOriginalMethodNative, de.robv.android.xposed.XposedBridge.handleHookedMethod, de.hu_berlin.eduroam.WiFiEduroam.onCreate, android.app.Activity.performCreate, android.app.Instrumentation.callActivityOnCreate, android.app.ActivityThread.performLaunchActivity, android.app.ActivityThread.handleLaunchActivity, android.app.ActivityThread.access$800, android.app.ActivityThread$H.handleMessage, android.os.Handler.dispatchMessage, android.os.Looper.loop, android.app.ActivityThread.main, java.lang.reflect.Method.invoke, java.lang.reflect.Method.invoke, com.android.internal.os.ZygoteInit$MethodAndArgsCaller.run, com.android.internal.os.ZygoteInit.main, de.robv.android.xposed.XposedBridge.main
BEFORE android.app.Activity.findViewById(2130837505), invoked by: dalvik.system.VMStack.getThreadStackTrace, java.lang.Thread.getStackTrace, it.unimib.disco.lta.unimiblogger.MyMethodHook.beforeHookedMethod, de.robv.android.xposed.XposedBridge.handleHookedMethod, android.app.Activity.findViewById, de.hu_berlin.eduroam.WiFiEduroam.onCreate, de.robv.android.xposed.XposedBridge.invokeOriginalMethodNative, de.robv.android.xposed.XposedBridge.handleHookedMethod, de.hu_berlin.eduroam.WiFiEduroam.onCreate, android.app.Activity.performCreate, android.app.Instrumentation.callActivityOnCreate, android.app.ActivityThread.performLaunchActivity, android.app.ActivityThread.handleLaunchActivity, android.app.ActivityThread.access$800, android.app.ActivityThread$H.handleMessage, android.os.Handler.dispatchMessage, android.os.Looper.loop, android.app.ActivityThread.main, java.lang.reflect.Method.invoke, java.lang.reflect.Method.invoke, com.android.internal.os.ZygoteInit$MethodAndArgsCaller.run, com.android.internal.os.ZygoteInit.main, de.robv.android.xposed.XposedBridge.main
AFTER android.app.Activity.findViewById, returnValue: android.widget.Button{294753bf VFED..C. ......I. 0,0-0,0 #7f020001 app:id/button1}, invoked by: dalvik.system.VMStack.getThreadStackTrace, java.lang.Thread.getStackTrace, it.unimib.disco.lta.unimiblogger.MyMethodHook.beforeHookedMethod, de.robv.android.xposed.XposedBridge.handleHookedMethod, android.app.Activity.findViewById, de.hu_berlin.eduroam.WiFiEduroam.onCreate, de.robv.android.xposed.XposedBridge.invokeOriginalMethodNative, de.robv.android.xposed.XposedBridge.handleHookedMethod, de.hu_berlin.eduroam.WiFiEduroam.onCreate, android.app.Activity.performCreate, android.app.Instrumentation.callActivityOnCreate, android.app.ActivityThread.performLaunchActivity, android.app.ActivityThread.handleLaunchActivity, android.app.ActivityThread.access$800, android.app.ActivityThread$H.handleMessage, android.os.Handler.dispatchMessage, android.os.Looper.loop, android.app.ActivityThread.main, java.lang.reflect.Method.invoke, java.lang.reflect.Method.invoke, com.android.internal.os.ZygoteInit$MethodAndArgsCaller.run, com.android.internal.os.ZygoteInit.main, de.robv.android.xposed.XposedBridge.main
AFTER de.hu_berlin.eduroam.WiFiEduroam.onCreate, invoked by: dalvik.system.VMStack.getThreadStackTrace, java.lang.Thread.getStackTrace, it.unimib.disco.lta.unimiblogger.MyMethodHook.beforeHookedMethod, de.robv.android.xposed.XposedBridge.handleHookedMethod, de.hu_berlin.eduroam.WiFiEduroam.onCreate, android.app.Activity.performCreate, android.app.Instrumentation.callActivityOnCreate, android.app.ActivityThread.performLaunchActivity, android.app.ActivityThread.handleLaunchActivity, android.app.ActivityThread.access$800, android.app.ActivityThread$H.handleMessage, android.os.Handler.dispatchMessage, android.os.Looper.loop, android.app.ActivityThread.main, java.lang.reflect.Method.invoke, java.lang.reflect.Method.invoke, com.android.internal.os.ZygoteInit$MethodAndArgsCaller.run, com.android.internal.os.ZygoteInit.main, de.robv.android.xposed.XposedBridge.main
BEFORE de.hu_berlin.eduroam.WiFiEduroam.onCreateOptionsMenu(com.android.internal.view.menu.MenuBuilder), invoked by: dalvik.system.VMStack.getThreadStackTrace, java.lang.Thread.getStackTrace, it.unimib.disco.lta.unimiblogger.MyMethodHook.beforeHookedMethod, de.robv.android.xposed.XposedBridge.handleHookedMethod, de.hu_berlin.eduroam.WiFiEduroam.onCreateOptionsMenu, android.app.Activity.onCreatePanelMenu, com.android.internal.policy.impl.PhoneWindow.preparePanel, com.android.internal.policy.impl.PhoneWindow.doInvalidatePanelMenu, com.android.internal.policy.impl.PhoneWindow$1.run, android.os.Handler.handleCallback, android.os.Handler.dispatchMessage, android.os.Looper.loop, android.app.ActivityThread.main, java.lang.reflect.Method.invoke, java.lang.reflect.Method.invoke, com.android.internal.os.ZygoteInit$MethodAndArgsCaller.run, com.android.internal.os.ZygoteInit.main, de.robv.android.xposed.XposedBridge.main
BEFORE android.app.Activity.getMenuInflater(), invoked by: dalvik.system.VMStack.getThreadStackTrace, java.lang.Thread.getStackTrace, it.unimib.disco.lta.unimiblogger.MyMethodHook.beforeHookedMethod, de.robv.android.xposed.XposedBridge.handleHookedMethod, android.app.Activity.getMenuInflater, de.hu_berlin.eduroam.WiFiEduroam.onCreateOptionsMenu, de.robv.android.xposed.XposedBridge.invokeOriginalMethodNative, de.robv.android.xposed.XposedBridge.handleHookedMethod, de.hu_berlin.eduroam.WiFiEduroam.onCreateOptionsMenu, android.app.Activity.onCreatePanelMenu, com.android.internal.policy.impl.PhoneWindow.preparePanel, com.android.internal.policy.impl.PhoneWindow.doInvalidatePanelMenu, com.android.internal.policy.impl.PhoneWindow$1.run, android.os.Handler.handleCallback, android.os.Handler.dispatchMessage, android.os.Looper.loop, android.app.ActivityThread.main, java.lang.reflect.Method.invoke, java.lang.reflect.Method.invoke, com.android.internal.os.ZygoteInit$MethodAndArgsCaller.run, com.android.internal.os.ZygoteInit.main, de.robv.android.xposed.XposedBridge.main
AFTER android.app.Activity.getMenuInflater, returnValue: android.view.MenuInflater, invoked by: dalvik.system.VMStack.getThreadStackTrace, java.lang.Thread.getStackTrace, it.unimib.disco.lta.unimiblogger.MyMethodHook.beforeHookedMethod, de.robv.android.xposed.XposedBridge.handleHookedMethod, android.app.Activity.getMenuInflater, de.hu_berlin.eduroam.WiFiEduroam.onCreateOptionsMenu, de.robv.android.xposed.XposedBridge.invokeOriginalMethodNative, de.robv.android.xposed.XposedBridge.handleHookedMethod, de.hu_berlin.eduroam.WiFiEduroam.onCreateOptionsMenu, android.app.Activity.onCreatePanelMenu, com.android.internal.policy.impl.PhoneWindow.preparePanel, com.android.internal.policy.impl.PhoneWindow.doInvalidatePanelMenu, com.android.internal.policy.impl.PhoneWindow$1.run, android.os.Handler.handleCallback, android.os.Handler.dispatchMessage, android.os.Looper.loop, android.app.ActivityThread.main, java.lang.reflect.Method.invoke, java.lang.reflect.Method.invoke, com.android.internal.os.ZygoteInit$MethodAndArgsCaller.run, com.android.internal.os.ZygoteInit.main, de.robv.android.xposed.XposedBridge.main
BEFORE android.view.MenuInflater.inflate(2130968576,com.android.internal.view.menu.MenuBuilder), invoked by: dalvik.system.VMStack.getThreadStackTrace, java.lang.Thread.getStackTrace, it.unimib.disco.lta.unimiblogger.MyMethodHook.beforeHookedMethod, de.robv.android.xposed.XposedBridge.handleHookedMethod, android.view.MenuInflater.inflate, de.hu_berlin.eduroam.WiFiEduroam.onCreateOptionsMenu, de.robv.android.xposed.XposedBridge.invokeOriginalMethodNative, de.robv.android.xposed.XposedBridge.handleHookedMethod, de.hu_berlin.eduroam.WiFiEduroam.onCreateOptionsMenu, android.app.Activity.onCreatePanelMenu, com.android.internal.policy.impl.PhoneWindow.preparePanel, com.android.internal.policy.impl.PhoneWindow.doInvalidatePanelMenu, com.android.internal.policy.impl.PhoneWindow$1.run, android.os.Handler.handleCallback, android.os.Handler.dispatchMessage, android.os.Looper.loop, android.app.ActivityThread.main, java.lang.reflect.Method.invoke, java.lang.reflect.Method.invoke, com.android.internal.os.ZygoteInit$MethodAndArgsCaller.run, com.android.internal.os.ZygoteInit.main, de.robv.android.xposed.XposedBridge.main
AFTER android.view.MenuInflater.inflate, invoked by: dalvik.system.VMStack.getThreadStackTrace, java.lang.Thread.getStackTrace, it.unimib.disco.lta.unimiblogger.MyMethodHook.beforeHookedMethod, de.robv.android.xposed.XposedBridge.handleHookedMethod, android.view.MenuInflater.inflate, de.hu_berlin.eduroam.WiFiEduroam.onCreateOptionsMenu, de.robv.android.xposed.XposedBridge.invokeOriginalMethodNative, de.robv.android.xposed.XposedBridge.handleHookedMethod, de.hu_berlin.eduroam.WiFiEduroam.onCreateOptionsMenu, android.app.Activity.onCreatePanelMenu, com.android.internal.policy.impl.PhoneWindow.preparePanel, com.android.internal.policy.impl.PhoneWindow.doInvalidatePanelMenu, com.android.internal.policy.impl.PhoneWindow$1.run, android.os.Handler.handleCallback, android.os.Handler.dispatchMessage, android.os.Looper.loop, android.app.ActivityThread.main, java.lang.reflect.Method.invoke, java.lang.reflect.Method.invoke, com.android.internal.os.ZygoteInit$MethodAndArgsCaller.run, com.android.internal.os.ZygoteInit.main, de.robv.android.xposed.XposedBridge.main
AFTER de.hu_berlin.eduroam.WiFiEduroam.onCreateOptionsMenu, returnValue: true, invoked by: dalvik.system.VMStack.getThreadStackTrace, java.lang.Thread.getStackTrace, it.unimib.disco.lta.unimiblogger.MyMethodHook.beforeHookedMethod, de.robv.android.xposed.XposedBridge.handleHookedMethod, de.hu_berlin.eduroam.WiFiEduroam.onCreateOptionsMenu, android.app.Activity.onCreatePanelMenu, com.android.internal.policy.impl.PhoneWindow.preparePanel, com.android.internal.policy.impl.PhoneWindow.doInvalidatePanelMenu, com.android.internal.policy.impl.PhoneWindow$1.run, android.os.Handler.handleCallback, android.os.Handler.dispatchMessage, android.os.Looper.loop, android.app.ActivityThread.main, java.lang.reflect.Method.invoke, java.lang.reflect.Method.invoke, com.android.internal.os.ZygoteInit$MethodAndArgsCaller.run, com.android.internal.os.ZygoteInit.main, de.robv.android.xposed.XposedBridge.main
