Position |MethodName|Relevancy
0.022222222222222223|de.robv.android.xposed.XposedBridge.main|0.88
0.044444444444444446|com.cunnj.activities.MyPackageInfo.<init>|0.7433754021281861
0.06666666666666667|com.cunnj.activities.AsyncProvider.doInBackground|0.64452858203415
0.08888888888888889|android.os.AsyncTask$2.call|0.6400841375897056
0.1111111111111111|java.util.concurrent.FutureTask.run|0.6356396931452611
0.13333333333333333|android.os.AsyncTask$SerialExecutor$1.run|0.6311952487008167
0.15555555555555556|java.util.concurrent.ThreadPoolExecutor.runWorker|0.6267508042563722
0.17777777777777778|java.util.concurrent.ThreadPoolExecutor$Worker.run|0.6223063598119278
0.2|java.lang.Thread.run|0.6178619153674834
0.2222222222222222|android.app.ActivityThread.performLaunchActivity|0.5610690423162584
0.24444444444444444|com.android.internal.os.ZygoteInit.main|0.5221380846325168
0.26666666666666666|com.cunnj.activities.PackageManagerCache.getPackageInfo|0.47893095768374166
0.28888888888888886|com.cunnj.activities.AllTasksListAdapter.<init>|0.47448651323929725
0.3111111111111111|com.cunnj.activities.AllTasksListAsyncProvider.run|0.4700420687948528
0.3333333333333333|com.cunnj.activities.MyActivityInfo.<init>|0.4323979213066073
0.35555555555555557|com.cunnj.activities.PackageManagerCache.getActivityInfo|0.42795347686216284
0.37777777777777777|com.cunnj.activities.AllTasksListFragment.onCreateView|0.3760900767136848
0.4|android.support.v4.app.Fragment.performCreateView|0.3716456322692403
0.4222222222222222|android.support.v4.app.FragmentManagerImpl.moveToState|0.3672011878247958
0.4444444444444444|android.support.v4.app.FragmentManagerImpl.moveFragmentToExpectedState|0.3627567433803514
0.4666666666666667|android.support.v4.app.FragmentManagerImpl.moveToState|0.358312298935907
0.4888888888888889|android.support.v4.app.BackStackRecord.executeOps|0.3538678544914625
0.5111111111111111|android.support.v4.app.FragmentManagerImpl.executeOps|0.34942341004701805
0.5333333333333333|android.support.v4.app.FragmentManagerImpl.executeOpsTogether|0.34497896560257363
0.5555555555555556|android.support.v4.app.FragmentManagerImpl.removeRedundantOperationsAndExecute|0.3405345211581292
0.5777777777777777|android.support.v4.app.FragmentManagerImpl.execPendingActions|0.33609007671368474
0.6|android.support.v4.app.FragmentManagerImpl.dispatchStateChange|0.3316456322692403
0.6222222222222222|android.support.v4.app.FragmentManagerImpl.dispatchActivityCreated|0.32720118782479585
0.6444444444444445|android.support.v4.app.FragmentController.dispatchActivityCreated|0.32275674338035143
0.6666666666666666|android.support.v4.app.FragmentActivity.onStart|0.31831229893590696
0.6888888888888889|android.support.v7.app.AppCompatActivity.onStart|0.31386785449146254
0.7111111111111111|android.app.Instrumentation.callActivityOnStart|0.30942341004701807
0.7333333333333333|android.app.Activity.performStart|0.30497896560257365
0.7555555555555555|android.app.ActivityThread.handleLaunchActivity|0.29662459787181394
0.7777777777777778|android.app.ActivityThread.-wrap12|0.29218015342736947
0.8|android.app.ActivityThread$H.handleMessage|0.28773570898292505
0.8222222222222222|android.os.Handler.dispatchMessage|0.2832912645384806
0.8444444444444444|android.os.Looper.loop|0.27884682009403616
0.8666666666666667|android.app.ActivityThread.main|0.2744023756495917
0.8888888888888888|java.lang.reflect.Method.invoke|0.2699579312051473
0.9111111111111111|com.android.internal.os.ZygoteInit$MethodAndArgsCaller.run|0.2655134867607028
0.9333333333333333|android.app.ApplicationPackageManager.getDefaultActivityIcon|0.17684236575105172
0.9555555555555556|android.view.LayoutInflater.inflate|0.12026726057906459
0.9777777777777777|android.app.ApplicationPackageManager.getApplicationIcon|0.10875525859935659
1.0|android.support.v4.app.BackStackRecord.replace|0.05804503835684236
