Position |MethodName|Relevancy
0.05555555555555555|de.robv.android.xposed.XposedBridge.main|0.78
0.1111111111111111|de.hu_berlin.eduroam.WiFiEduroam.onCreate|0.5733333333333334
0.16666666666666666|android.app.Activity.performCreate|0.5586666666666668
0.2222222222222222|android.app.Instrumentation.callActivityOnCreate|0.544
0.2777777777777778|android.app.ActivityThread.performLaunchActivity|0.5293333333333334
0.3333333333333333|android.app.ActivityThread.handleLaunchActivity|0.5146666666666667
0.3888888888888889|android.app.ActivityThread.access$800|0.5
0.4444444444444444|android.app.ActivityThread$H.handleMessage|0.4853333333333334
0.5|android.os.Handler.dispatchMessage|0.47066666666666673
0.5555555555555556|android.os.Looper.loop|0.45600000000000007
0.6111111111111112|android.app.ActivityThread.main|0.44133333333333336
0.6666666666666666|java.lang.reflect.Method.invokeNative|0.4266666666666667
0.7222222222222222|java.lang.reflect.Method.invoke|0.41200000000000003
0.7777777777777778|com.android.internal.os.ZygoteInit$MethodAndArgsCaller.run|0.39733333333333337
0.8333333333333334|com.android.internal.os.ZygoteInit.main|0.3826666666666667
0.8888888888888888|com.android.internal.os.ZygoteInit.main|0.36800000000000005
0.9444444444444444|android.app.Activity.findViewById|0.264
1.0|android.app.Activity.findViewById|0.2346666666666667
