BEFORE android.content.ContextWrapper.getApplicationContext()
AFTER android.content.ContextWrapper.getApplicationContext, returnValue: com.lapism.searchview.sample.Leak
BEFORE android.content.ContextWrapper.getApplicationContext()
AFTER android.content.ContextWrapper.getApplicationContext, returnValue: com.lapism.searchview.sample.Leak
BEFORE android.content.ContextWrapper.getApplicationContext()
BEFORE com.squareup.leakcanary.internal.LeakCanaryInternals$1.run()
BEFORE android.content.ContextWrapper.getApplicationContext()
AFTER android.content.ContextWrapper.getApplicationContext, returnValue: com.lapism.searchview.sample.Leak
BEFORE android.content.ContextWrapper.getPackageManager()
AFTER android.content.ContextWrapper.getPackageManager, returnValue: android.app.ApplicationPackageManager
BEFORE android.app.ApplicationPackageManager.setComponentEnabledSetting(android.content.ComponentName,1,1)
AFTER android.app.ApplicationPackageManager.setComponentEnabledSetting
AFTER com.squareup.leakcanary.internal.LeakCanaryInternals$1.run
BEFORE com.squareup.leakcanary.internal.LeakCanaryInternals$1.run()
BEFORE android.content.ContextWrapper.getPackageManager()
AFTER android.content.ContextWrapper.getPackageManager, returnValue: android.app.ApplicationPackageManager
BEFORE android.app.ApplicationPackageManager.setComponentEnabledSetting(android.content.ComponentName,1,1)
AFTER android.app.ApplicationPackageManager.setComponentEnabledSetting
AFTER com.squareup.leakcanary.internal.LeakCanaryInternals$1.run
BEFORE android.content.ContextWrapper.getPackageManager()
AFTER android.content.ContextWrapper.getPackageManager, returnValue: android.app.ApplicationPackageManager
BEFORE android.content.ContextWrapper.getPackageName()
AFTER android.content.ContextWrapper.getPackageName, returnValue: com.lapism.searchview.samplebug, isEmpty: false
BEFORE android.app.ApplicationPackageManager.getPackageInfo(com.lapism.searchview.samplebug,4)
AFTER android.app.ApplicationPackageManager.getPackageInfo, returnValue: PackageInfo{35ca8931 com.lapism.searchview.samplebug}
BEFORE android.app.ApplicationPackageManager.getServiceInfo(android.content.ComponentName,0)
AFTER android.app.ApplicationPackageManager.getServiceInfo, returnValue: ServiceInfo{29ef8816 com.squareup.leakcanary.internal.HeapAnalyzerService}
BEFORE android.os.Process.myPid()
AFTER android.os.Process.myPid, returnValue: 3486
BEFORE android.content.ContextWrapper.getSystemService(activity)
AFTER android.content.ContextWrapper.getSystemService, returnValue: android.app.ActivityManager
BEFORE android.app.ActivityManager.getRunningAppProcesses()
AFTER android.app.ActivityManager.getRunningAppProcesses, returnValue: java.util.ArrayList, isEmpty: false
BEFORE android.content.ContextWrapper.getApplicationContext()
AFTER android.content.ContextWrapper.getApplicationContext, returnValue: com.lapism.searchview.sample.Leak
BEFORE android.content.ContextWrapper.getApplicationContext()
AFTER android.content.ContextWrapper.getApplicationContext, returnValue: com.lapism.searchview.sample.Leak
BEFORE android.os.Looper.getMainLooper()
AFTER android.os.Looper.getMainLooper, returnValue: Looper (main, tid 1) {203a0c38}
BEFORE android.os.Looper.getMainLooper()
AFTER android.os.Looper.getMainLooper, returnValue: Looper (main, tid 1) {203a0c38}
BEFORE android.os.HandlerThread.getLooper()
AFTER android.os.HandlerThread.getLooper, returnValue: Looper (LeakCanary-Heap-Dump, tid 258) {13c07411}
BEFORE android.content.ContextWrapper.getApplicationContext()
AFTER android.content.ContextWrapper.getApplicationContext, returnValue: com.lapism.searchview.sample.Leak
BEFORE com.squareup.leakcanary.internal.LeakCanaryInternals$1.run()
BEFORE android.app.Application.unregisterActivityLifecycleCallbacks(com.squareup.leakcanary.ActivityRefWatcher$1)
AFTER android.app.Application.unregisterActivityLifecycleCallbacks
BEFORE android.content.ContextWrapper.getPackageManager()
BEFORE android.app.Application.registerActivityLifecycleCallbacks(com.squareup.leakcanary.ActivityRefWatcher$1)
AFTER android.app.Application.registerActivityLifecycleCallbacks
AFTER android.content.ContextWrapper.getPackageManager, returnValue: android.app.ApplicationPackageManager
BEFORE android.app.ApplicationPackageManager.setComponentEnabledSetting(android.content.ComponentName,1,1)
AFTER android.app.ApplicationPackageManager.setComponentEnabledSetting
AFTER com.squareup.leakcanary.internal.LeakCanaryInternals$1.run
BEFORE com.lapism.searchview.sample.activity.menu.ToolbarActivity.onCreate()
BEFORE android.support.v7.app.AppCompatActivity.setTheme(2131296318)
AFTER android.support.v7.app.AppCompatActivity.setTheme
BEFORE android.support.v7.app.AppCompatActivity.onCreate()
BEFORE com.squareup.leakcanary.ActivityRefWatcher$1.onActivityCreated(com.lapism.searchview.sample.activity.menu.ToolbarActivity)
AFTER com.squareup.leakcanary.ActivityRefWatcher$1.onActivityCreated
AFTER android.support.v7.app.AppCompatActivity.onCreate
BEFORE android.support.v7.app.AppCompatActivity.setContentView(2130968604)
BEFORE android.view.LayoutInflater.from(com.lapism.searchview.sample.activity.menu.ToolbarActivity)
AFTER android.view.LayoutInflater.from, returnValue: com.android.internal.policy.impl.PhoneLayoutInflater
BEFORE android.view.LayoutInflater.inflate(2130968644,com.lapism.searchview.SearchView,true)
AFTER android.view.LayoutInflater.inflate, returnValue: com.lapism.searchview.SearchView{15e4aaa5 V.E..... ......I. 0,0-0,0 #7f0d007b app:id/searchView}
BEFORE android.support.v7.widget.RecyclerView.setNestedScrollingEnabled(false)
AFTER android.support.v7.widget.RecyclerView.setNestedScrollingEnabled
BEFORE android.support.v7.widget.RecyclerView.setLayoutManager(android.support.v7.widget.LinearLayoutManager)
AFTER android.support.v7.widget.RecyclerView.setLayoutManager
BEFORE android.support.v7.widget.RecyclerView.setItemAnimator()
AFTER android.support.v7.widget.RecyclerView.setItemAnimator
BEFORE android.animation.LayoutTransition.setDuration(java.lang.Long)
AFTER android.animation.LayoutTransition.setDuration
BEFORE android.support.v7.widget.RecyclerView.addOnScrollListener(com.lapism.searchview.SearchView$1)
AFTER android.support.v7.widget.RecyclerView.addOnScrollListener
BEFORE android.support.v4.content.ContextCompat.getColor(com.lapism.searchview.sample.activity.menu.ToolbarActivity,2131492945)
AFTER android.support.v4.content.ContextCompat.getColor, returnValue: 1342177280
BEFORE android.widget.ProgressBar.setVisibility(8)
AFTER android.widget.ProgressBar.setVisibility
BEFORE android.support.v7.widget.AppCompatImageView.setImageResource(2130837603)
AFTER android.support.v7.widget.AppCompatImageView.setImageResource
BEFORE android.widget.ImageView.setVisibility(8)
AFTER android.widget.ImageView.setVisibility
BEFORE android.support.v7.widget.AppCompatImageView.setImageResource(2130837596)
AFTER android.support.v7.widget.AppCompatImageView.setImageResource
BEFORE android.widget.ImageView.setVisibility(8)
AFTER android.widget.ImageView.setVisibility
BEFORE android.widget.FrameLayout.setVisibility(0)
AFTER android.widget.FrameLayout.setVisibility
BEFORE android.view.animation.Animation.setInterpolator(android.view.animation.AccelerateDecelerateInterpolator)
AFTER android.view.animation.Animation.setInterpolator
BEFORE android.view.animation.Animation.setDuration(java.lang.Long)
AFTER android.view.animation.Animation.setDuration
BEFORE android.app.Activity.getSystemService(input_method)
AFTER android.app.Activity.getSystemService, returnValue: android.view.inputmethod.InputMethodManager
BEFORE android.view.inputmethod.InputMethodManager.hideSoftInputFromWindow(0)
AFTER android.view.inputmethod.InputMethodManager.hideSoftInputFromWindow, returnValue: false
BEFORE android.widget.ImageView.setImageDrawable(com.lapism.searchview.SearchArrowDrawable)
AFTER android.widget.ImageView.setImageDrawable
BEFORE android.support.v7.app.AppCompatActivity.getResources()
AFTER android.support.v7.app.AppCompatActivity.getResources, returnValue: android.content.res.XResources
BEFORE android.support.v7.app.AppCompatActivity.getResources()
AFTER android.support.v7.app.AppCompatActivity.getResources, returnValue: android.content.res.XResources
BEFORE android.support.v4.content.ContextCompat.getColor(com.lapism.searchview.sample.activity.menu.ToolbarActivity,2131492940)
AFTER android.support.v4.content.ContextCompat.getColor, returnValue: -328966
BEFORE android.support.v7.widget.CardView.setCardBackgroundColor(-328966)
AFTER android.support.v7.widget.CardView.setCardBackgroundColor
BEFORE android.support.v4.content.ContextCompat.getColor(com.lapism.searchview.sample.activity.menu.ToolbarActivity,2131492942)
AFTER android.support.v4.content.ContextCompat.getColor, returnValue: -1979711488
BEFORE android.widget.ImageView.setColorFilter(android.graphics.PorterDuffColorFilter)
AFTER android.widget.ImageView.setColorFilter
BEFORE android.widget.ImageView.setColorFilter(android.graphics.PorterDuffColorFilter)
AFTER android.widget.ImageView.setColorFilter
BEFORE android.widget.ImageView.setColorFilter(android.graphics.PorterDuffColorFilter)
AFTER android.widget.ImageView.setColorFilter
BEFORE android.support.v4.content.ContextCompat.getColor(com.lapism.searchview.sample.activity.menu.ToolbarActivity,2131492941)
AFTER android.support.v4.content.ContextCompat.getColor, returnValue: -2147483648
BEFORE android.support.v4.content.ContextCompat.getColor(com.lapism.searchview.sample.activity.menu.ToolbarActivity,2131492943)
AFTER android.support.v4.content.ContextCompat.getColor, returnValue: -570425344
BEFORE android.support.v4.content.ContextCompat.getColor(com.lapism.searchview.sample.activity.menu.ToolbarActivity,2131492944)
AFTER android.support.v4.content.ContextCompat.getColor, returnValue: 1644167168
BEFORE android.content.ContextWrapper.getPackageManager()
AFTER android.content.ContextWrapper.getPackageManager, returnValue: android.app.ApplicationPackageManager
BEFORE android.app.ApplicationPackageManager.queryIntentActivities(android.content.Intent,0)
AFTER android.app.ApplicationPackageManager.queryIntentActivities, returnValue: [], isEmpty: true
BEFORE android.widget.ImageView.setVisibility(8)
AFTER android.widget.ImageView.setVisibility
BEFORE android.content.Context.obtainStyledAttributes(android.content.res.XmlBlock$Parser,[I,0,0)
AFTER android.content.Context.obtainStyledAttributes, returnValue: [0, 0, 1, 0, 0, 0, 0, 0, 1, 0, 0, 0, 0, 0, 1, 0, 0, 0, 0, 0, 1, 0, 0, 0, 0, 0, 1, 0, 0, 0, 0, 0, 1, 0, 0, 0, 0, 0, 1, 0, 0, 0, 0, 0, 1, 0, 0, 0, 0, 0, 1, 0, 0, 0, 0, 0, 1, 0, 0, 0, 0, 0, 1, 0, 0, 0, 0, 0, 1, 0, 0, 0, 0, 0, 1, 0, 0, 0, 0, 0, 1, 0, 0, 0, 0, 0, 1, 0, 0, 0, 0, 0, 1, 0, 0, 0, 0, 0, 1, 0, 0, 0, 0, 0, 1, 0, 0, 0, 0, 0, 1, 0, 0, 0, 0, 0, 1, 0, 0, 0, 0, 0, 1, 0, 0, 0, 0, 0, 1, 0, 0, 0, 0, 0, 1, 0, 0, 0, 0, 0, 1, 0, 0, 0, 0, 0, 1, 0, 0, 0, 0, 0, 1, 0, 0, 0, 0, 0, 1, 0, 0, 0, 0, 0, 1, 0, 0, 0, 0, 0, 1, 0, 0, 0, 0, 0, 1, 0, 0, 0, 0, 0, 1, 0, 0, 0, 0, 0, 1, 0, 0, 0, 0, 0, 1, 0, 0, 0, 0, 0, 1, 0, 0, 0, 0, 0, 1, 0, 0, 0, 0, 0, 1, 0, 0, 0, 0, 0, 1, 0, 0, 0, 0, 0, 1, 0, 0, 0, 0, 0, 1, 0, 0, 0, 0, 0, 1, 0, 0, 0, 0, 0, 1, 0, 0, 0, 0, 0, 2, 0, 0, 0, 0, 0, 2, 0, 0, 0, 16, 250, 2, 0, 1073746944, 0, 16, 300, 2, 0, 1073746944, 0, 0, 0, 2, 0, 0, 0, 0, 0, 2, 0, 0, 0, 0, 0, 2, 0, 0, 0, 0, 0, 2, 0, 0, 0, 0, 0, 2, 0, 0, 0, 0, 0, 2, 0, 0, 0, 0, 0, 2, 0, 0, 0, 0, 0, 2, 0, 0, 0, 0, 0, 2, 0, 0, 0, 0, 0, 2, 0, 0, 0, 0, 0, 2, 0, 0, 0, 0, 0, 2, 0, 0, 0, 0, 0, 2, 0, 0, 0, 0, 0, 2, 0, 0, 0, 0, 0, 2, 0, 0, 0, 0, 0, 2, 0, 0, 0, 0, 0, 2, 0, 0, 0, 0, 0, 2, 0, 0, 0, 0, 0, 2, 0, 0, 0, 0, 0, 2, 0, 0, 0, 0, 0, 2, 0, 0, 0, 0, 0, 2, 0, 0, 0, 0, 0, 2, 0, 0, 0, 0, 0, 2, 0, 0, 0, 0, 0, 2, 0, 0, 0, 0, 0, 2, 0, 0, 0, 0, 0, 2, 0, 0, 0, 0, 0, 2, 0, 0, 0, 0, 0, 2, 0, 0, 0, 0, 0, 2, 0, 0, 0, 0, 0, 2, 0, 0, 0, 0, 0, 2, 0, 0, 0, 0, 0, 2, 0, 0, 0]
BEFORE android.content.res.TypedArray.hasValue(17)
AFTER android.content.res.TypedArray.hasValue, returnValue: false
BEFORE android.content.res.TypedArray.hasValue(18)
AFTER android.content.res.TypedArray.hasValue, returnValue: false
BEFORE android.content.res.TypedArray.hasValue(19)
AFTER android.content.res.TypedArray.hasValue, returnValue: false
BEFORE android.content.res.TypedArray.hasValue(20)
AFTER android.content.res.TypedArray.hasValue, returnValue: false
BEFORE android.content.res.TypedArray.hasValue(21)
AFTER android.content.res.TypedArray.hasValue, returnValue: false
BEFORE android.content.res.TypedArray.hasValue(22)
AFTER android.content.res.TypedArray.hasValue, returnValue: false
BEFORE android.content.res.TypedArray.hasValue(23)
AFTER android.content.res.TypedArray.hasValue, returnValue: false
BEFORE android.content.res.TypedArray.hasValue(24)
AFTER android.content.res.TypedArray.hasValue, returnValue: false
BEFORE android.content.res.TypedArray.hasValue(25)
AFTER android.content.res.TypedArray.hasValue, returnValue: false
BEFORE android.content.res.TypedArray.hasValue(26)
AFTER android.content.res.TypedArray.hasValue, returnValue: false
BEFORE android.content.res.TypedArray.hasValue(27)
AFTER android.content.res.TypedArray.hasValue, returnValue: false
BEFORE android.content.res.TypedArray.hasValue(28)
AFTER android.content.res.TypedArray.hasValue, returnValue: false
BEFORE android.content.res.TypedArray.hasValue(29)
AFTER android.content.res.TypedArray.hasValue, returnValue: false
BEFORE android.content.res.TypedArray.hasValue(30)
AFTER android.content.res.TypedArray.hasValue, returnValue: false
BEFORE android.content.res.TypedArray.hasValue(31)
AFTER android.content.res.TypedArray.hasValue, returnValue: false
BEFORE android.content.res.TypedArray.hasValue(32)
AFTER android.content.res.TypedArray.hasValue, returnValue: false
BEFORE android.content.res.TypedArray.hasValue(33)
AFTER android.content.res.TypedArray.hasValue, returnValue: false
BEFORE android.content.res.TypedArray.hasValue(34)
AFTER android.content.res.TypedArray.hasValue, returnValue: false
BEFORE android.content.res.TypedArray.hasValue(35)
AFTER android.content.res.TypedArray.hasValue, returnValue: false
BEFORE android.content.res.TypedArray.hasValue(36)
AFTER android.content.res.TypedArray.hasValue, returnValue: false
BEFORE android.content.res.TypedArray.hasValue(37)
AFTER android.content.res.TypedArray.hasValue, returnValue: false
BEFORE android.content.res.TypedArray.hasValue(38)
AFTER android.content.res.TypedArray.hasValue, returnValue: false
BEFORE android.content.res.TypedArray.hasValue(39)
AFTER android.content.res.TypedArray.hasValue, returnValue: false
BEFORE android.content.res.TypedArray.hasValue(40)
AFTER android.content.res.TypedArray.hasValue, returnValue: false
BEFORE android.content.res.TypedArray.recycle()
AFTER android.content.res.TypedArray.recycle
AFTER android.support.v7.app.AppCompatActivity.setContentView
BEFORE android.app.Activity.setTitle()
AFTER android.app.Activity.setTitle
BEFORE android.support.v7.app.AppCompatActivity.findViewById(2131558462)
AFTER android.support.v7.app.AppCompatActivity.findViewById, returnValue: android.support.v7.widget.Toolbar{24ee8d7 V.E..... ......I. 0,0-0,0 #7f0d003e app:id/toolbar}
BEFORE android.support.v7.app.AppCompatActivity.getResources()
AFTER android.support.v7.app.AppCompatActivity.getResources, returnValue: android.content.res.XResources
BEFORE android.content.res.Resources.getString(2131165241)
AFTER android.content.res.Resources.getString, returnValue: Bug-SearchView Sample, isEmpty: false
BEFORE android.support.v7.widget.Toolbar.setNavigationContentDescription(Bug-SearchView Sample)
AFTER android.support.v7.widget.Toolbar.setNavigationContentDescription
BEFORE android.support.v7.app.AppCompatActivity.setSupportActionBar(android.support.v7.widget.Toolbar)
AFTER android.support.v7.app.AppCompatActivity.setSupportActionBar
BEFORE android.support.v4.app.FragmentActivity.getSupportFragmentManager()
AFTER android.support.v4.app.FragmentActivity.getSupportFragmentManager, returnValue: FragmentManager{2cc7abe2 in HostCallbacks{3a2f3b73}}
BEFORE android.content.Context.getString(2131165248)
AFTER android.content.Context.getString, returnValue: Installed, isEmpty: false
BEFORE android.content.Context.getString(2131165240)
AFTER android.content.Context.getString, returnValue: All, isEmpty: false
BEFORE android.support.v7.app.AppCompatActivity.findViewById(2131558522)
AFTER android.support.v7.app.AppCompatActivity.findViewById, returnValue: android.support.v4.view.ViewPager{182b8a30 VFED.... ......I. 0,0-0,0 #7f0d007a app:id/viewPager}
BEFORE android.support.v4.view.ViewPager.setAdapter(com.lapism.searchview.sample.view.FragmentAdapter)
BEFORE com.lapism.searchview.sample.view.FragmentAdapter.getCount()
AFTER com.lapism.searchview.sample.view.FragmentAdapter.getCount, returnValue: 2
AFTER android.support.v4.view.ViewPager.setAdapter
BEFORE android.support.v7.app.AppCompatActivity.findViewById(2131558521)
AFTER android.support.v7.app.AppCompatActivity.findViewById, returnValue: android.support.design.widget.TabLayout{1fc4a6a9 VFED.... ......I. 0,0-0,0 #7f0d0079 app:id/tabs}
BEFORE android.support.design.widget.TabLayout.setupWithViewPager(android.support.v4.view.ViewPager)
BEFORE android.support.design.widget.TabLayout.setupWithViewPager(android.support.v4.view.ViewPager)
BEFORE com.lapism.searchview.sample.view.FragmentAdapter.getCount()
AFTER com.lapism.searchview.sample.view.FragmentAdapter.getCount, returnValue: 2
BEFORE com.lapism.searchview.sample.view.FragmentAdapter.getPageTitle(0)
AFTER com.lapism.searchview.sample.view.FragmentAdapter.getPageTitle, returnValue: Installed, isEmpty: false
BEFORE com.lapism.searchview.sample.view.FragmentAdapter.getPageTitle(1)
AFTER com.lapism.searchview.sample.view.FragmentAdapter.getPageTitle, returnValue: All, isEmpty: false
BEFORE com.lapism.searchview.sample.view.FragmentAdapter.getCount()
AFTER com.lapism.searchview.sample.view.FragmentAdapter.getCount, returnValue: 2
BEFORE com.lapism.searchview.sample.view.FragmentAdapter.getCount()
AFTER com.lapism.searchview.sample.view.FragmentAdapter.getCount, returnValue: 2
AFTER android.support.design.widget.TabLayout.setupWithViewPager
AFTER android.support.design.widget.TabLayout.setupWithViewPager
AFTER com.lapism.searchview.sample.activity.menu.ToolbarActivity.onCreate
BEFORE com.squareup.leakcanary.ActivityRefWatcher$1.onActivityStarted(com.lapism.searchview.sample.activity.menu.ToolbarActivity)
AFTER com.squareup.leakcanary.ActivityRefWatcher$1.onActivityStarted
BEFORE com.lapism.searchview.sample.activity.menu.ToolbarActivity.onPostCreate()
BEFORE android.support.v7.app.AppCompatActivity.onPostCreate()
AFTER android.support.v7.app.AppCompatActivity.onPostCreate
BEFORE android.support.v7.app.AppCompatActivity.findViewById(2131558524)
AFTER android.support.v7.app.AppCompatActivity.findViewById, returnValue: android.support.design.widget.FloatingActionButton{2cbd96bf VFED.... ......I. 0,0-0,0 #7f0d007c app:id/floatingActionButton}
BEFORE android.support.v7.app.AppCompatActivity.findViewById(2131558520)
AFTER android.support.v7.app.AppCompatActivity.findViewById, returnValue: android.support.v4.widget.DrawerLayout{2761918c VFE..... ......I. 0,0-0,0 #7f0d0078 app:id/drawerLayout}
BEFORE android.support.v4.widget.DrawerLayout.addDrawerListener(com.lapism.searchview.sample.base.BaseActivity$2)
AFTER android.support.v4.widget.DrawerLayout.addDrawerListener
BEFORE android.support.v7.app.ActionBarDrawerToggle.syncState()
AFTER android.support.v7.app.ActionBarDrawerToggle.syncState
BEFORE android.support.v7.app.AppCompatActivity.findViewById(2131558547)
AFTER android.support.v7.app.AppCompatActivity.findViewById, returnValue: android.support.design.widget.NavigationView{1d2bd0d5 V.E..... ......ID 0,0-0,0 #7f0d0093 app:id/nav_view}
BEFORE android.support.design.widget.NavigationView.setNavigationItemSelectedListener(com.lapism.searchview.sample.base.BaseActivity$3)
AFTER android.support.design.widget.NavigationView.setNavigationItemSelectedListener
BEFORE android.support.design.widget.NavigationView.getMenu()
AFTER android.support.design.widget.NavigationView.getMenu, returnValue: android.support.design.internal.NavigationMenu
BEFORE android.support.v7.view.menu.MenuBuilder.getItem(0)
AFTER android.support.v7.view.menu.MenuBuilder.getItem, returnValue: Toolbar
BEFORE android.support.v7.view.menu.MenuItemImpl.setChecked(true)
AFTER android.support.v7.view.menu.MenuItemImpl.setChecked, returnValue: Toolbar
BEFORE android.support.v7.app.ActionBarDrawerToggle.syncState()
AFTER android.support.v7.app.ActionBarDrawerToggle.syncState
BEFORE android.support.v7.app.ActionBarDrawerToggle.setDrawerIndicatorEnabled(false)
AFTER android.support.v7.app.ActionBarDrawerToggle.setDrawerIndicatorEnabled
BEFORE android.support.v7.app.AppCompatActivity.findViewById(2131558523)
AFTER android.support.v7.app.AppCompatActivity.findViewById, returnValue: com.lapism.searchview.SearchView{15e4aaa5 V.E..... ......I. 0,0-0,0 #7f0d007b app:id/searchView}
BEFORE android.widget.Filter.filter()
BEFORE android.widget.Filter.filter()
AFTER android.widget.Filter.filter
BEFORE com.lapism.searchview.SearchAdapter$1.performFiltering()
AFTER com.lapism.searchview.SearchAdapter$1.performFiltering, returnValue: android.widget.Filter$FilterResults
AFTER android.widget.Filter.filter
BEFORE android.support.v7.widget.RecyclerView.setAdapter(com.lapism.searchview.SearchAdapter)
AFTER android.support.v7.widget.RecyclerView.setAdapter
BEFORE android.app.Activity.getIntent()
AFTER android.app.Activity.getIntent, returnValue: Intent { flg=0x10000000 cmp=com.lapism.searchview.samplebug/com.lapism.searchview.sample.activity.menu.ToolbarActivity }
BEFORE android.content.Intent.getExtras()
AFTER android.content.Intent.getExtras
AFTER com.lapism.searchview.sample.activity.menu.ToolbarActivity.onPostCreate
BEFORE com.squareup.leakcanary.ActivityRefWatcher$1.onActivityResumed(com.lapism.searchview.sample.activity.menu.ToolbarActivity)
AFTER com.squareup.leakcanary.ActivityRefWatcher$1.onActivityResumed
BEFORE com.lapism.searchview.SearchAdapter$1.publishResults(,android.widget.Filter$FilterResults)
BEFORE android.database.sqlite.SQLiteOpenHelper.getWritableDatabase()
BEFORE com.lapism.searchview.SearchHistoryDatabase.onOpen(android.database.sqlite.SQLiteDatabase)
AFTER com.lapism.searchview.SearchHistoryDatabase.onOpen
AFTER android.database.sqlite.SQLiteOpenHelper.getWritableDatabase, returnValue: SQLiteDatabase: /data/data/com.lapism.searchview.samplebug/databases/search_history_database.db
BEFORE android.database.sqlite.SQLiteDatabase.rawQuery(SELECT * FROM search_history ORDER BY _id DESC LIMIT 2)
AFTER android.database.sqlite.SQLiteDatabase.rawQuery, returnValue: android.database.sqlite.SQLiteCursor
BEFORE android.database.AbstractCursor.moveToFirst()
AFTER android.database.AbstractCursor.moveToFirst, returnValue: false
BEFORE android.database.sqlite.SQLiteCursor.close()
AFTER android.database.sqlite.SQLiteCursor.close
BEFORE android.database.sqlite.SQLiteOpenHelper.close()
AFTER android.database.sqlite.SQLiteOpenHelper.close
BEFORE android.support.v7.widget.RecyclerView$Adapter.notifyItemRangeRemoved(0,3)
AFTER android.support.v7.widget.RecyclerView$Adapter.notifyItemRangeRemoved
AFTER com.lapism.searchview.SearchAdapter$1.publishResults
BEFORE com.lapism.searchview.SearchBehavior.layoutDependsOn(android.support.design.widget.CoordinatorLayout,com.lapism.searchview.SearchView,android.support.design.widget.AppBarLayout)
BEFORE com.lapism.searchview.SearchBehavior.layoutDependsOn(android.support.design.widget.CoordinatorLayout,com.lapism.searchview.SearchView,android.support.design.widget.AppBarLayout)
BEFORE android.support.design.widget.CoordinatorLayout$LayoutParams.getBehavior()
AFTER android.support.design.widget.CoordinatorLayout$LayoutParams.getBehavior, returnValue: android.support.design.widget.AppBarLayout$Behavior
AFTER com.lapism.searchview.SearchBehavior.layoutDependsOn, returnValue: true
AFTER com.lapism.searchview.SearchBehavior.layoutDependsOn, returnValue: true
BEFORE com.lapism.searchview.SearchBehavior.layoutDependsOn(android.support.design.widget.CoordinatorLayout,com.lapism.searchview.SearchView,android.support.v4.view.ViewPager)
BEFORE com.lapism.searchview.SearchBehavior.layoutDependsOn(android.support.design.widget.CoordinatorLayout,com.lapism.searchview.SearchView,android.support.v4.view.ViewPager)
BEFORE android.support.design.widget.CoordinatorLayout$Behavior.layoutDependsOn(android.support.design.widget.CoordinatorLayout,com.lapism.searchview.SearchView,android.support.v4.view.ViewPager)
AFTER android.support.design.widget.CoordinatorLayout$Behavior.layoutDependsOn, returnValue: false
AFTER com.lapism.searchview.SearchBehavior.layoutDependsOn, returnValue: false
AFTER com.lapism.searchview.SearchBehavior.layoutDependsOn, returnValue: false
BEFORE com.lapism.searchview.SearchBehavior.layoutDependsOn(android.support.design.widget.CoordinatorLayout,com.lapism.searchview.SearchView,android.support.design.widget.FloatingActionButton)
BEFORE com.lapism.searchview.SearchBehavior.layoutDependsOn(android.support.design.widget.CoordinatorLayout,com.lapism.searchview.SearchView,android.support.design.widget.FloatingActionButton)
BEFORE android.support.design.widget.CoordinatorLayout$Behavior.layoutDependsOn(android.support.design.widget.CoordinatorLayout,com.lapism.searchview.SearchView,android.support.design.widget.FloatingActionButton)
AFTER android.support.design.widget.CoordinatorLayout$Behavior.layoutDependsOn, returnValue: false
AFTER com.lapism.searchview.SearchBehavior.layoutDependsOn, returnValue: false
AFTER com.lapism.searchview.SearchBehavior.layoutDependsOn, returnValue: false
BEFORE com.lapism.searchview.sample.view.FragmentAdapter.getCount()
AFTER com.lapism.searchview.sample.view.FragmentAdapter.getCount, returnValue: 2
BEFORE com.lapism.searchview.sample.view.FragmentAdapter.getItem(0)
AFTER com.lapism.searchview.sample.view.FragmentAdapter.getItem, returnValue: SearchFragment{38c39945}
BEFORE com.lapism.searchview.sample.view.FragmentAdapter.getItem(1)
AFTER com.lapism.searchview.sample.view.FragmentAdapter.getItem, returnValue: SearchFragment{1459789a}
BEFORE com.lapism.searchview.sample.view.FragmentAdapter.getCount()
AFTER com.lapism.searchview.sample.view.FragmentAdapter.getCount, returnValue: 2
BEFORE com.lapism.searchview.sample.view.SearchFragment.onCreateView(com.android.internal.policy.impl.PhoneLayoutInflater,android.support.v4.view.ViewPager)
BEFORE android.support.v4.app.Fragment.getString(2131165248)
AFTER android.support.v4.app.Fragment.getString, returnValue: Installed, isEmpty: false
BEFORE android.support.v4.app.Fragment.getString(2131165240)
AFTER android.support.v4.app.Fragment.getString, returnValue: All, isEmpty: false
BEFORE android.view.LayoutInflater.inflate(2130968642,android.support.v4.view.ViewPager,false)
AFTER android.view.LayoutInflater.inflate, returnValue: android.support.v7.widget.RecyclerView{12c68466 VFED.... ......I. 0,0-0,0 #7f0d007d app:id/recyclerView}
BEFORE android.support.v7.widget.RecyclerView.setLayoutManager(android.support.v7.widget.LinearLayoutManager)
AFTER android.support.v7.widget.RecyclerView.setLayoutManager
BEFORE android.support.v4.app.Fragment.getActivity()
AFTER android.support.v4.app.Fragment.getActivity, returnValue: com.lapism.searchview.sample.activity.menu.ToolbarActivity
BEFORE android.support.v7.widget.RecyclerView.setAdapter(com.lapism.searchview.sample.view.RecyclerViewAdapter)
AFTER android.support.v7.widget.RecyclerView.setAdapter
AFTER com.lapism.searchview.sample.view.SearchFragment.onCreateView, returnValue: android.support.v7.widget.RecyclerView{12c68466 VFED.... ......I. 0,0-0,0 #7f0d007d app:id/recyclerView}
BEFORE com.lapism.searchview.sample.view.FragmentAdapter.getCount()
AFTER com.lapism.searchview.sample.view.FragmentAdapter.getCount, returnValue: 2
BEFORE com.lapism.searchview.sample.view.SearchFragment.onCreateView(com.android.internal.policy.impl.PhoneLayoutInflater,android.support.v4.view.ViewPager)
BEFORE android.support.v4.app.Fragment.getString(2131165248)
AFTER android.support.v4.app.Fragment.getString, returnValue: Installed, isEmpty: false
BEFORE android.support.v4.app.Fragment.getString(2131165240)
AFTER android.support.v4.app.Fragment.getString, returnValue: All, isEmpty: false
BEFORE android.view.LayoutInflater.inflate(2130968642,android.support.v4.view.ViewPager,false)
AFTER android.view.LayoutInflater.inflate, returnValue: android.support.v7.widget.RecyclerView{1c68abfd VFED.... ......I. 0,0-0,0 #7f0d007d app:id/recyclerView}
BEFORE android.support.v7.widget.RecyclerView.setLayoutManager(android.support.v7.widget.LinearLayoutManager)
AFTER android.support.v7.widget.RecyclerView.setLayoutManager
BEFORE android.support.v4.app.Fragment.getActivity()
AFTER android.support.v4.app.Fragment.getActivity, returnValue: com.lapism.searchview.sample.activity.menu.ToolbarActivity
BEFORE android.support.v7.widget.RecyclerView.setAdapter(com.lapism.searchview.sample.view.RecyclerViewAdapter)
AFTER android.support.v7.widget.RecyclerView.setAdapter
AFTER com.lapism.searchview.sample.view.SearchFragment.onCreateView, returnValue: android.support.v7.widget.RecyclerView{1c68abfd VFED.... ......I. 0,0-0,0 #7f0d007d app:id/recyclerView}
BEFORE com.lapism.searchview.sample.view.FragmentAdapter.getCount()
AFTER com.lapism.searchview.sample.view.FragmentAdapter.getCount, returnValue: 2
BEFORE com.lapism.searchview.SearchBehavior.layoutDependsOn(android.support.design.widget.CoordinatorLayout,com.lapism.searchview.SearchView,android.support.design.widget.AppBarLayout)
BEFORE com.lapism.searchview.SearchBehavior.layoutDependsOn(android.support.design.widget.CoordinatorLayout,com.lapism.searchview.SearchView,android.support.design.widget.AppBarLayout)
BEFORE android.support.design.widget.CoordinatorLayout$LayoutParams.getBehavior()
AFTER android.support.design.widget.CoordinatorLayout$LayoutParams.getBehavior, returnValue: android.support.design.widget.AppBarLayout$Behavior
AFTER com.lapism.searchview.SearchBehavior.layoutDependsOn, returnValue: true
AFTER com.lapism.searchview.SearchBehavior.layoutDependsOn, returnValue: true
BEFORE com.lapism.searchview.SearchBehavior.layoutDependsOn(android.support.design.widget.CoordinatorLayout,com.lapism.searchview.SearchView,android.support.v4.view.ViewPager)
BEFORE com.lapism.searchview.SearchBehavior.layoutDependsOn(android.support.design.widget.CoordinatorLayout,com.lapism.searchview.SearchView,android.support.v4.view.ViewPager)
BEFORE android.support.design.widget.CoordinatorLayout$Behavior.layoutDependsOn(android.support.design.widget.CoordinatorLayout,com.lapism.searchview.SearchView,android.support.v4.view.ViewPager)
AFTER android.support.design.widget.CoordinatorLayout$Behavior.layoutDependsOn, returnValue: false
AFTER com.lapism.searchview.SearchBehavior.layoutDependsOn, returnValue: false
AFTER com.lapism.searchview.SearchBehavior.layoutDependsOn, returnValue: false
BEFORE com.lapism.searchview.SearchBehavior.layoutDependsOn(android.support.design.widget.CoordinatorLayout,com.lapism.searchview.SearchView,android.support.design.widget.FloatingActionButton)
BEFORE com.lapism.searchview.SearchBehavior.layoutDependsOn(android.support.design.widget.CoordinatorLayout,com.lapism.searchview.SearchView,android.support.design.widget.FloatingActionButton)
BEFORE android.support.design.widget.CoordinatorLayout$Behavior.layoutDependsOn(android.support.design.widget.CoordinatorLayout,com.lapism.searchview.SearchView,android.support.design.widget.FloatingActionButton)
AFTER android.support.design.widget.CoordinatorLayout$Behavior.layoutDependsOn, returnValue: false
AFTER com.lapism.searchview.SearchBehavior.layoutDependsOn, returnValue: false
AFTER com.lapism.searchview.SearchBehavior.layoutDependsOn, returnValue: false
BEFORE com.lapism.searchview.sample.view.FragmentAdapter.getCount()
AFTER com.lapism.searchview.sample.view.FragmentAdapter.getCount, returnValue: 2
BEFORE com.lapism.searchview.sample.view.FragmentAdapter.getCount()
AFTER com.lapism.searchview.sample.view.FragmentAdapter.getCount, returnValue: 2
BEFORE com.lapism.searchview.sample.view.RecyclerViewAdapter.getItemCount()
AFTER com.lapism.searchview.sample.view.RecyclerViewAdapter.getItemCount, returnValue: 30
BEFORE com.lapism.searchview.sample.view.RecyclerViewAdapter.getItemCount()
AFTER com.lapism.searchview.sample.view.RecyclerViewAdapter.getItemCount, returnValue: 30
BEFORE com.lapism.searchview.sample.view.RecyclerViewAdapter.getItemCount()
AFTER com.lapism.searchview.sample.view.RecyclerViewAdapter.getItemCount, returnValue: 30
BEFORE com.lapism.searchview.sample.view.RecyclerViewAdapter.onCreateViewHolder(android.support.v7.widget.RecyclerView,0)
BEFORE android.view.LayoutInflater.from(com.lapism.searchview.sample.activity.menu.ToolbarActivity)
AFTER android.view.LayoutInflater.from, returnValue: com.android.internal.policy.impl.PhoneLayoutInflater
BEFORE android.view.LayoutInflater.inflate(2130968624,android.support.v7.widget.RecyclerView,false)
AFTER android.view.LayoutInflater.inflate, returnValue: android.support.v7.widget.CardView{28a0187 V.ED..C. ......I. 0,0-0,0}
AFTER com.lapism.searchview.sample.view.RecyclerViewAdapter.onCreateViewHolder, returnValue: ViewHolder{28cfecdd position=-1 id=-1, oldPos=-1, pLpos:-1 unbound no parent} '
BEFORE com.lapism.searchview.sample.view.RecyclerViewAdapter.onBindViewHolder(com.lapism.searchview.sample.view.RecyclerViewAdapter$ViewHolder,0)
BEFORE com.lapism.searchview.sample.view.RecyclerViewAdapter.onBindViewHolder(com.lapism.searchview.sample.view.RecyclerViewAdapter$ViewHolder,0)
AFTER com.lapism.searchview.sample.view.RecyclerViewAdapter.onBindViewHolder
AFTER com.lapism.searchview.sample.view.RecyclerViewAdapter.onBindViewHolder
BEFORE com.lapism.searchview.sample.view.RecyclerViewAdapter.getItemCount()
AFTER com.lapism.searchview.sample.view.RecyclerViewAdapter.getItemCount, returnValue: 30
BEFORE com.lapism.searchview.sample.view.RecyclerViewAdapter.onCreateViewHolder(android.support.v7.widget.RecyclerView,0)
BEFORE android.view.LayoutInflater.from(com.lapism.searchview.sample.activity.menu.ToolbarActivity)
AFTER android.view.LayoutInflater.from, returnValue: com.android.internal.policy.impl.PhoneLayoutInflater
BEFORE android.view.LayoutInflater.inflate(2130968624,android.support.v7.widget.RecyclerView,false)
AFTER android.view.LayoutInflater.inflate, returnValue: android.support.v7.widget.CardView{298d1f38 V.ED..C. ......I. 0,0-0,0}
AFTER com.lapism.searchview.sample.view.RecyclerViewAdapter.onCreateViewHolder, returnValue: ViewHolder{34f59476 position=-1 id=-1, oldPos=-1, pLpos:-1 unbound no parent} '
BEFORE com.lapism.searchview.sample.view.RecyclerViewAdapter.onBindViewHolder(com.lapism.searchview.sample.view.RecyclerViewAdapter$ViewHolder,1)
BEFORE com.lapism.searchview.sample.view.RecyclerViewAdapter.onBindViewHolder(com.lapism.searchview.sample.view.RecyclerViewAdapter$ViewHolder,1)
AFTER com.lapism.searchview.sample.view.RecyclerViewAdapter.onBindViewHolder
AFTER com.lapism.searchview.sample.view.RecyclerViewAdapter.onBindViewHolder
BEFORE com.lapism.searchview.sample.view.RecyclerViewAdapter.getItemCount()
AFTER com.lapism.searchview.sample.view.RecyclerViewAdapter.getItemCount, returnValue: 30
BEFORE com.lapism.searchview.sample.view.RecyclerViewAdapter.onCreateViewHolder(android.support.v7.widget.RecyclerView,0)
BEFORE android.view.LayoutInflater.from(com.lapism.searchview.sample.activity.menu.ToolbarActivity)
AFTER android.view.LayoutInflater.from, returnValue: com.android.internal.policy.impl.PhoneLayoutInflater
BEFORE android.view.LayoutInflater.inflate(2130968624,android.support.v7.widget.RecyclerView,false)
AFTER android.view.LayoutInflater.inflate, returnValue: android.support.v7.widget.CardView{28c2216f V.ED..C. ......I. 0,0-0,0}
AFTER com.lapism.searchview.sample.view.RecyclerViewAdapter.onCreateViewHolder, returnValue: ViewHolder{19d69305 position=-1 id=-1, oldPos=-1, pLpos:-1 unbound no parent} '
BEFORE com.lapism.searchview.sample.view.RecyclerViewAdapter.onBindViewHolder(com.lapism.searchview.sample.view.RecyclerViewAdapter$ViewHolder,2)
BEFORE com.lapism.searchview.sample.view.RecyclerViewAdapter.onBindViewHolder(com.lapism.searchview.sample.view.RecyclerViewAdapter$ViewHolder,2)
AFTER com.lapism.searchview.sample.view.RecyclerViewAdapter.onBindViewHolder
AFTER com.lapism.searchview.sample.view.RecyclerViewAdapter.onBindViewHolder
BEFORE com.lapism.searchview.sample.view.RecyclerViewAdapter.getItemCount()
AFTER com.lapism.searchview.sample.view.RecyclerViewAdapter.getItemCount, returnValue: 30
BEFORE com.lapism.searchview.sample.view.RecyclerViewAdapter.onCreateViewHolder(android.support.v7.widget.RecyclerView,0)
BEFORE android.view.LayoutInflater.from(com.lapism.searchview.sample.activity.menu.ToolbarActivity)
AFTER android.view.LayoutInflater.from, returnValue: com.android.internal.policy.impl.PhoneLayoutInflater
BEFORE android.view.LayoutInflater.inflate(2130968624,android.support.v7.widget.RecyclerView,false)
AFTER android.view.LayoutInflater.inflate, returnValue: android.support.v7.widget.CardView{2fbf6fb2 V.ED..C. ......I. 0,0-0,0}
AFTER com.lapism.searchview.sample.view.RecyclerViewAdapter.onCreateViewHolder, returnValue: ViewHolder{2535fa80 position=-1 id=-1, oldPos=-1, pLpos:-1 unbound no parent} '
BEFORE com.lapism.searchview.sample.view.RecyclerViewAdapter.onBindViewHolder(com.lapism.searchview.sample.view.RecyclerViewAdapter$ViewHolder,3)
BEFORE com.lapism.searchview.sample.view.RecyclerViewAdapter.onBindViewHolder(com.lapism.searchview.sample.view.RecyclerViewAdapter$ViewHolder,3)
AFTER com.lapism.searchview.sample.view.RecyclerViewAdapter.onBindViewHolder
AFTER com.lapism.searchview.sample.view.RecyclerViewAdapter.onBindViewHolder
BEFORE com.lapism.searchview.sample.view.RecyclerViewAdapter.getItemCount()
AFTER com.lapism.searchview.sample.view.RecyclerViewAdapter.getItemCount, returnValue: 30
BEFORE com.lapism.searchview.sample.view.RecyclerViewAdapter.onCreateViewHolder(android.support.v7.widget.RecyclerView,0)
BEFORE android.view.LayoutInflater.from(com.lapism.searchview.sample.activity.menu.ToolbarActivity)
AFTER android.view.LayoutInflater.from, returnValue: com.android.internal.policy.impl.PhoneLayoutInflater
BEFORE android.view.LayoutInflater.inflate(2130968624,android.support.v7.widget.RecyclerView,false)
AFTER android.view.LayoutInflater.inflate, returnValue: android.support.v7.widget.CardView{1dc5e5f1 V.ED..C. ......I. 0,0-0,0}
AFTER com.lapism.searchview.sample.view.RecyclerViewAdapter.onCreateViewHolder, returnValue: ViewHolder{3adc6057 position=-1 id=-1, oldPos=-1, pLpos:-1 unbound no parent} '
BEFORE com.lapism.searchview.sample.view.RecyclerViewAdapter.onBindViewHolder(com.lapism.searchview.sample.view.RecyclerViewAdapter$ViewHolder,4)
BEFORE com.lapism.searchview.sample.view.RecyclerViewAdapter.onBindViewHolder(com.lapism.searchview.sample.view.RecyclerViewAdapter$ViewHolder,4)
AFTER com.lapism.searchview.sample.view.RecyclerViewAdapter.onBindViewHolder
AFTER com.lapism.searchview.sample.view.RecyclerViewAdapter.onBindViewHolder
BEFORE com.lapism.searchview.sample.view.RecyclerViewAdapter.getItemCount()
AFTER com.lapism.searchview.sample.view.RecyclerViewAdapter.getItemCount, returnValue: 30
BEFORE com.lapism.searchview.sample.view.RecyclerViewAdapter.onCreateViewHolder(android.support.v7.widget.RecyclerView,0)
BEFORE android.view.LayoutInflater.from(com.lapism.searchview.sample.activity.menu.ToolbarActivity)
AFTER android.view.LayoutInflater.from, returnValue: com.android.internal.policy.impl.PhoneLayoutInflater
BEFORE android.view.LayoutInflater.inflate(2130968624,android.support.v7.widget.RecyclerView,false)
AFTER android.view.LayoutInflater.inflate, returnValue: android.support.v7.widget.CardView{426aadc V.ED..C. ......I. 0,0-0,0}
AFTER com.lapism.searchview.sample.view.RecyclerViewAdapter.onCreateViewHolder, returnValue: ViewHolder{21b882ba position=-1 id=-1, oldPos=-1, pLpos:-1 unbound no parent} '
BEFORE com.lapism.searchview.sample.view.RecyclerViewAdapter.onBindViewHolder(com.lapism.searchview.sample.view.RecyclerViewAdapter$ViewHolder,5)
BEFORE com.lapism.searchview.sample.view.RecyclerViewAdapter.onBindViewHolder(com.lapism.searchview.sample.view.RecyclerViewAdapter$ViewHolder,5)
AFTER com.lapism.searchview.sample.view.RecyclerViewAdapter.onBindViewHolder
AFTER com.lapism.searchview.sample.view.RecyclerViewAdapter.onBindViewHolder
BEFORE com.lapism.searchview.sample.view.RecyclerViewAdapter.getItemCount()
AFTER com.lapism.searchview.sample.view.RecyclerViewAdapter.getItemCount, returnValue: 30
BEFORE com.lapism.searchview.sample.view.RecyclerViewAdapter.getItemCount()
AFTER com.lapism.searchview.sample.view.RecyclerViewAdapter.getItemCount, returnValue: 30
BEFORE com.lapism.searchview.sample.view.RecyclerViewAdapter.getItemCount()
AFTER com.lapism.searchview.sample.view.RecyclerViewAdapter.getItemCount, returnValue: 30
BEFORE com.lapism.searchview.sample.view.RecyclerViewAdapter.onCreateViewHolder(android.support.v7.widget.RecyclerView,0)
BEFORE android.view.LayoutInflater.from(com.lapism.searchview.sample.activity.menu.ToolbarActivity)
AFTER android.view.LayoutInflater.from, returnValue: com.android.internal.policy.impl.PhoneLayoutInflater
BEFORE android.view.LayoutInflater.inflate(2130968624,android.support.v7.widget.RecyclerView,false)
AFTER android.view.LayoutInflater.inflate, returnValue: android.support.v7.widget.CardView{50636e3 V.ED..C. ......I. 0,0-0,0}
AFTER com.lapism.searchview.sample.view.RecyclerViewAdapter.onCreateViewHolder, returnValue: ViewHolder{22132799 position=-1 id=-1, oldPos=-1, pLpos:-1 unbound no parent} '
BEFORE com.lapism.searchview.sample.view.RecyclerViewAdapter.onBindViewHolder(com.lapism.searchview.sample.view.RecyclerViewAdapter$ViewHolder,0)
BEFORE com.lapism.searchview.sample.view.RecyclerViewAdapter.onBindViewHolder(com.lapism.searchview.sample.view.RecyclerViewAdapter$ViewHolder,0)
AFTER com.lapism.searchview.sample.view.RecyclerViewAdapter.onBindViewHolder
AFTER com.lapism.searchview.sample.view.RecyclerViewAdapter.onBindViewHolder
BEFORE com.lapism.searchview.sample.view.RecyclerViewAdapter.getItemCount()
AFTER com.lapism.searchview.sample.view.RecyclerViewAdapter.getItemCount, returnValue: 30
BEFORE com.lapism.searchview.sample.view.RecyclerViewAdapter.onCreateViewHolder(android.support.v7.widget.RecyclerView,0)
BEFORE android.view.LayoutInflater.from(com.lapism.searchview.sample.activity.menu.ToolbarActivity)
AFTER android.view.LayoutInflater.from, returnValue: com.android.internal.policy.impl.PhoneLayoutInflater
BEFORE android.view.LayoutInflater.inflate(2130968624,android.support.v7.widget.RecyclerView,false)
AFTER android.view.LayoutInflater.inflate, returnValue: android.support.v7.widget.CardView{2c0fa736 V.ED..C. ......I. 0,0-0,0}
AFTER com.lapism.searchview.sample.view.RecyclerViewAdapter.onCreateViewHolder, returnValue: ViewHolder{d0a27a4 position=-1 id=-1, oldPos=-1, pLpos:-1 unbound no parent} '
BEFORE com.lapism.searchview.sample.view.RecyclerViewAdapter.onBindViewHolder(com.lapism.searchview.sample.view.RecyclerViewAdapter$ViewHolder,1)
BEFORE com.lapism.searchview.sample.view.RecyclerViewAdapter.onBindViewHolder(com.lapism.searchview.sample.view.RecyclerViewAdapter$ViewHolder,1)
AFTER com.lapism.searchview.sample.view.RecyclerViewAdapter.onBindViewHolder
AFTER com.lapism.searchview.sample.view.RecyclerViewAdapter.onBindViewHolder
BEFORE com.lapism.searchview.sample.view.RecyclerViewAdapter.getItemCount()
AFTER com.lapism.searchview.sample.view.RecyclerViewAdapter.getItemCount, returnValue: 30
BEFORE com.lapism.searchview.sample.view.RecyclerViewAdapter.onCreateViewHolder(android.support.v7.widget.RecyclerView,0)
BEFORE android.view.LayoutInflater.from(com.lapism.searchview.sample.activity.menu.ToolbarActivity)
AFTER android.view.LayoutInflater.from, returnValue: com.android.internal.policy.impl.PhoneLayoutInflater
BEFORE android.view.LayoutInflater.inflate(2130968624,android.support.v7.widget.RecyclerView,false)
AFTER android.view.LayoutInflater.inflate, returnValue: android.support.v7.widget.CardView{3594cc5 V.ED..C. ......I. 0,0-0,0}
AFTER com.lapism.searchview.sample.view.RecyclerViewAdapter.onCreateViewHolder, returnValue: ViewHolder{a55154b position=-1 id=-1, oldPos=-1, pLpos:-1 unbound no parent} '
BEFORE com.lapism.searchview.sample.view.RecyclerViewAdapter.onBindViewHolder(com.lapism.searchview.sample.view.RecyclerViewAdapter$ViewHolder,2)
BEFORE com.lapism.searchview.sample.view.RecyclerViewAdapter.onBindViewHolder(com.lapism.searchview.sample.view.RecyclerViewAdapter$ViewHolder,2)
AFTER com.lapism.searchview.sample.view.RecyclerViewAdapter.onBindViewHolder
AFTER com.lapism.searchview.sample.view.RecyclerViewAdapter.onBindViewHolder
BEFORE com.lapism.searchview.sample.view.RecyclerViewAdapter.getItemCount()
AFTER com.lapism.searchview.sample.view.RecyclerViewAdapter.getItemCount, returnValue: 30
BEFORE com.lapism.searchview.sample.view.RecyclerViewAdapter.onCreateViewHolder(android.support.v7.widget.RecyclerView,0)
BEFORE android.view.LayoutInflater.from(com.lapism.searchview.sample.activity.menu.ToolbarActivity)
AFTER android.view.LayoutInflater.from, returnValue: com.android.internal.policy.impl.PhoneLayoutInflater
BEFORE android.view.LayoutInflater.inflate(2130968624,android.support.v7.widget.RecyclerView,false)
AFTER android.view.LayoutInflater.inflate, returnValue: android.support.v7.widget.CardView{222a2740 V.ED..C. ......I. 0,0-0,0}
AFTER com.lapism.searchview.sample.view.RecyclerViewAdapter.onCreateViewHolder, returnValue: ViewHolder{942afbe position=-1 id=-1, oldPos=-1, pLpos:-1 unbound no parent} '
BEFORE com.lapism.searchview.sample.view.RecyclerViewAdapter.onBindViewHolder(com.lapism.searchview.sample.view.RecyclerViewAdapter$ViewHolder,3)
BEFORE com.lapism.searchview.sample.view.RecyclerViewAdapter.onBindViewHolder(com.lapism.searchview.sample.view.RecyclerViewAdapter$ViewHolder,3)
AFTER com.lapism.searchview.sample.view.RecyclerViewAdapter.onBindViewHolder
AFTER com.lapism.searchview.sample.view.RecyclerViewAdapter.onBindViewHolder
BEFORE com.lapism.searchview.sample.view.RecyclerViewAdapter.getItemCount()
AFTER com.lapism.searchview.sample.view.RecyclerViewAdapter.getItemCount, returnValue: 30
BEFORE com.lapism.searchview.sample.view.RecyclerViewAdapter.onCreateViewHolder(android.support.v7.widget.RecyclerView,0)
BEFORE android.view.LayoutInflater.from(com.lapism.searchview.sample.activity.menu.ToolbarActivity)
AFTER android.view.LayoutInflater.from, returnValue: com.android.internal.policy.impl.PhoneLayoutInflater
BEFORE android.view.LayoutInflater.inflate(2130968624,android.support.v7.widget.RecyclerView,false)
AFTER android.view.LayoutInflater.inflate, returnValue: android.support.v7.widget.CardView{1195bc17 V.ED..C. ......I. 0,0-0,0}
AFTER com.lapism.searchview.sample.view.RecyclerViewAdapter.onCreateViewHolder, returnValue: ViewHolder{11fa11ed position=-1 id=-1, oldPos=-1, pLpos:-1 unbound no parent} '
BEFORE com.lapism.searchview.sample.view.RecyclerViewAdapter.onBindViewHolder(com.lapism.searchview.sample.view.RecyclerViewAdapter$ViewHolder,4)
BEFORE com.lapism.searchview.sample.view.RecyclerViewAdapter.onBindViewHolder(com.lapism.searchview.sample.view.RecyclerViewAdapter$ViewHolder,4)
AFTER com.lapism.searchview.sample.view.RecyclerViewAdapter.onBindViewHolder
AFTER com.lapism.searchview.sample.view.RecyclerViewAdapter.onBindViewHolder
BEFORE com.lapism.searchview.sample.view.RecyclerViewAdapter.getItemCount()
AFTER com.lapism.searchview.sample.view.RecyclerViewAdapter.getItemCount, returnValue: 30
BEFORE com.lapism.searchview.sample.view.RecyclerViewAdapter.onCreateViewHolder(android.support.v7.widget.RecyclerView,0)
BEFORE android.view.LayoutInflater.from(com.lapism.searchview.sample.activity.menu.ToolbarActivity)
AFTER android.view.LayoutInflater.from, returnValue: com.android.internal.policy.impl.PhoneLayoutInflater
BEFORE android.view.LayoutInflater.inflate(2130968624,android.support.v7.widget.RecyclerView,false)
AFTER android.view.LayoutInflater.inflate, returnValue: android.support.v7.widget.CardView{248c797a V.ED..C. ......I. 0,0-0,0}
AFTER com.lapism.searchview.sample.view.RecyclerViewAdapter.onCreateViewHolder, returnValue: ViewHolder{25c14d88 position=-1 id=-1, oldPos=-1, pLpos:-1 unbound no parent} '
BEFORE com.lapism.searchview.sample.view.RecyclerViewAdapter.onBindViewHolder(com.lapism.searchview.sample.view.RecyclerViewAdapter$ViewHolder,5)
BEFORE com.lapism.searchview.sample.view.RecyclerViewAdapter.onBindViewHolder(com.lapism.searchview.sample.view.RecyclerViewAdapter$ViewHolder,5)
AFTER com.lapism.searchview.sample.view.RecyclerViewAdapter.onBindViewHolder
AFTER com.lapism.searchview.sample.view.RecyclerViewAdapter.onBindViewHolder
BEFORE com.lapism.searchview.SearchBehavior.layoutDependsOn(android.support.design.widget.CoordinatorLayout,com.lapism.searchview.SearchView,android.support.design.widget.AppBarLayout)
BEFORE com.lapism.searchview.SearchBehavior.layoutDependsOn(android.support.design.widget.CoordinatorLayout,com.lapism.searchview.SearchView,android.support.design.widget.AppBarLayout)
BEFORE android.support.design.widget.CoordinatorLayout$LayoutParams.getBehavior()
AFTER android.support.design.widget.CoordinatorLayout$LayoutParams.getBehavior, returnValue: android.support.design.widget.AppBarLayout$Behavior
AFTER com.lapism.searchview.SearchBehavior.layoutDependsOn, returnValue: true
AFTER com.lapism.searchview.SearchBehavior.layoutDependsOn, returnValue: true
BEFORE com.lapism.searchview.SearchBehavior.layoutDependsOn(android.support.design.widget.CoordinatorLayout,com.lapism.searchview.SearchView,android.support.design.widget.FloatingActionButton)
BEFORE com.lapism.searchview.SearchBehavior.layoutDependsOn(android.support.design.widget.CoordinatorLayout,com.lapism.searchview.SearchView,android.support.design.widget.FloatingActionButton)
BEFORE android.support.design.widget.CoordinatorLayout$Behavior.layoutDependsOn(android.support.design.widget.CoordinatorLayout,com.lapism.searchview.SearchView,android.support.design.widget.FloatingActionButton)
AFTER android.support.design.widget.CoordinatorLayout$Behavior.layoutDependsOn, returnValue: false
AFTER com.lapism.searchview.SearchBehavior.layoutDependsOn, returnValue: false
AFTER com.lapism.searchview.SearchBehavior.layoutDependsOn, returnValue: false
BEFORE com.lapism.searchview.SearchBehavior.layoutDependsOn(android.support.design.widget.CoordinatorLayout,com.lapism.searchview.SearchView,android.support.v4.view.ViewPager)
BEFORE com.lapism.searchview.SearchBehavior.layoutDependsOn(android.support.design.widget.CoordinatorLayout,com.lapism.searchview.SearchView,android.support.v4.view.ViewPager)
BEFORE android.support.design.widget.CoordinatorLayout$Behavior.layoutDependsOn(android.support.design.widget.CoordinatorLayout,com.lapism.searchview.SearchView,android.support.v4.view.ViewPager)
AFTER android.support.design.widget.CoordinatorLayout$Behavior.layoutDependsOn, returnValue: false
AFTER com.lapism.searchview.SearchBehavior.layoutDependsOn, returnValue: false
AFTER com.lapism.searchview.SearchBehavior.layoutDependsOn, returnValue: false
