digraph SIB_treshold_2 {
"23cd3a04-e02a-42ff-986a-064d17fb1c9d" [style=filled, fillcolor="#919191", label="com.android.internal.os.ZygoteInit.main\n Susp=0,4467"];
"23cd3a04-e02a-42ff-986a-064d17fb1c9d" -> "3073e30e-4980-4e2c-b819-a4e7da4aef64";
"3073e30e-4980-4e2c-b819-a4e7da4aef64" [style=filled, fillcolor="#919191", label="com.android.internal.os.ZygoteInit$MethodAndArgsCaller.run\n Susp=0,4488"];
"3073e30e-4980-4e2c-b819-a4e7da4aef64" -> "12f74549-0dfe-479e-ac8a-3f25024046af";
"12f74549-0dfe-479e-ac8a-3f25024046af" [style=filled, fillcolor="#919191", label="java.lang.reflect.Method.invoke\n Susp=0,451"];
"12f74549-0dfe-479e-ac8a-3f25024046af" -> "245e962f-163d-472f-b06f-4524b4ab0242";
"245e962f-163d-472f-b06f-4524b4ab0242" [style=filled, fillcolor="#919191", label="android.app.ActivityThread.main\n Susp=0,4532"];
"245e962f-163d-472f-b06f-4524b4ab0242" -> "3b2c0b89-f68f-4463-ab7f-4bcc4f031174";
"3b2c0b89-f68f-4463-ab7f-4bcc4f031174" [style=filled, fillcolor="#919191", label="android.os.Looper.loop\n Susp=0,4554"];
"3b2c0b89-f68f-4463-ab7f-4bcc4f031174" -> "5dfb06a1-f658-4f3e-8b2f-be8ac9f5ed4d";
"5dfb06a1-f658-4f3e-8b2f-be8ac9f5ed4d" [style=filled, fillcolor="#5E5E5E",fontcolor=white, label="android.os.Handler.dispatchMessage\n Susp=0,6309"];
"5dfb06a1-f658-4f3e-8b2f-be8ac9f5ed4d" -> "11219372-ee49-457b-9af8-2ac9c2466567";
"11219372-ee49-457b-9af8-2ac9c2466567" [style=filled, fillcolor="#5E5E5E",fontcolor=white, label="android.app.ActivityThread$H.handleMessage\n Susp=0,7522"];
"11219372-ee49-457b-9af8-2ac9c2466567" -> "4cb20b66-5718-4ecc-be85-1ad483714c93";
"4cb20b66-5718-4ecc-be85-1ad483714c93" [style=filled, fillcolor="#FFFFFF", label="android.app.ActivityThread.-wrap4\n Susp=0,1348"];
"4cb20b66-5718-4ecc-be85-1ad483714c93" -> "6beeb31b-1b43-4c0e-ad8f-c7b974c15979";
"6beeb31b-1b43-4c0e-ad8f-c7b974c15979" [style=filled, fillcolor="#FFFFFF", label="android.app.ActivityThread.handleCreateService\n Susp=0,137"];
"6beeb31b-1b43-4c0e-ad8f-c7b974c15979" -> "d014766e-968f-422c-91e7-28ef09329dd2";
"d014766e-968f-422c-91e7-28ef09329dd2" [style=filled, fillcolor="#FFFFFF", label="com.github.ruleant.getback_gps.LocationService.onCreate\n Susp=0,1392"];
"d014766e-968f-422c-91e7-28ef09329dd2" -> "dcfe3e83-bcf6-4e50-ab31-128f8a74075e";
"dcfe3e83-bcf6-4e50-ab31-128f8a74075e" [style=filled, fillcolor="#FFFFFF", label="com.github.ruleant.getback_gps.LocationService.updateLocationProvider\n Susp=0,1304"];
"dcfe3e83-bcf6-4e50-ab31-128f8a74075e" -> "96bb0c75-ac5e-41e7-bbda-5e5633c796f9";
"96bb0c75-ac5e-41e7-bbda-5e5633c796f9" [style=filled, fillcolor="#FFFFFF", label="android.location.LocationManager.getBestProvider\n Susp=0,035"];
"11219372-ee49-457b-9af8-2ac9c2466567" -> "84965643-f621-47f4-9498-deee7bac15ee";
"84965643-f621-47f4-9498-deee7bac15ee" [style=filled, fillcolor="#FFFFFF", label="android.app.ActivityThread.-wrap20\n Susp=0,1129"];
"84965643-f621-47f4-9498-deee7bac15ee" -> "c71e6a16-74a2-4f4b-bdc4-9132be48f156";
"c71e6a16-74a2-4f4b-bdc4-9132be48f156" [style=filled, fillcolor="#FFFFFF", label="android.app.ActivityThread.handleStopActivity\n Susp=0,1151"];
"c71e6a16-74a2-4f4b-bdc4-9132be48f156" -> "3e010879-dbc3-4db2-b6f8-b380a6d00bbd";
"3e010879-dbc3-4db2-b6f8-b380a6d00bbd" [style=filled, fillcolor="#FFFFFF", label="android.app.ActivityThread.performStopActivityInner\n Susp=0,1173"];
"3e010879-dbc3-4db2-b6f8-b380a6d00bbd" -> "f2adb216-2ec2-43e3-a1e9-a4ce07d4abe7";
"f2adb216-2ec2-43e3-a1e9-a4ce07d4abe7" [style=filled, fillcolor="#FFFFFF", label="android.app.Activity.performStop\n Susp=0,1194"];
"f2adb216-2ec2-43e3-a1e9-a4ce07d4abe7" -> "058d4b86-71be-47b2-9fe4-2e14c367240b";
"058d4b86-71be-47b2-9fe4-2e14c367240b" [style=filled, fillcolor="#FFFFFF", label="android.app.Instrumentation.callActivityOnStop\n Susp=0,1216"];
"058d4b86-71be-47b2-9fe4-2e14c367240b" -> "7781d316-e509-4179-ae36-2cfc1e0e2e92";
"7781d316-e509-4179-ae36-2cfc1e0e2e92" [style=filled, fillcolor="#FFFFFF", label="com.github.ruleant.getback_gps.AbstractGetBackGpsActivity.onStop\n Susp=0,0371"];
"11219372-ee49-457b-9af8-2ac9c2466567" -> "045dc9ad-3869-4db1-a9d4-0bba04182842";
"045dc9ad-3869-4db1-a9d4-0bba04182842" [style=filled, fillcolor="#FFFFFF", label="android.app.ActivityThread.-wrap22\n Susp=0,1066"];
"045dc9ad-3869-4db1-a9d4-0bba04182842" -> "5576707d-140c-47f7-8743-9128b49d71c0";
"5576707d-140c-47f7-8743-9128b49d71c0" [style=filled, fillcolor="#FFFFFF", label="android.app.ActivityThread.handleUnbindService\n Susp=0,1088"];
"5576707d-140c-47f7-8743-9128b49d71c0" -> "b534d0c2-c2f3-41b9-a225-df3db6f9d571";
"b534d0c2-c2f3-41b9-a225-df3db6f9d571" [style=filled, fillcolor="#FFFFFF", label="com.github.ruleant.getback_gps.LocationService.onUnbind\n Susp=0,0243"];
"11219372-ee49-457b-9af8-2ac9c2466567" -> "e8d1c1c0-21a7-4c41-b3d2-eb21c760feb2";
"e8d1c1c0-21a7-4c41-b3d2-eb21c760feb2" [style=filled, fillcolor="#FFFFFF", label="android.app.ActivityThread.-wrap21\n Susp=0,1677"];
"e8d1c1c0-21a7-4c41-b3d2-eb21c760feb2" -> "fdfdcf85-0687-46e7-96d4-23a8174ad1b0";
"fdfdcf85-0687-46e7-96d4-23a8174ad1b0" [style=filled, fillcolor="#FFFFFF", label="android.app.ActivityThread.handleStopService\n Susp=0,1699"];
"fdfdcf85-0687-46e7-96d4-23a8174ad1b0" -> "766534a2-f105-415c-b506-6fb6ab586a1d";
"766534a2-f105-415c-b506-6fb6ab586a1d" [style=filled, fillcolor="#FFFFFF", label="com.github.ruleant.getback_gps.LocationService.onDestroy\n Susp=0,172"];
"766534a2-f105-415c-b506-6fb6ab586a1d" -> "f1a3d079-c8c4-4462-a043-30868e11bea8";
"f1a3d079-c8c4-4462-a043-30868e11bea8" [style=filled, fillcolor="#FFFFFF", label="android.os.RemoteCallbackList.kill\n Susp=0,0547"];
"11219372-ee49-457b-9af8-2ac9c2466567" -> "65b0537a-5856-4944-aca7-f8a59c98033f";
"65b0537a-5856-4944-aca7-f8a59c98033f" [style=filled, fillcolor="#FFFFFF", label="android.app.ActivityThread.access$1800\n Susp=0,1912"];
"65b0537a-5856-4944-aca7-f8a59c98033f" -> "e5590e39-86bc-4979-9aa8-7e45134daaea";
"e5590e39-86bc-4979-9aa8-7e45134daaea" [style=filled, fillcolor="#FFFFFF", label="android.app.ActivityThread.handleCreateService\n Susp=0,1933"];
"e5590e39-86bc-4979-9aa8-7e45134daaea" -> "56fc9765-8dda-42e8-ae79-599d1120c0d7";
"56fc9765-8dda-42e8-ae79-599d1120c0d7" [style=filled, fillcolor="#FFFFFF", label="com.github.ruleant.getback_gps.LocationService.onCreate\n Susp=0,1955"];
"56fc9765-8dda-42e8-ae79-599d1120c0d7" -> "6f08bca5-a00d-4646-be7b-0de4450f1b42";
"6f08bca5-a00d-4646-be7b-0de4450f1b42" [style=filled, fillcolor="#FFFFFF", label="com.github.ruleant.getback_gps.LocationService.updateLocationProvider\n Susp=0,168"];
"6f08bca5-a00d-4646-be7b-0de4450f1b42" -> "47da4eb9-2c5a-46fb-8607-3f27c65a21f2";
"47da4eb9-2c5a-46fb-8607-3f27c65a21f2" [style=filled, fillcolor="#FFFFFF", label="android.location.LocationManager.getBestProvider\n Susp=0,0537"];
"11219372-ee49-457b-9af8-2ac9c2466567" -> "4498c506-0daf-4287-88cf-173b1fbceecc";
"4498c506-0daf-4287-88cf-173b1fbceecc" [style=filled, fillcolor="#FFFFFF", label="android.app.ActivityThread.access$2200\n Susp=0,1176"];
"4498c506-0daf-4287-88cf-173b1fbceecc" -> "5357807d-04d0-474b-a842-38eb56cda4dd";
"5357807d-04d0-474b-a842-38eb56cda4dd" [style=filled, fillcolor="#FFFFFF", label="android.app.ActivityThread.handleStopService\n Susp=0,1198"];
"5357807d-04d0-474b-a842-38eb56cda4dd" -> "8ed5d734-7b2a-40d3-bd16-06df5d5a1670";
"8ed5d734-7b2a-40d3-bd16-06df5d5a1670" [style=filled, fillcolor="#FFFFFF", label="com.github.ruleant.getback_gps.LocationService.onDestroy\n Susp=0,122"];
"8ed5d734-7b2a-40d3-bd16-06df5d5a1670" -> "f73a04c7-3885-42ce-9b68-bf93762c1c6c";
"f73a04c7-3885-42ce-9b68-bf93762c1c6c" [style=filled, fillcolor="#FFFFFF", label="com.github.ruleant.getback_gps.lib.StoredLocation.save\n Susp=0,1241"];
"f73a04c7-3885-42ce-9b68-bf93762c1c6c" -> "cc461850-6084-4432-b961-8d5467c7e034";
"cc461850-6084-4432-b961-8d5467c7e034" [style=filled, fillcolor="#FFFFFF", label="android.location.Location.hasSpeed\n Susp=0,0397"];
"5dfb06a1-f658-4f3e-8b2f-be8ac9f5ed4d" -> "43e88e3a-e2fd-46e5-a6ef-e08d749df0d9";
"43e88e3a-e2fd-46e5-a6ef-e08d749df0d9" [style=filled, fillcolor="#C0C0C0", label="android.os.Handler.handleCallback\n Susp=0,296"];
"43e88e3a-e2fd-46e5-a6ef-e08d749df0d9" -> "f40c8753-7bb8-4df6-b7c8-b0a28757edd4";
"f40c8753-7bb8-4df6-b7c8-b0a28757edd4" [style=filled, fillcolor="#FFFFFF", label="android.view.Choreographer$FrameDisplayEventReceiver.run\n Susp=0,127"];
"f40c8753-7bb8-4df6-b7c8-b0a28757edd4" -> "ac75731d-c4ac-4bd2-bf92-87b8abbb6a0f";
"ac75731d-c4ac-4bd2-bf92-87b8abbb6a0f" [style=filled, fillcolor="#FFFFFF", label="android.view.Choreographer.doFrame\n Susp=0,1292"];
"ac75731d-c4ac-4bd2-bf92-87b8abbb6a0f" -> "92a823ee-5cbb-4ebe-b234-b4bbde308842";
"92a823ee-5cbb-4ebe-b234-b4bbde308842" [style=filled, fillcolor="#FFFFFF", label="android.view.Choreographer.doCallbacks\n Susp=0,1313"];
"92a823ee-5cbb-4ebe-b234-b4bbde308842" -> "072f8079-0b51-4a64-976f-98114a1a8707";
"072f8079-0b51-4a64-976f-98114a1a8707" [style=filled, fillcolor="#FFFFFF", label="android.view.Choreographer$CallbackRecord.run\n Susp=0,1335"];
"072f8079-0b51-4a64-976f-98114a1a8707" -> "c4d511be-3066-42b0-9ea2-b8ffd02a5f69";
"c4d511be-3066-42b0-9ea2-b8ffd02a5f69" [style=filled, fillcolor="#FFFFFF", label="android.view.ViewRootImpl$TraversalRunnable.run\n Susp=0,1357"];
"c4d511be-3066-42b0-9ea2-b8ffd02a5f69" -> "ca3551de-dea5-48de-8314-e40cffbb194c";
"ca3551de-dea5-48de-8314-e40cffbb194c" [style=filled, fillcolor="#FFFFFF", label="android.view.ViewRootImpl.doTraversal\n Susp=0,1379"];
"ca3551de-dea5-48de-8314-e40cffbb194c" -> "c6b2f6fb-07b0-45b3-be8d-710712d577ab";
"c6b2f6fb-07b0-45b3-be8d-710712d577ab" [style=filled, fillcolor="#FFFFFF", label="android.view.ViewRootImpl.performTraversals\n Susp=0,1401"];
"c6b2f6fb-07b0-45b3-be8d-710712d577ab" -> "a0230c04-bcd2-4bf1-ab89-4be912ae3997";
"a0230c04-bcd2-4bf1-ab89-4be912ae3997" [style=filled, fillcolor="#FFFFFF", label="android.view.ViewRootImpl.performDraw\n Susp=0,1423"];
"a0230c04-bcd2-4bf1-ab89-4be912ae3997" -> "6b4d37d0-9f35-4214-b9c6-524553a41eae";
"6b4d37d0-9f35-4214-b9c6-524553a41eae" [style=filled, fillcolor="#FFFFFF", label="android.view.ViewRootImpl.draw\n Susp=0,1444"];
"6b4d37d0-9f35-4214-b9c6-524553a41eae" -> "a701028d-a61f-4d8f-a033-931b2571c586";
"a701028d-a61f-4d8f-a033-931b2571c586" [style=filled, fillcolor="#FFFFFF", label="android.view.ThreadedRenderer.draw\n Susp=0,1466"];
"a701028d-a61f-4d8f-a033-931b2571c586" -> "129e9ff6-c89e-4f9d-ba9f-7175d17cfa79";
"129e9ff6-c89e-4f9d-ba9f-7175d17cfa79" [style=filled, fillcolor="#FFFFFF", label="android.view.ThreadedRenderer.updateRootDisplayList\n Susp=0,1488"];
"129e9ff6-c89e-4f9d-ba9f-7175d17cfa79" -> "bb7c6643-a67b-4921-b1d5-13a502ea5b31";
"bb7c6643-a67b-4921-b1d5-13a502ea5b31" [style=filled, fillcolor="#EBEBEB", label="android.view.ThreadedRenderer.updateViewTreeDisplayList\n Susp=0,2376"];
"bb7c6643-a67b-4921-b1d5-13a502ea5b31" -> "682bea85-5991-43dc-afdf-2baac7dfe477";
"682bea85-5991-43dc-afdf-2baac7dfe477" [style=filled, fillcolor="#FFFFFF", label="android.view.View.updateDisplayListIfDirty\n Susp=0,1359"];
"682bea85-5991-43dc-afdf-2baac7dfe477" -> "20407060-fb33-4c36-ad21-be8d34ea19a8";
"20407060-fb33-4c36-ad21-be8d34ea19a8" [style=filled, fillcolor="#FFFFFF", label="com.android.internal.policy.PhoneWindow$DecorView.draw\n Susp=0,1381"];
"20407060-fb33-4c36-ad21-be8d34ea19a8" -> "71d3526c-2d72-4713-a818-9673d17d9832";
"71d3526c-2d72-4713-a818-9673d17d9832" [style=filled, fillcolor="#FFFFFF", label="android.view.View.draw\n Susp=0,1403"];
"71d3526c-2d72-4713-a818-9673d17d9832" -> "24c9843d-2b87-4e09-b2f2-f1a52a3ff4a1";
"24c9843d-2b87-4e09-b2f2-f1a52a3ff4a1" [style=filled, fillcolor="#FFFFFF", label="android.view.ViewGroup.dispatchDraw\n Susp=0,1425"];
"24c9843d-2b87-4e09-b2f2-f1a52a3ff4a1" -> "a0f16802-706d-4ac6-9efc-ef17a125b29d";
"a0f16802-706d-4ac6-9efc-ef17a125b29d" [style=filled, fillcolor="#FFFFFF", label="android.view.ViewGroup.drawChild\n Susp=0,1447"];
"a0f16802-706d-4ac6-9efc-ef17a125b29d" -> "53f0f3de-d07d-4255-82d3-b91e87410197";
"53f0f3de-d07d-4255-82d3-b91e87410197" [style=filled, fillcolor="#FFFFFF", label="android.view.View.draw\n Susp=0,1469"];
"53f0f3de-d07d-4255-82d3-b91e87410197" -> "ed84fd29-b1e4-4797-83e7-5c34a75a2735";
"ed84fd29-b1e4-4797-83e7-5c34a75a2735" [style=filled, fillcolor="#FFFFFF", label="android.view.View.updateDisplayListIfDirty\n Susp=0,149"];
"ed84fd29-b1e4-4797-83e7-5c34a75a2735" -> "9654c466-d700-4a9d-8b7b-d00ac7d940dd";
"9654c466-d700-4a9d-8b7b-d00ac7d940dd" [style=filled, fillcolor="#FFFFFF", label="com.android.internal.widget.ActionBarOverlayLayout.draw\n Susp=0,1512"];
"9654c466-d700-4a9d-8b7b-d00ac7d940dd" -> "cdb6fa7d-2327-44d7-a502-cdf0a1b7a043";
"cdb6fa7d-2327-44d7-a502-cdf0a1b7a043" [style=filled, fillcolor="#FFFFFF", label="android.view.View.draw\n Susp=0,1534"];
"cdb6fa7d-2327-44d7-a502-cdf0a1b7a043" -> "a0872b73-d047-448b-9933-b18fcfb81bd4";
"a0872b73-d047-448b-9933-b18fcfb81bd4" [style=filled, fillcolor="#FFFFFF", label="android.view.ViewGroup.dispatchDraw\n Susp=0,1556"];
"a0872b73-d047-448b-9933-b18fcfb81bd4" -> "a80f12a4-7dd5-4527-89f0-45adf17f856c";
"a80f12a4-7dd5-4527-89f0-45adf17f856c" [style=filled, fillcolor="#FFFFFF", label="android.view.ViewGroup.drawChild\n Susp=0,1578"];
"a80f12a4-7dd5-4527-89f0-45adf17f856c" -> "ef6c1bf2-cc75-478a-91ec-4b35a6129f9a";
"ef6c1bf2-cc75-478a-91ec-4b35a6129f9a" [style=filled, fillcolor="#FFFFFF", label="android.view.View.draw\n Susp=0,1599"];
"ef6c1bf2-cc75-478a-91ec-4b35a6129f9a" -> "8c9313d3-9235-43ce-94b7-8e2def4403f9";
"8c9313d3-9235-43ce-94b7-8e2def4403f9" [style=filled, fillcolor="#FFFFFF", label="android.view.View.updateDisplayListIfDirty\n Susp=0,1621"];
"8c9313d3-9235-43ce-94b7-8e2def4403f9" -> "1e3c0d0d-9da0-41ad-807d-9043d3398e5c";
"1e3c0d0d-9da0-41ad-807d-9043d3398e5c" [style=filled, fillcolor="#FFFFFF", label="android.view.ViewGroup.dispatchDraw\n Susp=0,1643"];
"1e3c0d0d-9da0-41ad-807d-9043d3398e5c" -> "12f8d56a-2408-4cf8-b0d1-9fa330f82fcc";
"12f8d56a-2408-4cf8-b0d1-9fa330f82fcc" [style=filled, fillcolor="#FFFFFF", label="android.view.ViewGroup.drawChild\n Susp=0,1665"];
"12f8d56a-2408-4cf8-b0d1-9fa330f82fcc" -> "eef35d4d-c42e-49fb-9e3b-700b8c6be60e";
"eef35d4d-c42e-49fb-9e3b-700b8c6be60e" [style=filled, fillcolor="#FFFFFF", label="android.view.View.draw\n Susp=0,1687"];
"eef35d4d-c42e-49fb-9e3b-700b8c6be60e" -> "ff2d1c06-bf3a-460c-b4a4-d2d54477c8ee";
"ff2d1c06-bf3a-460c-b4a4-d2d54477c8ee" [style=filled, fillcolor="#FFFFFF", label="android.view.View.updateDisplayListIfDirty\n Susp=0,1709"];
"ff2d1c06-bf3a-460c-b4a4-d2d54477c8ee" -> "fc8e0773-9c1e-49ba-ac2d-a654c0179cae";
"fc8e0773-9c1e-49ba-ac2d-a654c0179cae" [style=filled, fillcolor="#FFFFFF", label="android.widget.ScrollView.draw\n Susp=0,173"];
"fc8e0773-9c1e-49ba-ac2d-a654c0179cae" -> "a207fc06-1da6-4e70-a1ff-1d07b6993ff7";
"a207fc06-1da6-4e70-a1ff-1d07b6993ff7" [style=filled, fillcolor="#FFFFFF", label="android.view.View.draw\n Susp=0,1752"];
"a207fc06-1da6-4e70-a1ff-1d07b6993ff7" -> "1cc2bfeb-14bb-49b2-8dcc-b513f383feb5";
"1cc2bfeb-14bb-49b2-8dcc-b513f383feb5" [style=filled, fillcolor="#FFFFFF", label="android.view.ViewGroup.dispatchDraw\n Susp=0,1774"];
"1cc2bfeb-14bb-49b2-8dcc-b513f383feb5" -> "5e8267db-c281-4852-980a-79fbd2a60345";
"5e8267db-c281-4852-980a-79fbd2a60345" [style=filled, fillcolor="#FFFFFF", label="android.view.ViewGroup.drawChild\n Susp=0,1796"];
"5e8267db-c281-4852-980a-79fbd2a60345" -> "d33f6ba1-cdf3-4733-a209-c7ed678f2d14";
"d33f6ba1-cdf3-4733-a209-c7ed678f2d14" [style=filled, fillcolor="#FFFFFF", label="android.view.View.draw\n Susp=0,1818"];
"d33f6ba1-cdf3-4733-a209-c7ed678f2d14" -> "402e8cd2-7c2d-4da3-a9aa-b572b128611f";
"402e8cd2-7c2d-4da3-a9aa-b572b128611f" [style=filled, fillcolor="#FFFFFF", label="android.view.View.updateDisplayListIfDirty\n Susp=0,1839"];
"402e8cd2-7c2d-4da3-a9aa-b572b128611f" -> "299844c4-24d4-4dc0-b8cc-0f6f6e054923";
"299844c4-24d4-4dc0-b8cc-0f6f6e054923" [style=filled, fillcolor="#FFFFFF", label="android.view.ViewGroup.dispatchDraw\n Susp=0,1861"];
"299844c4-24d4-4dc0-b8cc-0f6f6e054923" -> "3390be60-529a-43b7-976d-8d1abc833fae";
"3390be60-529a-43b7-976d-8d1abc833fae" [style=filled, fillcolor="#FFFFFF", label="android.view.ViewGroup.drawChild\n Susp=0,1883"];
"3390be60-529a-43b7-976d-8d1abc833fae" -> "730c6132-3d8f-443a-82cf-4cbfd4bddac9";
"730c6132-3d8f-443a-82cf-4cbfd4bddac9" [style=filled, fillcolor="#FFFFFF", label="android.view.View.draw\n Susp=0,1905"];
"730c6132-3d8f-443a-82cf-4cbfd4bddac9" -> "2304771d-f1db-4c73-a84a-57f67c0dd1b1";
"2304771d-f1db-4c73-a84a-57f67c0dd1b1" [style=filled, fillcolor="#FFFFFF", label="android.view.View.updateDisplayListIfDirty\n Susp=0,1927"];
"2304771d-f1db-4c73-a84a-57f67c0dd1b1" -> "b73e3e14-8536-4bf6-a3cf-6294609e543d";
"b73e3e14-8536-4bf6-a3cf-6294609e543d" [style=filled, fillcolor="#FFFFFF", label="android.view.View.draw\n Susp=0,1949"];
"b73e3e14-8536-4bf6-a3cf-6294609e543d" -> "0131cd95-366a-46ec-ac6f-c20ef53289b2";
"0131cd95-366a-46ec-ac6f-c20ef53289b2" [style=filled, fillcolor="#FFFFFF", label="com.github.ruleant.getback_gps.NavigationView.onDraw\n Susp=0,1104"];
"bb7c6643-a67b-4921-b1d5-13a502ea5b31" -> "e779e1c1-5ef3-4a3f-a7eb-bcd32554c8db";
"e779e1c1-5ef3-4a3f-a7eb-bcd32554c8db" [style=filled, fillcolor="#FFFFFF", label="android.view.View.getDisplayList\n Susp=0,1453"];
"e779e1c1-5ef3-4a3f-a7eb-bcd32554c8db" -> "1836cad6-59a1-4134-99f4-8af8dbd54b65";
"1836cad6-59a1-4134-99f4-8af8dbd54b65" [style=filled, fillcolor="#FFFFFF", label="android.view.View.updateDisplayListIfDirty\n Susp=0,1475"];
"1836cad6-59a1-4134-99f4-8af8dbd54b65" -> "8504adce-2666-4916-92ef-ece8ca888ea4";
"8504adce-2666-4916-92ef-ece8ca888ea4" [style=filled, fillcolor="#FFFFFF", label="com.android.internal.policy.impl.PhoneWindow$DecorView.draw\n Susp=0,1497"];
"8504adce-2666-4916-92ef-ece8ca888ea4" -> "513b4068-cb67-4b46-9211-70f0bbab59c8";
"513b4068-cb67-4b46-9211-70f0bbab59c8" [style=filled, fillcolor="#FFFFFF", label="android.widget.FrameLayout.draw\n Susp=0,1519"];
"513b4068-cb67-4b46-9211-70f0bbab59c8" -> "b37ab1c9-f36c-48e9-b7e8-199f5d1e11db";
"b37ab1c9-f36c-48e9-b7e8-199f5d1e11db" [style=filled, fillcolor="#FFFFFF", label="android.view.View.draw\n Susp=0,1541"];
"b37ab1c9-f36c-48e9-b7e8-199f5d1e11db" -> "fb028ceb-d63c-4f7b-a21c-49ecc2fa28e6";
"fb028ceb-d63c-4f7b-a21c-49ecc2fa28e6" [style=filled, fillcolor="#FFFFFF", label="android.view.ViewGroup.dispatchDraw\n Susp=0,1562"];
"fb028ceb-d63c-4f7b-a21c-49ecc2fa28e6" -> "ce40b13e-6f86-4092-9e32-2085d888b7b8";
"ce40b13e-6f86-4092-9e32-2085d888b7b8" [style=filled, fillcolor="#FFFFFF", label="android.view.ViewGroup.drawChild\n Susp=0,1584"];
"ce40b13e-6f86-4092-9e32-2085d888b7b8" -> "bc27ee8b-d05e-408f-a8d3-18bf5883bb0b";
"bc27ee8b-d05e-408f-a8d3-18bf5883bb0b" [style=filled, fillcolor="#FFFFFF", label="android.view.View.draw\n Susp=0,1606"];
"bc27ee8b-d05e-408f-a8d3-18bf5883bb0b" -> "4e8c6738-48d0-4635-ab47-625ebd7256a2";
"4e8c6738-48d0-4635-ab47-625ebd7256a2" [style=filled, fillcolor="#FFFFFF", label="android.view.View.getDisplayList\n Susp=0,1628"];
"4e8c6738-48d0-4635-ab47-625ebd7256a2" -> "df52cbd6-c0ca-46a4-b896-b32fa1d57dd3";
"df52cbd6-c0ca-46a4-b896-b32fa1d57dd3" [style=filled, fillcolor="#FFFFFF", label="android.view.View.updateDisplayListIfDirty\n Susp=0,165"];
"df52cbd6-c0ca-46a4-b896-b32fa1d57dd3" -> "f0038a86-6f7a-489e-b821-a2a98c520751";
"f0038a86-6f7a-489e-b821-a2a98c520751" [style=filled, fillcolor="#FFFFFF", label="com.android.internal.widget.ActionBarOverlayLayout.draw\n Susp=0,1672"];
"f0038a86-6f7a-489e-b821-a2a98c520751" -> "b7752f3a-983b-459a-a6db-f382247ed3ea";
"b7752f3a-983b-459a-a6db-f382247ed3ea" [style=filled, fillcolor="#FFFFFF", label="android.view.View.draw\n Susp=0,1693"];
"b7752f3a-983b-459a-a6db-f382247ed3ea" -> "064c6588-fca0-480e-85fe-bbe81242e61a";
"064c6588-fca0-480e-85fe-bbe81242e61a" [style=filled, fillcolor="#FFFFFF", label="android.view.ViewGroup.dispatchDraw\n Susp=0,1715"];
"064c6588-fca0-480e-85fe-bbe81242e61a" -> "e828d1e0-feb5-40bd-acb0-4277f3b583f0";
"e828d1e0-feb5-40bd-acb0-4277f3b583f0" [style=filled, fillcolor="#FFFFFF", label="android.view.ViewGroup.drawChild\n Susp=0,1737"];
"e828d1e0-feb5-40bd-acb0-4277f3b583f0" -> "20cf34e7-d92a-4cb2-933e-67199d7e2312";
"20cf34e7-d92a-4cb2-933e-67199d7e2312" [style=filled, fillcolor="#FFFFFF", label="android.view.View.draw\n Susp=0,1759"];
"20cf34e7-d92a-4cb2-933e-67199d7e2312" -> "80cc1486-a355-45a5-a614-66b004c8848e";
"80cc1486-a355-45a5-a614-66b004c8848e" [style=filled, fillcolor="#FFFFFF", label="android.view.View.getDisplayList\n Susp=0,1781"];
"80cc1486-a355-45a5-a614-66b004c8848e" -> "74a9a2e6-0e2a-4d23-9a13-7ae630932258";
"74a9a2e6-0e2a-4d23-9a13-7ae630932258" [style=filled, fillcolor="#FFFFFF", label="android.view.View.updateDisplayListIfDirty\n Susp=0,1802"];
"74a9a2e6-0e2a-4d23-9a13-7ae630932258" -> "f49ce3b8-4810-471d-a4fb-cbb9e140ec17";
"f49ce3b8-4810-471d-a4fb-cbb9e140ec17" [style=filled, fillcolor="#FFFFFF", label="android.view.ViewGroup.dispatchDraw\n Susp=0,1824"];
"f49ce3b8-4810-471d-a4fb-cbb9e140ec17" -> "551a2062-6e1b-44ea-9d87-cdbb20fc2aa5";
"551a2062-6e1b-44ea-9d87-cdbb20fc2aa5" [style=filled, fillcolor="#FFFFFF", label="android.view.ViewGroup.drawChild\n Susp=0,1846"];
"551a2062-6e1b-44ea-9d87-cdbb20fc2aa5" -> "1e452f9d-e9a8-4704-9a80-419cf455484a";
"1e452f9d-e9a8-4704-9a80-419cf455484a" [style=filled, fillcolor="#FFFFFF", label="android.view.View.draw\n Susp=0,1868"];
"1e452f9d-e9a8-4704-9a80-419cf455484a" -> "d7156871-293c-4ddd-a651-4d40e2603ec0";
"d7156871-293c-4ddd-a651-4d40e2603ec0" [style=filled, fillcolor="#FFFFFF", label="android.view.View.getDisplayList\n Susp=0,189"];
"d7156871-293c-4ddd-a651-4d40e2603ec0" -> "0d015361-659b-4f10-91df-846564017f68";
"0d015361-659b-4f10-91df-846564017f68" [style=filled, fillcolor="#FFFFFF", label="android.view.View.updateDisplayListIfDirty\n Susp=0,1912"];
"0d015361-659b-4f10-91df-846564017f68" -> "f2c6e575-e534-4256-b8a9-6e696236f168";
"f2c6e575-e534-4256-b8a9-6e696236f168" [style=filled, fillcolor="#FFFFFF", label="android.widget.ScrollView.draw\n Susp=0,1933"];
"f2c6e575-e534-4256-b8a9-6e696236f168" -> "eb61d832-d4f0-4e0b-8d2d-55d2c9b7ca31";
"eb61d832-d4f0-4e0b-8d2d-55d2c9b7ca31" [style=filled, fillcolor="#FFFFFF", label="android.widget.FrameLayout.draw\n Susp=0,1955"];
"eb61d832-d4f0-4e0b-8d2d-55d2c9b7ca31" -> "9a0bf2b2-563b-4080-bde2-0ca94d5a01c2";
"9a0bf2b2-563b-4080-bde2-0ca94d5a01c2" [style=filled, fillcolor="#FFFFFF", label="android.view.View.draw\n Susp=0,1977"];
"9a0bf2b2-563b-4080-bde2-0ca94d5a01c2" -> "ba6fe957-89fa-44e1-b236-8d2c41c8edcc";
"ba6fe957-89fa-44e1-b236-8d2c41c8edcc" [style=filled, fillcolor="#FFFFFF", label="android.view.ViewGroup.dispatchDraw\n Susp=0,1999"];
"ba6fe957-89fa-44e1-b236-8d2c41c8edcc" -> "b0a3448c-47df-4b50-8f15-b40f44eb2f30";
"b0a3448c-47df-4b50-8f15-b40f44eb2f30" [style=filled, fillcolor="#EBEBEB", label="android.view.ViewGroup.drawChild\n Susp=0,2021"];
"b0a3448c-47df-4b50-8f15-b40f44eb2f30" -> "d8e3e9bd-3607-4642-afdd-5b5684dd045f";
"d8e3e9bd-3607-4642-afdd-5b5684dd045f" [style=filled, fillcolor="#EBEBEB", label="android.view.View.draw\n Susp=0,2042"];
"d8e3e9bd-3607-4642-afdd-5b5684dd045f" -> "a117ed24-e0af-43de-a44e-5e786fe3a361";
"a117ed24-e0af-43de-a44e-5e786fe3a361" [style=filled, fillcolor="#EBEBEB", label="android.view.View.getDisplayList\n Susp=0,2064"];
"a117ed24-e0af-43de-a44e-5e786fe3a361" -> "d3e2a89c-f961-43e8-b879-5a25c683d349";
"d3e2a89c-f961-43e8-b879-5a25c683d349" [style=filled, fillcolor="#EBEBEB", label="android.view.View.updateDisplayListIfDirty\n Susp=0,2086"];
"d3e2a89c-f961-43e8-b879-5a25c683d349" -> "b552c440-78bc-493d-9247-7d1973c59d17";
"b552c440-78bc-493d-9247-7d1973c59d17" [style=filled, fillcolor="#EBEBEB", label="android.view.ViewGroup.dispatchDraw\n Susp=0,2108"];
"b552c440-78bc-493d-9247-7d1973c59d17" -> "9f8c7803-8fe2-4d77-a65b-314b787a194f";
"9f8c7803-8fe2-4d77-a65b-314b787a194f" [style=filled, fillcolor="#EBEBEB", label="android.view.ViewGroup.drawChild\n Susp=0,213"];
"9f8c7803-8fe2-4d77-a65b-314b787a194f" -> "1ef147e8-927b-448c-a938-138914870975";
"1ef147e8-927b-448c-a938-138914870975" [style=filled, fillcolor="#EBEBEB", label="android.view.View.draw\n Susp=0,2152"];
"1ef147e8-927b-448c-a938-138914870975" -> "abc73aaf-dfba-49ac-85d5-b039a25c2156";
"abc73aaf-dfba-49ac-85d5-b039a25c2156" [style=filled, fillcolor="#EBEBEB", label="android.view.View.getDisplayList\n Susp=0,2173"];
"abc73aaf-dfba-49ac-85d5-b039a25c2156" -> "4a6e03b8-ed3e-4358-b006-edd93772f449";
"4a6e03b8-ed3e-4358-b006-edd93772f449" [style=filled, fillcolor="#EBEBEB", label="android.view.View.updateDisplayListIfDirty\n Susp=0,2195"];
"4a6e03b8-ed3e-4358-b006-edd93772f449" -> "1c9165d9-f8ac-425f-b741-e3a2538a6610";
"1c9165d9-f8ac-425f-b741-e3a2538a6610" [style=filled, fillcolor="#EBEBEB", label="android.view.View.draw\n Susp=0,2217"];
"1c9165d9-f8ac-425f-b741-e3a2538a6610" -> "19644f70-9de6-42a8-a2c3-7e1d8ec196ca";
"19644f70-9de6-42a8-a2c3-7e1d8ec196ca" [style=filled, fillcolor="#FFFFFF", label="com.github.ruleant.getback_gps.NavigationView.onDraw\n Susp=0,1372"];
"43e88e3a-e2fd-46e5-a6ef-e08d749df0d9" -> "a4fd4e18-9650-4df9-a757-7c3bb3918895";
"a4fd4e18-9650-4df9-a757-7c3bb3918895" [style=filled, fillcolor="#FFFFFF", label="android.app.LoadedApk$ServiceDispatcher$RunConnection.run\n Susp=0,1865"];
"a4fd4e18-9650-4df9-a757-7c3bb3918895" -> "d5f308b8-9a68-4923-b859-fc7d4870cc2f";
"d5f308b8-9a68-4923-b859-fc7d4870cc2f" [style=filled, fillcolor="#FFFFFF", label="android.app.LoadedApk$ServiceDispatcher.doConnected\n Susp=0,1886"];
"d5f308b8-9a68-4923-b859-fc7d4870cc2f" -> "af6480a6-d428-460d-afc0-225ed9d839b7";
"af6480a6-d428-460d-afc0-225ed9d839b7" [style=filled, fillcolor="#FFFFFF", label="com.github.ruleant.getback_gps.AbstractGetBackGpsActivity$5.onServiceConnected\n Susp=0,1908"];
"af6480a6-d428-460d-afc0-225ed9d839b7" -> "8929f52c-2010-4450-9ff0-686403a3441d";
"8929f52c-2010-4450-9ff0-686403a3441d" [style=filled, fillcolor="#FFFFFF", label="com.github.ruleant.getback_gps.MainActivity.refreshDisplay\n Susp=0,1554"];
"8929f52c-2010-4450-9ff0-686403a3441d" -> "112d88a6-4a17-45a8-8949-ac7a138121fc";
"112d88a6-4a17-45a8-8949-ac7a138121fc" [style=filled, fillcolor="#FFFFFF", label="com.github.ruleant.getback_gps.AbstractGetBackGpsActivity.refreshDisplay\n Susp=0,1201"];
"112d88a6-4a17-45a8-8949-ac7a138121fc" -> "884f2488-9796-4001-abec-3f84c384510e";
"884f2488-9796-4001-abec-3f84c384510e" [style=filled, fillcolor="#FFFFFF", label="com.github.ruleant.getback_gps.AbstractGetBackGpsActivity.refreshCrouton\n Susp=0,1222"];
"884f2488-9796-4001-abec-3f84c384510e" -> "be19b3b6-9056-4d17-b863-de4a866b7830";
"be19b3b6-9056-4d17-b863-de4a866b7830" [style=filled, fillcolor="#FFFFFF", label="com.github.ruleant.getback_gps.lib.Navigator.isLocationAccurate\n Susp=0,1244"];
"be19b3b6-9056-4d17-b863-de4a866b7830" -> "97412d88-781a-42b0-970d-c28912b330c9";
"97412d88-781a-42b0-970d-c28912b330c9" [style=filled, fillcolor="#FFFFFF", label="com.github.ruleant.getback_gps.lib.AriadneLocation.isRecent\n Susp=0,1266"];
"97412d88-781a-42b0-970d-c28912b330c9" -> "c0f94a04-72c7-4f83-b439-1779323192db";
"c0f94a04-72c7-4f83-b439-1779323192db" [style=filled, fillcolor="#FFFFFF", label="android.location.Location.getElapsedRealtimeNanos\n Susp=0,0421"];
"5dfb06a1-f658-4f3e-8b2f-be8ac9f5ed4d" -> "8adcfa8e-46b8-4874-8990-2e2f9d36b78e";
"8adcfa8e-46b8-4874-8990-2e2f9d36b78e" [style=filled, fillcolor="#FFFFFF", label="android.location.LocationManager$ListenerTransport$1.handleMessage\n Susp=0,1311"];
"8adcfa8e-46b8-4874-8990-2e2f9d36b78e" -> "50542055-19a5-422f-a3f1-731d6b70df4c";
"50542055-19a5-422f-a3f1-731d6b70df4c" [style=filled, fillcolor="#FFFFFF", label="android.location.LocationManager$ListenerTransport.access$000\n Susp=0,1332"];
"50542055-19a5-422f-a3f1-731d6b70df4c" -> "a428007c-c335-4a8d-a9c8-c6e2c09d7bd6";
"a428007c-c335-4a8d-a9c8-c6e2c09d7bd6" [style=filled, fillcolor="#FFFFFF", label="android.location.LocationManager$ListenerTransport._handleMessage\n Susp=0,1354"];
"a428007c-c335-4a8d-a9c8-c6e2c09d7bd6" -> "eaaadd18-3a47-431d-b74f-d6e469d86879";
"eaaadd18-3a47-431d-b74f-d6e469d86879" [style=filled, fillcolor="#FFFFFF", label="com.github.ruleant.getback_gps.LocationService$1.onLocationChanged\n Susp=0,0509"];
}
