Position |MethodName|Relevancy
0.14285714285714285|com.orm.SugarContext.init|0.6711764705882352
0.2857142857142857|com.orm.SugarApp.onCreate|0.6694117647058823
0.42857142857142855|com.stanleyidesis.quotograph.LWQApplication.onCreate|0.6676470588235294
0.5714285714285714|com.orm.util.ManifestHelper.getMetaDataString|0.35823529411764704
0.7142857142857143|com.orm.util.ManifestHelper.getDatabaseName|0.3564705882352941
0.8571428571428571|com.orm.SugarDb.<init>|0.35470588235294115
1.0|com.orm.SugarContext.<init>|0.3529411764705882
