digraph FULL {
"c367750b-d4a0-4b19-a260-33439bc07ff3" [label="de.robv.android.xposed.XposedBridge.main\n Susp=1"];
"c367750b-d4a0-4b19-a260-33439bc07ff3" -> "246af137-8cc6-4d57-ad7d-27d1b0d263d2";
"246af137-8cc6-4d57-ad7d-27d1b0d263d2" [label="com.android.internal.os.ZygoteInit.main\n Susp=1"];
"246af137-8cc6-4d57-ad7d-27d1b0d263d2" -> "6ff656aa-d478-4b61-95c2-88e58a88c318";
"6ff656aa-d478-4b61-95c2-88e58a88c318" [label="com.android.internal.os.ZygoteInit$MethodAndArgsCaller.run\n Susp=1"];
"6ff656aa-d478-4b61-95c2-88e58a88c318" -> "fad673a6-8a78-4883-b2c2-08a13c052a78";
"fad673a6-8a78-4883-b2c2-08a13c052a78" [label="java.lang.reflect.Method.invoke\n Susp=1"];
"fad673a6-8a78-4883-b2c2-08a13c052a78" -> "93c85f45-9b2f-47d1-803c-be836c1d6766";
"93c85f45-9b2f-47d1-803c-be836c1d6766" [label="android.app.ActivityThread.main\n Susp=1"];
"93c85f45-9b2f-47d1-803c-be836c1d6766" -> "0cf7b780-6256-4ac1-8356-ee8729861c3e";
"0cf7b780-6256-4ac1-8356-ee8729861c3e" [label="android.os.Looper.loop\n Susp=1"];
"0cf7b780-6256-4ac1-8356-ee8729861c3e" -> "7f830bff-e9c5-440a-b1d0-e196c8e36fd3";
"7f830bff-e9c5-440a-b1d0-e196c8e36fd3" [label="android.os.Handler.dispatchMessage\n Susp=1"];
"7f830bff-e9c5-440a-b1d0-e196c8e36fd3" -> "cc7af23b-8509-4546-818f-57fed8b96269";
"cc7af23b-8509-4546-818f-57fed8b96269" [label="android.app.ActivityThread$H.handleMessage\n Susp=1"];
"cc7af23b-8509-4546-818f-57fed8b96269" -> "ab080087-8f32-4227-b119-4a7de90de9f6";
"ab080087-8f32-4227-b119-4a7de90de9f6" [label="android.app.ActivityThread.access$800\n Susp=1"];
"ab080087-8f32-4227-b119-4a7de90de9f6" -> "383bbb4a-d48f-4d09-8ef2-4c96e8bec289";
"383bbb4a-d48f-4d09-8ef2-4c96e8bec289" [label="android.app.ActivityThread.handleLaunchActivity\n Susp=1"];
"383bbb4a-d48f-4d09-8ef2-4c96e8bec289" -> "0e318208-ab18-41ee-a19e-d8f97a61e733";
"0e318208-ab18-41ee-a19e-d8f97a61e733" [label="android.app.ActivityThread.performLaunchActivity\n Susp=1"];
"0e318208-ab18-41ee-a19e-d8f97a61e733" -> "09fd7590-b646-4bbb-aeec-068240bd9337";
"09fd7590-b646-4bbb-aeec-068240bd9337" [label="android.app.Instrumentation.callActivityOnCreate\n Susp=1"];
"09fd7590-b646-4bbb-aeec-068240bd9337" -> "6c8a8166-39a4-4f36-97c3-0ad8b7fb9286";
"6c8a8166-39a4-4f36-97c3-0ad8b7fb9286" [label="android.app.Activity.performCreate\n Susp=1"];
"6c8a8166-39a4-4f36-97c3-0ad8b7fb9286" -> "4e0fd3ec-b666-4408-8185-cad4dae9408d";
"4e0fd3ec-b666-4408-8185-cad4dae9408d" [label="com.ascendtv.kanjifix.MainActivity.onCreate\n Susp=1"];
"4e0fd3ec-b666-4408-8185-cad4dae9408d" -> "81f5f93c-8a06-495c-a23a-9e712cd5a6a8";
"81f5f93c-8a06-495c-a23a-9e712cd5a6a8" [label="de.robv.android.xposed.XposedBridge.handleHookedMethod\n Susp=1"];
"81f5f93c-8a06-495c-a23a-9e712cd5a6a8" -> "f1811579-38f0-46dc-8262-d41153565e57";
"f1811579-38f0-46dc-8262-d41153565e57" [label="it.unimib.disco.lta.unimiblogger.MyMethodHook.beforeHookedMethod\n Susp=1"];
"f1811579-38f0-46dc-8262-d41153565e57" -> "47a96f2b-d85a-4a9c-a929-9387af402520";
"47a96f2b-d85a-4a9c-a929-9387af402520" [label="java.lang.Thread.getStackTrace\n Susp=1"];
"47a96f2b-d85a-4a9c-a929-9387af402520" -> "993ddb30-7f4d-4cfb-b927-1ded4d3f6933";
"993ddb30-7f4d-4cfb-b927-1ded4d3f6933" [label="dalvik.system.VMStack.getThreadStackTrace\n Susp=0,2"];
}
