digraph SIB_treshold_2 {
"865b84fd-725b-435a-872a-0196e12a602b" [style=filled, fillcolor="#5E5E5E",fontcolor=white, label="com.android.internal.os.ZygoteInit.main\n Susp=0,88"];
"865b84fd-725b-435a-872a-0196e12a602b" -> "8511595c-f031-41ff-b1cb-aef62daf21ee";
"8511595c-f031-41ff-b1cb-aef62daf21ee" [style=filled, fillcolor="#5E5E5E",fontcolor=white, label="com.android.internal.os.ZygoteInit$MethodAndArgsCaller.run\n Susp=0,8886"];
"8511595c-f031-41ff-b1cb-aef62daf21ee" -> "11707381-5270-4885-b5bf-952fb0a3064e";
"11707381-5270-4885-b5bf-952fb0a3064e" [style=filled, fillcolor="#5E5E5E",fontcolor=white, label="java.lang.reflect.Method.invoke\n Susp=0,8971"];
"11707381-5270-4885-b5bf-952fb0a3064e" -> "509ab385-55de-409e-bc8b-69864602f46f";
"509ab385-55de-409e-bc8b-69864602f46f" [style=filled, fillcolor="#5E5E5E",fontcolor=white, label="android.app.ActivityThread.main\n Susp=0,9057"];
"509ab385-55de-409e-bc8b-69864602f46f" -> "48ae282e-bd1b-4a8b-987b-c260e3bdb795";
"48ae282e-bd1b-4a8b-987b-c260e3bdb795" [style=filled, fillcolor="#5E5E5E",fontcolor=white, label="android.os.Looper.loop\n Susp=0,9143"];
"48ae282e-bd1b-4a8b-987b-c260e3bdb795" -> "62887f74-73d8-4155-a1ce-7a0524ad6f89";
"62887f74-73d8-4155-a1ce-7a0524ad6f89" [style=filled, fillcolor="#5E5E5E",fontcolor=white, label="android.os.Handler.dispatchMessage\n Susp=0,9229"];
"62887f74-73d8-4155-a1ce-7a0524ad6f89" -> "99f85d1b-9e9b-4e54-8b5e-25e166bcc1fc";
"99f85d1b-9e9b-4e54-8b5e-25e166bcc1fc" [style=filled, fillcolor="#5E5E5E",fontcolor=white, label="android.app.ActivityThread$H.handleMessage\n Susp=0,9314"];
"99f85d1b-9e9b-4e54-8b5e-25e166bcc1fc" -> "aaa5259b-6fb9-4622-8f96-697f9e69b805";
"aaa5259b-6fb9-4622-8f96-697f9e69b805" [style=filled, fillcolor="#5E5E5E",fontcolor=white, label="android.app.ActivityThread.access$1500\n Susp=0,94"];
"aaa5259b-6fb9-4622-8f96-697f9e69b805" -> "f80eddd9-59a4-4364-8a43-6ede7130981d";
"f80eddd9-59a4-4364-8a43-6ede7130981d" [style=filled, fillcolor="#5E5E5E",fontcolor=white, label="android.app.ActivityThread.handleBindApplication\n Susp=0,9486"];
"f80eddd9-59a4-4364-8a43-6ede7130981d" -> "173697dd-1024-462e-8cc1-3600860182a0";
"173697dd-1024-462e-8cc1-3600860182a0" [style=filled, fillcolor="#5E5E5E",fontcolor=white, label="android.app.Instrumentation.callApplicationOnCreate\n Susp=0,8671"];
"173697dd-1024-462e-8cc1-3600860182a0" -> "d6d3b96e-44e1-46d6-a7cb-c262f9bcd262";
"d6d3b96e-44e1-46d6-a7cb-c262f9bcd262" [style=filled, fillcolor="#5E5E5E",fontcolor=white, label="com.lapism.searchview.sample.Leak.onCreate\n Susp=0,8757"];
"d6d3b96e-44e1-46d6-a7cb-c262f9bcd262" -> "983ae27d-84e2-40eb-81cb-70b6eb7896fa";
"983ae27d-84e2-40eb-81cb-70b6eb7896fa" [style=filled, fillcolor="#5E5E5E",fontcolor=white, label="com.squareup.leakcanary.LeakCanary.install\n Susp=0,8843"];
"983ae27d-84e2-40eb-81cb-70b6eb7896fa" -> "692dbedf-2c53-4eab-b8fa-bc88cf334c6b";
"692dbedf-2c53-4eab-b8fa-bc88cf334c6b" [style=filled, fillcolor="#5E5E5E",fontcolor=white, label="com.squareup.leakcanary.LeakCanary.refWatcher\n Susp=0,8029"];
"692dbedf-2c53-4eab-b8fa-bc88cf334c6b" -> "3103ce88-ecc8-40e5-b9d2-52c1e987280f";
"3103ce88-ecc8-40e5-b9d2-52c1e987280f" [style=filled, fillcolor="#5E5E5E",fontcolor=white, label="com.squareup.leakcanary.AndroidRefWatcherBuilder.<init>\n Susp=0,7214"];
"3103ce88-ecc8-40e5-b9d2-52c1e987280f" -> "9009c0eb-b54e-41f3-be9f-99b0c3ca3a6c";
"9009c0eb-b54e-41f3-be9f-99b0c3ca3a6c" [style=filled, fillcolor="#EBEBEB", label="android.content.ContextWrapper.getApplicationContext\n Susp=0,21"];
}
