digraph SIB_treshold_2 {
"217b2aab-11b3-40f4-86bb-efc227bceb02" [style=filled, fillcolor="#919191", label="com.android.internal.os.ZygoteInit.main\n Susp=0,43"];
"217b2aab-11b3-40f4-86bb-efc227bceb02" -> "74b869d1-360f-4c92-82d1-1c7770eb7e82";
"74b869d1-360f-4c92-82d1-1c7770eb7e82" [style=filled, fillcolor="#919191", label="com.android.internal.os.ZygoteInit$MethodAndArgsCaller.run\n Susp=0,43"];
"74b869d1-360f-4c92-82d1-1c7770eb7e82" -> "2048490d-3afd-4d70-baa7-add38708c8d7";
"2048490d-3afd-4d70-baa7-add38708c8d7" [style=filled, fillcolor="#919191", label="java.lang.reflect.Method.invoke\n Susp=0,43"];
"2048490d-3afd-4d70-baa7-add38708c8d7" -> "a64ab60d-d063-4db1-be6b-b489d4c16df1";
"a64ab60d-d063-4db1-be6b-b489d4c16df1" [style=filled, fillcolor="#919191", label="android.app.ActivityThread.main\n Susp=0,43"];
"a64ab60d-d063-4db1-be6b-b489d4c16df1" -> "9d443d6b-8271-4b2b-b758-39efe8f576f9";
"9d443d6b-8271-4b2b-b758-39efe8f576f9" [style=filled, fillcolor="#919191", label="android.os.Looper.loop\n Susp=0,43"];
"9d443d6b-8271-4b2b-b758-39efe8f576f9" -> "5f75949d-e287-47da-8e2f-387069ebae90";
"5f75949d-e287-47da-8e2f-387069ebae90" [style=filled, fillcolor="#919191", label="android.os.Handler.dispatchMessage\n Susp=0,43"];
"5f75949d-e287-47da-8e2f-387069ebae90" -> "702a0a7e-5737-40ce-9fc1-931797b27c8f";
"702a0a7e-5737-40ce-9fc1-931797b27c8f" [style=filled, fillcolor="#5E5E5E",fontcolor=white, label="android.app.ActivityThread$H.handleMessage\n Susp=1"];
"702a0a7e-5737-40ce-9fc1-931797b27c8f" -> "21e6520c-264c-4aad-872a-652f21b04d98";
"21e6520c-264c-4aad-872a-652f21b04d98" [style=filled, fillcolor="#FFFFFF", label="android.app.ActivityThread.-wrap11\n Susp=0,1945"];
"21e6520c-264c-4aad-872a-652f21b04d98" -> "ed7dbf2e-5bdc-4962-9199-892f8040ca88";
"ed7dbf2e-5bdc-4962-9199-892f8040ca88" [style=filled, fillcolor="#FFFFFF", label="android.app.ActivityThread.handleLaunchActivity\n Susp=0,1945"];
"ed7dbf2e-5bdc-4962-9199-892f8040ca88" -> "bd2e67e9-8a5f-48d0-aee2-841b3ff1e9d6";
"bd2e67e9-8a5f-48d0-aee2-841b3ff1e9d6" [style=filled, fillcolor="#FFFFFF", label="android.app.ActivityThread.performLaunchActivity\n Susp=0,1945"];
"bd2e67e9-8a5f-48d0-aee2-841b3ff1e9d6" -> "8e8603ed-e161-4641-bef8-118bda1b979e";
"8e8603ed-e161-4641-bef8-118bda1b979e" [style=filled, fillcolor="#FFFFFF", label="android.app.Instrumentation.callActivityOnCreate\n Susp=0,1945"];
"8e8603ed-e161-4641-bef8-118bda1b979e" -> "f94ec062-b8c9-4af0-82e9-8d04404628ee";
"f94ec062-b8c9-4af0-82e9-8d04404628ee" [style=filled, fillcolor="#FFFFFF", label="android.app.Activity.performCreate\n Susp=0,1945"];
"f94ec062-b8c9-4af0-82e9-8d04404628ee" -> "571e4719-58ed-40e9-bd80-035c8906d08e";
"571e4719-58ed-40e9-bd80-035c8906d08e" [style=filled, fillcolor="#FFFFFF", label="be.uhasselt.privacypolice.PreferencesActivity.onCreate\n Susp=0,1945"];
"571e4719-58ed-40e9-bd80-035c8906d08e" -> "36fc5293-3140-411b-bebb-9998a60a690a";
"36fc5293-3140-411b-bebb-9998a60a690a" [style=filled, fillcolor="#FFFFFF", label="android.app.BackStackRecord.replace\n Susp=0,0022"];
"702a0a7e-5737-40ce-9fc1-931797b27c8f" -> "61f674ec-b5c8-49c9-be67-e03bb3035ce7";
"61f674ec-b5c8-49c9-be67-e03bb3035ce7" [style=filled, fillcolor="#A9A9A9", label="android.app.ActivityThread.-wrap14\n Susp=0,3986"];
"61f674ec-b5c8-49c9-be67-e03bb3035ce7" -> "cc2a368c-8eab-4c8e-9528-a27c6a6a0874";
"cc2a368c-8eab-4c8e-9528-a27c6a6a0874" [style=filled, fillcolor="#A9A9A9", label="android.app.ActivityThread.handleReceiver\n Susp=0,3986"];
"cc2a368c-8eab-4c8e-9528-a27c6a6a0874" -> "588b9f1b-6875-462e-8404-ae80681c7f1b";
"588b9f1b-6875-462e-8404-ae80681c7f1b" [style=filled, fillcolor="#A9A9A9", label="be.uhasselt.privacypolice.ScanResultsChecker.onReceive\n Susp=0,3986"];
"588b9f1b-6875-462e-8404-ae80681c7f1b" -> "229b1450-d3ff-4a8f-8b75-ddc3d838f1fc";
"229b1450-d3ff-4a8f-8b75-ddc3d838f1fc" [style=filled, fillcolor="#919191", label="be.uhasselt.privacypolice.ScanResultsChecker.checkResults\n Susp=0,4843"];
"229b1450-d3ff-4a8f-8b75-ddc3d838f1fc" -> "aba8464c-3a9f-4097-ab66-f0f53675c83c";
"aba8464c-3a9f-4097-ab66-f0f53675c83c" [style=filled, fillcolor="#C0C0C0", label="be.uhasselt.privacypolice.ScanResultsChecker.getNetworkSafety\n Susp=0,2921"];
"aba8464c-3a9f-4097-ab66-f0f53675c83c" -> "58ac3a05-fb39-4d4d-9973-9f57e2ded533";
"58ac3a05-fb39-4d4d-9973-9f57e2ded533" [style=filled, fillcolor="#C0C0C0", label="be.uhasselt.privacypolice.NotificationHandler.askNetworkPermission\n Susp=0,2921"];
"58ac3a05-fb39-4d4d-9973-9f57e2ded533" -> "dc074723-6a18-45f9-a119-a8968b679378";
"dc074723-6a18-45f9-a119-a8968b679378" [style=filled, fillcolor="#FFFFFF", label="android.support.v4.app.NotificationCompat$Builder.build\n Susp=0,1021"];
"229b1450-d3ff-4a8f-8b75-ddc3d838f1fc" -> "551ca5c2-e1ac-489e-951f-8aa7aa286812";
"551ca5c2-e1ac-489e-951f-8aa7aa286812" [style=filled, fillcolor="#FFFFFF", label="android.net.wifi.WifiManager.disableNetwork\n Susp=0,0022"];
"702a0a7e-5737-40ce-9fc1-931797b27c8f" -> "796a6b63-a889-453e-994a-d3f9d16dc16c";
"796a6b63-a889-453e-994a-d3f9d16dc16c" [style=filled, fillcolor="#FFFFFF", label="android.app.ActivityThread.access$800\n Susp=0,1945"];
"796a6b63-a889-453e-994a-d3f9d16dc16c" -> "148946aa-152d-4a27-9e11-960dd3387dde";
"148946aa-152d-4a27-9e11-960dd3387dde" [style=filled, fillcolor="#FFFFFF", label="android.app.ActivityThread.handleLaunchActivity\n Susp=0,1945"];
"148946aa-152d-4a27-9e11-960dd3387dde" -> "325640e3-1f9f-41d4-bd84-a703e415e160";
"325640e3-1f9f-41d4-bd84-a703e415e160" [style=filled, fillcolor="#FFFFFF", label="android.app.ActivityThread.performLaunchActivity\n Susp=0,1945"];
"325640e3-1f9f-41d4-bd84-a703e415e160" -> "7983c099-c0c5-4729-8dd2-d948dfadc538";
"7983c099-c0c5-4729-8dd2-d948dfadc538" [style=filled, fillcolor="#FFFFFF", label="android.app.Instrumentation.callActivityOnCreate\n Susp=0,1945"];
"7983c099-c0c5-4729-8dd2-d948dfadc538" -> "ab25d85a-ac2f-4706-9fd4-3ee8c2a9d5bd";
"ab25d85a-ac2f-4706-9fd4-3ee8c2a9d5bd" [style=filled, fillcolor="#FFFFFF", label="android.app.Activity.performCreate\n Susp=0,1945"];
"ab25d85a-ac2f-4706-9fd4-3ee8c2a9d5bd" -> "eaa4463c-a409-44fc-a3bd-0a7367638351";
"eaa4463c-a409-44fc-a3bd-0a7367638351" [style=filled, fillcolor="#FFFFFF", label="be.uhasselt.privacypolice.PreferencesActivity.onCreate\n Susp=0,1945"];
"eaa4463c-a409-44fc-a3bd-0a7367638351" -> "ec881c28-79b9-4da7-8666-546468f2c63a";
"ec881c28-79b9-4da7-8666-546468f2c63a" [style=filled, fillcolor="#FFFFFF", label="android.app.BackStackRecord.replace\n Susp=0,0022"];
"702a0a7e-5737-40ce-9fc1-931797b27c8f" -> "a1726087-0410-429d-b90a-782647e65177";
"a1726087-0410-429d-b90a-782647e65177" [style=filled, fillcolor="#EBEBEB", label="android.app.ActivityThread.access$1700\n Susp=0,2124"];
"a1726087-0410-429d-b90a-782647e65177" -> "ba267e86-e60a-46e5-97a3-0b7111b61904";
"ba267e86-e60a-46e5-97a3-0b7111b61904" [style=filled, fillcolor="#EBEBEB", label="android.app.ActivityThread.handleReceiver\n Susp=0,2124"];
"ba267e86-e60a-46e5-97a3-0b7111b61904" -> "7ed0d2d8-91e9-43aa-8d5c-d55398677d8a";
"7ed0d2d8-91e9-43aa-8d5c-d55398677d8a" [style=filled, fillcolor="#EBEBEB", label="be.uhasselt.privacypolice.ScanResultsChecker.onReceive\n Susp=0,2124"];
"7ed0d2d8-91e9-43aa-8d5c-d55398677d8a" -> "17e344f7-1194-4ebd-aeed-f9dfe56aeba3";
"17e344f7-1194-4ebd-aeed-f9dfe56aeba3" [style=filled, fillcolor="#EBEBEB", label="be.uhasselt.privacypolice.ScanResultsChecker.checkResults\n Susp=0,2012"];
"17e344f7-1194-4ebd-aeed-f9dfe56aeba3" -> "0d471347-181d-4a65-8325-dcece63747c8";
"0d471347-181d-4a65-8325-dcece63747c8" [style=filled, fillcolor="#EBEBEB", label="be.uhasselt.privacypolice.ScanResultsChecker.getNetworkSafety\n Susp=0,2012"];
"0d471347-181d-4a65-8325-dcece63747c8" -> "1febaeba-d873-4056-8f3e-cfa7f72429f4";
"1febaeba-d873-4056-8f3e-cfa7f72429f4" [style=filled, fillcolor="#EBEBEB", label="be.uhasselt.privacypolice.PreferencesStorage.getAllowedBSSIDs\n Susp=0,2012"];
"1febaeba-d873-4056-8f3e-cfa7f72429f4" -> "d36fda4a-3dc5-423d-871e-9f717212ce5a";
"d36fda4a-3dc5-423d-871e-9f717212ce5a" [style=filled, fillcolor="#EBEBEB", label="be.uhasselt.privacypolice.PreferencesStorage.getBSSIDs\n Susp=0,2012"];
"d36fda4a-3dc5-423d-871e-9f717212ce5a" -> "0347e0f9-91bc-4456-9f72-c654f35b2c3b";
"0347e0f9-91bc-4456-9f72-c654f35b2c3b" [style=filled, fillcolor="#FFFFFF", label="android.app.SharedPreferencesImpl.getStringSet\n Susp=0,0112"];
}
