4a5,9
> BEFORE dk.example.example_fragment_oninflate.MainActivityFragment.onInflate(android.content.res.XmlBlock$Parser)
> BEFORE dk.example.example_fragment_oninflate.MainActivityFragment.onInflate(android.content.res.XmlBlock$Parser)
> AFTER dk.example.example_fragment_oninflate.MainActivityFragment.onInflate
> AFTER dk.example.example_fragment_oninflate.MainActivityFragment.onInflate
> BEFORE dk.example.example_fragment_oninflate.MainActivityFragment.onInflate(dk.example.example_fragment_oninflate.MainActivity,android.content.res.XmlBlock$Parser)
7c12
< AFTER android.content.Context.obtainStyledAttributes, returnValue: [3, 5, -1, 0, 0, 0, 18, 0, 2, 2130903041, 0, 0, 0, 0, 2, 0, 0, 0, 0, 0, 2, 0, 0, 0, 0, 0, 2, 0, 0, 0, 0, 0, 2, 0, 0, 0, 0, 0, 2, 0, 0, 0, 0, 0, 2, 0, 0, 0, 0, 0, 2, 0, 0, 0, 0, 0, 2, 0, 0, 0, 0, 0, 2, 0, 0, 0, 1, 16974098, 1, 16974098, 1073746944, 0, 1, 16974099, 1, 16974099, 1073746944, 0, 3, 696, 1, 17302282, 1073746944, 0, 1, 16973977, 1, 16973977, 1073746944, 0, 5, 8193, 1, 0, 1073746944, 0, 3, 962, 1, 17367064, 1073746944, 0, 5, 2049, 1, 0, 1073746944, 0, 3, 6335, 1, 17301695, 1073747200, 480, 3, 6315, 1, 17301665, 1073747200, 480, 0, 0, 1, 0, 0, 0, 0, 0, 1, 0, 0, 0, 0, 0, 1, 0, 0, 0, 0, 0, 1, 0, 0, 0, 0, 0, 1, 0, 0, 0, 0, 0, 1, 0, 0, 0, 0, 0, 1, 0, 0, 0, 0, 0, -1, 0, 0, 0, 0, 0, -1, 0, 0, 0, 0, 0, -1, 0, 0, 0, 0, 0, -1, 0, 0, 0, 0, 0, -1, 0, 0, 0, 0, 0, -1, 0, 0, 0, 0, 0, -1, 0, 0, 0, 0, 0, -1, 0, 0, 0, 0, 0, -1, 0, 0, 0, 0, 0, -1, 0, 0, 0, 0, 0, -1, 0, 0, 0, 0, 0, -1, 0, 0, 0, 0, 0, -1, 0, 0, 0, 0, 0, -1, 0, 0, 0, 0, 0, -1, 0, 0, 0, 0, 0, -1, 0, 0, 0, 16, 250, -1, 0, 1073746944, 0, 16, 300, -1, 0, 1073746944, 0, 0, 0, -1, 0, 0, 0, 0, 0, -1, 0, 0, 0, 0, 0, -1, 0, 0, 0, 0, 0, -1, 0, 0, 0, 0, 0, -1, 0, 0, 0, 0, 0, -1, 0, 0, 0, 0, 0, -1, 0, 0, 0, 0, 0, -1, 0, 0, 0, 0, 0, -1, 0, 0, 0, 0, 0, -1, 0, 0, 0, 0, 0, -1, 0, 0, 0, 0, 0, -1, 0, 0, 0, 0, 0, -1, 0, 0, 0, 0, 0, -1, 0, 0, 0, 0, 0, -1, 0, 0, 0, 0, 0, -1, 0, 0, 0, 0, 0, -1, 0, 0, 0, 0, 0, -1, 0, 0, 0, 0, 0, -1, 0, 0, 0, 0, 0, -1, 0, 0, 0, 0, 0, -1, 0, 0, 0, 5, 1, 1, 0, 1073746944, 0, 5, 1, 1, 0, 1073746944, 0, 0, 0, 1, 0, 0, 0, 0, 0, 1, 0, 0, 0, 0, 0, 1, 0, 0, 0, 0, 0, 1, 0, 0, 0, 0, 0, 1, 0, 0, 0, 0, 0, 1, 0, 0, 0, 0, 0, 1, 0, 0, 0, 0, 0, 1, 0, 0, 0, 0, 0, 1, 0, 0, 0, 0, 0, 1, 0, 0, 0, 0, 0, 1, 0, 0, 0, 0, 0, 1, 0, 0, 0]
---
> AFTER android.content.Context.obtainStyledAttributes, returnValue: [3, 5, -1, 0, 0, 0, 18, 0, 2, 2130903041, 0, 0, 0, 0, 2, 0, 0, 0, 0, 0, 2, 0, 0, 0, 0, 0, 2, 0, 0, 0, 0, 0, 2, 0, 0, 0, 0, 0, 2, 0, 0, 0, 0, 0, 2, 0, 0, 0, 0, 0, 2, 0, 0, 0, 0, 0, 2, 0, 0, 0, 0, 0, 2, 0, 0, 0, 1, 16974098, 1, 16974098, 1073746944, 0, 1, 16974099, 1, 16974099, 1073746944, 0, 3, 1044, 1, 17302251, 1073746944, 0, 1, 16973977, 1, 16973977, 1073746944, 0, 5, 8193, 1, 0, 1073746944, 0, 3, 723, 1, 17367064, 1073746944, 0, 5, 2049, 1, 0, 1073746944, 0, 3, 6215, 1, 17301695, 1073747200, 480, 3, 6325, 1, 17301665, 1073747200, 480, 0, 0, 1, 0, 0, 0, 0, 0, 1, 0, 0, 0, 0, 0, 1, 0, 0, 0, 0, 0, 1, 0, 0, 0, 0, 0, 1, 0, 0, 0, 0, 0, 1, 0, 0, 0, 0, 0, -1, 0, 1073746944, 0, 0, 0, -1, 0, 0, 0, 0, 0, -1, 0, 0, 0, 0, 0, -1, 0, 0, 0, 0, 0, -1, 0, 0, 0, 0, 0, -1, 0, 0, 0, 0, 0, -1, 0, 0, 0, 0, 0, -1, 0, 0, 0, 0, 0, -1, 0, 0, 0, 0, 0, -1, 0, 0, 0, 0, 0, -1, 0, 0, 0, 0, 0, -1, 0, 0, 0, 0, 0, -1, 0, 0, 0, 0, 0, -1, 0, 0, 0, 0, 0, -1, 0, 0, 0, 0, 0, -1, 0, 0, 0, 0, 0, -1, 0, 0, 0, 0, 0, -1, 0, 0, 0, 0, 0, -1, 0, 0, 0, 16, 250, -1, 0, 1073746944, 0, 16, 300, -1, 0, 1073746944, 0, 0, 0, -1, 0, 0, 0, 0, 0, -1, 0, 0, 0, 0, 0, -1, 0, 0, 0, 0, 0, -1, 0, 0, 0, 0, 0, -1, 0, 0, 0, 0, 0, -1, 0, 0, 0, 0, 0, -1, 0, 0, 0, 0, 0, -1, 0, 0, 0, 0, 0, -1, 0, 0, 0, 0, 0, -1, 0, 0, 0, 0, 0, -1, 0, 0, 0, 0, 0, -1, 0, 0, 0, 0, 0, -1, 0, 0, 0, 0, 0, -1, 0, 0, 0, 0, 0, -1, 0, 0, 0, 0, 0, -1, 0, 0, 0, 0, 0, -1, 0, 0, 0, 0, 0, -1, 0, 0, 0, 0, 0, -1, 0, 0, 0, 0, 0, -1, 0, 0, 0, 0, 0, -1, 0, 0, 0, 5, 1, 1, 0, 1073746944, 0, 5, 1, 1, 0, 1073746944, 0, 0, 0, 1, 0, 0, 0, 0, 0, 1, 0, 0, 0, 0, 0, 1, 0, 0, 0, 0, 0, 1, 0, 0, 0, 0, 0, 1, 0, 0, 0, 0, 0, 1, 0, 0, 0, 0, 0, 1, 0, 0, 0, 0, 0, 1, 0, 0, 0, 0, 0, 1, 0, 0, 0, 0, 0, 1, 0, 0, 0, 0, 0, 1, 0, 0, 0, 0, 0, 1, 0, 0, 0, 0, 0, 1, 0, 0, 0, 0, 0, 1, 0, 0, 0, 0, 0, 1, 0, 0, 0, 0, 0, 1, 0, 0, 0, 0, 0, 1, 0, 0, 0]
11c16,17
< BEFORE dk.example.example_fragment_oninflate.MainActivityFragment.onCreateView(com.android.internal.policy.impl.PhoneLayoutInflater)
---
> AFTER dk.example.example_fragment_oninflate.MainActivityFragment.onInflate
> BEFORE dk.example.example_fragment_oninflate.MainActivityFragment.onCreateView(com.android.internal.policy.PhoneLayoutInflater)
14,16c20,22
< AFTER android.view.LayoutInflater.inflate, returnValue: android.widget.RelativeLayout{30353e39 V.E..... ......I. 0,0-0,0}
< AFTER android.view.LayoutInflater.inflate, returnValue: android.widget.RelativeLayout{30353e39 V.E..... ......I. 0,0-0,0}
< AFTER dk.example.example_fragment_oninflate.MainActivityFragment.onCreateView, returnValue: android.widget.RelativeLayout{30353e39 V.E..... ......I. 0,0-0,0}
---
> AFTER android.view.LayoutInflater.inflate, returnValue: android.widget.RelativeLayout{5d95454 V.E...... ......I. 0,0-0,0}
> AFTER android.view.LayoutInflater.inflate, returnValue: android.widget.RelativeLayout{5d95454 V.E...... ......I. 0,0-0,0}
> AFTER dk.example.example_fragment_oninflate.MainActivityFragment.onCreateView, returnValue: android.widget.RelativeLayout{5d95454 V.E...... ......I. 0,0-0,0}
33,37c39,41
< BEFORE dk.example.example_fragment_oninflate.MainActivityFragment.onInflate(dk.example.example_fragment_oninflate.MainActivity,android.content.res.XmlBlock$Parser,android.os.Bundle)
< BEFORE android.content.Context.obtainStyledAttributes(android.content.res.XmlBlock$Parser,[I)
< AFTER android.content.Context.obtainStyledAttributes, returnValue: [3, 5, -1, 0, 0, 0, 18, 0, 2, 2130903041, 0, 0, 0, 0, 2, 0, 0, 0, 0, 0, 2, 0, 0, 0, 0, 0, 2, 0, 0, 0, 0, 0, 2, 0, 0, 0, 0, 0, 2, 0, 0, 0, 0, 0, 2, 0, 0, 0, 0, 0, 2, 0, 0, 0, 0, 0, 2, 0, 0, 0, 0, 0, 2, 0, 0, 0, 1, 16974098, 1, 16974098, 1073746944, 0, 1, 16974099, 1, 16974099, 1073746944, 0, 3, 696, 1, 17302282, 1073746944, 0, 1, 16973977, 1, 16973977, 1073746944, 0, 5, 8193, 1, 0, 1073746944, 0, 3, 962, 1, 17367064, 1073746944, 0, 5, 2049, 1, 0, 1073746944, 0, 3, 6335, 1, 17301695, 1073747200, 480, 3, 6315, 1, 17301665, 1073747200, 480, 0, 0, 1, 0, 0, 0, 0, 0, 1, 0, 0, 0, 0, 0, 1, 0, 0, 0, 0, 0, 1, 0, 0, 0, 0, 0, 1, 0, 0, 0, 0, 0, 1, 0, 0, 0, 0, 0, 1, 0, 0, 0, 0, 0, -1, 0, 0, 0, 0, 0, -1, 0, 0, 0, 0, 0, -1, 0, 0, 0, 0, 0, -1, 0, 0, 0, 0, 0, -1, 0, 0, 0, 0, 0, -1, 0, 0, 0, 0, 0, -1, 0, 0, 0, 0, 0, -1, 0, 0, 0, 0, 0, -1, 0, 0, 0, 0, 0, -1, 0, 0, 0, 0, 0, -1, 0, 0, 0, 0, 0, -1, 0, 0, 0, 0, 0, -1, 0, 0, 0, 0, 0, -1, 0, 0, 0, 0, 0, -1, 0, 0, 0, 0, 0, -1, 0, 0, 0, 16, 250, -1, 0, 1073746944, 0, 16, 300, -1, 0, 1073746944, 0, 0, 0, -1, 0, 0, 0, 0, 0, -1, 0, 0, 0, 0, 0, -1, 0, 0, 0, 0, 0, -1, 0, 0, 0, 0, 0, -1, 0, 0, 0, 0, 0, -1, 0, 0, 0, 0, 0, -1, 0, 0, 0, 0, 0, -1, 0, 0, 0, 0, 0, -1, 0, 0, 0, 0, 0, -1, 0, 0, 0, 0, 0, -1, 0, 0, 0, 0, 0, -1, 0, 0, 0, 0, 0, -1, 0, 0, 0, 0, 0, -1, 0, 0, 0, 0, 0, -1, 0, 0, 0, 0, 0, -1, 0, 0, 0, 0, 0, -1, 0, 0, 0, 0, 0, -1, 0, 0, 0, 0, 0, -1, 0, 0, 0, 0, 0, -1, 0, 0, 0, 0, 0, -1, 0, 0, 0, 5, 1, 1, 0, 1073746944, 0, 5, 1, 1, 0, 1073746944, 0, 0, 0, 1, 0, 0, 0, 0, 0, 1, 0, 0, 0, 0, 0, 1, 0, 0, 0, 0, 0, 1, 0, 0, 0, 0, 0, 1, 0, 0, 0, 0, 0, 1, 0, 0, 0, 0, 0, 1, 0, 0, 0, 0, 0, 1, 0, 0, 0, 0, 0, 1, 0, 0, 0, 0, 0, 1, 0, 0, 0, 0, 0, 1, 0, 0, 0, 0, 0, 1, 0, 0, 0]
< BEFORE android.content.res.TypedArray.recycle()
< AFTER android.content.res.TypedArray.recycle
---
> BEFORE dk.example.example_fragment_oninflate.MainActivityFragment.onInflate(android.content.res.XmlBlock$Parser,android.os.Bundle)
> BEFORE dk.example.example_fragment_oninflate.MainActivityFragment.onInflate(android.content.res.XmlBlock$Parser,android.os.Bundle)
> AFTER dk.example.example_fragment_oninflate.MainActivityFragment.onInflate
39c43
< BEFORE dk.example.example_fragment_oninflate.MainActivityFragment.onCreateView(com.android.internal.policy.impl.PhoneLayoutInflater,android.os.Bundle)
---
> BEFORE dk.example.example_fragment_oninflate.MainActivityFragment.onCreateView(com.android.internal.policy.PhoneLayoutInflater,android.os.Bundle)
42,44c46,48
< AFTER android.view.LayoutInflater.inflate, returnValue: android.widget.RelativeLayout{3e0716af V.E..... ......I. 0,0-0,0}
< AFTER android.view.LayoutInflater.inflate, returnValue: android.widget.RelativeLayout{3e0716af V.E..... ......I. 0,0-0,0}
< AFTER dk.example.example_fragment_oninflate.MainActivityFragment.onCreateView, returnValue: android.widget.RelativeLayout{3e0716af V.E..... ......I. 0,0-0,0}
---
> AFTER android.view.LayoutInflater.inflate, returnValue: android.widget.RelativeLayout{2e8b04e V.E...... ......I. 0,0-0,0}
> AFTER android.view.LayoutInflater.inflate, returnValue: android.widget.RelativeLayout{2e8b04e V.E...... ......I. 0,0-0,0}
> AFTER dk.example.example_fragment_oninflate.MainActivityFragment.onCreateView, returnValue: android.widget.RelativeLayout{2e8b04e V.E...... ......I. 0,0-0,0}
