BEFORE android.os.Environment.getExternalStorageDirectory()
AFTER android.os.Environment.getExternalStorageDirectory, returnValue: /storage/emulated/0
BEFORE com.github.fakegps.ui.MainActivity.onCreate()
BEFORE android.support.v7.app.AppCompatActivity.onCreate()
AFTER android.support.v7.app.AppCompatActivity.onCreate
BEFORE android.support.v7.app.AppCompatActivity.setContentView(2130903067)
AFTER android.support.v7.app.AppCompatActivity.setContentView
BEFORE android.support.v7.app.AppCompatActivity.findViewById(2131427409)
AFTER android.support.v7.app.AppCompatActivity.findViewById, returnValue: android.support.v7.widget.AppCompatEditText{2aff046a VFED..CL ......I. 0,0-0,0 #7f0b0051 app:id/inputLoc}
BEFORE android.content.ContextWrapper.getSharedPreferences(FakeGPS,0)
AFTER android.content.ContextWrapper.getSharedPreferences, returnValue: android.app.SharedPreferencesImpl
BEFORE android.app.SharedPreferencesImpl.getString(last_loc,)
AFTER android.app.SharedPreferencesImpl.getString, returnValue: , isEmpty: true
BEFORE android.support.v7.app.AppCompatActivity.findViewById(2131427421)
AFTER android.support.v7.app.AppCompatActivity.findViewById, returnValue: android.support.v7.widget.AppCompatEditText{1c08d70d VFED..CL ......I. 0,0-0,0 #7f0b005d app:id/inputStep}
BEFORE android.support.v7.app.AppCompatActivity.findViewById(2131427418)
AFTER android.support.v7.app.AppCompatActivity.findViewById, returnValue: android.widget.ListView{df9b32f V.ED.VC. ......I. 0,0-0,0 #7f0b005a app:id/list_bookmark}
BEFORE android.support.v7.app.AppCompatActivity.findViewById(2131427422)
AFTER android.support.v7.app.AppCompatActivity.findViewById, returnValue: android.support.v7.widget.AppCompatButton{d43cd3c VFED..C. ......I. 0,0-0,0 #7f0b005e app:id/btn_start}
BEFORE android.support.v7.app.AppCompatActivity.findViewById(2131427423)
AFTER android.support.v7.app.AppCompatActivity.findViewById, returnValue: android.support.v7.widget.AppCompatButton{6cedac5 VFED..C. ......I. 0,0-0,0 #7f0b005f app:id/btn_set_loc}
BEFORE android.app.ContextImpl.getApplicationContext()
AFTER android.app.ContextImpl.getApplicationContext, returnValue: com.github.fakegps.FakeGpsApp
BEFORE android.content.ContextWrapper.getApplicationContext()
AFTER android.content.ContextWrapper.getApplicationContext, returnValue: com.github.fakegps.FakeGpsApp
BEFORE android.content.ContextWrapper.getDatabasePath(fake_gps.db)
AFTER android.content.ContextWrapper.getDatabasePath, returnValue: /data/data/com.github.fakegpsbug/databases/fake_gps.db
BEFORE android.content.ContextWrapper.getApplicationContext()
AFTER android.content.ContextWrapper.getApplicationContext, returnValue: com.github.fakegps.FakeGpsApp
BEFORE android.database.sqlite.SQLiteOpenHelper.getReadableDatabase()
BEFORE com.litesuits.orm.db.assit.SQLiteHelper.onCreate(android.database.sqlite.SQLiteDatabase)
AFTER com.litesuits.orm.db.assit.SQLiteHelper.onCreate
AFTER android.database.sqlite.SQLiteOpenHelper.getReadableDatabase, returnValue: SQLiteDatabase: /data/data/com.github.fakegpsbug/databases/fake_gps.db
BEFORE android.database.sqlite.SQLiteDatabase.rawQuery(SELECT * FROM sqlite_master WHERE type='table' ORDER BY name)
AFTER android.database.sqlite.SQLiteDatabase.rawQuery, returnValue: android.database.sqlite.SQLiteCursor
BEFORE android.database.AbstractCursor.moveToFirst()
AFTER android.database.AbstractCursor.moveToFirst, returnValue: true
BEFORE android.database.AbstractCursor.isAfterLast()
AFTER android.database.AbstractCursor.isAfterLast, returnValue: false
BEFORE android.database.AbstractCursor.getColumnCount()
AFTER android.database.AbstractCursor.getColumnCount, returnValue: 5
BEFORE android.database.AbstractCursor.getColumnName(0)
AFTER android.database.AbstractCursor.getColumnName, returnValue: type, isEmpty: false
BEFORE android.database.AbstractWindowedCursor.getString(0)
AFTER android.database.AbstractWindowedCursor.getString, returnValue: table, isEmpty: false
BEFORE android.database.AbstractCursor.getColumnName(1)
AFTER android.database.AbstractCursor.getColumnName, returnValue: name, isEmpty: false
BEFORE android.database.AbstractWindowedCursor.getString(1)
AFTER android.database.AbstractWindowedCursor.getString, returnValue: android_metadata, isEmpty: false
BEFORE android.database.AbstractCursor.getColumnName(2)
AFTER android.database.AbstractCursor.getColumnName, returnValue: tbl_name, isEmpty: false
BEFORE android.database.AbstractWindowedCursor.getString(2)
AFTER android.database.AbstractWindowedCursor.getString, returnValue: android_metadata, isEmpty: false
BEFORE android.database.AbstractCursor.getColumnName(3)
AFTER android.database.AbstractCursor.getColumnName, returnValue: rootpage, isEmpty: false
BEFORE android.database.AbstractWindowedCursor.getLong(3)
AFTER android.database.AbstractWindowedCursor.getLong, returnValue: 3
BEFORE android.database.AbstractCursor.getColumnName(4)
AFTER android.database.AbstractCursor.getColumnName, returnValue: sql, isEmpty: false
BEFORE android.database.AbstractWindowedCursor.getString(4)
AFTER android.database.AbstractWindowedCursor.getString, returnValue: CREATE TABLE android_metadata (locale TEXT), isEmpty: false
BEFORE android.database.sqlite.SQLiteDatabase.rawQuery(PRAGMA table_info(android_metadata)
AFTER android.database.sqlite.SQLiteDatabase.rawQuery, returnValue: android.database.sqlite.SQLiteCursor
BEFORE android.database.AbstractCursor.moveToFirst()
AFTER android.database.AbstractCursor.moveToFirst, returnValue: true
BEFORE android.database.AbstractCursor.isAfterLast()
AFTER android.database.AbstractCursor.isAfterLast, returnValue: false
BEFORE android.database.AbstractCursor.getColumnCount()
AFTER android.database.AbstractCursor.getColumnCount, returnValue: 6
BEFORE android.database.AbstractCursor.getColumnName(0)
AFTER android.database.AbstractCursor.getColumnName, returnValue: cid, isEmpty: false
BEFORE android.database.AbstractWindowedCursor.getLong(0)
AFTER android.database.AbstractWindowedCursor.getLong, returnValue: 0
BEFORE android.database.AbstractCursor.getColumnName(1)
AFTER android.database.AbstractCursor.getColumnName, returnValue: name, isEmpty: false
BEFORE android.database.AbstractWindowedCursor.getString(1)
AFTER android.database.AbstractWindowedCursor.getString, returnValue: locale, isEmpty: false
BEFORE android.database.AbstractCursor.getColumnName(2)
AFTER android.database.AbstractCursor.getColumnName, returnValue: type, isEmpty: false
BEFORE android.database.AbstractWindowedCursor.getString(2)
AFTER android.database.AbstractWindowedCursor.getString, returnValue: TEXT, isEmpty: false
BEFORE android.database.AbstractCursor.getColumnName(3)
AFTER android.database.AbstractCursor.getColumnName, returnValue: notnull, isEmpty: false
BEFORE android.database.AbstractWindowedCursor.getShort(3)
AFTER android.database.AbstractWindowedCursor.getShort, returnValue: 0
BEFORE android.database.AbstractCursor.getColumnName(4)
AFTER android.database.AbstractCursor.getColumnName, returnValue: dflt_value, isEmpty: false
BEFORE android.database.AbstractWindowedCursor.getString(4)
AFTER android.database.AbstractWindowedCursor.getString
BEFORE android.database.AbstractCursor.getColumnName(5)
AFTER android.database.AbstractCursor.getColumnName, returnValue: pk, isEmpty: false
BEFORE android.database.AbstractWindowedCursor.getShort(5)
AFTER android.database.AbstractWindowedCursor.getShort, returnValue: 0
BEFORE android.database.AbstractCursor.moveToNext()
AFTER android.database.AbstractCursor.moveToNext, returnValue: false
BEFORE android.database.AbstractCursor.isAfterLast()
AFTER android.database.AbstractCursor.isAfterLast, returnValue: true
BEFORE android.database.sqlite.SQLiteCursor.close()
AFTER android.database.sqlite.SQLiteCursor.close
BEFORE android.database.AbstractCursor.moveToNext()
AFTER android.database.AbstractCursor.moveToNext, returnValue: false
BEFORE android.database.AbstractCursor.isAfterLast()
AFTER android.database.AbstractCursor.isAfterLast, returnValue: true
BEFORE android.database.sqlite.SQLiteCursor.close()
AFTER android.database.sqlite.SQLiteCursor.close
BEFORE android.database.sqlite.SQLiteOpenHelper.getWritableDatabase()
AFTER android.database.sqlite.SQLiteOpenHelper.getWritableDatabase, returnValue: SQLiteDatabase: /data/data/com.github.fakegpsbug/databases/fake_gps.db
BEFORE android.widget.ListView.setAdapter(com.github.fakegps.ui.BookmarkAdapter)
BEFORE com.github.fakegps.ui.BookmarkAdapter.getCount()
AFTER com.github.fakegps.ui.BookmarkAdapter.getCount, returnValue: 0
BEFORE com.github.fakegps.ui.BookmarkAdapter.getCount()
AFTER com.github.fakegps.ui.BookmarkAdapter.getCount, returnValue: 0
BEFORE com.github.fakegps.ui.BookmarkAdapter.getCount()
AFTER com.github.fakegps.ui.BookmarkAdapter.getCount, returnValue: 0
AFTER android.widget.ListView.setAdapter
BEFORE android.support.v7.app.AppCompatActivity.findViewById(2131427419)
AFTER android.support.v7.app.AppCompatActivity.findViewById, returnValue: android.support.v7.widget.AppCompatTextView{126de0c3 V.ED.... ......ID 0,0-0,0 #7f0b005b app:id/empty_view}
BEFORE android.widget.AdapterView.setEmptyView(android.support.v7.widget.AppCompatTextView)
BEFORE com.github.fakegps.ui.BookmarkAdapter.getCount()
AFTER com.github.fakegps.ui.BookmarkAdapter.getCount, returnValue: 0
AFTER android.widget.AdapterView.setEmptyView
BEFORE android.widget.AdapterView.setOnItemClickListener(com.github.fakegps.ui.MainActivity$1)
AFTER android.widget.AdapterView.setOnItemClickListener
BEFORE android.app.Activity.registerForContextMenu(android.widget.ListView)
AFTER android.app.Activity.registerForContextMenu
BEFORE android.support.v4.content.LocalBroadcastManager.getInstance(android.app.ContextImpl)
AFTER android.support.v4.content.LocalBroadcastManager.getInstance, returnValue: android.support.v4.content.LocalBroadcastManager
BEFORE android.support.v4.content.LocalBroadcastManager.registerReceiver(com.github.fakegps.ui.MainActivity$3,android.content.IntentFilter)
AFTER android.support.v4.content.LocalBroadcastManager.registerReceiver
AFTER com.github.fakegps.ui.MainActivity.onCreate
BEFORE com.github.fakegps.ui.MainActivity.onClick(android.support.v7.widget.AppCompatButton)
BEFORE android.content.ContextWrapper.getApplicationContext()
AFTER android.content.ContextWrapper.getApplicationContext, returnValue: com.github.fakegps.FakeGpsApp
BEFORE android.content.ContextWrapper.getSystemService(location)
AFTER android.content.ContextWrapper.getSystemService, returnValue: android.location.LocationManager
BEFORE android.os.HandlerThread.getLooper()
AFTER android.os.HandlerThread.getLooper, returnValue: Looper (LocationThread, tid 283) {7829f71}
BEFORE android.os.Handler.post(com.github.fakegps.LocationThread$1)
BEFORE com.github.fakegps.LocationThread$1.run()
BEFORE android.content.ContextWrapper.getSystemService(window)
AFTER android.content.ContextWrapper.getSystemService, returnValue: android.view.WindowManagerImpl
BEFORE android.view.LayoutInflater.from(com.github.fakegps.FakeGpsApp)
AFTER android.view.LayoutInflater.from, returnValue: com.android.internal.policy.impl.PhoneLayoutInflater
BEFORE android.view.LayoutInflater.inflate(2130903069,com.github.fakegps.ui.JoyStickView)
BEFORE android.view.LayoutInflater.inflate(2130903069,com.github.fakegps.ui.JoyStickView)
BEFORE android.location.Location.setLatitude(37.802406)
AFTER android.location.Location.setLatitude
BEFORE android.location.Location.setLongitude(-122.401779)
AFTER android.location.Location.setLongitude
BEFORE android.location.Location.setAltitude(50.0)
AFTER android.location.Location.setAltitude
BEFORE android.location.Location.setElapsedRealtimeNanos(java.lang.Long)
AFTER android.location.Location.setElapsedRealtimeNanos
BEFORE android.location.Location.setAccuracy(10.0)
AFTER android.location.Location.setAccuracy
BEFORE android.location.Location.setSpeed(1.0)
AFTER android.location.Location.setSpeed
BEFORE android.location.Location.setTime(java.lang.Long)
AFTER android.location.Location.setTime
BEFORE android.location.ILocationManager$Stub$Proxy.reportLocation(android.location.Location,false)
AFTER android.location.ILocationManager$Stub$Proxy.reportLocation
AFTER android.view.LayoutInflater.inflate, returnValue: com.github.fakegps.ui.JoyStickView{43fa63a V.E..... ......I. 0,0-0,0}
AFTER android.view.LayoutInflater.inflate, returnValue: com.github.fakegps.ui.JoyStickView{43fa63a V.E..... ......I. 0,0-0,0}
BEFORE android.content.ContextWrapper.getResources()
AFTER android.content.ContextWrapper.getResources, returnValue: android.content.res.XResources
BEFORE android.content.ContextWrapper.getResources()
AFTER android.content.ContextWrapper.getResources, returnValue: android.content.res.XResources
BEFORE android.content.ContextWrapper.getResources()
AFTER android.content.ContextWrapper.getResources, returnValue: android.content.res.XResources
BEFORE android.content.ContextWrapper.getSystemService(window)
AFTER android.content.ContextWrapper.getSystemService, returnValue: android.view.WindowManagerImpl
BEFORE android.view.WindowManagerImpl.getDefaultDisplay()
AFTER android.view.WindowManagerImpl.getDefaultDisplay, returnValue: Display id 0: DisplayInfo{"Built-in Screen", uniqueId "local:0", app 1080 x 1776, real 1080 x 1920, largest app 1794 x 1701, smallest app 1080 x 1005, 60.000004 fps, supportedRefreshRates [60.000004], rotation 0, density 480 (480.0 x 480.0) dpi, layerStack 0, appVsyncOff 0, presDeadline 17666666, type BUILT_IN, state ON, FLAG_SECURE, FLAG_SUPPORTS_PROTECTED_BUFFERS}, DisplayMetrics{density=3.0, width=1080, height=1776, scaledDensity=3.0, xdpi=480.0, ydpi=480.0}, isValid=true
BEFORE android.view.Display.getWidth()
AFTER android.view.Display.getWidth, returnValue: 1080
BEFORE android.content.ContextWrapper.getSystemService(window)
AFTER android.content.ContextWrapper.getSystemService, returnValue: android.view.WindowManagerImpl
BEFORE android.view.WindowManagerImpl.getDefaultDisplay()
AFTER android.view.WindowManagerImpl.getDefaultDisplay, returnValue: Display id 0: DisplayInfo{"Built-in Screen", uniqueId "local:0", app 1080 x 1776, real 1080 x 1920, largest app 1794 x 1701, smallest app 1080 x 1005, 60.000004 fps, supportedRefreshRates [60.000004], rotation 0, density 480 (480.0 x 480.0) dpi, layerStack 0, appVsyncOff 0, presDeadline 17666666, type BUILT_IN, state ON, FLAG_SECURE, FLAG_SUPPORTS_PROTECTED_BUFFERS}, DisplayMetrics{density=3.0, width=1080, height=1776, scaledDensity=3.0, xdpi=480.0, ydpi=480.0}, isValid=true
BEFORE android.view.Display.getHeight()
AFTER android.view.Display.getHeight, returnValue: 1776
BEFORE android.view.WindowManagerImpl.addView(com.github.fakegps.ui.JoyStickView,android.view.WindowManager$LayoutParams)
AFTER android.view.WindowManagerImpl.addView
BEFORE android.app.Activity.finish()
BEFORE android.app.Activity.finish()
AFTER android.app.Activity.finish
AFTER android.app.Activity.finish
BEFORE com.github.fakegps.ui.JoyStickView.onMeasure(1073742274,1073742424)
BEFORE android.widget.FrameLayout.onMeasure(1073742274,1073742424)
AFTER android.widget.FrameLayout.onMeasure
AFTER com.github.fakegps.ui.JoyStickView.onMeasure
BEFORE com.github.fakegps.LocationThread$1.run()
BEFORE android.location.Location.setLatitude(37.802406)
AFTER android.location.Location.setLatitude
BEFORE android.location.Location.setLongitude(-122.401779)
AFTER android.location.Location.setLongitude
BEFORE android.location.Location.setAltitude(50.0)
AFTER android.location.Location.setAltitude
BEFORE android.location.Location.setElapsedRealtimeNanos(java.lang.Long)
AFTER android.location.Location.setElapsedRealtimeNanos
BEFORE android.location.Location.setAccuracy(10.0)
AFTER android.location.Location.setAccuracy
BEFORE android.location.Location.setSpeed(0.0)
AFTER android.location.Location.setSpeed
BEFORE android.location.Location.setTime(java.lang.Long)
AFTER android.location.Location.setTime
BEFORE android.location.ILocationManager$Stub$Proxy.reportLocation(android.location.Location,false)
AFTER android.location.ILocationManager$Stub$Proxy.reportLocation
AFTER com.github.fakegps.LocationThread$1.run
BEFORE com.github.fakegps.ui.JoyStickView.onMeasure(1073742274,1073742424)
BEFORE android.widget.FrameLayout.onMeasure(1073742274,1073742424)
AFTER android.widget.FrameLayout.onMeasure
AFTER com.github.fakegps.ui.JoyStickView.onMeasure
BEFORE com.github.fakegps.ui.MainActivity.onCreate()
BEFORE android.support.v7.app.AppCompatActivity.onCreate()
AFTER android.support.v7.app.AppCompatActivity.onCreate
BEFORE android.support.v7.app.AppCompatActivity.setContentView(2130903067)
BEFORE com.github.fakegps.LocationThread$1.run()
BEFORE android.location.Location.setLatitude(37.802406)
AFTER android.location.Location.setLatitude
BEFORE android.location.Location.setLongitude(-122.401779)
AFTER android.location.Location.setLongitude
BEFORE android.location.Location.setAltitude(50.0)
AFTER android.location.Location.setAltitude
BEFORE android.location.Location.setElapsedRealtimeNanos(java.lang.Long)
AFTER android.location.Location.setElapsedRealtimeNanos
BEFORE android.location.Location.setAccuracy(10.0)
AFTER android.location.Location.setAccuracy
BEFORE android.location.Location.setSpeed(0.0)
AFTER android.location.Location.setSpeed
BEFORE android.location.Location.setTime(java.lang.Long)
AFTER android.location.Location.setTime
BEFORE android.location.ILocationManager$Stub$Proxy.reportLocation(android.location.Location,false)
AFTER android.location.ILocationManager$Stub$Proxy.reportLocation
AFTER com.github.fakegps.LocationThread$1.run
AFTER android.support.v7.app.AppCompatActivity.setContentView
BEFORE android.support.v7.app.AppCompatActivity.findViewById(2131427409)
AFTER android.support.v7.app.AppCompatActivity.findViewById, returnValue: android.support.v7.widget.AppCompatEditText{363c6777 VFED..CL ......I. 0,0-0,0 #7f0b0051 app:id/inputLoc}
BEFORE android.support.v7.app.AppCompatActivity.findViewById(2131427421)
AFTER android.support.v7.app.AppCompatActivity.findViewById, returnValue: android.support.v7.widget.AppCompatEditText{94d3049 VFED..CL ......I. 0,0-0,0 #7f0b005d app:id/inputStep}
BEFORE android.support.v7.app.AppCompatActivity.findViewById(2131427418)
AFTER android.support.v7.app.AppCompatActivity.findViewById, returnValue: android.widget.ListView{3357e28b V.ED.VC. ......I. 0,0-0,0 #7f0b005a app:id/list_bookmark}
BEFORE android.support.v7.app.AppCompatActivity.findViewById(2131427422)
AFTER android.support.v7.app.AppCompatActivity.findViewById, returnValue: android.support.v7.widget.AppCompatButton{25f3ff68 VFED..C. ......I. 0,0-0,0 #7f0b005e app:id/btn_start}
BEFORE android.support.v7.app.AppCompatActivity.findViewById(2131427423)
AFTER android.support.v7.app.AppCompatActivity.findViewById, returnValue: android.support.v7.widget.AppCompatButton{33259f81 VFED..C. ......I. 0,0-0,0 #7f0b005f app:id/btn_set_loc}
BEFORE android.widget.ListView.setAdapter(com.github.fakegps.ui.BookmarkAdapter)
BEFORE com.github.fakegps.ui.BookmarkAdapter.getCount()
AFTER com.github.fakegps.ui.BookmarkAdapter.getCount, returnValue: 0
BEFORE com.github.fakegps.ui.BookmarkAdapter.getCount()
AFTER com.github.fakegps.ui.BookmarkAdapter.getCount, returnValue: 0
AFTER android.widget.ListView.setAdapter
BEFORE android.support.v7.app.AppCompatActivity.findViewById(2131427419)
AFTER android.support.v7.app.AppCompatActivity.findViewById, returnValue: android.support.v7.widget.AppCompatTextView{1c646826 V.ED.... ......ID 0,0-0,0 #7f0b005b app:id/empty_view}
BEFORE android.widget.AdapterView.setEmptyView(android.support.v7.widget.AppCompatTextView)
BEFORE com.github.fakegps.ui.BookmarkAdapter.getCount()
AFTER com.github.fakegps.ui.BookmarkAdapter.getCount, returnValue: 0
AFTER android.widget.AdapterView.setEmptyView
BEFORE android.widget.AdapterView.setOnItemClickListener(com.github.fakegps.ui.MainActivity$1)
AFTER android.widget.AdapterView.setOnItemClickListener
BEFORE android.app.Activity.registerForContextMenu(android.widget.ListView)
AFTER android.app.Activity.registerForContextMenu
BEFORE android.support.v4.content.LocalBroadcastManager.getInstance(android.app.ContextImpl)
AFTER android.support.v4.content.LocalBroadcastManager.getInstance, returnValue: android.support.v4.content.LocalBroadcastManager
BEFORE android.support.v4.content.LocalBroadcastManager.registerReceiver(com.github.fakegps.ui.MainActivity$3,android.content.IntentFilter)
AFTER android.support.v4.content.LocalBroadcastManager.registerReceiver
AFTER com.github.fakegps.ui.MainActivity.onCreate
BEFORE com.github.fakegps.LocationThread$1.run()
BEFORE android.location.Location.setLatitude(37.802406)
AFTER android.location.Location.setLatitude
BEFORE android.location.Location.setLongitude(-122.401779)
AFTER android.location.Location.setLongitude
BEFORE android.location.Location.setAltitude(50.0)
AFTER android.location.Location.setAltitude
BEFORE android.location.Location.setElapsedRealtimeNanos(java.lang.Long)
AFTER android.location.Location.setElapsedRealtimeNanos
BEFORE android.location.Location.setAccuracy(10.0)
AFTER android.location.Location.setAccuracy
BEFORE android.location.Location.setSpeed(0.0)
AFTER android.location.Location.setSpeed
BEFORE android.location.Location.setTime(java.lang.Long)
AFTER android.location.Location.setTime
BEFORE android.location.ILocationManager$Stub$Proxy.reportLocation(android.location.Location,false)
AFTER android.location.ILocationManager$Stub$Proxy.reportLocation
AFTER com.github.fakegps.LocationThread$1.run
BEFORE com.github.fakegps.LocationThread$1.run()
BEFORE android.location.Location.setLatitude(37.802406)
AFTER android.location.Location.setLatitude
BEFORE android.location.Location.setLongitude(-122.401779)
AFTER android.location.Location.setLongitude
BEFORE android.location.Location.setAltitude(50.0)
AFTER android.location.Location.setAltitude
BEFORE android.location.Location.setElapsedRealtimeNanos(java.lang.Long)
AFTER android.location.Location.setElapsedRealtimeNanos
BEFORE android.location.Location.setAccuracy(10.0)
AFTER android.location.Location.setAccuracy
BEFORE android.location.Location.setSpeed(0.0)
AFTER android.location.Location.setSpeed
BEFORE android.location.Location.setTime(java.lang.Long)
AFTER android.location.Location.setTime
BEFORE android.location.ILocationManager$Stub$Proxy.reportLocation(android.location.Location,false)
AFTER android.location.ILocationManager$Stub$Proxy.reportLocation
AFTER com.github.fakegps.LocationThread$1.run
BEFORE com.github.fakegps.ui.MainActivity.onDestroy()
BEFORE android.support.v4.content.LocalBroadcastManager.getInstance(android.app.ContextImpl)
AFTER android.support.v4.content.LocalBroadcastManager.getInstance, returnValue: android.support.v4.content.LocalBroadcastManager
BEFORE android.support.v4.content.LocalBroadcastManager.unregisterReceiver(com.github.fakegps.ui.MainActivity$3)
AFTER android.support.v4.content.LocalBroadcastManager.unregisterReceiver
BEFORE android.support.v7.app.AppCompatActivity.onDestroy()
AFTER android.support.v7.app.AppCompatActivity.onDestroy
AFTER com.github.fakegps.ui.MainActivity.onDestroy
BEFORE com.github.fakegps.LocationThread$1.run()
BEFORE android.location.Location.setLatitude(37.802406)
AFTER android.location.Location.setLatitude
BEFORE android.location.Location.setLongitude(-122.401779)
AFTER android.location.Location.setLongitude
BEFORE android.location.Location.setAltitude(50.0)
AFTER android.location.Location.setAltitude
BEFORE android.location.Location.setElapsedRealtimeNanos(java.lang.Long)
AFTER android.location.Location.setElapsedRealtimeNanos
BEFORE android.location.Location.setAccuracy(10.0)
AFTER android.location.Location.setAccuracy
BEFORE android.location.Location.setSpeed(0.0)
AFTER android.location.Location.setSpeed
BEFORE android.location.Location.setTime(java.lang.Long)
AFTER android.location.Location.setTime
BEFORE android.location.ILocationManager$Stub$Proxy.reportLocation(android.location.Location,false)
AFTER android.location.ILocationManager$Stub$Proxy.reportLocation
AFTER com.github.fakegps.LocationThread$1.run
BEFORE com.github.fakegps.ui.MainActivity.onClick(android.support.v7.widget.AppCompatButton)
BEFORE android.content.ContextWrapper.getSharedPreferences(FakeGPS,0)
AFTER android.content.ContextWrapper.getSharedPreferences, returnValue: android.app.SharedPreferencesImpl
BEFORE android.app.SharedPreferencesImpl.edit()
AFTER android.app.SharedPreferencesImpl.edit, returnValue: android.app.SharedPreferencesImpl$EditorImpl
BEFORE android.app.SharedPreferencesImpl$EditorImpl.putString(last_loc,(37.802406 , -122.401779)
AFTER android.app.SharedPreferencesImpl$EditorImpl.putString, returnValue: android.app.SharedPreferencesImpl$EditorImpl
BEFORE android.app.SharedPreferencesImpl$EditorImpl.apply()
AFTER android.app.SharedPreferencesImpl$EditorImpl.apply
BEFORE android.os.HandlerThread.quit()
AFTER android.os.HandlerThread.quit, returnValue: true
BEFORE android.view.WindowManagerImpl.removeView(com.github.fakegps.ui.JoyStickView)
AFTER android.view.WindowManagerImpl.removeView
BEFORE android.app.Activity.finish()
BEFORE android.app.Activity.finish()
AFTER android.app.Activity.finish
AFTER android.app.Activity.finish
AFTER com.github.fakegps.ui.MainActivity.onClick
BEFORE com.github.fakegps.ui.MainActivity.onDestroy()
BEFORE android.support.v4.content.LocalBroadcastManager.getInstance(android.app.ContextImpl)
AFTER android.support.v4.content.LocalBroadcastManager.getInstance, returnValue: android.support.v4.content.LocalBroadcastManager
BEFORE android.support.v4.content.LocalBroadcastManager.unregisterReceiver(com.github.fakegps.ui.MainActivity$3)
AFTER android.support.v4.content.LocalBroadcastManager.unregisterReceiver
BEFORE android.support.v7.app.AppCompatActivity.onDestroy()
AFTER android.support.v7.app.AppCompatActivity.onDestroy
AFTER com.github.fakegps.ui.MainActivity.onDestroy
