BEFORE com.example.mapdemo.MapDemoActivity.onCreate()
BEFORE android.support.v7.app.AppCompatActivity.onCreate()
AFTER android.support.v7.app.AppCompatActivity.onCreate
BEFORE android.support.v7.app.AppCompatActivity.setContentView(2131296280)
BEFORE android.os.Binder.queryLocalInterface(com.google.android.gms.dynamic.IObjectWrapper)
AFTER android.os.Binder.queryLocalInterface, returnValue: com.google.android.gms.dynamic.zze
BEFORE android.os.Binder.queryLocalInterface(com.google.android.gms.dynamic.IObjectWrapper)
AFTER android.os.Binder.queryLocalInterface, returnValue: com.google.android.gms.dynamic.zze
BEFORE android.os.Binder.queryLocalInterface(com.google.android.gms.maps.internal.ICreator)
AFTER android.os.Binder.queryLocalInterface, returnValue: com.google.android.gms.maps.internal.CreatorImpl
BEFORE android.os.Binder.queryLocalInterface(com.google.android.gms.maps.internal.IMapFragmentDelegate)
AFTER android.os.Binder.queryLocalInterface, returnValue: com.google.maps.api.android.lib6.impl.cq
AFTER android.support.v7.app.AppCompatActivity.setContentView
BEFORE android.support.v4.app.FragmentActivity.getSupportFragmentManager()
AFTER android.support.v4.app.FragmentActivity.getSupportFragmentManager, returnValue: FragmentManager{e01ff9b in HostCallbacks{1f9d3f38}}
BEFORE android.support.v4.app.FragmentManagerImpl.findFragmentById(2131165232)
AFTER android.support.v4.app.FragmentManagerImpl.findFragmentById, returnValue: SupportMapFragment{3c872b11 #0 id=0x7f070030}
BEFORE android.app.Activity.findViewById(2131165240)
AFTER android.app.Activity.findViewById, returnValue: android.support.v7.widget.AppCompatButton{19f6fa77 VFED..C. ......I. 0,0-0,0 #7f070038 app:id/posButton}
AFTER com.example.mapdemo.MapDemoActivity.onCreate
BEFORE com.example.mapdemo.MapDemoActivity.onStart()
BEFORE android.support.v4.app.FragmentActivity.onStart()
AFTER android.support.v4.app.FragmentActivity.onStart
AFTER com.example.mapdemo.MapDemoActivity.onStart
BEFORE com.example.mapdemo.MapDemoActivity$1.onMapReady(com.google.android.gms.maps.GoogleMap)
BEFORE android.widget.Toast.makeText(com.example.mapdemo.MapDemoActivity,Map Fragment was loaded properly!,0)
AFTER android.widget.Toast.makeText, returnValue: android.widget.Toast
BEFORE android.widget.Toast.show()
AFTER android.widget.Toast.show
AFTER com.example.mapdemo.MapDemoActivity$1.onMapReady
BEFORE com.example.mapdemo.MapDemoActivity.onConnected()
BEFORE android.widget.Toast.makeText(com.example.mapdemo.MapDemoActivity,GPS location was found!,0)
AFTER android.widget.Toast.makeText, returnValue: android.widget.Toast
BEFORE android.widget.Toast.show()
AFTER android.widget.Toast.show
BEFORE android.location.Location.getLatitude()
AFTER android.location.Location.getLatitude, returnValue: 0.0
BEFORE android.location.Location.getLongitude()
AFTER android.location.Location.getLongitude, returnValue: 0.0
BEFORE android.os.Binder.queryLocalInterface(com.google.android.gms.maps.internal.ICameraUpdateFactoryDelegate)
AFTER android.os.Binder.queryLocalInterface, returnValue: com.google.maps.api.android.lib6.impl.an
BEFORE android.os.Binder.queryLocalInterface(com.google.android.gms.dynamic.IObjectWrapper)
AFTER android.os.Binder.queryLocalInterface, returnValue: com.google.android.gms.dynamic.ObjectWrapper
AFTER com.example.mapdemo.MapDemoActivity.onConnected
BEFORE com.example.mapdemo.MapDemoActivity$2.onClick(android.support.v7.widget.AppCompatButton)
BEFORE android.content.ContextWrapper.getApplicationContext()
AFTER android.content.ContextWrapper.getApplicationContext, returnValue: android.app.Application
BEFORE android.location.Location.getLatitude()
AFTER android.location.Location.getLatitude, returnValue: 0.0
BEFORE android.widget.Toast.makeText(android.app.Application,0.0,1)
AFTER android.widget.Toast.makeText, returnValue: android.widget.Toast
BEFORE android.widget.Toast.show()
AFTER android.widget.Toast.show
AFTER com.example.mapdemo.MapDemoActivity$2.onClick
