12c12
< AFTER android.os.Binder.queryLocalInterface, returnValue: com.google.maps.api.android.lib6.impl.cq
---
> AFTER android.os.Binder.queryLocalInterface, returnValue: com.google.maps.api.android.lib6.impl.cp
15c15
< AFTER android.support.v4.app.FragmentActivity.getSupportFragmentManager, returnValue: FragmentManager{e01ff9b in HostCallbacks{1f9d3f38}}
---
> AFTER android.support.v4.app.FragmentActivity.getSupportFragmentManager, returnValue: FragmentManager{c11ff39 in HostCallbacks{e83397e}}
17c17
< AFTER android.support.v4.app.FragmentManagerImpl.findFragmentById, returnValue: SupportMapFragment{3c872b11 #0 id=0x7f070030}
---
> AFTER android.support.v4.app.FragmentManagerImpl.findFragmentById, returnValue: SupportMapFragment{ed80edf #0 id=0x7f070030}
19c19
< AFTER android.app.Activity.findViewById, returnValue: android.support.v7.widget.AppCompatButton{19f6fa77 VFED..C. ......I. 0,0-0,0 #7f070038 app:id/posButton}
---
> AFTER android.app.Activity.findViewById, returnValue: android.support.v7.widget.AppCompatButton{a8a55f5 VFED..C.. ......I. 0,0-0,0 #7f070038 app:id/posButton}
32c32
< BEFORE android.widget.Toast.makeText(com.example.mapdemo.MapDemoActivity,GPS location was found!,0)
---
> BEFORE android.widget.Toast.makeText(com.example.mapdemo.MapDemoActivity,Current location was null, enable GPS on emulator!,0)
36,43d35
< BEFORE android.location.Location.getLatitude()
< AFTER android.location.Location.getLatitude, returnValue: 0.0
< BEFORE android.location.Location.getLongitude()
< AFTER android.location.Location.getLongitude, returnValue: 0.0
< BEFORE android.os.Binder.queryLocalInterface(com.google.android.gms.maps.internal.ICameraUpdateFactoryDelegate)
< AFTER android.os.Binder.queryLocalInterface, returnValue: com.google.maps.api.android.lib6.impl.an
< BEFORE android.os.Binder.queryLocalInterface(com.google.android.gms.dynamic.IObjectWrapper)
< AFTER android.os.Binder.queryLocalInterface, returnValue: com.google.android.gms.dynamic.ObjectWrapper
48,53d39
< BEFORE android.location.Location.getLatitude()
< AFTER android.location.Location.getLatitude, returnValue: 0.0
< BEFORE android.widget.Toast.makeText(android.app.Application,0.0,1)
< AFTER android.widget.Toast.makeText, returnValue: android.widget.Toast
< BEFORE android.widget.Toast.show()
< AFTER android.widget.Toast.show
