digraph HU_Eduroam_CallGraph {
"65aaa7d2-a23d-4541-ac14-0dcb3099dabc" [label="de.robv.android.xposed.XposedBridge.main\n Susp=0.78"];
"65aaa7d2-a23d-4541-ac14-0dcb3099dabc" -> "4289cdf7-2b61-490c-86c5-4eef7b443beb";
"4289cdf7-2b61-490c-86c5-4eef7b443beb" [label="com.android.internal.os.ZygoteInit.main\n Susp=0.368"];
"4289cdf7-2b61-490c-86c5-4eef7b443beb" -> "2d7a7a52-b11f-4b38-9157-9a914fb43f6a";
"2d7a7a52-b11f-4b38-9157-9a914fb43f6a" [label="com.android.internal.os.ZygoteInit$MethodAndArgsCaller.run\n Susp=0.3827"];
"2d7a7a52-b11f-4b38-9157-9a914fb43f6a" -> "3e587fa0-c587-48d8-b40d-d75fd2c0aed7";
"3e587fa0-c587-48d8-b40d-d75fd2c0aed7" [label="java.lang.reflect.Method.invoke\n Susp=0.3973"];
"3e587fa0-c587-48d8-b40d-d75fd2c0aed7" -> "3e6b36d1-6245-424b-958f-710e397851d9";
"3e6b36d1-6245-424b-958f-710e397851d9" [label="android.app.ActivityThread.main\n Susp=0.412"];
"3e6b36d1-6245-424b-958f-710e397851d9" -> "3df7ca7d-8e32-4cc9-8184-fffc495d803a";
"3df7ca7d-8e32-4cc9-8184-fffc495d803a" [label="android.os.Looper.loop\n Susp=0.4267"];
"3df7ca7d-8e32-4cc9-8184-fffc495d803a" -> "cf73b3f8-2356-4139-8293-0e43d186d0c8";
"cf73b3f8-2356-4139-8293-0e43d186d0c8" [label="android.os.Handler.dispatchMessage\n Susp=0.4413"];
"cf73b3f8-2356-4139-8293-0e43d186d0c8" -> "6757f7e7-1bd2-4e59-b327-7042470eff00";
"6757f7e7-1bd2-4e59-b327-7042470eff00" [label="android.app.ActivityThread$H.handleMessage\n Susp=0.456"];
"6757f7e7-1bd2-4e59-b327-7042470eff00" -> "593b55a0-5b27-4e5f-a025-1b759d72780f";
"593b55a0-5b27-4e5f-a025-1b759d72780f" [label="android.app.ActivityThread.access$800\n Susp=0.4707"];
"593b55a0-5b27-4e5f-a025-1b759d72780f" -> "94f90886-0102-40e1-ba74-ccb57e497f59";
"94f90886-0102-40e1-ba74-ccb57e497f59" [label="android.app.ActivityThread.handleLaunchActivity\n Susp=0.4853"];
"94f90886-0102-40e1-ba74-ccb57e497f59" -> "889b83be-caf0-48cd-8a31-7fe19f8547ab";
"889b83be-caf0-48cd-8a31-7fe19f8547ab" [label="android.app.ActivityThread.performLaunchActivity\n Susp=0.5"];
"889b83be-caf0-48cd-8a31-7fe19f8547ab" -> "c1ffe701-6053-42a1-8c75-89580ebb1c9b";
"c1ffe701-6053-42a1-8c75-89580ebb1c9b" [label="android.app.Instrumentation.callActivityOnCreate\n Susp=0.5147"];
"c1ffe701-6053-42a1-8c75-89580ebb1c9b" -> "ebff87a9-04d6-4fab-9716-0ff84406ca38";
"ebff87a9-04d6-4fab-9716-0ff84406ca38" [label="android.app.Activity.performCreate\n Susp=0.5293"];
"ebff87a9-04d6-4fab-9716-0ff84406ca38" -> "8c49010c-321d-48d3-a0d0-a5eb95156469";
"8c49010c-321d-48d3-a0d0-a5eb95156469" [label="de.hu_berlin.eduroam.WiFiEduroam.onCreate\n Susp=0.544"];
"8c49010c-321d-48d3-a0d0-a5eb95156469" -> "e84fdb0f-f793-4411-9b07-d5b78f892dc4";
"e84fdb0f-f793-4411-9b07-d5b78f892dc4" [label="android.app.Activity.findViewById\n Susp=0.2347"];
"65aaa7d2-a23d-4541-ac14-0dcb3099dabc" -> "966cb06e-bf6f-4778-b34a-fd37852229aa";
"966cb06e-bf6f-4778-b34a-fd37852229aa" [label="dalvik.system.NativeStart.main\n Susp=0.412"];
"966cb06e-bf6f-4778-b34a-fd37852229aa" -> "bf0b2db6-f3f0-4675-a404-85e2d252a8b5";
"bf0b2db6-f3f0-4675-a404-85e2d252a8b5" [label="com.android.internal.os.ZygoteInit.main\n Susp=0.3827"];
"bf0b2db6-f3f0-4675-a404-85e2d252a8b5" -> "4ab18019-3156-4486-8c27-e94500125a91";
"4ab18019-3156-4486-8c27-e94500125a91" [label="com.android.internal.os.ZygoteInit$MethodAndArgsCaller.run\n Susp=0.3973"];
"4ab18019-3156-4486-8c27-e94500125a91" -> "342e43f5-b111-4108-ae83-7907a5337a37";
"342e43f5-b111-4108-ae83-7907a5337a37" [label="java.lang.reflect.Method.invoke\n Susp=0.412"];
"342e43f5-b111-4108-ae83-7907a5337a37" -> "52993f3d-326f-453e-bfde-427f85e1e773";
"52993f3d-326f-453e-bfde-427f85e1e773" [label="java.lang.reflect.Method.invokeNative\n Susp=0.4267"];
"52993f3d-326f-453e-bfde-427f85e1e773" -> "133fda5f-206b-4989-935a-46e37de082aa";
"133fda5f-206b-4989-935a-46e37de082aa" [label="android.app.ActivityThread.main\n Susp=0.4413"];
"133fda5f-206b-4989-935a-46e37de082aa" -> "57cc84b5-6c92-4fd4-a2e7-992e1f7cfaa7";
"57cc84b5-6c92-4fd4-a2e7-992e1f7cfaa7" [label="android.os.Looper.loop\n Susp=0.456"];
"57cc84b5-6c92-4fd4-a2e7-992e1f7cfaa7" -> "d177455e-349d-4403-a4db-c1ef39e618a1";
"d177455e-349d-4403-a4db-c1ef39e618a1" [label="android.os.Handler.dispatchMessage\n Susp=0.4707"];
"d177455e-349d-4403-a4db-c1ef39e618a1" -> "f3658103-b170-4c5d-b0cc-f400141d473f";
"f3658103-b170-4c5d-b0cc-f400141d473f" [label="android.app.ActivityThread$H.handleMessage\n Susp=0.4853"];
"f3658103-b170-4c5d-b0cc-f400141d473f" -> "33be0a4b-e204-4f61-821d-f4e4461f7576";
"33be0a4b-e204-4f61-821d-f4e4461f7576" [label="android.app.ActivityThread.access$800\n Susp=0.5"];
"33be0a4b-e204-4f61-821d-f4e4461f7576" -> "182a9057-b550-4528-88a3-53eb41d3805c";
"182a9057-b550-4528-88a3-53eb41d3805c" [label="android.app.ActivityThread.handleLaunchActivity\n Susp=0.5147"];
"182a9057-b550-4528-88a3-53eb41d3805c" -> "b944af18-68fb-4f8e-b080-27ac4771c4e6";
"b944af18-68fb-4f8e-b080-27ac4771c4e6" [label="android.app.ActivityThread.performLaunchActivity\n Susp=0.5293"];
"b944af18-68fb-4f8e-b080-27ac4771c4e6" -> "153d2978-2169-4e63-8d74-87b06f215c97";
"153d2978-2169-4e63-8d74-87b06f215c97" [label="android.app.Instrumentation.callActivityOnCreate\n Susp=0.544"];
"153d2978-2169-4e63-8d74-87b06f215c97" -> "1efd3fe8-28a8-46b5-84dc-20264f1f402f";
"1efd3fe8-28a8-46b5-84dc-20264f1f402f" [label="android.app.Activity.performCreate\n Susp=0.5587"];
"1efd3fe8-28a8-46b5-84dc-20264f1f402f" -> "d82e34f0-4e5d-4c68-8c28-bb8a97565dad";
"d82e34f0-4e5d-4c68-8c28-bb8a97565dad" [label="de.hu_berlin.eduroam.WiFiEduroam.onCreate\n Susp=0.5733"];
"d82e34f0-4e5d-4c68-8c28-bb8a97565dad" -> "a69223c4-a827-4f9d-860c-ed267143fe51";
"a69223c4-a827-4f9d-860c-ed267143fe51" [label="android.app.Activity.findViewById\n Susp=0.264"];
}
