Position |MethodName|Relevancy
0.3333333333333333|org.asdtm.goodweather.MainActivity.onOptionsItemSelected|0.39688229056203606
0.6666666666666666|org.asdtm.goodweather.MainActivity.gpsRequestLocation|0.3864899257688229
1.0|org.asdtm.goodweather.MainActivity$1.onLocationChanged|0.37963944856839876
