Position |MethodName|Relevancy
0.045454545454545456|android.os.Handler.dispatchMessage|1.0
0.09090909090909091|android.widget.AdapterView.performItemClick|0.9118367346938776
0.13636363636363635|android.os.Handler.handleCallback|0.7270748299319727
0.18181818181818182|android.view.View.layout|0.5752380952380951
0.22727272727272727|com.example.arial.bosstransfer.TurnHelp.turn|0.5262585034013605
0.2727272727272727|android.app.ActivityThread$H.handleMessage|0.521360544217687
0.3181818181818182|android.os.Looper.loop|0.4933333333333333
0.36363636363636365|android.widget.AbsListView.performItemClick|0.4051700680272109
0.4090909090909091|android.widget.AdapterView.isScrollableForAccessibility|0.3537414965986394
0.45454545454545453|android.view.ViewGroup.layout|0.32190476190476186
0.5|com.example.arial.bosstransfer.core.AbsOrdinaryAdapter.getView|0.3145578231292517
0.5454545454545454|com.example.arial.bosstransfer.MainActivity$1.onItemClick|0.2925170068027211
0.5909090909090909|com.example.arial.bosstransfer.boss.BossTransferView.handleRootView|0.2704761904761904
0.6363636363636364|com.example.arial.bosstransfer.MainActivity$1.onItemClick|0.2606802721088435
0.6818181818181818|android.widget.AdapterView.isScrollableForAccessibility|0.25823129251700677
0.7272727272727273|com.example.arial.bosstransfer.boss.BossTransferView.init|0.25578231292517
0.7727272727272727|com.example.arial.bosstransfer.core.AbsOrdinaryAdapter.getCount|0.10040816326530612
0.8181818181818182|android.view.LayoutInflater.inflate|0.030612244897959183
0.8636363636363636|android.animation.ObjectAnimator.ofFloat|0.01714285714285714
0.9090909090909091|com.example.arial.bosstransfer.core.AbsOrdinaryAdapter.getCount|0.004897959183673469
0.9545454545454546|android.view.LayoutInflater.inflate|0.003673469387755102
1.0|android.content.ContextWrapper.checkSelfPermission|0.0024489795918367346
