Position |MethodName|Relevancy
0.043478260869565216|java.lang.Thread.run|1.0
0.08695652173913043|android.os.Handler.dispatchMessage|0.8623529411764705
0.13043478260869565|okhttp3.internal.connection.RealConnection.establishProtocol|0.7758823529411765
0.17391304347826086|android.os.Handler.handleCallback|0.5913725490196078
0.21739130434782608|android.widget.Spinner.onMeasure|0.5701960784313724
0.2608695652173913|okhttp3.internal.http.RetryAndFollowUpInterceptor.intercept|0.526078431372549
0.30434782608695654|android.app.ActivityThread$H.handleMessage|0.5207843137254902
0.34782608695652173|okhttp3.internal.connection.RealConnection.connectTls|0.5154901960784313
0.391304347826087|android.os.Looper.loop|0.3556862745098039
0.43478260869565216|android.support.v7.widget.AppCompatSpinner.onMeasure|0.3168627450980392
0.4782608695652174|android.widget.Spinner.measureContentWidth|0.3027450980392157
0.5217391304347826|okhttp3.internal.NamedRunnable.run|0.2992156862745098
0.5652173913043478|com.kamron.pogoiv.updater.DownloadUpdateService$1.onReceive|0.2745098039215686
0.6086956521739131|okhttp3.internal.http.RealInterceptorChain.proceed|0.27274509803921565
0.6521739130434783|okhttp3.internal.connection.RealConnection.buildConnection|0.26921568627450976
0.6956521739130435|android.widget.AbsSpinner.onMeasure|0.2674509803921568
0.7391304347826086|com.kamron.pogoiv.SettingsActivity.onCreate|0.2603921568627451
0.782608695652174|android.widget.AdapterView.isScrollableForAccessibility|0.2568627450980392
0.8260869565217391|com.kamron.pogoiv.widgets.PlayerTeamAdapter.getView|0.04941176470588235
0.8695652173913043|com.kamron.pogoiv.widgets.PlayerTeamAdapter.getView|0.014117647058823528
0.9130434782608695|android.content.ContextWrapper.unregisterReceiver|0.010588235294117647
0.9565217391304348|com.android.org.conscrypt.OpenSSLSocketImpl.getSession|0.005294117647058823
1.0|android.app.BackStackRecord.replace|0.003529411764705882
