Position |MethodName|Relevancy
0.14285714285714285|be.uhasselt.privacypolice.ScanResultsChecker.onReceive|0.7651428571428571
0.2857142857142857|be.uhasselt.privacypolice.ScanResultsChecker.checkResults|0.6645714285714286
0.42857142857142855|be.uhasselt.privacypolice.ScanResultsChecker.getNetworkSafety|0.5640000000000001
0.5714285714285714|be.uhasselt.privacypolice.NotificationHandler.askNetworkPermission|0.33685714285714285
0.7142857142857143|be.uhasselt.privacypolice.PreferencesStorage.getBSSIDs|0.2528571428571429
0.8571428571428571|be.uhasselt.privacypolice.PreferencesStorage.getAllowedBSSIDs|0.24428571428571427
1.0|be.uhasselt.privacypolice.PreferencesActivity.onCreate|0.2374285714285714
