17c17
< AFTER android.app.Activity.findViewById, returnValue: android.widget.ImageButton{52830db8 VFED..C. ......I. 0,0-0,0 #7f070064 app:id/toggle_volume}
---
> AFTER android.app.Activity.findViewById, returnValue: android.widget.ImageButton{5bbda7a VFED..C. ......I. 0,0-0,0 #7f070064 app:id/toggle_volume}
21c21
< AFTER android.app.Activity.findViewById, returnValue: android.widget.Button{5285fae0 VFED..C. ......ID 0,0-0,0 #7f070017 app:id/button_color_match}
---
> AFTER android.app.Activity.findViewById, returnValue: android.widget.Button{248a1688 VFED..C. ......ID 0,0-0,0 #7f070017 app:id/button_color_match}
23c23
< AFTER android.app.Activity.findViewById, returnValue: android.widget.Button{52833b0c VFED..C. ......ID 0,0-0,0 #7f07001d app:id/button_shape_match}
---
> AFTER android.app.Activity.findViewById, returnValue: android.widget.Button{16d93821 VFED..C. ......ID 0,0-0,0 #7f07001d app:id/button_shape_match}
25c25
< AFTER android.app.Activity.findViewById, returnValue: android.widget.Button{52820aec VFED..C. ......ID 0,0-0,0 #7f07001a app:id/button_find_operation}
---
> AFTER android.app.Activity.findViewById, returnValue: android.widget.Button{341d2446 VFED..C. ......ID 0,0-0,0 #7f07001a app:id/button_find_operation}
27c27
< AFTER android.app.Activity.findViewById, returnValue: android.widget.Button{527fd870 VFED..C. ......ID 0,0-0,0 #7f070016 app:id/button_calculate_fast}
---
> AFTER android.app.Activity.findViewById, returnValue: android.widget.Button{2599f607 VFED..C. ......ID 0,0-0,0 #7f070016 app:id/button_calculate_fast}
29c29
< AFTER android.app.Activity.findViewById, returnValue: android.widget.Button{5282ce8c VFED..C. ......ID 0,0-0,0 #7f07001b app:id/button_memory_matrix}
---
> AFTER android.app.Activity.findViewById, returnValue: android.widget.Button{3bee1334 VFED..C. ......ID 0,0-0,0 #7f07001b app:id/button_memory_matrix}
31c31
< AFTER android.app.Activity.findViewById, returnValue: android.widget.Button{528579ec VFED..C. ......ID 0,0-0,0 #7f070018 app:id/button_compare_fast}
---
> AFTER android.app.Activity.findViewById, returnValue: android.widget.Button{1c70355d VFED..C. ......ID 0,0-0,0 #7f070018 app:id/button_compare_fast}
33c33
< AFTER android.app.Activity.findViewById, returnValue: android.widget.ImageButton{52819d90 VFED..C. ......I. 0,0-0,0 #7f070060 app:id/stats}
---
> AFTER android.app.Activity.findViewById, returnValue: android.widget.ImageButton{2ef73ed2 VFED..C. ......I. 0,0-0,0 #7f070060 app:id/stats}
63,64c63,64
< AFTER android.content.res.Resources$Theme.obtainStyledAttributes, returnValue: [0, 0, 1, 0, 0, 0, 16, 60000, -1, 0, 0, 0, 0, 0, -1, 0, 0, 0, 0, 0, -1, 0, 1073742848, 0, 0, 0, -1, 0, 1073742848, 0, 0, 0, -1, 0, 0, 0, 0, 0, -1, 0, 0, 0, 0, 0, -1, 0, 0, 0, 18, 0, 2, 2131165221, 0, 0, 0, 0, 2, 0, 0, 0, 0, 0, 2, 0, 0, 0, 0, 0, 2, 0, 0, 0, 0, 0, 2, 0, 0, 0, 0, 0, 2, 0, 0, 0, 0, 0, 2, 0, 0, 0, 0, 0, 2, 0, 0, 0, 0, 0, 2, 0, 0, 0, 0, 0, 2, 0, 0, 0, 0, 0, 2, 0, 0, 0, 0, 0, 2, 0, 0, 0, 0, 0, 2, 0, 0, 0, 0, 0, 2, 0, 0, 0, 0, 0, 2, 0, 0, 0, 0, 0, 2, 0, 0, 0, 0, 0, 2, 0, 0, 0, 0, 0, 2, 0, 0, 0, 0, 0, 2, 0, 0, 0, 0, 0, 2, 0, 0, 0, 0, 0, 2, 0, 0, 0, 0, 0, 2, 0, 0, 0, 0, 0, 2, 0, 0, 0, 0, 0, 2, 0, 0, 0, 0, 0, 2, 0, 0, 0, 0, 0, 2, 0, 0, 0, 0, 0, 2, 0, 0, 0, 0, 0, 2, 0, 0, 0, 0, 0, 2, 0, 0, 0, 0, 0, 2, 0, 0, 0, 0, 0, 2, 0, 0, 0, 0, 0, 2, 0, 0, 0, 0, 0, 2, 0, 0, 0, 0, 0, 2, 0, 0, 0, 16, 250, 2, 0, 1073742848, 0, 16, 300, 2, 0, 1073742848, 0, 0, 0, 2, 0, 0, 0, 0, 0, 2, 0, 0, 0, 0, 0, 2, 0, 0, 0, 0, 0, 2, 0, 0, 0, 0, 0, 2, 0, 0, 0, 0, 0, 2, 0, 0, 0, 0, 0, 2, 0, 0, 0, 0, 0, 2, 0, 0, 0, 0, 0, 2, 0, 0, 0, 0, 0, 2, 0, 0, 0, 0, 0, 2, 0, 0, 0, 0, 0, 2, 0, 0, 0, 0, 0, 2, 0, 0, 0, 0, 0, 2, 0, 0, 0, 0, 0, 2, 0, 0, 0, 0, 0, 2, 0, 0, 0, 0, 0, 2, 0, 0, 0, 0, 0, 2, 0, 0, 0, 0, 0, 2, 0, 0, 0, 0, 0, 2, 0, 0, 0, 0, 0, 2, 0, 0, 0, 0, 0, 2, 0, 0, 0, 0, 0, 2, 0, 0, 0, 0, 0, 2, 0, 0, 0, 0, 0, 2, 0, 0, 0, 3, 949, 1, 17367213, 1073742848, 0, 3, 6386, 1, 17303087, 1073742848, 65535, 3, 951, 1, 17367215, 1073742848, 0, 0, 0, 1, 0, 0, 0, 0, 0, 1, 0, 0, 0, 0, 0, 1, 0, 0, 0, 0, 0, 1, 0, 0, 0]
< AFTER android.content.res.Resources$Theme.obtainStyledAttributes, returnValue: [0, 0, 1, 0, 0, 0, 16, 60000, -1, 0, 0, 0, 0, 0, -1, 0, 0, 0, 0, 0, -1, 0, 1073742848, 0, 0, 0, -1, 0, 1073742848, 0, 0, 0, -1, 0, 0, 0, 0, 0, -1, 0, 0, 0, 0, 0, -1, 0, 0, 0, 18, 0, 2, 2131165221, 0, 0, 0, 0, 2, 0, 0, 0, 0, 0, 2, 0, 0, 0, 0, 0, 2, 0, 0, 0, 0, 0, 2, 0, 0, 0, 0, 0, 2, 0, 0, 0, 0, 0, 2, 0, 0, 0, 0, 0, 2, 0, 0, 0, 0, 0, 2, 0, 0, 0, 0, 0, 2, 0, 0, 0, 0, 0, 2, 0, 0, 0, 0, 0, 2, 0, 0, 0, 0, 0, 2, 0, 0, 0, 0, 0, 2, 0, 0, 0, 0, 0, 2, 0, 0, 0, 0, 0, 2, 0, 0, 0, 0, 0, 2, 0, 0, 0, 0, 0, 2, 0, 0, 0, 0, 0, 2, 0, 0, 0, 0, 0, 2, 0, 0, 0, 0, 0, 2, 0, 0, 0, 0, 0, 2, 0, 0, 0, 0, 0, 2, 0, 0, 0, 0, 0, 2, 0, 0, 0, 0, 0, 2, 0, 0, 0, 0, 0, 2, 0, 0, 0, 0, 0, 2, 0, 0, 0, 0, 0, 2, 0, 0, 0, 0, 0, 2, 0, 0, 0, 0, 0, 2, 0, 0, 0, 0, 0, 2, 0, 0, 0, 0, 0, 2, 0, 0, 0, 0, 0, 2, 0, 0, 0, 0, 0, 2, 0, 0, 0, 16, 250, 2, 0, 1073742848, 0, 16, 300, 2, 0, 1073742848, 0, 0, 0, 2, 0, 0, 0, 0, 0, 2, 0, 0, 0, 0, 0, 2, 0, 0, 0, 0, 0, 2, 0, 0, 0, 0, 0, 2, 0, 0, 0, 0, 0, 2, 0, 0, 0, 0, 0, 2, 0, 0, 0, 0, 0, 2, 0, 0, 0, 0, 0, 2, 0, 0, 0, 0, 0, 2, 0, 0, 0, 0, 0, 2, 0, 0, 0, 0, 0, 2, 0, 0, 0, 0, 0, 2, 0, 0, 0, 0, 0, 2, 0, 0, 0, 0, 0, 2, 0, 0, 0, 0, 0, 2, 0, 0, 0, 0, 0, 2, 0, 0, 0, 0, 0, 2, 0, 0, 0, 0, 0, 2, 0, 0, 0, 0, 0, 2, 0, 0, 0, 0, 0, 2, 0, 0, 0, 0, 0, 2, 0, 0, 0, 0, 0, 2, 0, 0, 0, 0, 0, 2, 0, 0, 0, 0, 0, 2, 0, 0, 0, 3, 949, 1, 17367213, 1073742848, 0, 3, 6386, 1, 17303087, 1073742848, 65535, 3, 951, 1, 17367215, 1073742848, 0, 0, 0, 1, 0, 0, 0, 0, 0, 1, 0, 0, 0, 0, 0, 1, 0, 0, 0, 0, 0, 1, 0, 0, 0]
---
> AFTER android.content.res.Resources$Theme.obtainStyledAttributes, returnValue: [0, 0, 1, 0, 0, 0, 16, 60000, -1, 0, 0, 0, 0, 0, -1, 0, 0, 0, 3, 862, 1, 17302997, 1073746944, 0, 0, 0, -1, 0, 1073746944, 0, 0, 0, -1, 0, 1073746944, 0, 0, 0, -1, 0, 0, 0, 0, 0, -1, 0, 0, 0, 0, 0, -1, 0, 0, 0, 18, 0, 2, 2131165221, 0, 0, 0, 0, 2, 0, 0, 0, 0, 0, 2, 0, 0, 0, 0, 0, 2, 0, 0, 0, 0, 0, 2, 0, 0, 0, 0, 0, 2, 0, 0, 0, 0, 0, 2, 0, 0, 0, 0, 0, 2, 0, 0, 0, 0, 0, 2, 0, 0, 0, 0, 0, 2, 0, 0, 0, 0, 0, 2, 0, 0, 0, 0, 0, 2, 0, 0, 0, 0, 0, 2, 0, 0, 0, 0, 0, 2, 0, 0, 0, 0, 0, 2, 0, 0, 0, 0, 0, 2, 0, 0, 0, 0, 0, 2, 0, 0, 0, 0, 0, 2, 0, 0, 0, 0, 0, 2, 0, 0, 0, 0, 0, 2, 0, 0, 0, 0, 0, 2, 0, 0, 0, 0, 0, 2, 0, 0, 0, 0, 0, 2, 0, 0, 0, 0, 0, 2, 0, 0, 0, 0, 0, 2, 0, 0, 0, 0, 0, 2, 0, 0, 0, 0, 0, 2, 0, 0, 0, 0, 0, 2, 0, 0, 0, 0, 0, 2, 0, 0, 0, 0, 0, 2, 0, 0, 0, 0, 0, 2, 0, 0, 0, 0, 0, 2, 0, 0, 0, 0, 0, 2, 0, 0, 0, 0, 0, 2, 0, 0, 0, 16, 250, 2, 0, 1073746944, 0, 16, 300, 2, 0, 1073746944, 0, 0, 0, 2, 0, 0, 0, 0, 0, 2, 0, 0, 0, 0, 0, 2, 0, 0, 0, 0, 0, 2, 0, 0, 0, 0, 0, 2, 0, 0, 0, 0, 0, 2, 0, 0, 0, 0, 0, 2, 0, 0, 0, 0, 0, 2, 0, 0, 0, 0, 0, 2, 0, 0, 0, 0, 0, 2, 0, 0, 0, 0, 0, 2, 0, 0, 0, 0, 0, 2, 0, 0, 0, 0, 0, 2, 0, 0, 0, 0, 0, 2, 0, 0, 0, 0, 0, 2, 0, 0, 0, 0, 0, 2, 0, 0, 0, 0, 0, 2, 0, 0, 0, 0, 0, 2, 0, 0, 0, 0, 0, 2, 0, 0, 0, 0, 0, 2, 0, 0, 0, 0, 0, 2, 0, 0, 0, 0, 0, 2, 0, 0, 0, 0, 0, 2, 0, 0, 0, 0, 0, 2, 0, 0, 0, 0, 0, 2, 0, 0, 0, 0, 0, 2, 0, 0, 0, 0, 0, 2, 0, 0, 0, 0, 0, 2, 0, 0, 0, 0, 0, 2, 0, 0, 0, 0, 0, 2, 0, 0, 0, 0, 0, 2, 0, 0, 0, 0, 0, 2, 0, 0, 0, 0, 0, 2, 0, 0, 0, 0, 0, 1, 0, 0, 0]
> AFTER android.content.res.Resources$Theme.obtainStyledAttributes, returnValue: [0, 0, 1, 0, 0, 0, 16, 60000, -1, 0, 0, 0, 0, 0, -1, 0, 0, 0, 3, 862, 1, 17302997, 1073746944, 0, 0, 0, -1, 0, 1073746944, 0, 0, 0, -1, 0, 1073746944, 0, 0, 0, -1, 0, 0, 0, 0, 0, -1, 0, 0, 0, 0, 0, -1, 0, 0, 0, 18, 0, 2, 2131165221, 0, 0, 0, 0, 2, 0, 0, 0, 0, 0, 2, 0, 0, 0, 0, 0, 2, 0, 0, 0, 0, 0, 2, 0, 0, 0, 0, 0, 2, 0, 0, 0, 0, 0, 2, 0, 0, 0, 0, 0, 2, 0, 0, 0, 0, 0, 2, 0, 0, 0, 0, 0, 2, 0, 0, 0, 0, 0, 2, 0, 0, 0, 0, 0, 2, 0, 0, 0, 0, 0, 2, 0, 0, 0, 0, 0, 2, 0, 0, 0, 0, 0, 2, 0, 0, 0, 0, 0, 2, 0, 0, 0, 0, 0, 2, 0, 0, 0, 0, 0, 2, 0, 0, 0, 0, 0, 2, 0, 0, 0, 0, 0, 2, 0, 0, 0, 0, 0, 2, 0, 0, 0, 0, 0, 2, 0, 0, 0, 0, 0, 2, 0, 0, 0, 0, 0, 2, 0, 0, 0, 0, 0, 2, 0, 0, 0, 0, 0, 2, 0, 0, 0, 0, 0, 2, 0, 0, 0, 0, 0, 2, 0, 0, 0, 0, 0, 2, 0, 0, 0, 0, 0, 2, 0, 0, 0, 0, 0, 2, 0, 0, 0, 0, 0, 2, 0, 0, 0, 0, 0, 2, 0, 0, 0, 0, 0, 2, 0, 0, 0, 16, 250, 2, 0, 1073746944, 0, 16, 300, 2, 0, 1073746944, 0, 0, 0, 2, 0, 0, 0, 0, 0, 2, 0, 0, 0, 0, 0, 2, 0, 0, 0, 0, 0, 2, 0, 0, 0, 0, 0, 2, 0, 0, 0, 0, 0, 2, 0, 0, 0, 0, 0, 2, 0, 0, 0, 0, 0, 2, 0, 0, 0, 0, 0, 2, 0, 0, 0, 0, 0, 2, 0, 0, 0, 0, 0, 2, 0, 0, 0, 0, 0, 2, 0, 0, 0, 0, 0, 2, 0, 0, 0, 0, 0, 2, 0, 0, 0, 0, 0, 2, 0, 0, 0, 0, 0, 2, 0, 0, 0, 0, 0, 2, 0, 0, 0, 0, 0, 2, 0, 0, 0, 0, 0, 2, 0, 0, 0, 0, 0, 2, 0, 0, 0, 0, 0, 2, 0, 0, 0, 0, 0, 2, 0, 0, 0, 0, 0, 2, 0, 0, 0, 0, 0, 2, 0, 0, 0, 0, 0, 2, 0, 0, 0, 0, 0, 2, 0, 0, 0, 0, 0, 2, 0, 0, 0, 0, 0, 2, 0, 0, 0, 0, 0, 2, 0, 0, 0, 0, 0, 2, 0, 0, 0, 0, 0, 2, 0, 0, 0, 0, 0, 2, 0, 0, 0, 0, 0, 2, 0, 0, 0, 0, 0, 1, 0, 0, 0]
67c67
< AFTER android.app.Activity.findViewById, returnValue: android.widget.AdapterViewFlipper{5282a528 V.E..... ......I. 0,0-0,0 #7f070031 app:id/flipper}
---
> AFTER android.app.Activity.findViewById, returnValue: android.widget.AdapterViewFlipper{27228326 V.E..... ......I. 0,0-0,0 #7f070031 app:id/flipper}
85,87c85,87
< AFTER android.content.res.Resources$Theme.obtainStyledAttributes, returnValue: [4, 1061158912, -1, 0, 0, 0, 5, 1, -1, 0, 0, 0, 5, 513, 2, 2131034152, 0, 0, 5, 513, 2, 2131034152, 0, 0, 18, -1, 2, 0, 0, 0, 18, 0, 2, 0, 0, 0, 0, 0, 2, 0, 0, 0, 0, 0, 2, 0, 0, 0, 0, 0, 2, 0, 0, 0, 0, 0, 2, 0, 0, 0, 0, 0, 2, 0, 0, 0, 0, 0, 2, 0, 0, 0, 0, 0, 2, 0, 0, 0, 0, 0, 2, 0, 0, 0, 0, 0, 2, 0, 0, 0, 0, 0, 2, 0, 0, 0, 0, 0, 2, 0, 0, 0, 0, 0, 2, 0, 0, 0, 0, 0, 2, 0, 0, 0, 0, 0, 2, 0, 0, 0, 0, 0, 2, 0, 0, 0, 0, 0, 2, 0, 0, 0, 0, 0, 2, 0, 0, 0, 0, 0, 2, 0, 0, 0, 0, 0, 2, 0, 0, 0, 0, 0, 2, 0, 0, 0, 0, 0, 2, 0, 0, 0, 0, 0, 2, 0, 0, 0, 0, 0, 2, 0, 0, 0, 0, 0, 2, 0, 0, 0, 0, 0, 2, 0, 0, 0, 0, 0, 2, 0, 0, 0, 0, 0, 2, 0, 0, 0, 0, 0, 2, 0, 0, 0, 0, 0, 2, 0, 0, 0, 0, 0, 2, 0, 0, 0, 0, 0, 2, 0, 0, 0, 0, 0, 2, 0, 0, 0, 0, 0, 2, 0, 0, 0, 0, 0, 2, 0, 0, 0, 0, 0, 2, 0, 0, 0, 0, 0, 2, 0, 0, 0, 16, 250, 2, 0, 1073742848, 0, 16, 300, 2, 0, 1073742848, 0, 0, 0, 2, 0, 0, 0, 0, 0, 2, 0, 0, 0, 0, 0, 2, 0, 0, 0, 0, 0, 2, 0, 0, 0, 0, 0, 2, 0, 0, 0, 0, 0, 2, 0, 0, 0, 0, 0, 2, 0, 0, 0, 0, 0, 2, 0, 0, 0, 0, 0, 2, 0, 0, 0, 0, 0, 2, 0, 0, 0, 0, 0, 2, 0, 0, 0, 0, 0, 2, 0, 0, 0, 0, 0, 2, 0, 0, 0, 0, 0, 2, 0, 0, 0, 0, 0, 2, 0, 0, 0, 0, 0, 2, 0, 0, 0, 0, 0, 2, 0, 0, 0, 0, 0, 2, 0, 0, 0, 0, 0, 2, 0, 0, 0, 0, 0, 2, 0, 0, 0, 0, 0, 2, 0, 0, 0, 0, 0, 2, 0, 0, 0, 0, 0, 2, 0, 0, 0, 0, 0, 2, 0, 0, 0, 0, 0, 2, 0, 0, 0, 3, 949, 1, 17367213, 1073742848, 0, 3, 6386, 1, 17303087, 1073742848, 65535, 3, 951, 1, 17367215, 1073742848, 0, 0, 0, 1, 0, 0, 0, 0, 0, 1, 0, 0, 0, 0, 0, 1, 0, 0, 0, 0, 0, 1, 0, 0, 0]
< AFTER android.content.res.Resources$Theme.obtainStyledAttributes, returnValue: [4, 1061158912, -1, 0, 0, 0, 5, 1, -1, 0, 0, 0, 5, 513, 2, 2131034152, 0, 0, 5, 513, 2, 2131034152, 0, 0, 18, -1, 2, 0, 0, 0, 18, 0, 2, 0, 0, 0, 0, 0, 2, 0, 0, 0, 0, 0, 2, 0, 0, 0, 0, 0, 2, 0, 0, 0, 0, 0, 2, 0, 0, 0, 0, 0, 2, 0, 0, 0, 0, 0, 2, 0, 0, 0, 0, 0, 2, 0, 0, 0, 0, 0, 2, 0, 0, 0, 0, 0, 2, 0, 0, 0, 0, 0, 2, 0, 0, 0, 0, 0, 2, 0, 0, 0, 0, 0, 2, 0, 0, 0, 0, 0, 2, 0, 0, 0, 0, 0, 2, 0, 0, 0, 0, 0, 2, 0, 0, 0, 0, 0, 2, 0, 0, 0, 0, 0, 2, 0, 0, 0, 0, 0, 2, 0, 0, 0, 0, 0, 2, 0, 0, 0, 0, 0, 2, 0, 0, 0, 0, 0, 2, 0, 0, 0, 0, 0, 2, 0, 0, 0, 0, 0, 2, 0, 0, 0, 0, 0, 2, 0, 0, 0, 0, 0, 2, 0, 0, 0, 0, 0, 2, 0, 0, 0, 0, 0, 2, 0, 0, 0, 0, 0, 2, 0, 0, 0, 0, 0, 2, 0, 0, 0, 0, 0, 2, 0, 0, 0, 0, 0, 2, 0, 0, 0, 0, 0, 2, 0, 0, 0, 0, 0, 2, 0, 0, 0, 0, 0, 2, 0, 0, 0, 0, 0, 2, 0, 0, 0, 0, 0, 2, 0, 0, 0, 16, 250, 2, 0, 1073742848, 0, 16, 300, 2, 0, 1073742848, 0, 0, 0, 2, 0, 0, 0, 0, 0, 2, 0, 0, 0, 0, 0, 2, 0, 0, 0, 0, 0, 2, 0, 0, 0, 0, 0, 2, 0, 0, 0, 0, 0, 2, 0, 0, 0, 0, 0, 2, 0, 0, 0, 0, 0, 2, 0, 0, 0, 0, 0, 2, 0, 0, 0, 0, 0, 2, 0, 0, 0, 0, 0, 2, 0, 0, 0, 0, 0, 2, 0, 0, 0, 0, 0, 2, 0, 0, 0, 0, 0, 2, 0, 0, 0, 0, 0, 2, 0, 0, 0, 0, 0, 2, 0, 0, 0, 0, 0, 2, 0, 0, 0, 0, 0, 2, 0, 0, 0, 0, 0, 2, 0, 0, 0, 0, 0, 2, 0, 0, 0, 0, 0, 2, 0, 0, 0, 0, 0, 2, 0, 0, 0, 0, 0, 2, 0, 0, 0, 0, 0, 2, 0, 0, 0, 0, 0, 2, 0, 0, 0, 3, 949, 1, 17367213, 1073742848, 0, 3, 6386, 1, 17303087, 1073742848, 65535, 3, 951, 1, 17367215, 1073742848, 0, 0, 0, 1, 0, 0, 0, 0, 0, 1, 0, 0, 0, 0, 0, 1, 0, 0, 0, 0, 0, 1, 0, 0, 0]
< AFTER android.view.LayoutInflater.inflate, returnValue: android.widget.RelativeLayout{5283ee68 V.E..... ......I. 0,0-0,0}
---
> AFTER android.content.res.Resources$Theme.obtainStyledAttributes, returnValue: [4, 1061158912, -1, 0, 0, 0, 5, 1, -1, 0, 0, 0, 5, 513, 2, 2131034152, 0, 0, 5, 513, 2, 2131034152, 0, 0, 18, -1, 2, 0, 0, 0, 18, 0, 2, 0, 0, 0, 0, 0, 2, 0, 0, 0, 0, 0, 2, 0, 0, 0, 0, 0, 2, 0, 0, 0, 0, 0, 2, 0, 0, 0, 0, 0, 2, 0, 0, 0, 0, 0, 1, 0, 0, 0, 0, 0, 1, 0, 0, 0, 0, 0, 2, 0, 0, 0, 0, 0, 2, 0, 0, 0, 0, 0, 2, 0, 0, 0, 0, 0, 2, 0, 0, 0, 0, 0, 2, 0, 0, 0, 0, 0, 2, 0, 0, 0, 0, 0, 2, 0, 0, 0, 0, 0, 2, 0, 0, 0, 0, 0, 2, 0, 0, 0, 0, 0, 2, 0, 0, 0, 0, 0, 2, 0, 0, 0, 0, 0, 2, 0, 0, 0, 0, 0, 2, 0, 0, 0, 0, 0, 2, 0, 0, 0, 0, 0, 2, 0, 0, 0, 0, 0, 2, 0, 0, 0, 0, 0, 2, 0, 0, 0, 0, 0, 2, 0, 0, 0, 0, 0, 2, 0, 0, 0, 0, 0, 2, 0, 0, 0, 0, 0, 2, 0, 0, 0, 0, 0, 2, 0, 0, 0, 0, 0, 2, 0, 0, 0, 0, 0, 2, 0, 0, 0, 0, 0, 2, 0, 0, 0, 0, 0, 2, 0, 0, 0, 0, 0, 2, 0, 0, 0, 0, 0, 2, 0, 0, 0, 0, 0, 2, 0, 0, 0, 0, 0, 2, 0, 0, 0, 16, 250, 2, 0, 1073746944, 0, 16, 300, 2, 0, 1073746944, 0, 0, 0, 2, 0, 0, 0, 0, 0, 2, 0, 0, 0, 0, 0, 2, 0, 0, 0, 0, 0, 2, 0, 0, 0, 0, 0, 2, 0, 0, 0, 0, 0, 2, 0, 0, 0, 0, 0, 2, 0, 0, 0, 0, 0, 2, 0, 0, 0, 0, 0, 2, 0, 0, 0, 0, 0, 2, 0, 0, 0, 0, 0, 2, 0, 0, 0, 0, 0, 2, 0, 0, 0, 0, 0, 2, 0, 0, 0, 0, 0, 2, 0, 0, 0, 0, 0, 2, 0, 0, 0, 0, 0, 2, 0, 0, 0, 0, 0, 2, 0, 0, 0, 0, 0, 2, 0, 0, 0, 0, 0, 2, 0, 0, 0, 0, 0, 2, 0, 0, 0, 0, 0, 2, 0, 0, 0, 0, 0, 2, 0, 0, 0, 0, 0, 2, 0, 0, 0, 0, 0, 2, 0, 0, 0, 0, 0, 2, 0, 0, 0, 0, 0, 2, 0, 0, 0, 0, 0, 2, 0, 0, 0, 0, 0, 2, 0, 0, 0, 0, 0, 2, 0, 0, 0, 0, 0, 2, 0, 0, 0, 0, 0, 2, 0, 0, 0, 0, 0, 2, 0, 0, 0, 0, 0, 2, 0, 0, 0, 0, 0, 1, 0, 0, 0]
> AFTER android.content.res.Resources$Theme.obtainStyledAttributes, returnValue: [4, 1061158912, -1, 0, 0, 0, 5, 1, -1, 0, 0, 0, 5, 513, 2, 2131034152, 0, 0, 5, 513, 2, 2131034152, 0, 0, 18, -1, 2, 0, 0, 0, 18, 0, 2, 0, 0, 0, 0, 0, 2, 0, 0, 0, 0, 0, 2, 0, 0, 0, 0, 0, 2, 0, 0, 0, 0, 0, 2, 0, 0, 0, 0, 0, 2, 0, 0, 0, 0, 0, 1, 0, 0, 0, 0, 0, 1, 0, 0, 0, 0, 0, 2, 0, 0, 0, 0, 0, 2, 0, 0, 0, 0, 0, 2, 0, 0, 0, 0, 0, 2, 0, 0, 0, 0, 0, 2, 0, 0, 0, 0, 0, 2, 0, 0, 0, 0, 0, 2, 0, 0, 0, 0, 0, 2, 0, 0, 0, 0, 0, 2, 0, 0, 0, 0, 0, 2, 0, 0, 0, 0, 0, 2, 0, 0, 0, 0, 0, 2, 0, 0, 0, 0, 0, 2, 0, 0, 0, 0, 0, 2, 0, 0, 0, 0, 0, 2, 0, 0, 0, 0, 0, 2, 0, 0, 0, 0, 0, 2, 0, 0, 0, 0, 0, 2, 0, 0, 0, 0, 0, 2, 0, 0, 0, 0, 0, 2, 0, 0, 0, 0, 0, 2, 0, 0, 0, 0, 0, 2, 0, 0, 0, 0, 0, 2, 0, 0, 0, 0, 0, 2, 0, 0, 0, 0, 0, 2, 0, 0, 0, 0, 0, 2, 0, 0, 0, 0, 0, 2, 0, 0, 0, 0, 0, 2, 0, 0, 0, 0, 0, 2, 0, 0, 0, 0, 0, 2, 0, 0, 0, 16, 250, 2, 0, 1073746944, 0, 16, 300, 2, 0, 1073746944, 0, 0, 0, 2, 0, 0, 0, 0, 0, 2, 0, 0, 0, 0, 0, 2, 0, 0, 0, 0, 0, 2, 0, 0, 0, 0, 0, 2, 0, 0, 0, 0, 0, 2, 0, 0, 0, 0, 0, 2, 0, 0, 0, 0, 0, 2, 0, 0, 0, 0, 0, 2, 0, 0, 0, 0, 0, 2, 0, 0, 0, 0, 0, 2, 0, 0, 0, 0, 0, 2, 0, 0, 0, 0, 0, 2, 0, 0, 0, 0, 0, 2, 0, 0, 0, 0, 0, 2, 0, 0, 0, 0, 0, 2, 0, 0, 0, 0, 0, 2, 0, 0, 0, 0, 0, 2, 0, 0, 0, 0, 0, 2, 0, 0, 0, 0, 0, 2, 0, 0, 0, 0, 0, 2, 0, 0, 0, 0, 0, 2, 0, 0, 0, 0, 0, 2, 0, 0, 0, 0, 0, 2, 0, 0, 0, 0, 0, 2, 0, 0, 0, 0, 0, 2, 0, 0, 0, 0, 0, 2, 0, 0, 0, 0, 0, 2, 0, 0, 0, 0, 0, 2, 0, 0, 0, 0, 0, 2, 0, 0, 0, 0, 0, 2, 0, 0, 0, 0, 0, 2, 0, 0, 0, 0, 0, 2, 0, 0, 0, 0, 0, 1, 0, 0, 0]
> AFTER android.view.LayoutInflater.inflate, returnValue: android.widget.RelativeLayout{3b7a6562 V.E..... ......I. 0,0-0,0}
90c90
< AFTER com.furkantektas.braingames.data.ColorMatchAdapter.getView, returnValue: android.widget.RelativeLayout{5283ee68 V.E..... ......I. 0,0-0,0}
---
> AFTER com.furkantektas.braingames.data.ColorMatchAdapter.getView, returnValue: android.widget.RelativeLayout{3b7a6562 V.E..... ......I. 0,0-0,0}
96c96
< BEFORE android.support.v7.widget.CardView.onMeasure(1073742018,1073742085)
---
> BEFORE android.support.v7.widget.CardView.onMeasure(1073742010,1073742073)
99,100c99,100
< BEFORE com.furkantektas.braingames.ui.AspectRatioCardView.onMeasure(0,0)
< BEFORE android.support.v7.widget.CardView.onMeasure(0,0)
---
> BEFORE com.furkantektas.braingames.ui.AspectRatioCardView.onMeasure(1073742010,0)
> BEFORE android.support.v7.widget.CardView.onMeasure(1073742010,0)
102c102
< BEFORE android.support.v7.widget.CardView.onMeasure(1073742018,1073742085)
---
> BEFORE android.support.v7.widget.CardView.onMeasure(1073742010,1073742072)
113c113
< AFTER android.app.Activity.getFragmentManager, returnValue: FragmentManager{52865ee0 in GameColorMatchActivity{52865e54}}
---
> AFTER android.app.Activity.getFragmentManager, returnValue: FragmentManager{3e1d75ae in GameColorMatchActivity{1efa4f4f}}
115c115
< AFTER android.app.FragmentManagerImpl.beginTransaction, returnValue: BackStackEntry{528f43a4}, isEmpty: true
---
> AFTER android.app.FragmentManagerImpl.beginTransaction, returnValue: BackStackEntry{1ad806dc}, isEmpty: true
117c117
< AFTER android.app.BackStackRecord.add, returnValue: BackStackEntry{528f43a4}, isEmpty: false
---
> AFTER android.app.BackStackRecord.add, returnValue: BackStackEntry{1ad806dc}, isEmpty: false
129,130c129,130
< AFTER android.view.LayoutInflater.inflate, returnValue: android.widget.FrameLayout{528dd448 V.E..... ......I. 0,0-0,0}
< AFTER com.furkantektas.braingames.ui.ReadyScreenFragment.onCreateView, returnValue: android.widget.FrameLayout{528dd448 V.E..... ......I. 0,0-0,0}
---
> AFTER android.view.LayoutInflater.inflate, returnValue: android.widget.FrameLayout{528a65e V.E..... ......I. 0,0-0,0}
> AFTER com.furkantektas.braingames.ui.ReadyScreenFragment.onCreateView, returnValue: android.widget.FrameLayout{528a65e V.E..... ......I. 0,0-0,0}
135c135
< AFTER android.app.Activity.findViewById, returnValue: com.furkantektas.braingames.ui.CountDownTimerWidget{5284bbdc V.ED.... ......ID 0,0-0,0 #7f070025 app:id/countdown}
---
> AFTER android.app.Activity.findViewById, returnValue: com.furkantektas.braingames.ui.CountDownTimerWidget{1fb3aa3f V.ED.... ......ID 0,0-0,0 #7f070025 app:id/countdown}
144c144
< BEFORE android.support.v7.widget.CardView.onMeasure(1073742448,1073742657)
---
> BEFORE android.support.v7.widget.CardView.onMeasure(1073742448,1073742656)
150c150
< BEFORE android.support.v7.widget.CardView.onMeasure(1073742448,1073742657)
---
> BEFORE android.support.v7.widget.CardView.onMeasure(1073742448,1073742656)
156c156
< BEFORE android.support.v7.widget.CardView.onMeasure(1073742448,1073742657)
---
> BEFORE android.support.v7.widget.CardView.onMeasure(1073742448,1073742656)
162c162
< BEFORE android.support.v7.widget.CardView.onMeasure(1073742448,1073742657)
---
> BEFORE android.support.v7.widget.CardView.onMeasure(1073742448,1073742656)
165,166d164
< BEFORE com.furkantektas.braingames.ui.CountDownTimerWidget$1.onTick(java.lang.Long)
< AFTER com.furkantektas.braingames.ui.CountDownTimerWidget$1.onTick
170c168
< BEFORE android.support.v7.widget.CardView.onMeasure(1073742448,1073742657)
---
> BEFORE android.support.v7.widget.CardView.onMeasure(1073742448,1073742656)
176c174
< BEFORE android.support.v7.widget.CardView.onMeasure(1073742448,1073742657)
---
> BEFORE android.support.v7.widget.CardView.onMeasure(1073742448,1073742656)
182c180
< BEFORE android.support.v7.widget.CardView.onMeasure(1073742448,1073742657)
---
> BEFORE android.support.v7.widget.CardView.onMeasure(1073742448,1073742656)
188c186
< BEFORE android.support.v7.widget.CardView.onMeasure(1073742448,1073742657)
---
> BEFORE android.support.v7.widget.CardView.onMeasure(1073742448,1073742656)
193,198c191,214
< BEFORE com.furkantektas.braingames.ui.CountDownTimerWidget$1.onTick(java.lang.Long)
< AFTER com.furkantektas.braingames.ui.CountDownTimerWidget$1.onTick
< BEFORE com.furkantektas.braingames.ui.CountDownTimerWidget$1.onTick(java.lang.Long)
< AFTER com.furkantektas.braingames.ui.CountDownTimerWidget$1.onTick
< BEFORE com.furkantektas.braingames.ui.CountDownTimerWidget$1.onTick(java.lang.Long)
< AFTER com.furkantektas.braingames.ui.CountDownTimerWidget$1.onTick
---
> BEFORE com.furkantektas.braingames.ui.AspectRatioCardView.onMeasure(1073742448,1073742814)
> BEFORE android.support.v7.widget.CardView.onMeasure(1073742448,1073742814)
> AFTER android.support.v7.widget.CardView.onMeasure
> BEFORE android.support.v7.widget.CardView.onMeasure(1073742448,1073742656)
> AFTER android.support.v7.widget.CardView.onMeasure
> AFTER com.furkantektas.braingames.ui.AspectRatioCardView.onMeasure
> BEFORE com.furkantektas.braingames.ui.AspectRatioCardView.onMeasure(1073742448,1073742814)
> BEFORE android.support.v7.widget.CardView.onMeasure(1073742448,1073742814)
> AFTER android.support.v7.widget.CardView.onMeasure
> BEFORE android.support.v7.widget.CardView.onMeasure(1073742448,1073742656)
> AFTER android.support.v7.widget.CardView.onMeasure
> AFTER com.furkantektas.braingames.ui.AspectRatioCardView.onMeasure
> BEFORE com.furkantektas.braingames.ui.AspectRatioCardView.onMeasure(1073742448,1073742814)
> BEFORE android.support.v7.widget.CardView.onMeasure(1073742448,1073742814)
> AFTER android.support.v7.widget.CardView.onMeasure
> BEFORE android.support.v7.widget.CardView.onMeasure(1073742448,1073742656)
> AFTER android.support.v7.widget.CardView.onMeasure
> AFTER com.furkantektas.braingames.ui.AspectRatioCardView.onMeasure
> BEFORE com.furkantektas.braingames.ui.AspectRatioCardView.onMeasure(1073742448,1073742814)
> BEFORE android.support.v7.widget.CardView.onMeasure(1073742448,1073742814)
> AFTER android.support.v7.widget.CardView.onMeasure
> BEFORE android.support.v7.widget.CardView.onMeasure(1073742448,1073742656)
> AFTER android.support.v7.widget.CardView.onMeasure
> AFTER com.furkantektas.braingames.ui.AspectRatioCardView.onMeasure
