digraph PrivacyPolice {
"f70aad87-9332-41f8-bd6a-46527453821b" [style=filled, fillcolor="#5E5E5E",fontcolor=white, label="com.android.internal.os.ZygoteInit.main\n Susp=0.9625"];
"f70aad87-9332-41f8-bd6a-46527453821b" -> "4c15aa15-3051-4674-be74-b16c12acd295";
"4c15aa15-3051-4674-be74-b16c12acd295" [style=filled, fillcolor="#5E5E5E",fontcolor=white, label="com.android.internal.os.ZygoteInit$MethodAndArgsCaller.run\n Susp=0.9648"];
"4c15aa15-3051-4674-be74-b16c12acd295" -> "350c1dc7-4923-41ec-a604-75765d4678a7";
"350c1dc7-4923-41ec-a604-75765d4678a7" [style=filled, fillcolor="#5E5E5E",fontcolor=white, label="java.lang.reflect.Method.invoke\n Susp=0.9671"];
"350c1dc7-4923-41ec-a604-75765d4678a7" -> "4f2aef0a-9700-4f10-a3f3-b6bb81cc47f9";
"4f2aef0a-9700-4f10-a3f3-b6bb81cc47f9" [style=filled, fillcolor="#5E5E5E",fontcolor=white, label="android.app.ActivityThread.main\n Susp=0.9694"];
"4f2aef0a-9700-4f10-a3f3-b6bb81cc47f9" -> "4046c339-eb57-4e21-9dd9-9c59345a038a";
"4046c339-eb57-4e21-9dd9-9c59345a038a" [style=filled, fillcolor="#5E5E5E",fontcolor=white, label="android.os.Looper.loop\n Susp=0.9717"];
"4046c339-eb57-4e21-9dd9-9c59345a038a" -> "eca35777-a6d8-4480-abce-31616adef104";
"eca35777-a6d8-4480-abce-31616adef104" [style=filled, fillcolor="#5E5E5E",fontcolor=white, label="android.os.Handler.dispatchMessage\n Susp=0.974"];
"eca35777-a6d8-4480-abce-31616adef104" -> "388d4fc9-c26f-437e-94da-0e5bf9f4cefc";
"388d4fc9-c26f-437e-94da-0e5bf9f4cefc" [style=filled, fillcolor="#5E5E5E",fontcolor=white, label="android.app.ActivityThread$H.handleMessage\n Susp=0.9838"];
"388d4fc9-c26f-437e-94da-0e5bf9f4cefc" -> "f088ff97-83de-42fd-8e8b-245a86b8f807";
"f088ff97-83de-42fd-8e8b-245a86b8f807" [style=filled, fillcolor="#FFFFFF", label="android.app.ActivityThread.-wrap11\n Susp=0.0216"];
"f088ff97-83de-42fd-8e8b-245a86b8f807" -> "b43807f0-2ab4-41fd-94be-5267bf750ef7";
"b43807f0-2ab4-41fd-94be-5267bf750ef7" [style=filled, fillcolor="#FFFFFF", label="android.app.ActivityThread.handleLaunchActivity\n Susp=0.024"];
"b43807f0-2ab4-41fd-94be-5267bf750ef7" -> "76caeaf1-ef0a-4ff7-be0b-fac2f60f2504";
"76caeaf1-ef0a-4ff7-be0b-fac2f60f2504" [style=filled, fillcolor="#FFFFFF", label="android.app.ActivityThread.performLaunchActivity\n Susp=0.0263"];
"76caeaf1-ef0a-4ff7-be0b-fac2f60f2504" -> "733792b0-f974-4600-922f-b9b3485faee6";
"733792b0-f974-4600-922f-b9b3485faee6" [style=filled, fillcolor="#FFFFFF", label="android.app.Instrumentation.callActivityOnCreate\n Susp=0.0286"];
"733792b0-f974-4600-922f-b9b3485faee6" -> "ddfd289d-db89-46c2-9c1a-b631b82f75b2";
"ddfd289d-db89-46c2-9c1a-b631b82f75b2" [style=filled, fillcolor="#FFFFFF", label="android.app.Activity.performCreate\n Susp=0.0309"];
"ddfd289d-db89-46c2-9c1a-b631b82f75b2" -> "96337289-0451-4a42-b1b0-e5692d49f8f5";
"96337289-0451-4a42-b1b0-e5692d49f8f5" [style=filled, fillcolor="#FFFFFF", label="be.uhasselt.privacypolice.PreferencesActivity.onCreate\n Susp=0.0332"];
"96337289-0451-4a42-b1b0-e5692d49f8f5" -> "964ac465-c23a-44ab-8423-4dfe27e798b9";
"964ac465-c23a-44ab-8423-4dfe27e798b9" [style=filled, fillcolor="#FFFFFF", label="android.app.Activity.getFragmentManager\n Susp=0.0306"];
"388d4fc9-c26f-437e-94da-0e5bf9f4cefc" -> "f9ce8430-5b8b-45aa-bb0b-4d2b9bddbc9c";
"f9ce8430-5b8b-45aa-bb0b-4d2b9bddbc9c" [style=filled, fillcolor="#FFFFFF", label="android.app.ActivityThread.-wrap14\n Susp=0.0456"];
"f9ce8430-5b8b-45aa-bb0b-4d2b9bddbc9c" -> "64428cfd-f6b3-4a20-b979-bcfc5904a5c4";
"64428cfd-f6b3-4a20-b979-bcfc5904a5c4" [style=filled, fillcolor="#FFFFFF", label="android.app.ActivityThread.handleReceiver\n Susp=0.0504"];
"64428cfd-f6b3-4a20-b979-bcfc5904a5c4" -> "97b87e7c-2613-45c6-bd84-c952259b773c";
"97b87e7c-2613-45c6-bd84-c952259b773c" [style=filled, fillcolor="#FFFFFF", label="be.uhasselt.privacypolice.ScanResultsChecker.onReceive\n Susp=0.049"];
"97b87e7c-2613-45c6-bd84-c952259b773c" -> "58f79886-1052-46bf-9283-f5f1f53f35be";
"58f79886-1052-46bf-9283-f5f1f53f35be" [style=filled, fillcolor="#FFFFFF", label="android.net.wifi.WifiManager.getScanResults\n Susp=0.0237"];
"64428cfd-f6b3-4a20-b979-bcfc5904a5c4" -> "8194ac3c-cecf-4b8b-ac83-85ec188a8b9e";
"8194ac3c-cecf-4b8b-ac83-85ec188a8b9e" [style=filled, fillcolor="#FFFFFF", label="be.uhasselt.privacypolice.PermissionChangeReceiver.onReceive\n Susp=0.0245"];
"8194ac3c-cecf-4b8b-ac83-85ec188a8b9e" -> "f57be0d9-e9b3-466c-88ef-1fb4f2aa533c";
"f57be0d9-e9b3-466c-88ef-1fb4f2aa533c" [style=filled, fillcolor="#FFFFFF", label="be.uhasselt.privacypolice.PreferencesStorage.addAllowedBSSIDsForLocation\n Susp=0.0262"];
"f57be0d9-e9b3-466c-88ef-1fb4f2aa533c" -> "94530ce2-a966-4c0e-a8e9-3d925b790b68";
"94530ce2-a966-4c0e-a8e9-3d925b790b68" [style=filled, fillcolor="#FFFFFF", label="android.net.wifi.WifiManager.getScanResults\n Susp=0.026"];
"388d4fc9-c26f-437e-94da-0e5bf9f4cefc" -> "72d247bc-36ba-4d7a-b9d2-fece597a77c3";
"72d247bc-36ba-4d7a-b9d2-fece597a77c3" [style=filled, fillcolor="#FFFFFF", label="android.app.ActivityThread.access$800\n Susp=0.0216"];
"72d247bc-36ba-4d7a-b9d2-fece597a77c3" -> "42429514-d3c0-4fa9-9ecb-6f7fd9c9af8c";
"42429514-d3c0-4fa9-9ecb-6f7fd9c9af8c" [style=filled, fillcolor="#FFFFFF", label="android.app.ActivityThread.handleLaunchActivity\n Susp=0.024"];
"42429514-d3c0-4fa9-9ecb-6f7fd9c9af8c" -> "44ea1317-5664-41f6-a03a-165a3299b7cc";
"44ea1317-5664-41f6-a03a-165a3299b7cc" [style=filled, fillcolor="#FFFFFF", label="android.app.ActivityThread.performLaunchActivity\n Susp=0.0263"];
"44ea1317-5664-41f6-a03a-165a3299b7cc" -> "9583b45b-c81f-4266-a32f-884a3a00de05";
"9583b45b-c81f-4266-a32f-884a3a00de05" [style=filled, fillcolor="#FFFFFF", label="android.app.Instrumentation.callActivityOnCreate\n Susp=0.0286"];
"9583b45b-c81f-4266-a32f-884a3a00de05" -> "2169003e-68dd-417e-b4fd-a9baea4f4200";
"2169003e-68dd-417e-b4fd-a9baea4f4200" [style=filled, fillcolor="#FFFFFF", label="android.app.Activity.performCreate\n Susp=0.0309"];
"2169003e-68dd-417e-b4fd-a9baea4f4200" -> "362e4242-8b48-4623-afa2-4c0b002ab328";
"362e4242-8b48-4623-afa2-4c0b002ab328" [style=filled, fillcolor="#FFFFFF", label="be.uhasselt.privacypolice.PreferencesActivity.onCreate\n Susp=0.0332"];
"362e4242-8b48-4623-afa2-4c0b002ab328" -> "383bc61e-bd20-43a0-a739-4c828981c665";
"383bc61e-bd20-43a0-a739-4c828981c665" [style=filled, fillcolor="#FFFFFF", label="android.app.Activity.getFragmentManager\n Susp=0.0306"];
"388d4fc9-c26f-437e-94da-0e5bf9f4cefc" -> "66a1fc2b-0222-4d4a-95a3-ede69c418551";
"66a1fc2b-0222-4d4a-95a3-ede69c418551" [style=filled, fillcolor="#5E5E5E",fontcolor=white, label="android.app.ActivityThread.access$1700\n Susp=0.9457"];
"66a1fc2b-0222-4d4a-95a3-ede69c418551" -> "f7dfe587-df10-4b7b-a670-0a0b3cd02d33";
"f7dfe587-df10-4b7b-a670-0a0b3cd02d33" [style=filled, fillcolor="#5E5E5E",fontcolor=white, label="android.app.ActivityThread.handleReceiver\n Susp=0.9505"];
"f7dfe587-df10-4b7b-a670-0a0b3cd02d33" -> "4928c50d-3be3-48f2-835d-b5093b3dfe14";
"4928c50d-3be3-48f2-835d-b5093b3dfe14" [style=filled, fillcolor="#5E5E5E",fontcolor=white, label="be.uhasselt.privacypolice.ScanResultsChecker.onReceive\n Susp=0.9491"];
"4928c50d-3be3-48f2-835d-b5093b3dfe14" -> "ebb9622b-80e9-4386-a610-d7b88d1f9f69";
"ebb9622b-80e9-4386-a610-d7b88d1f9f69" [style=filled, fillcolor="#FFFFFF", label="android.net.wifi.WifiManager.getScanResults\n Susp=0.0237"];
"f7dfe587-df10-4b7b-a670-0a0b3cd02d33" -> "74f730b3-b00b-482b-aa29-5408396ded98";
"74f730b3-b00b-482b-aa29-5408396ded98" [style=filled, fillcolor="#FFFFFF", label="be.uhasselt.privacypolice.PermissionChangeReceiver.onReceive\n Susp=0.0245"];
"74f730b3-b00b-482b-aa29-5408396ded98" -> "d35ed5d2-3731-4789-95ce-d66bb216c23e";
"d35ed5d2-3731-4789-95ce-d66bb216c23e" [style=filled, fillcolor="#FFFFFF", label="be.uhasselt.privacypolice.PreferencesStorage.addAllowedBSSIDsForLocation\n Susp=0.0262"];
"d35ed5d2-3731-4789-95ce-d66bb216c23e" -> "f4778b80-e73d-4078-b886-fcf4c61ef28f";
"f4778b80-e73d-4078-b886-fcf4c61ef28f" [style=filled, fillcolor="#FFFFFF", label="android.net.wifi.WifiManager.getScanResults\n Susp=0.026"];
}
