Position |MethodName|Relevancy
0.25|be.uhasselt.privacypolice.ScanResultsChecker.onReceive|0.9981541820624789
0.5|be.uhasselt.privacypolice.PreferencesActivity.onCreate|0.03318669321944431
0.75|be.uhasselt.privacypolice.PreferencesStorage.addAllowedBSSIDsForLocation|0.0261758001823504
1.0|be.uhasselt.privacypolice.PermissionChangeReceiver.onReceive|0.024466984980085416
