Position |MethodName|Relevancy
0.013888888888888888|de.robv.android.xposed.XposedBridge.main|1.0
0.027777777777777776|android.os.Handler.dispatchMessage|0.4004709018214127
0.041666666666666664|android.os.Handler.dispatchMessage|0.398018658374056
0.05555555555555555|android.view.ViewRootImpl.performTraversals|0.3952465570857397
0.06944444444444445|de.skubware.opentraining.db.DataProvider.loadExercises|0.38906263882718795
0.08333333333333333|android.view.ViewRootImpl.performTraversals|0.3862905375388716
0.09722222222222222|android.widget.Gallery.layout|0.38362505553087517
0.1111111111111111|de.skubware.opentraining.activity.start_training.RecoveryTimerManager$1.run|0.307173108248186
0.125|com.android.internal.os.ZygoteInit.main|0.291822893528802
0.1388888888888889|de.skubware.opentraining.db.Cache.updateCache|0.26260921072116095
0.1527777777777778|android.view.ThreadedRenderer.updateRootDisplayList|0.2618628757589219
0.16666666666666666|android.app.ActivityThread.performLaunchActivity|0.26175625647860207
0.18055555555555555|android.app.Activity.performCreate|0.26132977935732266
0.19444444444444445|android.os.Handler.handleCallback|0.26079668295572334
0.20833333333333334|android.view.View.updateDisplayListIfDirty|0.25973049015252475
0.2222222222222222|android.view.View.layout|0.2583444395083666
0.2361111111111111|android.view.View.updateDisplayListIfDirty|0.25759810454612764
0.25|android.app.ActivityThread.performLaunchActivity|0.2564252924626092
0.2638888888888889|android.app.Activity.performCreate|0.25599881534132973
0.2777777777777778|android.view.ThreadedRenderer.updateRootDisplayList|0.25578557678069
0.2916666666666667|com.android.internal.app.AlertController$ButtonHandler.handleMessage|0.25546571893973047
0.3055555555555556|android.view.View.updateDisplayListIfDirty|0.2553590996594106
0.3194444444444444|android.view.View.measure|0.255039241818451
0.3333333333333333|android.widget.Gallery.makeAndAddView|0.2548260032578113
0.3472222222222222|android.view.View.layout|0.25471938397749144
0.3611111111111111|org.apache.harmony.xml.ExpatParser.appendBytes|0.2546127646971716
0.375|android.view.View.updateDisplayListIfDirty|0.25450614541685174
0.3888888888888889|java.util.HashMap.put|0.2541862875758922
0.4027777777777778|org.chromium.base.ThreadUtils.d|0.25397304901525247
0.4166666666666667|java.util.HashMap.containsKey|0.2537598104546127
0.4305555555555556|android.os.Looper.loop|0.14713756848807935
0.4444444444444444|de.skubware.opentraining.activity.MainActivity$1.run|0.14521842144232192
0.4583333333333333|android.os.Looper.loop|0.14468532504072262
0.4722222222222222|android.view.ViewRootImpl.doTraversal|0.1419132237524063
0.4861111111111111|android.view.ThreadedRenderer.draw|0.13519620909225527
0.5|android.app.ActivityThread.handleLaunchActivity|0.13508958981193542
0.5138888888888888|android.app.Instrumentation.callActivityOnCreate|0.13466311269065598
0.5277777777777778|de.skubware.opentraining.activity.MainActivity.onCreate|0.13381015844809713
0.5416666666666666|android.view.ThreadedRenderer.updateViewTreeDisplayList|0.13306382348585813
0.5555555555555556|android.view.ViewRootImpl.doTraversal|0.13295720420553825
0.5694444444444444|android.view.ViewGroup.layout|0.13167777284169996
0.5833333333333334|android.view.ViewGroup.recreateChildDisplayList|0.13093143787946096
0.5972222222222222|android.widget.Gallery.onLayout|0.13029172219754181
0.6111111111111112|android.app.ActivityThread.handleLaunchActivity|0.12975862579594252
0.625|android.app.Instrumentation.callActivityOnCreate|0.12933214867466308
0.6388888888888888|android.view.ThreadedRenderer.draw|0.12911891011402338
0.6527777777777778|at.technikum.mti.fancycoverflow.FancyCoverFlow.getChildStaticTransformation|0.12879905227306382
0.6666666666666666|android.view.ThreadedRenderer.updateViewTreeDisplayList|0.12869243299274394
0.6805555555555556|de.skubware.opentraining.activity.MainActivity.onCreate|0.12847919443210423
0.6944444444444444|android.view.ViewGroup.measureChildWithMargins|0.12837257515178438
0.7083333333333334|android.widget.Gallery.fillToGalleryRightLtr|0.12815933659114465
0.7222222222222222|android.view.ViewGroup.layout|0.1280527173108248
0.7361111111111112|org.apache.harmony.xml.ExpatParser.parseFragment|0.12794609803050494
0.75|org.chromium.net.AndroidNetworkLibrary.getWifiSSID|0.1278394787501851
0.7638888888888888|android.view.ViewGroup.invalidateChild|0.12773285946986523
0.7777777777777778|de.skubware.opentraining.db.parser.ExerciseTypeXMLParser.startElement|0.1275196209092255
0.7916666666666666|de.skubware.opentraining.activity.start_training.FExListAdapter.getView|0.12741300162890565
0.8055555555555556|org.chromium.base.ThreadUtils.b|0.1273063823485858
0.8194444444444444|sun.misc.Hashing.singleWordWangJenkinsHash|0.12719976306826594
0.8333333333333334|org.chromium.net.NetworkChangeNotifierAutoDetect.a|0.1270931437879461
0.8472222222222222|java.util.HashMap.hash|0.12698652450762624
0.8611111111111112|org.chromium.base.ThreadUtils.c|0.12687990522730636
0.875|android.content.res.AssetManager.open|0.0074633496223900486
0.8888888888888888|de.skubware.opentraining.activity.SelectWorkoutDialogFragment$1.onClick|0.0014926699244780096
0.9027777777777778|android.content.Intent.getParcelableExtra|0.0011728120835184362
0.9166666666666666|at.technikum.mti.fancycoverflow.FancyCoverFlow.getChildStaticTransformation|0.0010661928031985783
0.9305555555555556|de.skubware.opentraining.basic.Workout.toString|8.529542425588627E-4
0.9444444444444444|de.skubware.opentraining.activity.DisclaimerDialog$1.onClick|6.39715681919147E-4
0.9583333333333334|de.skubware.opentraining.basic.Translatable.hashCode|5.330964015992891E-4
0.9722222222222222|android.os.Looper.myLooper|4.2647712127943135E-4
0.9861111111111112|de.skubware.opentraining.basic.Translatable.hashCode|3.198578409595735E-4
1.0|android.support.v4.app.NotificationCompat$Builder.setUsesChronometer|2.1323856063971568E-4
