digraph FULL {
"6182666d-10e7-4ba2-bf31-405d0e357b4b" [label="de.robv.android.xposed.XposedBridge.main\n Susp=1"];
"6182666d-10e7-4ba2-bf31-405d0e357b4b" -> "a9d1241d-b49f-45dc-90fd-865b114dcb79";
"a9d1241d-b49f-45dc-90fd-865b114dcb79" [label="com.android.internal.os.ZygoteInit.main\n Susp=1"];
"a9d1241d-b49f-45dc-90fd-865b114dcb79" -> "3892f7a3-63c6-48ab-90be-9521dac630b0";
"3892f7a3-63c6-48ab-90be-9521dac630b0" [label="com.android.internal.os.ZygoteInit$MethodAndArgsCaller.run\n Susp=1"];
"3892f7a3-63c6-48ab-90be-9521dac630b0" -> "f4a6a20d-fa66-4fab-a392-c3eafdfdf33c";
"f4a6a20d-fa66-4fab-a392-c3eafdfdf33c" [label="java.lang.reflect.Method.invoke\n Susp=1"];
"f4a6a20d-fa66-4fab-a392-c3eafdfdf33c" -> "14503368-a0a1-426a-a5e4-ca042efad190";
"14503368-a0a1-426a-a5e4-ca042efad190" [label="android.app.ActivityThread.main\n Susp=1"];
"14503368-a0a1-426a-a5e4-ca042efad190" -> "104e2efb-9f32-4c79-b363-6ab5a51878d8";
"104e2efb-9f32-4c79-b363-6ab5a51878d8" [label="android.os.Looper.loop\n Susp=1"];
"104e2efb-9f32-4c79-b363-6ab5a51878d8" -> "3b5d137c-5bbf-4c57-b91a-cb0ef73e07d3";
"3b5d137c-5bbf-4c57-b91a-cb0ef73e07d3" [label="android.os.Handler.dispatchMessage\n Susp=1"];
"3b5d137c-5bbf-4c57-b91a-cb0ef73e07d3" -> "93fb974c-0a4e-4c12-ae23-d568b95942b6";
"93fb974c-0a4e-4c12-ae23-d568b95942b6" [label="android.app.ActivityThread$H.handleMessage\n Susp=1"];
"93fb974c-0a4e-4c12-ae23-d568b95942b6" -> "40e2d33a-01b4-46a5-8091-5bb8edb8c76e";
"40e2d33a-01b4-46a5-8091-5bb8edb8c76e" [label="android.app.ActivityThread.access$800\n Susp=1"];
"40e2d33a-01b4-46a5-8091-5bb8edb8c76e" -> "3828c486-1750-430a-83bc-35fba420a4b6";
"3828c486-1750-430a-83bc-35fba420a4b6" [label="android.app.ActivityThread.handleLaunchActivity\n Susp=1"];
"3828c486-1750-430a-83bc-35fba420a4b6" -> "06cf1023-877e-4fff-ae94-36b4a57f06c3";
"06cf1023-877e-4fff-ae94-36b4a57f06c3" [label="android.app.ActivityThread.performLaunchActivity\n Susp=1"];
"06cf1023-877e-4fff-ae94-36b4a57f06c3" -> "d368e241-62d5-49c0-9bfe-0aa120816155";
"d368e241-62d5-49c0-9bfe-0aa120816155" [label="android.app.Instrumentation.callActivityOnCreate\n Susp=1"];
"d368e241-62d5-49c0-9bfe-0aa120816155" -> "9917fd30-357b-43b8-b4a5-a4b87c015c0f";
"9917fd30-357b-43b8-b4a5-a4b87c015c0f" [label="android.app.Activity.performCreate\n Susp=1"];
"9917fd30-357b-43b8-b4a5-a4b87c015c0f" -> "10f378e3-7d41-47c0-8342-a0ccaf5b8ab1";
"10f378e3-7d41-47c0-8342-a0ccaf5b8ab1" [label="com.furkantektas.braingames.ui.MainActivity.onCreate\n Susp=1"];
"10f378e3-7d41-47c0-8342-a0ccaf5b8ab1" -> "eeaed473-ecde-4b2b-a50f-ea86b73f9a1e";
"eeaed473-ecde-4b2b-a50f-ea86b73f9a1e" [label="de.robv.android.xposed.XposedBridge.handleHookedMethod\n Susp=1"];
"eeaed473-ecde-4b2b-a50f-ea86b73f9a1e" -> "501bccf3-8d70-4724-8599-9a810373e9eb";
"501bccf3-8d70-4724-8599-9a810373e9eb" [label="it.unimib.disco.lta.unimiblogger.MyMethodHook.beforeHookedMethod\n Susp=1"];
"501bccf3-8d70-4724-8599-9a810373e9eb" -> "07eefd77-e113-499c-be68-2963940b916a";
"07eefd77-e113-499c-be68-2963940b916a" [label="java.lang.Thread.getStackTrace\n Susp=1"];
"07eefd77-e113-499c-be68-2963940b916a" -> "18cf1dac-ad94-4f78-9069-9969361e07a6";
"18cf1dac-ad94-4f78-9069-9969361e07a6" [label="dalvik.system.VMStack.getThreadStackTrace\n Susp=0,2"];
}
