digraph FULL {
"67fc0ecc-0203-4058-9bb7-62d25d076294" [label="de.robv.android.xposed.XposedBridge.main\n Susp=0,4"];
"67fc0ecc-0203-4058-9bb7-62d25d076294" -> "fe868271-4b8a-488a-a9c2-e4cd0801b0b1";
"fe868271-4b8a-488a-a9c2-e4cd0801b0b1" [label="com.android.internal.os.ZygoteInit.main\n Susp=0,4"];
"fe868271-4b8a-488a-a9c2-e4cd0801b0b1" -> "f72596cd-2344-40ba-b40a-11a1ef9514e6";
"f72596cd-2344-40ba-b40a-11a1ef9514e6" [label="com.android.internal.os.ZygoteInit$MethodAndArgsCaller.run\n Susp=0,4"];
"f72596cd-2344-40ba-b40a-11a1ef9514e6" -> "a8939ec5-1fef-41b2-82ad-e91c02a32f10";
"a8939ec5-1fef-41b2-82ad-e91c02a32f10" [label="java.lang.reflect.Method.invoke\n Susp=0,4"];
"a8939ec5-1fef-41b2-82ad-e91c02a32f10" -> "0f1d17c2-6410-48b1-96ba-bb230ddcf04f";
"0f1d17c2-6410-48b1-96ba-bb230ddcf04f" [label="android.app.ActivityThread.main\n Susp=0,4"];
"0f1d17c2-6410-48b1-96ba-bb230ddcf04f" -> "428499d1-c058-4051-95f8-1697788326d1";
"428499d1-c058-4051-95f8-1697788326d1" [label="android.os.Looper.loop\n Susp=0,4"];
"428499d1-c058-4051-95f8-1697788326d1" -> "a6d87fe4-8e1b-4472-8c5d-7900b9bd6fa3";
"a6d87fe4-8e1b-4472-8c5d-7900b9bd6fa3" [label="android.os.Handler.dispatchMessage\n Susp=0,8"];
"a6d87fe4-8e1b-4472-8c5d-7900b9bd6fa3" -> "2589c950-55ca-4723-8781-788667a68853";
"2589c950-55ca-4723-8781-788667a68853" [label="android.app.ActivityThread$H.handleMessage\n Susp=0,4277"];
"2589c950-55ca-4723-8781-788667a68853" -> "0ef5fcaa-8465-4c0e-8816-d0bdb1577b16";
"0ef5fcaa-8465-4c0e-8816-d0bdb1577b16" [label="android.app.ActivityThread.-wrap11\n Susp=0,2076"];
"0ef5fcaa-8465-4c0e-8816-d0bdb1577b16" -> "c056a81d-0aa0-42a9-a715-437c7bfcfb81";
"c056a81d-0aa0-42a9-a715-437c7bfcfb81" [label="android.app.ActivityThread.handleLaunchActivity\n Susp=0,2076"];
"c056a81d-0aa0-42a9-a715-437c7bfcfb81" -> "71bc1932-5456-4c4c-9a82-e6414adabffb";
"71bc1932-5456-4c4c-9a82-e6414adabffb" [label="android.app.ActivityThread.performLaunchActivity\n Susp=0,4076"];
"71bc1932-5456-4c4c-9a82-e6414adabffb" -> "1b1cba2f-58de-438a-9747-56525e786552";
"1b1cba2f-58de-438a-9747-56525e786552" [label="android.app.Activity.performStart\n Susp=0,2033"];
"1b1cba2f-58de-438a-9747-56525e786552" -> "786a64be-9aa3-428d-ab8d-76cc52b5d74f";
"786a64be-9aa3-428d-ab8d-76cc52b5d74f" [label="android.app.FragmentController.execPendingActions\n Susp=0,2033"];
"786a64be-9aa3-428d-ab8d-76cc52b5d74f" -> "ec1a9f80-236a-4f73-9781-9c8c075e28d0";
"ec1a9f80-236a-4f73-9781-9c8c075e28d0" [label="android.app.FragmentManagerImpl.execPendingActions\n Susp=0,2033"];
"ec1a9f80-236a-4f73-9781-9c8c075e28d0" -> "b5e39347-137c-4e35-8847-719a13c0c651";
"b5e39347-137c-4e35-8847-719a13c0c651" [label="android.app.BackStackRecord.run\n Susp=0,2033"];
"b5e39347-137c-4e35-8847-719a13c0c651" -> "cef65ac3-788c-4610-9a96-9c203be46be6";
"cef65ac3-788c-4610-9a96-9c203be46be6" [label="android.app.FragmentManagerImpl.moveToState\n Susp=0,2033"];
"cef65ac3-788c-4610-9a96-9c203be46be6" -> "75821ba4-29b1-4b47-bec9-59742880cde4";
"75821ba4-29b1-4b47-bec9-59742880cde4" [label="android.app.Fragment.performCreateView\n Susp=0,2033"];
"75821ba4-29b1-4b47-bec9-59742880cde4" -> "5d245841-cf76-4943-b4e8-3d825ba2fd0b";
"5d245841-cf76-4943-b4e8-3d825ba2fd0b" [label="com.devpaul.filepicker.MainActivity$PlaceholderFragment.onCreateView\n Susp=0,2033"];
"5d245841-cf76-4943-b4e8-3d825ba2fd0b" -> "fa8cf6af-af77-48b4-88bb-1f05701359e3";
"fa8cf6af-af77-48b4-88bb-1f05701359e3" [label="de.robv.android.xposed.XposedBridge.handleHookedMethod\n Susp=0,2033"];
"fa8cf6af-af77-48b4-88bb-1f05701359e3" -> "3d1b47a7-71d7-44e4-aa75-1d2b4878d8ad";
"3d1b47a7-71d7-44e4-aa75-1d2b4878d8ad" [label="de.robv.android.xposed.XposedBridge.invokeOriginalMethodNative\n Susp=0,2033"];
"3d1b47a7-71d7-44e4-aa75-1d2b4878d8ad" -> "a83356bf-4fb3-40fa-91e0-f200b40ca332";
"a83356bf-4fb3-40fa-91e0-f200b40ca332" [label="com.devpaul.filepicker.MainActivity$PlaceholderFragment.onCreateView\n Susp=0,2033"];
"a83356bf-4fb3-40fa-91e0-f200b40ca332" -> "9d4b2f6b-12cf-44ca-86cb-e9398199427f";
"9d4b2f6b-12cf-44ca-86cb-e9398199427f" [label="android.view.LayoutInflater.inflate\n Susp=0,2033"];
"9d4b2f6b-12cf-44ca-86cb-e9398199427f" -> "aa7143c7-31c4-467e-81e5-ea3b9fd0fd2d";
"aa7143c7-31c4-467e-81e5-ea3b9fd0fd2d" [label="de.robv.android.xposed.XposedBridge.handleHookedMethod\n Susp=0,2033"];
"aa7143c7-31c4-467e-81e5-ea3b9fd0fd2d" -> "e78082c2-b7bb-465c-be6a-b78c208541a5";
"e78082c2-b7bb-465c-be6a-b78c208541a5" [label="de.robv.android.xposed.XposedBridge.invokeOriginalMethodNative\n Susp=0,2033"];
"e78082c2-b7bb-465c-be6a-b78c208541a5" -> "8d58ffad-7985-40de-8282-d1459f38310c";
"8d58ffad-7985-40de-8282-d1459f38310c" [label="android.view.LayoutInflater.inflate\n Susp=0,2033"];
"8d58ffad-7985-40de-8282-d1459f38310c" -> "da5515c7-1f56-40af-b007-e3168b2d8dda";
"da5515c7-1f56-40af-b007-e3168b2d8dda" [label="de.robv.android.xposed.XposedBridge.handleHookedMethod\n Susp=0,4033"];
"da5515c7-1f56-40af-b007-e3168b2d8dda" -> "aa35a3ad-22d8-461b-8a6b-4d86f20eb555";
"aa35a3ad-22d8-461b-8a6b-4d86f20eb555" [label="de.robv.android.xposed.XposedBridge.invokeOriginalMethodNative\n Susp=0,2016"];
"aa35a3ad-22d8-461b-8a6b-4d86f20eb555" -> "aab05351-e45c-40d6-a892-f43fb91008e7";
"aab05351-e45c-40d6-a892-f43fb91008e7" [label="android.view.LayoutInflater.inflate\n Susp=0,2016"];
"aab05351-e45c-40d6-a892-f43fb91008e7" -> "512dc46c-721d-472f-a1d3-92dbd093ea3c";
"512dc46c-721d-472f-a1d3-92dbd093ea3c" [label="android.view.LayoutInflater.rInflateChildren\n Susp=0,2016"];
"512dc46c-721d-472f-a1d3-92dbd093ea3c" -> "cd208e98-fb16-4ec4-bd77-3dffb1ca6e9c";
"cd208e98-fb16-4ec4-bd77-3dffb1ca6e9c" [label="android.view.LayoutInflater.rInflate\n Susp=0,2016"];
"cd208e98-fb16-4ec4-bd77-3dffb1ca6e9c" -> "58c5383c-3805-4367-a28a-ddd133f7cd65";
"58c5383c-3805-4367-a28a-ddd133f7cd65" [label="android.view.LayoutInflater.createViewFromTag\n Susp=0,2016"];
"58c5383c-3805-4367-a28a-ddd133f7cd65" -> "56132d45-e175-421b-8de4-f5eeef5fe9e4";
"56132d45-e175-421b-8de4-f5eeef5fe9e4" [label="android.view.LayoutInflater.createView\n Susp=0,2016"];
"56132d45-e175-421b-8de4-f5eeef5fe9e4" -> "8d4bbfc3-7589-445a-a2ac-1623addf5dcd";
"8d4bbfc3-7589-445a-a2ac-1623addf5dcd" [label="java.lang.reflect.Constructor.newInstance\n Susp=0,2016"];
"8d4bbfc3-7589-445a-a2ac-1623addf5dcd" -> "02e69fbf-a42f-45aa-b59a-090c026bc3e1";
"02e69fbf-a42f-45aa-b59a-090c026bc3e1" [label="com.devpaul.materiallibrary.views.MaterialFlatButton.<init>\n Susp=0,2016"];
"02e69fbf-a42f-45aa-b59a-090c026bc3e1" -> "073b7c86-ed65-4f4f-902e-0705a8cc4553";
"073b7c86-ed65-4f4f-902e-0705a8cc4553" [label="com.devpaul.materiallibrary.abstracts.BaseViewGroup.<init>\n Susp=0,2016"];
"073b7c86-ed65-4f4f-902e-0705a8cc4553" -> "eed63b5a-c9b8-42ad-8fc3-bc1d6f2054f8";
"eed63b5a-c9b8-42ad-8fc3-bc1d6f2054f8" [label="com.devpaul.materiallibrary.views.MaterialFlatButton.init\n Susp=0,2016"];
"eed63b5a-c9b8-42ad-8fc3-bc1d6f2054f8" -> "8c3c275e-901a-4284-8f77-7ab68a685718";
"8c3c275e-901a-4284-8f77-7ab68a685718" [label="android.content.Context.obtainStyledAttributes\n Susp=0,2016"];
"8c3c275e-901a-4284-8f77-7ab68a685718" -> "d8a304a1-6887-4e4e-a90b-8177630ea378";
"d8a304a1-6887-4e4e-a90b-8177630ea378" [label="de.robv.android.xposed.XposedBridge.handleHookedMethod\n Susp=0,2016"];
"d8a304a1-6887-4e4e-a90b-8177630ea378" -> "507c7be4-8409-49e4-a5f2-f8f63b573e4c";
"507c7be4-8409-49e4-a5f2-f8f63b573e4c" [label="it.unimib.disco.lta.unimiblogger.MyMethodHook.beforeHookedMethod\n Susp=0,2016"];
"507c7be4-8409-49e4-a5f2-f8f63b573e4c" -> "530dd995-d2df-4bcd-af7e-2f7ed4ffdce8";
"530dd995-d2df-4bcd-af7e-2f7ed4ffdce8" [label="java.lang.Thread.getStackTrace\n Susp=0,2016"];
"530dd995-d2df-4bcd-af7e-2f7ed4ffdce8" -> "02f223ea-b664-40a0-b499-fed0cc692865";
"02f223ea-b664-40a0-b499-fed0cc692865" [label="dalvik.system.VMStack.getThreadStackTrace\n Susp=0,0016"];
"da5515c7-1f56-40af-b007-e3168b2d8dda" -> "2ce66e38-3f77-4156-8294-7c58934c704b";
"2ce66e38-3f77-4156-8294-7c58934c704b" [label="it.unimib.disco.lta.unimiblogger.MyMethodHook.beforeHookedMethod\n Susp=0,2016"];
"2ce66e38-3f77-4156-8294-7c58934c704b" -> "4edbd6f1-d038-4981-9c3a-f38b605e621e";
"4edbd6f1-d038-4981-9c3a-f38b605e621e" [label="java.lang.Thread.getStackTrace\n Susp=0,2016"];
"4edbd6f1-d038-4981-9c3a-f38b605e621e" -> "e8548bf9-c4fc-4eb3-bd0a-a508105e1503";
"e8548bf9-c4fc-4eb3-bd0a-a508105e1503" [label="dalvik.system.VMStack.getThreadStackTrace\n Susp=0,0016"];
"71bc1932-5456-4c4c-9a82-e6414adabffb" -> "9aee46ef-c26d-4d14-b7c3-e1dfe929a362";
"9aee46ef-c26d-4d14-b7c3-e1dfe929a362" [label="android.app.Instrumentation.callActivityOnCreate\n Susp=0,2043"];
"9aee46ef-c26d-4d14-b7c3-e1dfe929a362" -> "d196ff8a-11db-42c0-bd2b-fc94c9a260bd";
"d196ff8a-11db-42c0-bd2b-fc94c9a260bd" [label="android.app.Activity.performCreate\n Susp=0,2043"];
"d196ff8a-11db-42c0-bd2b-fc94c9a260bd" -> "f23c74a2-b84c-4166-864a-3c92e98361ff";
"f23c74a2-b84c-4166-864a-3c92e98361ff" [label="com.devpaul.filepickerlibrary.FilePickerActivity.onCreate\n Susp=0,2043"];
"f23c74a2-b84c-4166-864a-3c92e98361ff" -> "c422c4d0-2645-490f-b259-d1b8274dc7e0";
"c422c4d0-2645-490f-b259-d1b8274dc7e0" [label="de.robv.android.xposed.XposedBridge.handleHookedMethod\n Susp=0,2043"];
"c422c4d0-2645-490f-b259-d1b8274dc7e0" -> "4c81ae1c-d713-4c5a-9d21-354714ec7729";
"4c81ae1c-d713-4c5a-9d21-354714ec7729" [label="de.robv.android.xposed.XposedBridge.invokeOriginalMethodNative\n Susp=0,2043"];
"4c81ae1c-d713-4c5a-9d21-354714ec7729" -> "856e06a2-ca94-4065-8b74-8c802e427d08";
"856e06a2-ca94-4065-8b74-8c802e427d08" [label="com.devpaul.filepickerlibrary.FilePickerActivity.onCreate\n Susp=0,6043"];
"856e06a2-ca94-4065-8b74-8c802e427d08" -> "6213f3ef-be0d-4612-af14-7900bfcfc324";
"6213f3ef-be0d-4612-af14-7900bfcfc324" [label="android.app.Activity.setContentView\n Susp=0,2016"];
"6213f3ef-be0d-4612-af14-7900bfcfc324" -> "0589145a-8b63-495f-b528-8866214075bd";
"0589145a-8b63-495f-b528-8866214075bd" [label="de.robv.android.xposed.XposedBridge.handleHookedMethod\n Susp=0,2016"];
"0589145a-8b63-495f-b528-8866214075bd" -> "453c8443-c314-4d00-bef2-acc5ff65a473";
"453c8443-c314-4d00-bef2-acc5ff65a473" [label="de.robv.android.xposed.XposedBridge.invokeOriginalMethodNative\n Susp=0,2016"];
"453c8443-c314-4d00-bef2-acc5ff65a473" -> "cf98fb98-78a9-4917-a87e-57d675089ca5";
"cf98fb98-78a9-4917-a87e-57d675089ca5" [label="android.app.Activity.setContentView\n Susp=0,2016"];
"cf98fb98-78a9-4917-a87e-57d675089ca5" -> "7238fc72-5f6f-424e-bef3-fbb9ffb0d2c1";
"7238fc72-5f6f-424e-bef3-fbb9ffb0d2c1" [label="com.android.internal.policy.PhoneWindow.setContentView\n Susp=0,2016"];
"7238fc72-5f6f-424e-bef3-fbb9ffb0d2c1" -> "70e72648-e1ad-4792-8f7c-5c3cf807fbf1";
"70e72648-e1ad-4792-8f7c-5c3cf807fbf1" [label="android.view.LayoutInflater.inflate\n Susp=0,2016"];
"70e72648-e1ad-4792-8f7c-5c3cf807fbf1" -> "25ec9f6f-0f0d-4eae-b534-1d39247ef3b3";
"25ec9f6f-0f0d-4eae-b534-1d39247ef3b3" [label="de.robv.android.xposed.XposedBridge.handleHookedMethod\n Susp=0,2016"];
"25ec9f6f-0f0d-4eae-b534-1d39247ef3b3" -> "a0d5b9bd-c045-41a7-a48f-f05ab85b4fae";
"a0d5b9bd-c045-41a7-a48f-f05ab85b4fae" [label="de.robv.android.xposed.XposedBridge.invokeOriginalMethodNative\n Susp=0,2016"];
"a0d5b9bd-c045-41a7-a48f-f05ab85b4fae" -> "c4a25d19-89d6-43fd-abaf-ddbb53da6b0f";
"c4a25d19-89d6-43fd-abaf-ddbb53da6b0f" [label="android.view.LayoutInflater.inflate\n Susp=0,2016"];
"c4a25d19-89d6-43fd-abaf-ddbb53da6b0f" -> "8183b043-a297-4d46-a0e5-df872659a08b";
"8183b043-a297-4d46-a0e5-df872659a08b" [label="de.robv.android.xposed.XposedBridge.handleHookedMethod\n Susp=0,2016"];
"8183b043-a297-4d46-a0e5-df872659a08b" -> "dd746d93-c2da-42d7-a4bb-cc180364599a";
"dd746d93-c2da-42d7-a4bb-cc180364599a" [label="de.robv.android.xposed.XposedBridge.invokeOriginalMethodNative\n Susp=0,2016"];
"dd746d93-c2da-42d7-a4bb-cc180364599a" -> "c55b1ece-9ae0-4042-8033-f8bcfe6822b8";
"c55b1ece-9ae0-4042-8033-f8bcfe6822b8" [label="android.view.LayoutInflater.inflate\n Susp=0,2016"];
"c55b1ece-9ae0-4042-8033-f8bcfe6822b8" -> "aae5d78c-a6d2-45ea-bc99-5c57030543ed";
"aae5d78c-a6d2-45ea-bc99-5c57030543ed" [label="de.robv.android.xposed.XposedBridge.handleHookedMethod\n Susp=0,2016"];
"aae5d78c-a6d2-45ea-bc99-5c57030543ed" -> "44af4b7f-25b3-4156-9d3a-c86a1a8fd123";
"44af4b7f-25b3-4156-9d3a-c86a1a8fd123" [label="de.robv.android.xposed.XposedBridge.invokeOriginalMethodNative\n Susp=0,2016"];
"44af4b7f-25b3-4156-9d3a-c86a1a8fd123" -> "3a410bdf-d947-499d-814b-43975f7cf625";
"3a410bdf-d947-499d-814b-43975f7cf625" [label="android.view.LayoutInflater.inflate\n Susp=0,2016"];
"3a410bdf-d947-499d-814b-43975f7cf625" -> "cf715da0-7174-4de7-b74d-34905a85321b";
"cf715da0-7174-4de7-b74d-34905a85321b" [label="android.view.LayoutInflater.rInflateChildren\n Susp=0,2016"];
"cf715da0-7174-4de7-b74d-34905a85321b" -> "43367b51-14f6-4e72-b15d-b162b39dbf4c";
"43367b51-14f6-4e72-b15d-b162b39dbf4c" [label="android.view.LayoutInflater.rInflate\n Susp=0,2016"];
"43367b51-14f6-4e72-b15d-b162b39dbf4c" -> "d6b54be4-7ea8-461b-8c71-844afc33600f";
"d6b54be4-7ea8-461b-8c71-844afc33600f" [label="android.view.LayoutInflater.createViewFromTag\n Susp=0,2016"];
"d6b54be4-7ea8-461b-8c71-844afc33600f" -> "6ca89d2b-4169-4411-897f-afba2c3bf4e7";
"6ca89d2b-4169-4411-897f-afba2c3bf4e7" [label="android.view.LayoutInflater.createView\n Susp=0,2016"];
"6ca89d2b-4169-4411-897f-afba2c3bf4e7" -> "83f358f5-2af9-4197-9492-c83fad404b08";
"83f358f5-2af9-4197-9492-c83fad404b08" [label="java.lang.reflect.Constructor.newInstance\n Susp=0,2016"];
"83f358f5-2af9-4197-9492-c83fad404b08" -> "cb5194ac-d0a2-4812-a160-8b0389c45bb2";
"cb5194ac-d0a2-4812-a160-8b0389c45bb2" [label="com.devpaul.materiallibrary.views.MaterialFloatingActionButton.<init>\n Susp=0,2016"];
"cb5194ac-d0a2-4812-a160-8b0389c45bb2" -> "e1ccc5e1-59a5-4d89-ab40-9f5cc4b3cc72";
"e1ccc5e1-59a5-4d89-ab40-9f5cc4b3cc72" [label="com.devpaul.materiallibrary.views.MaterialFloatingActionButton.init\n Susp=0,2016"];
"e1ccc5e1-59a5-4d89-ab40-9f5cc4b3cc72" -> "82f22534-9e92-4893-8e29-308c3fd50ebc";
"82f22534-9e92-4893-8e29-308c3fd50ebc" [label="android.content.Context.obtainStyledAttributes\n Susp=0,2016"];
"82f22534-9e92-4893-8e29-308c3fd50ebc" -> "abea379b-644d-4160-a933-d3e6fc713284";
"abea379b-644d-4160-a933-d3e6fc713284" [label="de.robv.android.xposed.XposedBridge.handleHookedMethod\n Susp=0,2016"];
"abea379b-644d-4160-a933-d3e6fc713284" -> "01233e55-477f-41c4-8fcb-8cac99480baa";
"01233e55-477f-41c4-8fcb-8cac99480baa" [label="it.unimib.disco.lta.unimiblogger.MyMethodHook.beforeHookedMethod\n Susp=0,2016"];
"01233e55-477f-41c4-8fcb-8cac99480baa" -> "dcd81f73-1d63-4d4a-af53-a1e42ba8fbc3";
"dcd81f73-1d63-4d4a-af53-a1e42ba8fbc3" [label="java.lang.Thread.getStackTrace\n Susp=0,2016"];
"dcd81f73-1d63-4d4a-af53-a1e42ba8fbc3" -> "3e6a9373-27ba-4191-8b32-7468a086e4b8";
"3e6a9373-27ba-4191-8b32-7468a086e4b8" [label="dalvik.system.VMStack.getThreadStackTrace\n Susp=0,0016"];
"856e06a2-ca94-4065-8b74-8c802e427d08" -> "330cb512-5d38-4de0-8945-a5735cfd4085";
"330cb512-5d38-4de0-8945-a5735cfd4085" [label="android.view.LayoutInflater.inflate\n Susp=0,2011"];
"330cb512-5d38-4de0-8945-a5735cfd4085" -> "688589bd-4e9c-4663-82f7-bf0a26444746";
"688589bd-4e9c-4663-82f7-bf0a26444746" [label="de.robv.android.xposed.XposedBridge.handleHookedMethod\n Susp=0,2011"];
"688589bd-4e9c-4663-82f7-bf0a26444746" -> "6c30193e-0f89-47ef-9e25-b28551015ef7";
"6c30193e-0f89-47ef-9e25-b28551015ef7" [label="de.robv.android.xposed.XposedBridge.invokeOriginalMethodNative\n Susp=0,2011"];
"6c30193e-0f89-47ef-9e25-b28551015ef7" -> "d723ab3b-1096-4b8f-8abf-7240df64e785";
"d723ab3b-1096-4b8f-8abf-7240df64e785" [label="android.view.LayoutInflater.inflate\n Susp=0,2011"];
"d723ab3b-1096-4b8f-8abf-7240df64e785" -> "8e516ca3-4d7b-4427-bd72-16840aff3f6c";
"8e516ca3-4d7b-4427-bd72-16840aff3f6c" [label="de.robv.android.xposed.XposedBridge.handleHookedMethod\n Susp=0,2011"];
"8e516ca3-4d7b-4427-bd72-16840aff3f6c" -> "b58493e2-df96-4691-b44e-645763494728";
"b58493e2-df96-4691-b44e-645763494728" [label="de.robv.android.xposed.XposedBridge.invokeOriginalMethodNative\n Susp=0,2011"];
"b58493e2-df96-4691-b44e-645763494728" -> "5bc50947-5468-42ca-9f54-55b3ba650efd";
"5bc50947-5468-42ca-9f54-55b3ba650efd" [label="android.view.LayoutInflater.inflate\n Susp=0,2011"];
"5bc50947-5468-42ca-9f54-55b3ba650efd" -> "fed9405a-1395-4e4e-9928-1a49685312b6";
"fed9405a-1395-4e4e-9928-1a49685312b6" [label="de.robv.android.xposed.XposedBridge.handleHookedMethod\n Susp=0,2011"];
"fed9405a-1395-4e4e-9928-1a49685312b6" -> "4ecf45a6-dda9-433d-bace-ceb2bb4177a2";
"4ecf45a6-dda9-433d-bace-ceb2bb4177a2" [label="it.unimib.disco.lta.unimiblogger.MyMethodHook.beforeHookedMethod\n Susp=0,2011"];
"4ecf45a6-dda9-433d-bace-ceb2bb4177a2" -> "eb7ebcd9-03a1-4512-b9a2-add46e9eca55";
"eb7ebcd9-03a1-4512-b9a2-add46e9eca55" [label="java.lang.Thread.getStackTrace\n Susp=0,2011"];
"eb7ebcd9-03a1-4512-b9a2-add46e9eca55" -> "96359110-bfe0-4b04-b58d-b75d18cfd986";
"96359110-bfe0-4b04-b58d-b75d18cfd986" [label="dalvik.system.VMStack.getThreadStackTrace\n Susp=0,0011"];
"856e06a2-ca94-4065-8b74-8c802e427d08" -> "9cd3ab52-9c1e-4b26-8b17-b225212d32de";
"9cd3ab52-9c1e-4b26-8b17-b225212d32de" [label="android.support.v4.content.ContextCompat.checkSelfPermission\n Susp=0,2016"];
"9cd3ab52-9c1e-4b26-8b17-b225212d32de" -> "d66269b8-1dd1-44cc-aa50-9a26f6fe4330";
"d66269b8-1dd1-44cc-aa50-9a26f6fe4330" [label="de.robv.android.xposed.XposedBridge.handleHookedMethod\n Susp=0,2016"];
"d66269b8-1dd1-44cc-aa50-9a26f6fe4330" -> "909faf4c-7113-42d5-bfc2-cc890150e838";
"909faf4c-7113-42d5-bfc2-cc890150e838" [label="it.unimib.disco.lta.unimiblogger.MyMethodHook.beforeHookedMethod\n Susp=0,2016"];
"909faf4c-7113-42d5-bfc2-cc890150e838" -> "2b9db7d2-e070-4283-b9d6-43271a0fe84f";
"2b9db7d2-e070-4283-b9d6-43271a0fe84f" [label="java.lang.Thread.getStackTrace\n Susp=0,2016"];
"2b9db7d2-e070-4283-b9d6-43271a0fe84f" -> "0b4c047e-dd8e-4b12-be1e-ff1f00a2fba8";
"0b4c047e-dd8e-4b12-be1e-ff1f00a2fba8" [label="dalvik.system.VMStack.getThreadStackTrace\n Susp=0,0016"];
"2589c950-55ca-4723-8781-788667a68853" -> "ca562c61-31dd-4581-ae89-7334e32d6b76";
"ca562c61-31dd-4581-ae89-7334e32d6b76" [label="android.app.ActivityThread.access$800\n Susp=0,2201"];
"ca562c61-31dd-4581-ae89-7334e32d6b76" -> "20f3db53-7683-4c8c-95a2-b61933710b23";
"20f3db53-7683-4c8c-95a2-b61933710b23" [label="android.app.ActivityThread.handleLaunchActivity\n Susp=0,2201"];
"20f3db53-7683-4c8c-95a2-b61933710b23" -> "a860c4ac-c104-487f-b85f-7a2f27b30a69";
"a860c4ac-c104-487f-b85f-7a2f27b30a69" [label="android.app.ActivityThread.performLaunchActivity\n Susp=0,4201"];
"a860c4ac-c104-487f-b85f-7a2f27b30a69" -> "37d5d8fe-8cbc-456a-bb8d-e9066c9be28f";
"37d5d8fe-8cbc-456a-bb8d-e9066c9be28f" [label="android.app.Activity.performStart\n Susp=0,2049"];
"37d5d8fe-8cbc-456a-bb8d-e9066c9be28f" -> "b7d6177e-3609-476a-80e0-4b78d11d4c70";
"b7d6177e-3609-476a-80e0-4b78d11d4c70" [label="android.app.FragmentManagerImpl.execPendingActions\n Susp=0,2049"];
"b7d6177e-3609-476a-80e0-4b78d11d4c70" -> "b29f544c-51ec-4f88-8e55-7f5ee97ae1f5";
"b29f544c-51ec-4f88-8e55-7f5ee97ae1f5" [label="android.app.BackStackRecord.run\n Susp=0,2049"];
"b29f544c-51ec-4f88-8e55-7f5ee97ae1f5" -> "20c667b2-aa21-4b53-bbb0-ac17b8ed41ff";
"20c667b2-aa21-4b53-bbb0-ac17b8ed41ff" [label="android.app.FragmentManagerImpl.moveToState\n Susp=0,2049"];
"20c667b2-aa21-4b53-bbb0-ac17b8ed41ff" -> "f61ca232-7a8d-4249-a904-74381adc0183";
"f61ca232-7a8d-4249-a904-74381adc0183" [label="android.app.Fragment.performCreateView\n Susp=0,2049"];
"f61ca232-7a8d-4249-a904-74381adc0183" -> "1b988cbc-3bc8-4bff-ba9b-ed3cc136bf28";
"1b988cbc-3bc8-4bff-ba9b-ed3cc136bf28" [label="com.devpaul.filepicker.MainActivity$PlaceholderFragment.onCreateView\n Susp=0,2049"];
"1b988cbc-3bc8-4bff-ba9b-ed3cc136bf28" -> "eb580089-5ebc-4e0e-8bc4-c835907d30dc";
"eb580089-5ebc-4e0e-8bc4-c835907d30dc" [label="de.robv.android.xposed.XposedBridge.handleHookedMethod\n Susp=0,4049"];
"eb580089-5ebc-4e0e-8bc4-c835907d30dc" -> "0e72c384-b5db-4f15-a336-fa2df14f4ad1";
"0e72c384-b5db-4f15-a336-fa2df14f4ad1" [label="it.unimib.disco.lta.unimiblogger.MyMethodHook.beforeHookedMethod\n Susp=0,2011"];
"0e72c384-b5db-4f15-a336-fa2df14f4ad1" -> "c01cd0ca-7349-4637-89b9-0e00540e5b30";
"c01cd0ca-7349-4637-89b9-0e00540e5b30" [label="java.lang.Thread.getStackTrace\n Susp=0,2011"];
"c01cd0ca-7349-4637-89b9-0e00540e5b30" -> "a80ac992-4f45-496b-8d88-efd5dac208fd";
"a80ac992-4f45-496b-8d88-efd5dac208fd" [label="dalvik.system.VMStack.getThreadStackTrace\n Susp=0,0011"];
"eb580089-5ebc-4e0e-8bc4-c835907d30dc" -> "28672cc9-6097-4b65-b468-79961980b8d2";
"28672cc9-6097-4b65-b468-79961980b8d2" [label="de.robv.android.xposed.XposedBridge.invokeOriginalMethodNative\n Susp=0,2038"];
"28672cc9-6097-4b65-b468-79961980b8d2" -> "229645ec-71f4-431a-8753-8b80338f63ef";
"229645ec-71f4-431a-8753-8b80338f63ef" [label="com.devpaul.filepicker.MainActivity$PlaceholderFragment.onCreateView\n Susp=0,2038"];
"229645ec-71f4-431a-8753-8b80338f63ef" -> "07b82f1f-05c3-4925-af56-5fac2e0840ad";
"07b82f1f-05c3-4925-af56-5fac2e0840ad" [label="android.view.LayoutInflater.inflate\n Susp=0,2038"];
"07b82f1f-05c3-4925-af56-5fac2e0840ad" -> "0252d419-6d2f-4d37-842c-5fc9f8ceb6b7";
"0252d419-6d2f-4d37-842c-5fc9f8ceb6b7" [label="de.robv.android.xposed.XposedBridge.handleHookedMethod\n Susp=0,2038"];
"0252d419-6d2f-4d37-842c-5fc9f8ceb6b7" -> "cfa89a7c-5ddc-4b36-8992-7e2c2085761c";
"cfa89a7c-5ddc-4b36-8992-7e2c2085761c" [label="de.robv.android.xposed.XposedBridge.invokeOriginalMethodNative\n Susp=0,2038"];
"cfa89a7c-5ddc-4b36-8992-7e2c2085761c" -> "91eebbbd-a560-4135-900b-4ab54ef42b51";
"91eebbbd-a560-4135-900b-4ab54ef42b51" [label="android.view.LayoutInflater.inflate\n Susp=0,2038"];
"91eebbbd-a560-4135-900b-4ab54ef42b51" -> "a201d504-2f47-46d1-82bb-c01223b56f3e";
"a201d504-2f47-46d1-82bb-c01223b56f3e" [label="de.robv.android.xposed.XposedBridge.handleHookedMethod\n Susp=0,4038"];
"a201d504-2f47-46d1-82bb-c01223b56f3e" -> "485c4104-d45f-4ea7-8c8a-f3e5e2e91723";
"485c4104-d45f-4ea7-8c8a-f3e5e2e91723" [label="de.robv.android.xposed.XposedBridge.invokeOriginalMethodNative\n Susp=0,2016"];
"485c4104-d45f-4ea7-8c8a-f3e5e2e91723" -> "99c05e0d-ab3f-414c-922b-f003c7780e0e";
"99c05e0d-ab3f-414c-922b-f003c7780e0e" [label="android.view.LayoutInflater.inflate\n Susp=0,2016"];
"99c05e0d-ab3f-414c-922b-f003c7780e0e" -> "eb895f7d-0113-4a36-a53f-2dde7a0197b1";
"eb895f7d-0113-4a36-a53f-2dde7a0197b1" [label="android.view.LayoutInflater.rInflate\n Susp=0,2016"];
"eb895f7d-0113-4a36-a53f-2dde7a0197b1" -> "b3fbdf50-f31f-4f42-8533-75ff36c83304";
"b3fbdf50-f31f-4f42-8533-75ff36c83304" [label="android.view.LayoutInflater.createViewFromTag\n Susp=0,2016"];
"b3fbdf50-f31f-4f42-8533-75ff36c83304" -> "18f07fc9-2353-4641-bad1-47fa093c5a9b";
"18f07fc9-2353-4641-bad1-47fa093c5a9b" [label="android.view.LayoutInflater.createView\n Susp=0,2016"];
"18f07fc9-2353-4641-bad1-47fa093c5a9b" -> "7ef29148-26ef-4a78-8ade-af72b09b890a";
"7ef29148-26ef-4a78-8ade-af72b09b890a" [label="java.lang.reflect.Constructor.newInstance\n Susp=0,2016"];
"7ef29148-26ef-4a78-8ade-af72b09b890a" -> "971fb4c2-9bc1-4ee7-b731-8300f1ea65e8";
"971fb4c2-9bc1-4ee7-b731-8300f1ea65e8" [label="com.devpaul.materiallibrary.views.MaterialFlatButton.<init>\n Susp=0,2016"];
"971fb4c2-9bc1-4ee7-b731-8300f1ea65e8" -> "b2dba677-ee17-4f48-a71c-01fe0e1cb730";
"b2dba677-ee17-4f48-a71c-01fe0e1cb730" [label="com.devpaul.materiallibrary.abstracts.BaseViewGroup.<init>\n Susp=0,2016"];
"b2dba677-ee17-4f48-a71c-01fe0e1cb730" -> "5ceaf398-e538-4e71-a04f-7c0085c0b8c0";
"5ceaf398-e538-4e71-a04f-7c0085c0b8c0" [label="com.devpaul.materiallibrary.views.MaterialFlatButton.init\n Susp=0,2016"];
"5ceaf398-e538-4e71-a04f-7c0085c0b8c0" -> "b2c0cdb8-d46d-4bb0-994d-60061beb3970";
"b2c0cdb8-d46d-4bb0-994d-60061beb3970" [label="android.content.Context.obtainStyledAttributes\n Susp=0,2016"];
"b2c0cdb8-d46d-4bb0-994d-60061beb3970" -> "aa775011-c017-4452-bf56-a897c7c73607";
"aa775011-c017-4452-bf56-a897c7c73607" [label="de.robv.android.xposed.XposedBridge.handleHookedMethod\n Susp=0,2016"];
"aa775011-c017-4452-bf56-a897c7c73607" -> "f9b3bee4-0a31-4a15-871a-e2fb862591ca";
"f9b3bee4-0a31-4a15-871a-e2fb862591ca" [label="it.unimib.disco.lta.unimiblogger.MyMethodHook.beforeHookedMethod\n Susp=0,2016"];
"f9b3bee4-0a31-4a15-871a-e2fb862591ca" -> "673fcbb8-e0b3-40ed-b933-6ecd728d8fd0";
"673fcbb8-e0b3-40ed-b933-6ecd728d8fd0" [label="java.lang.Thread.getStackTrace\n Susp=0,2016"];
"673fcbb8-e0b3-40ed-b933-6ecd728d8fd0" -> "c49c0f19-c642-4d69-9bf4-c5db1a780bbd";
"c49c0f19-c642-4d69-9bf4-c5db1a780bbd" [label="dalvik.system.VMStack.getThreadStackTrace\n Susp=0,0016"];
"a201d504-2f47-46d1-82bb-c01223b56f3e" -> "702e197a-0287-44ed-b99e-a676bdd628bc";
"702e197a-0287-44ed-b99e-a676bdd628bc" [label="it.unimib.disco.lta.unimiblogger.MyMethodHook.beforeHookedMethod\n Susp=0,2022"];
"702e197a-0287-44ed-b99e-a676bdd628bc" -> "3276f593-8b17-43e5-bdc3-14996891fcfa";
"3276f593-8b17-43e5-bdc3-14996891fcfa" [label="java.lang.Thread.getStackTrace\n Susp=0,2022"];
"3276f593-8b17-43e5-bdc3-14996891fcfa" -> "bc8d5617-5243-4ef3-8ee2-dcdbfa6836af";
"bc8d5617-5243-4ef3-8ee2-dcdbfa6836af" [label="dalvik.system.VMStack.getThreadStackTrace\n Susp=0,0022"];
"a860c4ac-c104-487f-b85f-7a2f27b30a69" -> "81deb126-8b57-4dea-972d-88153af493fd";
"81deb126-8b57-4dea-972d-88153af493fd" [label="android.app.Instrumentation.callActivityOnCreate\n Susp=0,2152"];
"81deb126-8b57-4dea-972d-88153af493fd" -> "d48f99cc-05a1-4620-98aa-ae6a1b79a471";
"d48f99cc-05a1-4620-98aa-ae6a1b79a471" [label="android.app.Activity.performCreate\n Susp=0,2152"];
"d48f99cc-05a1-4620-98aa-ae6a1b79a471" -> "7360f1e7-4dee-4b75-b1be-5e3cbb415c30";
"7360f1e7-4dee-4b75-b1be-5e3cbb415c30" [label="com.devpaul.filepickerlibrary.FilePickerActivity.onCreate\n Susp=0,2152"];
"7360f1e7-4dee-4b75-b1be-5e3cbb415c30" -> "d32edbce-086a-4d05-8551-9c1882cfb7ed";
"d32edbce-086a-4d05-8551-9c1882cfb7ed" [label="de.robv.android.xposed.XposedBridge.handleHookedMethod\n Susp=0,2152"];
"d32edbce-086a-4d05-8551-9c1882cfb7ed" -> "da28b7c8-2a66-4301-8c4c-15988197ac35";
"da28b7c8-2a66-4301-8c4c-15988197ac35" [label="de.robv.android.xposed.XposedBridge.invokeOriginalMethodNative\n Susp=0,2152"];
"da28b7c8-2a66-4301-8c4c-15988197ac35" -> "1fbc98ba-198e-42d8-bc5e-44dee0526129";
"1fbc98ba-198e-42d8-bc5e-44dee0526129" [label="com.devpaul.filepickerlibrary.FilePickerActivity.onCreate\n Susp=0,8152"];
"1fbc98ba-198e-42d8-bc5e-44dee0526129" -> "26e9f99b-1a67-40ca-89f9-57852449ce8b";
"26e9f99b-1a67-40ca-89f9-57852449ce8b" [label="android.app.Activity.setContentView\n Susp=0,2016"];
"26e9f99b-1a67-40ca-89f9-57852449ce8b" -> "58458c0f-5f6f-4ea2-bf1b-ab42a5b9692d";
"58458c0f-5f6f-4ea2-bf1b-ab42a5b9692d" [label="de.robv.android.xposed.XposedBridge.handleHookedMethod\n Susp=0,2016"];
"58458c0f-5f6f-4ea2-bf1b-ab42a5b9692d" -> "d5671fdc-adef-4acd-b336-8346ba49192b";
"d5671fdc-adef-4acd-b336-8346ba49192b" [label="de.robv.android.xposed.XposedBridge.invokeOriginalMethodNative\n Susp=0,2016"];
"d5671fdc-adef-4acd-b336-8346ba49192b" -> "58300a2d-73c1-4cb2-95e5-2c97adc68fdc";
"58300a2d-73c1-4cb2-95e5-2c97adc68fdc" [label="android.app.Activity.setContentView\n Susp=0,2016"];
"58300a2d-73c1-4cb2-95e5-2c97adc68fdc" -> "0f7c9490-64e6-42d9-9986-04aaaff7c45d";
"0f7c9490-64e6-42d9-9986-04aaaff7c45d" [label="com.android.internal.policy.impl.PhoneWindow.setContentView\n Susp=0,2016"];
"0f7c9490-64e6-42d9-9986-04aaaff7c45d" -> "92668d30-c571-4c99-ba0e-4b59fd85445b";
"92668d30-c571-4c99-ba0e-4b59fd85445b" [label="android.view.LayoutInflater.inflate\n Susp=0,2016"];
"92668d30-c571-4c99-ba0e-4b59fd85445b" -> "81f2b550-8ea6-4a6e-8edc-1e49841f2ed6";
"81f2b550-8ea6-4a6e-8edc-1e49841f2ed6" [label="de.robv.android.xposed.XposedBridge.handleHookedMethod\n Susp=0,2016"];
"81f2b550-8ea6-4a6e-8edc-1e49841f2ed6" -> "82ad3d0a-698f-4f97-bdb3-d14d68194d55";
"82ad3d0a-698f-4f97-bdb3-d14d68194d55" [label="de.robv.android.xposed.XposedBridge.invokeOriginalMethodNative\n Susp=0,2016"];
"82ad3d0a-698f-4f97-bdb3-d14d68194d55" -> "4c8c468d-8246-472f-8ecf-e57e30435467";
"4c8c468d-8246-472f-8ecf-e57e30435467" [label="android.view.LayoutInflater.inflate\n Susp=0,2016"];
"4c8c468d-8246-472f-8ecf-e57e30435467" -> "889002a5-f297-4211-be39-324028d5f8cf";
"889002a5-f297-4211-be39-324028d5f8cf" [label="de.robv.android.xposed.XposedBridge.handleHookedMethod\n Susp=0,2016"];
"889002a5-f297-4211-be39-324028d5f8cf" -> "bf00250b-bacc-4a5b-963c-33336e376b21";
"bf00250b-bacc-4a5b-963c-33336e376b21" [label="de.robv.android.xposed.XposedBridge.invokeOriginalMethodNative\n Susp=0,2016"];
"bf00250b-bacc-4a5b-963c-33336e376b21" -> "fdd1b996-a8d5-4475-9e83-281df475035d";
"fdd1b996-a8d5-4475-9e83-281df475035d" [label="android.view.LayoutInflater.inflate\n Susp=0,2016"];
"fdd1b996-a8d5-4475-9e83-281df475035d" -> "5279d873-2da8-464f-ba36-76028bedc1a6";
"5279d873-2da8-464f-ba36-76028bedc1a6" [label="de.robv.android.xposed.XposedBridge.handleHookedMethod\n Susp=0,2016"];
"5279d873-2da8-464f-ba36-76028bedc1a6" -> "21c9f915-d08c-4d52-ad38-ed507ce731d5";
"21c9f915-d08c-4d52-ad38-ed507ce731d5" [label="de.robv.android.xposed.XposedBridge.invokeOriginalMethodNative\n Susp=0,2016"];
"21c9f915-d08c-4d52-ad38-ed507ce731d5" -> "b5c24ef4-d36c-4ee7-ad32-b3e1e9f1126a";
"b5c24ef4-d36c-4ee7-ad32-b3e1e9f1126a" [label="android.view.LayoutInflater.inflate\n Susp=0,2016"];
"b5c24ef4-d36c-4ee7-ad32-b3e1e9f1126a" -> "6a27aa2c-ba45-4313-80e3-adf60fd0dc3d";
"6a27aa2c-ba45-4313-80e3-adf60fd0dc3d" [label="android.view.LayoutInflater.rInflate\n Susp=0,2016"];
"6a27aa2c-ba45-4313-80e3-adf60fd0dc3d" -> "1bd8cbfa-08a0-4aab-b283-d140bb729024";
"1bd8cbfa-08a0-4aab-b283-d140bb729024" [label="android.view.LayoutInflater.createViewFromTag\n Susp=0,2016"];
"1bd8cbfa-08a0-4aab-b283-d140bb729024" -> "4d9abcaf-b108-4624-8911-298d5e5670da";
"4d9abcaf-b108-4624-8911-298d5e5670da" [label="android.view.LayoutInflater.createView\n Susp=0,2016"];
"4d9abcaf-b108-4624-8911-298d5e5670da" -> "1134bd0e-61df-4bdb-bb64-190bcbc92963";
"1134bd0e-61df-4bdb-bb64-190bcbc92963" [label="java.lang.reflect.Constructor.newInstance\n Susp=0,2016"];
"1134bd0e-61df-4bdb-bb64-190bcbc92963" -> "da194fff-be31-4738-b50f-7b74f38286c6";
"da194fff-be31-4738-b50f-7b74f38286c6" [label="com.devpaul.materiallibrary.views.MaterialFloatingActionButton.<init>\n Susp=0,2016"];
"da194fff-be31-4738-b50f-7b74f38286c6" -> "89e0df89-f285-423c-9639-f1c308f09902";
"89e0df89-f285-423c-9639-f1c308f09902" [label="com.devpaul.materiallibrary.views.MaterialFloatingActionButton.init\n Susp=0,2016"];
"89e0df89-f285-423c-9639-f1c308f09902" -> "5231cd76-9e51-41f9-8338-90ab9fc5f1b5";
"5231cd76-9e51-41f9-8338-90ab9fc5f1b5" [label="android.content.Context.obtainStyledAttributes\n Susp=0,2016"];
"5231cd76-9e51-41f9-8338-90ab9fc5f1b5" -> "525e96fe-3582-4cd8-bf76-b86e2e9ef1f6";
"525e96fe-3582-4cd8-bf76-b86e2e9ef1f6" [label="de.robv.android.xposed.XposedBridge.handleHookedMethod\n Susp=0,2016"];
"525e96fe-3582-4cd8-bf76-b86e2e9ef1f6" -> "0f03b73a-17f0-45ee-9787-579010166940";
"0f03b73a-17f0-45ee-9787-579010166940" [label="it.unimib.disco.lta.unimiblogger.MyMethodHook.beforeHookedMethod\n Susp=0,2016"];
"0f03b73a-17f0-45ee-9787-579010166940" -> "606ea81b-2fb2-4598-8b18-5b1d9aeae715";
"606ea81b-2fb2-4598-8b18-5b1d9aeae715" [label="java.lang.Thread.getStackTrace\n Susp=0,2016"];
"606ea81b-2fb2-4598-8b18-5b1d9aeae715" -> "9d065b0a-aa37-4514-8515-c12b7bcd9de0";
"9d065b0a-aa37-4514-8515-c12b7bcd9de0" [label="dalvik.system.VMStack.getThreadStackTrace\n Susp=0,0016"];
"1fbc98ba-198e-42d8-bc5e-44dee0526129" -> "8aa88223-074e-4c79-8c50-33088ba8f0af";
"8aa88223-074e-4c79-8c50-33088ba8f0af" [label="android.app.Activity.getLayoutInflater\n Susp=0,2011"];
"8aa88223-074e-4c79-8c50-33088ba8f0af" -> "63110e8d-cd1f-4e82-9d60-bbcd8fdc14a1";
"63110e8d-cd1f-4e82-9d60-bbcd8fdc14a1" [label="de.robv.android.xposed.XposedBridge.handleHookedMethod\n Susp=0,2011"];
"63110e8d-cd1f-4e82-9d60-bbcd8fdc14a1" -> "b798b1d1-76e8-44f0-ab8a-8ec567bd33e1";
"b798b1d1-76e8-44f0-ab8a-8ec567bd33e1" [label="it.unimib.disco.lta.unimiblogger.MyMethodHook.beforeHookedMethod\n Susp=0,2011"];
"b798b1d1-76e8-44f0-ab8a-8ec567bd33e1" -> "8a0c4b8c-1044-436e-9c9c-22b41d6daed0";
"8a0c4b8c-1044-436e-9c9c-22b41d6daed0" [label="java.lang.Thread.getStackTrace\n Susp=0,2011"];
"8a0c4b8c-1044-436e-9c9c-22b41d6daed0" -> "ab418f1c-26d2-4a71-8664-71d6d4380da6";
"ab418f1c-26d2-4a71-8664-71d6d4380da6" [label="dalvik.system.VMStack.getThreadStackTrace\n Susp=0,0011"];
"1fbc98ba-198e-42d8-bc5e-44dee0526129" -> "16db9e56-3d50-43d1-9a4a-98db8e208339";
"16db9e56-3d50-43d1-9a4a-98db8e208339" [label="android.view.LayoutInflater.inflate\n Susp=0,2016"];
"16db9e56-3d50-43d1-9a4a-98db8e208339" -> "05406106-a763-444d-bec1-442fcf846042";
"05406106-a763-444d-bec1-442fcf846042" [label="de.robv.android.xposed.XposedBridge.handleHookedMethod\n Susp=0,2016"];
"05406106-a763-444d-bec1-442fcf846042" -> "05987f7d-3893-4b09-abd3-e9969a0546f2";
"05987f7d-3893-4b09-abd3-e9969a0546f2" [label="de.robv.android.xposed.XposedBridge.invokeOriginalMethodNative\n Susp=0,2016"];
"05987f7d-3893-4b09-abd3-e9969a0546f2" -> "f5a2941a-1122-4981-9506-8506df5635ea";
"f5a2941a-1122-4981-9506-8506df5635ea" [label="android.view.LayoutInflater.inflate\n Susp=0,2016"];
"f5a2941a-1122-4981-9506-8506df5635ea" -> "b0b6cb5c-8584-4269-b2bf-52055fb73726";
"b0b6cb5c-8584-4269-b2bf-52055fb73726" [label="de.robv.android.xposed.XposedBridge.handleHookedMethod\n Susp=0,2016"];
"b0b6cb5c-8584-4269-b2bf-52055fb73726" -> "df0f2b4b-307e-4eed-8591-6f6b603dfcda";
"df0f2b4b-307e-4eed-8591-6f6b603dfcda" [label="de.robv.android.xposed.XposedBridge.invokeOriginalMethodNative\n Susp=0,2016"];
"df0f2b4b-307e-4eed-8591-6f6b603dfcda" -> "9f06ebc9-078b-4853-85c0-d958dda0d317";
"9f06ebc9-078b-4853-85c0-d958dda0d317" [label="android.view.LayoutInflater.inflate\n Susp=0,2016"];
"9f06ebc9-078b-4853-85c0-d958dda0d317" -> "bd547008-67d8-4584-95cd-87d92da95cfb";
"bd547008-67d8-4584-95cd-87d92da95cfb" [label="de.robv.android.xposed.XposedBridge.handleHookedMethod\n Susp=0,2016"];
"bd547008-67d8-4584-95cd-87d92da95cfb" -> "9c1fae8b-aa2c-4bc8-9bb0-5be43b362ae6";
"9c1fae8b-aa2c-4bc8-9bb0-5be43b362ae6" [label="it.unimib.disco.lta.unimiblogger.MyMethodHook.beforeHookedMethod\n Susp=0,2016"];
"9c1fae8b-aa2c-4bc8-9bb0-5be43b362ae6" -> "a98a4f50-3662-4abb-aee6-99dbc0033709";
"a98a4f50-3662-4abb-aee6-99dbc0033709" [label="java.lang.Thread.getStackTrace\n Susp=0,2016"];
"a98a4f50-3662-4abb-aee6-99dbc0033709" -> "43417936-92be-4737-bd22-b8351ab40f22";
"43417936-92be-4737-bd22-b8351ab40f22" [label="dalvik.system.VMStack.getThreadStackTrace\n Susp=0,0016"];
"1fbc98ba-198e-42d8-bc5e-44dee0526129" -> "ab4657a1-9f1a-4ae5-bec7-7f44b1ea8695";
"ab4657a1-9f1a-4ae5-bec7-7f44b1ea8695" [label="com.devpaul.filepickerlibrary.FilePickerActivity.init\n Susp=0,2109"];
"ab4657a1-9f1a-4ae5-bec7-7f44b1ea8695" -> "563efde2-945b-431a-8608-01cf9fc003d1";
"563efde2-945b-431a-8608-01cf9fc003d1" [label="android.os.Environment.getExternalStorageDirectory\n Susp=0,2109"];
"563efde2-945b-431a-8608-01cf9fc003d1" -> "052a0abe-af21-47e5-8489-4a8d228bc4c8";
"052a0abe-af21-47e5-8489-4a8d228bc4c8" [label="de.robv.android.xposed.XposedBridge.handleHookedMethod\n Susp=0,2109"];
"052a0abe-af21-47e5-8489-4a8d228bc4c8" -> "804cdb26-1fc0-4cc4-a0d1-5ed8a6500577";
"804cdb26-1fc0-4cc4-a0d1-5ed8a6500577" [label="it.unimib.disco.lta.unimiblogger.MyMethodHook.beforeHookedMethod\n Susp=0,2109"];
"804cdb26-1fc0-4cc4-a0d1-5ed8a6500577" -> "1f30493e-2a15-40f1-8d6c-df6412a8bee1";
"1f30493e-2a15-40f1-8d6c-df6412a8bee1" [label="java.lang.Thread.getStackTrace\n Susp=0,2109"];
"1f30493e-2a15-40f1-8d6c-df6412a8bee1" -> "7a6d5224-8502-4799-90f7-182f96a57004";
"7a6d5224-8502-4799-90f7-182f96a57004" [label="dalvik.system.VMStack.getThreadStackTrace\n Susp=0,0109"];
"a6d87fe4-8e1b-4472-8c5d-7900b9bd6fa3" -> "6b554123-770d-4b73-8f83-53934a2c854d";
"6b554123-770d-4b73-8f83-53934a2c854d" [label="android.os.Handler.handleCallback\n Susp=0,4984"];
"6b554123-770d-4b73-8f83-53934a2c854d" -> "7a595153-22fc-4a83-837e-e33631049f14";
"7a595153-22fc-4a83-837e-e33631049f14" [label="android.view.Choreographer$FrameDisplayEventReceiver.run\n Susp=0,2924"];
"7a595153-22fc-4a83-837e-e33631049f14" -> "9ebcbc7c-e42c-4663-bd3b-3d61f1f6ce60";
"9ebcbc7c-e42c-4663-bd3b-3d61f1f6ce60" [label="android.view.Choreographer.doFrame\n Susp=0,2924"];
"9ebcbc7c-e42c-4663-bd3b-3d61f1f6ce60" -> "52c9ee5d-3cef-4f96-b9d0-9c285dab21ba";
"52c9ee5d-3cef-4f96-b9d0-9c285dab21ba" [label="android.view.Choreographer.doCallbacks\n Susp=0,2924"];
"52c9ee5d-3cef-4f96-b9d0-9c285dab21ba" -> "31f52e86-02ba-46f5-a673-66ba5601530b";
"31f52e86-02ba-46f5-a673-66ba5601530b" [label="android.view.Choreographer$CallbackRecord.run\n Susp=0,2924"];
"31f52e86-02ba-46f5-a673-66ba5601530b" -> "07afb7f0-ea5a-4b32-bb4b-f75e0473e79d";
"07afb7f0-ea5a-4b32-bb4b-f75e0473e79d" [label="android.view.ViewRootImpl$TraversalRunnable.run\n Susp=0,2924"];
"07afb7f0-ea5a-4b32-bb4b-f75e0473e79d" -> "a893b5d8-4c07-4f82-bb17-3878e841815e";
"a893b5d8-4c07-4f82-bb17-3878e841815e" [label="android.view.ViewRootImpl.doTraversal\n Susp=0,2924"];
"a893b5d8-4c07-4f82-bb17-3878e841815e" -> "5fdbca52-7023-4bba-9768-a0acd91051d8";
"5fdbca52-7023-4bba-9768-a0acd91051d8" [label="android.view.ViewRootImpl.performTraversals\n Susp=0,4924"];
"5fdbca52-7023-4bba-9768-a0acd91051d8" -> "6ea5ad65-931f-4d52-a8d3-e722f38efc38";
"6ea5ad65-931f-4d52-a8d3-e722f38efc38" [label="android.view.ViewRootImpl.performDraw\n Susp=0,2087"];
"6ea5ad65-931f-4d52-a8d3-e722f38efc38" -> "fa9417c5-591b-4e19-8360-f4361d4c94b6";
"fa9417c5-591b-4e19-8360-f4361d4c94b6" [label="android.view.ViewRootImpl.draw\n Susp=0,2087"];
"fa9417c5-591b-4e19-8360-f4361d4c94b6" -> "facb8b4e-bec4-4c24-8719-a43b53dd369d";
"facb8b4e-bec4-4c24-8719-a43b53dd369d" [label="android.view.ThreadedRenderer.draw\n Susp=0,2087"];
"facb8b4e-bec4-4c24-8719-a43b53dd369d" -> "dc3c04ea-1db8-491e-9354-f7d0db6e7395";
"dc3c04ea-1db8-491e-9354-f7d0db6e7395" [label="android.view.ThreadedRenderer.updateRootDisplayList\n Susp=0,2087"];
"dc3c04ea-1db8-491e-9354-f7d0db6e7395" -> "6c015f1c-2219-466a-899a-478c1a7e16de";
"6c015f1c-2219-466a-899a-478c1a7e16de" [label="android.view.ThreadedRenderer.updateViewTreeDisplayList\n Susp=0,2087"];
"6c015f1c-2219-466a-899a-478c1a7e16de" -> "ff2596ef-c5d7-4559-8d5f-ada4d68f5855";
"ff2596ef-c5d7-4559-8d5f-ada4d68f5855" [label="android.view.View.updateDisplayListIfDirty\n Susp=0,2087"];
"ff2596ef-c5d7-4559-8d5f-ada4d68f5855" -> "c77c4a44-e398-4a30-9ac3-d36890da4b88";
"c77c4a44-e398-4a30-9ac3-d36890da4b88" [label="android.view.ViewGroup.dispatchGetDisplayList\n Susp=0,2087"];
"c77c4a44-e398-4a30-9ac3-d36890da4b88" -> "b6816b13-43c5-42ab-aa48-e7a04b9b2ef7";
"b6816b13-43c5-42ab-aa48-e7a04b9b2ef7" [label="android.view.ViewGroup.recreateChildDisplayList\n Susp=0,2087"];
"b6816b13-43c5-42ab-aa48-e7a04b9b2ef7" -> "31c86090-f761-4898-bc09-5683d0f3b330";
"31c86090-f761-4898-bc09-5683d0f3b330" [label="android.view.View.updateDisplayListIfDirty\n Susp=0,2087"];
"31c86090-f761-4898-bc09-5683d0f3b330" -> "91587382-5589-475a-9578-4b52c8795ebf";
"91587382-5589-475a-9578-4b52c8795ebf" [label="android.view.ViewGroup.dispatchGetDisplayList\n Susp=0,2087"];
"91587382-5589-475a-9578-4b52c8795ebf" -> "de4433c6-5360-4f3b-a7d2-03de0cd716e1";
"de4433c6-5360-4f3b-a7d2-03de0cd716e1" [label="android.view.ViewGroup.recreateChildDisplayList\n Susp=0,2087"];
"de4433c6-5360-4f3b-a7d2-03de0cd716e1" -> "a6de392d-436f-42de-a66e-b6e1bf498880";
"a6de392d-436f-42de-a66e-b6e1bf498880" [label="android.view.View.updateDisplayListIfDirty\n Susp=0,2087"];
"a6de392d-436f-42de-a66e-b6e1bf498880" -> "3cc9c3ab-96fb-4424-bd5b-49829c71e92f";
"3cc9c3ab-96fb-4424-bd5b-49829c71e92f" [label="android.view.ViewGroup.dispatchGetDisplayList\n Susp=0,2087"];
"3cc9c3ab-96fb-4424-bd5b-49829c71e92f" -> "5d6abcfc-2996-47c4-8d10-ecd127d2d01f";
"5d6abcfc-2996-47c4-8d10-ecd127d2d01f" [label="android.view.ViewGroup.recreateChildDisplayList\n Susp=0,2087"];
"5d6abcfc-2996-47c4-8d10-ecd127d2d01f" -> "cdde5591-8c4e-4744-bb51-8316343b640a";
"cdde5591-8c4e-4744-bb51-8316343b640a" [label="android.view.View.updateDisplayListIfDirty\n Susp=0,2087"];
"cdde5591-8c4e-4744-bb51-8316343b640a" -> "f6e5dd0c-7b3f-47bc-9ffd-86d7114c9ab4";
"f6e5dd0c-7b3f-47bc-9ffd-86d7114c9ab4" [label="android.view.ViewGroup.dispatchGetDisplayList\n Susp=0,2087"];
"f6e5dd0c-7b3f-47bc-9ffd-86d7114c9ab4" -> "bb589572-daa7-4f5a-a585-a92a0245913e";
"bb589572-daa7-4f5a-a585-a92a0245913e" [label="android.view.ViewGroup.recreateChildDisplayList\n Susp=0,2087"];
"bb589572-daa7-4f5a-a585-a92a0245913e" -> "ce5d1b97-30ab-4af7-a29c-03309690a4c3";
"ce5d1b97-30ab-4af7-a29c-03309690a4c3" [label="android.view.View.updateDisplayListIfDirty\n Susp=0,2087"];
"ce5d1b97-30ab-4af7-a29c-03309690a4c3" -> "4b51c503-2599-4d10-b543-c1945afc409f";
"4b51c503-2599-4d10-b543-c1945afc409f" [label="android.view.ViewGroup.dispatchDraw\n Susp=0,2087"];
"4b51c503-2599-4d10-b543-c1945afc409f" -> "20ba3a4e-6c7b-4500-9ba0-ba1d9e82ea19";
"20ba3a4e-6c7b-4500-9ba0-ba1d9e82ea19" [label="android.view.ViewGroup.drawChild\n Susp=0,2087"];
"20ba3a4e-6c7b-4500-9ba0-ba1d9e82ea19" -> "150120ac-587f-4b0f-95a2-9245ab0f75cb";
"150120ac-587f-4b0f-95a2-9245ab0f75cb" [label="android.view.View.draw\n Susp=0,2087"];
"150120ac-587f-4b0f-95a2-9245ab0f75cb" -> "324f3b8e-694b-474b-86eb-77af1f0ce0e9";
"324f3b8e-694b-474b-86eb-77af1f0ce0e9" [label="android.view.View.applyLegacyAnimation\n Susp=0,2087"];
"324f3b8e-694b-474b-86eb-77af1f0ce0e9" -> "9b834d10-8232-40bb-a986-57f720c07a68";
"9b834d10-8232-40bb-a986-57f720c07a68" [label="android.view.animation.Animation.getTransformation\n Susp=0,2087"];
"9b834d10-8232-40bb-a986-57f720c07a68" -> "1561ee4c-b1b0-4ba9-9789-1184e5a17f74";
"1561ee4c-b1b0-4ba9-9789-1184e5a17f74" [label="android.view.animation.AnimationSet.getTransformation\n Susp=0,2087"];
"1561ee4c-b1b0-4ba9-9789-1184e5a17f74" -> "6abc284d-1790-4048-8800-73376274deec";
"6abc284d-1790-4048-8800-73376274deec" [label="android.view.animation.Animation.getTransformation\n Susp=0,2087"];
"6abc284d-1790-4048-8800-73376274deec" -> "18e7de52-ac15-49d8-a9a6-df67bab16b66";
"18e7de52-ac15-49d8-a9a6-df67bab16b66" [label="com.devpaul.materiallibrary.utils.ValueGeneratorAnim.applyTransformation\n Susp=0,2087"];
"18e7de52-ac15-49d8-a9a6-df67bab16b66" -> "b5020086-c8f0-470e-8073-0bbb9c962dcb";
"b5020086-c8f0-470e-8073-0bbb9c962dcb" [label="de.robv.android.xposed.XposedBridge.handleHookedMethod\n Susp=0,2087"];
"b5020086-c8f0-470e-8073-0bbb9c962dcb" -> "8d2a7b9a-f2b7-4a96-9b88-588ae8f0f528";
"8d2a7b9a-f2b7-4a96-9b88-588ae8f0f528" [label="it.unimib.disco.lta.unimiblogger.MyMethodHook.beforeHookedMethod\n Susp=0,2087"];
"8d2a7b9a-f2b7-4a96-9b88-588ae8f0f528" -> "3eed71f4-ae71-416c-b106-dc9ae3fd5657";
"3eed71f4-ae71-416c-b106-dc9ae3fd5657" [label="java.lang.Thread.getStackTrace\n Susp=0,2087"];
"3eed71f4-ae71-416c-b106-dc9ae3fd5657" -> "c5f7ecce-15b7-487e-9d89-3e583f3ad172";
"c5f7ecce-15b7-487e-9d89-3e583f3ad172" [label="dalvik.system.VMStack.getThreadStackTrace\n Susp=0,0087"];
"5fdbca52-7023-4bba-9768-a0acd91051d8" -> "59f33166-b91a-4b53-906e-50b27f6f7dae";
"59f33166-b91a-4b53-906e-50b27f6f7dae" [label="android.view.ViewRootImpl.performLayout\n Susp=0,2837"];
"59f33166-b91a-4b53-906e-50b27f6f7dae" -> "866d43e0-f72d-425c-a7a2-43b4dd77f4aa";
"866d43e0-f72d-425c-a7a2-43b4dd77f4aa" [label="android.view.ViewGroup.layout\n Susp=0,2837"];
"866d43e0-f72d-425c-a7a2-43b4dd77f4aa" -> "1d3c4096-3d98-4a25-b47b-0f3d0c668b69";
"1d3c4096-3d98-4a25-b47b-0f3d0c668b69" [label="android.view.View.layout\n Susp=0,2837"];
"1d3c4096-3d98-4a25-b47b-0f3d0c668b69" -> "0af7106c-df1f-4054-bbf8-a12eece7b7e3";
"0af7106c-df1f-4054-bbf8-a12eece7b7e3" [label="android.widget.FrameLayout.onLayout\n Susp=0,2837"];
"0af7106c-df1f-4054-bbf8-a12eece7b7e3" -> "95b8fa45-1958-4594-961d-eec9c0769225";
"95b8fa45-1958-4594-961d-eec9c0769225" [label="android.widget.FrameLayout.layoutChildren\n Susp=0,2837"];
"95b8fa45-1958-4594-961d-eec9c0769225" -> "343a8ccf-af59-40bf-b15d-735086854167";
"343a8ccf-af59-40bf-b15d-735086854167" [label="android.view.ViewGroup.layout\n Susp=0,2837"];
"343a8ccf-af59-40bf-b15d-735086854167" -> "ac3c4283-0525-409a-82a4-31a1c54d5fe7";
"ac3c4283-0525-409a-82a4-31a1c54d5fe7" [label="android.view.View.layout\n Susp=0,2837"];
"ac3c4283-0525-409a-82a4-31a1c54d5fe7" -> "52efe46e-e766-428a-8733-b09a6aaa5167";
"52efe46e-e766-428a-8733-b09a6aaa5167" [label="com.android.internal.widget.ActionBarOverlayLayout.onLayout\n Susp=0,2837"];
"52efe46e-e766-428a-8733-b09a6aaa5167" -> "a2a34734-8e5e-4bb3-9245-84d84cfe60d9";
"a2a34734-8e5e-4bb3-9245-84d84cfe60d9" [label="android.view.ViewGroup.layout\n Susp=0,2837"];
"a2a34734-8e5e-4bb3-9245-84d84cfe60d9" -> "d8208d5a-abdb-4c5e-897f-08bde87f2e60";
"d8208d5a-abdb-4c5e-897f-08bde87f2e60" [label="android.view.View.layout\n Susp=0,2837"];
"d8208d5a-abdb-4c5e-897f-08bde87f2e60" -> "ea1418b8-5f14-48ff-ab14-ebc693eb0fb4";
"ea1418b8-5f14-48ff-ab14-ebc693eb0fb4" [label="android.widget.FrameLayout.onLayout\n Susp=0,2837"];
"ea1418b8-5f14-48ff-ab14-ebc693eb0fb4" -> "bc43fd66-83f3-4158-ac8a-80ffda5304dd";
"bc43fd66-83f3-4158-ac8a-80ffda5304dd" [label="android.widget.FrameLayout.layoutChildren\n Susp=0,2837"];
"bc43fd66-83f3-4158-ac8a-80ffda5304dd" -> "d589c2aa-2cc0-4c13-ad84-8f26b1f6a3a3";
"d589c2aa-2cc0-4c13-ad84-8f26b1f6a3a3" [label="android.view.ViewGroup.layout\n Susp=0,2837"];
"d589c2aa-2cc0-4c13-ad84-8f26b1f6a3a3" -> "e59bc2c6-626e-49f5-bdf4-d9819053c1be";
"e59bc2c6-626e-49f5-bdf4-d9819053c1be" [label="android.view.View.layout\n Susp=0,2837"];
"e59bc2c6-626e-49f5-bdf4-d9819053c1be" -> "25aaf33d-8d84-4434-be7b-a06e6f192c50";
"25aaf33d-8d84-4434-be7b-a06e6f192c50" [label="android.widget.FrameLayout.onLayout\n Susp=0,2837"];
"25aaf33d-8d84-4434-be7b-a06e6f192c50" -> "fd01fa5b-d4bc-46dc-868c-9208e9b77ef6";
"fd01fa5b-d4bc-46dc-868c-9208e9b77ef6" [label="android.widget.FrameLayout.layoutChildren\n Susp=0,2837"];
"fd01fa5b-d4bc-46dc-868c-9208e9b77ef6" -> "d27a062b-81e3-4009-aa15-65a0026a7601";
"d27a062b-81e3-4009-aa15-65a0026a7601" [label="android.view.ViewGroup.layout\n Susp=0,2837"];
"d27a062b-81e3-4009-aa15-65a0026a7601" -> "383cddc3-353f-4962-af88-12a023e3b115";
"383cddc3-353f-4962-af88-12a023e3b115" [label="android.view.View.layout\n Susp=0,2837"];
"383cddc3-353f-4962-af88-12a023e3b115" -> "4104f98b-b5b7-4d9f-bad4-77fb2e52de6e";
"4104f98b-b5b7-4d9f-bad4-77fb2e52de6e" [label="android.widget.RelativeLayout.onLayout\n Susp=0,2837"];
"4104f98b-b5b7-4d9f-bad4-77fb2e52de6e" -> "1ddf84cf-f0b5-47cc-9175-4734fd9d25fb";
"1ddf84cf-f0b5-47cc-9175-4734fd9d25fb" [label="android.view.ViewGroup.layout\n Susp=0,2837"];
"1ddf84cf-f0b5-47cc-9175-4734fd9d25fb" -> "1c443e6c-b425-4f28-8380-21fce7eab5df";
"1c443e6c-b425-4f28-8380-21fce7eab5df" [label="android.view.View.layout\n Susp=0,2837"];
"1c443e6c-b425-4f28-8380-21fce7eab5df" -> "89144787-1c00-4f74-8b38-8b657154dba0";
"89144787-1c00-4f74-8b38-8b657154dba0" [label="android.widget.AbsListView.onLayout\n Susp=0,2837"];
"89144787-1c00-4f74-8b38-8b657154dba0" -> "2a204a2b-7ac7-417d-b6e7-70de08321aab";
"2a204a2b-7ac7-417d-b6e7-70de08321aab" [label="android.widget.ListView.layoutChildren\n Susp=0,2837"];
"2a204a2b-7ac7-417d-b6e7-70de08321aab" -> "51a06012-8d3c-4019-9a45-7ecbb890124e";
"51a06012-8d3c-4019-9a45-7ecbb890124e" [label="android.widget.HeaderViewListAdapter.getCount\n Susp=0,2837"];
"51a06012-8d3c-4019-9a45-7ecbb890124e" -> "503f4fc8-8613-42ab-bd31-5d284e61145e";
"503f4fc8-8613-42ab-bd31-5d284e61145e" [label="com.devpaul.filepickerlibrary.adapter.FileListAdapter.getCount\n Susp=0,2837"];
"503f4fc8-8613-42ab-bd31-5d284e61145e" -> "e995ee82-709b-4d04-bce9-fec7d2ae7a7f";
"e995ee82-709b-4d04-bce9-fec7d2ae7a7f" [label="de.robv.android.xposed.XposedBridge.handleHookedMethod\n Susp=0,2837"];
"e995ee82-709b-4d04-bce9-fec7d2ae7a7f" -> "6ea02612-f75b-4681-8810-eb58f4e13d24";
"6ea02612-f75b-4681-8810-eb58f4e13d24" [label="it.unimib.disco.lta.unimiblogger.MyMethodHook.beforeHookedMethod\n Susp=0,2837"];
"6ea02612-f75b-4681-8810-eb58f4e13d24" -> "5c43b5eb-a821-4f60-970f-6ce04365c1dd";
"5c43b5eb-a821-4f60-970f-6ce04365c1dd" [label="java.lang.Thread.getStackTrace\n Susp=0,2837"];
"5c43b5eb-a821-4f60-970f-6ce04365c1dd" -> "16fde75b-53fc-4c70-80c4-089e1eacfe91";
"16fde75b-53fc-4c70-80c4-089e1eacfe91" [label="dalvik.system.VMStack.getThreadStackTrace\n Susp=0,0837"];
"6b554123-770d-4b73-8f83-53934a2c854d" -> "1400c587-32df-477b-9e55-0ff3c924b40f";
"1400c587-32df-477b-9e55-0ff3c924b40f" [label="android.view.View$SendViewStateChangedAccessibilityEvent.run\n Susp=0,206"];
"1400c587-32df-477b-9e55-0ff3c924b40f" -> "872fe27f-edc8-411b-9a85-43259d74004c";
"872fe27f-edc8-411b-9a85-43259d74004c" [label="android.view.View.sendAccessibilityEventUnchecked\n Susp=0,206"];
"872fe27f-edc8-411b-9a85-43259d74004c" -> "8d76c028-3c0f-42f8-8c8d-0fcc91b7ee98";
"8d76c028-3c0f-42f8-8c8d-0fcc91b7ee98" [label="android.view.View.sendAccessibilityEventUncheckedInternal\n Susp=0,206"];
"8d76c028-3c0f-42f8-8c8d-0fcc91b7ee98" -> "4268d77f-db14-455d-a6fa-beffe5d96e68";
"4268d77f-db14-455d-a6fa-beffe5d96e68" [label="android.view.ViewGroup.requestSendAccessibilityEvent\n Susp=0,206"];
"4268d77f-db14-455d-a6fa-beffe5d96e68" -> "ab606954-9b83-4495-b963-e73f6049a333";
"ab606954-9b83-4495-b963-e73f6049a333" [label="android.widget.AdapterView.onRequestSendAccessibilityEvent\n Susp=0,206"];
"ab606954-9b83-4495-b963-e73f6049a333" -> "51db4418-f68b-460c-b79a-95f947a70a90";
"51db4418-f68b-460c-b79a-95f947a70a90" [label="android.widget.ListView.onInitializeAccessibilityEvent\n Susp=0,206"];
"51db4418-f68b-460c-b79a-95f947a70a90" -> "4adeea3c-cd8e-45e5-a055-a214e4b6b153";
"4adeea3c-cd8e-45e5-a055-a214e4b6b153" [label="android.widget.AbsListView.onInitializeAccessibilityEvent\n Susp=0,206"];
"4adeea3c-cd8e-45e5-a055-a214e4b6b153" -> "3852920e-1c8c-4104-b154-d38baf20bcf7";
"3852920e-1c8c-4104-b154-d38baf20bcf7" [label="android.widget.AdapterView.onInitializeAccessibilityEvent\n Susp=0,206"];
"3852920e-1c8c-4104-b154-d38baf20bcf7" -> "ca1304b0-5b66-4ff9-8ee4-2977f853f19a";
"ca1304b0-5b66-4ff9-8ee4-2977f853f19a" [label="android.widget.AdapterView.isScrollableForAccessibility\n Susp=0,206"];
"ca1304b0-5b66-4ff9-8ee4-2977f853f19a" -> "2fcd93e5-6cb1-4dd5-966a-4dcdcef3333f";
"2fcd93e5-6cb1-4dd5-966a-4dcdcef3333f" [label="android.widget.HeaderViewListAdapter.getCount\n Susp=0,206"];
"2fcd93e5-6cb1-4dd5-966a-4dcdcef3333f" -> "accf8d4b-2682-46be-b92e-64800462f87f";
"accf8d4b-2682-46be-b92e-64800462f87f" [label="com.devpaul.filepickerlibrary.adapter.FileListAdapter.getCount\n Susp=0,206"];
"accf8d4b-2682-46be-b92e-64800462f87f" -> "257acc22-3ab4-4a0e-9b23-c26e4895e561";
"257acc22-3ab4-4a0e-9b23-c26e4895e561" [label="de.robv.android.xposed.XposedBridge.handleHookedMethod\n Susp=0,206"];
"257acc22-3ab4-4a0e-9b23-c26e4895e561" -> "54333226-c402-40aa-9e5d-18e50eb2f70e";
"54333226-c402-40aa-9e5d-18e50eb2f70e" [label="it.unimib.disco.lta.unimiblogger.MyMethodHook.beforeHookedMethod\n Susp=0,206"];
"54333226-c402-40aa-9e5d-18e50eb2f70e" -> "8be2a273-2da9-4566-b517-0e6d27368033";
"8be2a273-2da9-4566-b517-0e6d27368033" [label="java.lang.Thread.getStackTrace\n Susp=0,206"];
"8be2a273-2da9-4566-b517-0e6d27368033" -> "0d905c0a-d08c-442e-8e36-c4652f28af73";
"0d905c0a-d08c-442e-8e36-c4652f28af73" [label="dalvik.system.VMStack.getThreadStackTrace\n Susp=0,006"];
"a6d87fe4-8e1b-4472-8c5d-7900b9bd6fa3" -> "6dd8101c-125c-42af-a732-975cd39f41af";
"6dd8101c-125c-42af-a732-975cd39f41af" [label="android.os.AsyncTask$InternalHandler.handleMessage\n Susp=0,2739"];
"6dd8101c-125c-42af-a732-975cd39f41af" -> "137cc281-7052-4f4f-ba6f-4174ed68f1c1";
"137cc281-7052-4f4f-ba6f-4174ed68f1c1" [label="android.os.AsyncTask.access$500\n Susp=0,2739"];
"137cc281-7052-4f4f-ba6f-4174ed68f1c1" -> "11a884b8-222d-4860-bad5-8f4409934879";
"11a884b8-222d-4860-bad5-8f4409934879" [label="android.os.AsyncTask.finish\n Susp=0,2739"];
"11a884b8-222d-4860-bad5-8f4409934879" -> "27870b36-84c3-417d-b9dc-a2f11c63e467";
"27870b36-84c3-417d-b9dc-a2f11c63e467" [label="com.devpaul.filepickerlibrary.FilePickerActivity$UpdateFilesTask.onPostExecute\n Susp=0,2739"];
"27870b36-84c3-417d-b9dc-a2f11c63e467" -> "fff4187d-5327-45e1-b3df-f7fbafbb0a19";
"fff4187d-5327-45e1-b3df-f7fbafbb0a19" [label="de.robv.android.xposed.XposedBridge.handleHookedMethod\n Susp=0,2739"];
"fff4187d-5327-45e1-b3df-f7fbafbb0a19" -> "816c4212-e85e-45e3-b8e3-52f37886b31d";
"816c4212-e85e-45e3-b8e3-52f37886b31d" [label="it.unimib.disco.lta.unimiblogger.MyMethodHook.beforeHookedMethod\n Susp=0,2739"];
"816c4212-e85e-45e3-b8e3-52f37886b31d" -> "89c98c94-b202-461d-83c8-ec24dfc203f1";
"89c98c94-b202-461d-83c8-ec24dfc203f1" [label="java.lang.Thread.getStackTrace\n Susp=0,2739"];
"89c98c94-b202-461d-83c8-ec24dfc203f1" -> "8dd6891f-47bb-4217-8799-b613b2f3c67c";
"8dd6891f-47bb-4217-8799-b613b2f3c67c" [label="dalvik.system.VMStack.getThreadStackTrace\n Susp=0,0739"];
}
