digraph FULL {
"b0ddd754-bfc7-4d6e-936b-858fca789fc8" [label="de.robv.android.xposed.XposedBridge.main\n Susp=0,4"];
"b0ddd754-bfc7-4d6e-936b-858fca789fc8" -> "80c9b351-0a6c-4ff1-a2f4-3b7a6b4b0e66";
"80c9b351-0a6c-4ff1-a2f4-3b7a6b4b0e66" [label="com.android.internal.os.ZygoteInit.main\n Susp=0,4"];
"80c9b351-0a6c-4ff1-a2f4-3b7a6b4b0e66" -> "9920f4fa-bd68-4b0c-8d4d-25db845b5e17";
"9920f4fa-bd68-4b0c-8d4d-25db845b5e17" [label="com.android.internal.os.ZygoteInit$MethodAndArgsCaller.run\n Susp=0,4"];
"9920f4fa-bd68-4b0c-8d4d-25db845b5e17" -> "c99da9cb-fc28-4137-83c3-f96aa780f116";
"c99da9cb-fc28-4137-83c3-f96aa780f116" [label="java.lang.reflect.Method.invoke\n Susp=0,4"];
"c99da9cb-fc28-4137-83c3-f96aa780f116" -> "6f045b59-3ae1-449c-b371-3e76298b5c37";
"6f045b59-3ae1-449c-b371-3e76298b5c37" [label="android.app.ActivityThread.main\n Susp=0,4"];
"6f045b59-3ae1-449c-b371-3e76298b5c37" -> "9d0e4af0-2132-4428-8d27-4b973a9c5e46";
"9d0e4af0-2132-4428-8d27-4b973a9c5e46" [label="android.os.Looper.loop\n Susp=0,4"];
"9d0e4af0-2132-4428-8d27-4b973a9c5e46" -> "0965e57b-14b6-4d1a-8c6e-1cc4b0b859cf";
"0965e57b-14b6-4d1a-8c6e-1cc4b0b859cf" [label="android.os.Handler.dispatchMessage\n Susp=0,4"];
"0965e57b-14b6-4d1a-8c6e-1cc4b0b859cf" -> "f9129549-e64e-4d6f-8fd0-9781e7c5db78";
"f9129549-e64e-4d6f-8fd0-9781e7c5db78" [label="android.app.ActivityThread$H.handleMessage\n Susp=1"];
"f9129549-e64e-4d6f-8fd0-9781e7c5db78" -> "d9e487fd-2133-4eab-bbee-0db095d05f0a";
"d9e487fd-2133-4eab-bbee-0db095d05f0a" [label="android.app.ActivityThread.-wrap11\n Susp=0,2455"];
"d9e487fd-2133-4eab-bbee-0db095d05f0a" -> "3fc197e8-c06d-49be-9c04-a8b1d6fec677";
"3fc197e8-c06d-49be-9c04-a8b1d6fec677" [label="android.app.ActivityThread.handleLaunchActivity\n Susp=0,2455"];
"3fc197e8-c06d-49be-9c04-a8b1d6fec677" -> "9a788308-a8c6-4067-95ab-1608779db673";
"9a788308-a8c6-4067-95ab-1608779db673" [label="android.app.ActivityThread.performLaunchActivity\n Susp=0,2455"];
"9a788308-a8c6-4067-95ab-1608779db673" -> "796b55d4-b29a-42af-9ece-d28cb2c55031";
"796b55d4-b29a-42af-9ece-d28cb2c55031" [label="android.app.Instrumentation.callActivityOnCreate\n Susp=0,2455"];
"796b55d4-b29a-42af-9ece-d28cb2c55031" -> "3ba88ee6-e7ad-4dc4-a7de-39873e879bff";
"3ba88ee6-e7ad-4dc4-a7de-39873e879bff" [label="android.app.Activity.performCreate\n Susp=0,2455"];
"3ba88ee6-e7ad-4dc4-a7de-39873e879bff" -> "8d326d6d-88c9-4b39-a149-7493f5fac6f6";
"8d326d6d-88c9-4b39-a149-7493f5fac6f6" [label="dk.example.example_fragment_oninflate.MainActivity.onCreate\n Susp=0,2455"];
"8d326d6d-88c9-4b39-a149-7493f5fac6f6" -> "3fa957f8-c209-44fd-93ec-ab1405078fc5";
"3fa957f8-c209-44fd-93ec-ab1405078fc5" [label="de.robv.android.xposed.XposedBridge.handleHookedMethod\n Susp=0,2455"];
"3fa957f8-c209-44fd-93ec-ab1405078fc5" -> "1f7d525d-5ff2-4e1b-b0f1-8705665a4cf7";
"1f7d525d-5ff2-4e1b-b0f1-8705665a4cf7" [label="de.robv.android.xposed.XposedBridge.invokeOriginalMethodNative\n Susp=0,2455"];
"1f7d525d-5ff2-4e1b-b0f1-8705665a4cf7" -> "f6078a12-08e3-4ce4-80f4-ada687a4fa56";
"f6078a12-08e3-4ce4-80f4-ada687a4fa56" [label="dk.example.example_fragment_oninflate.MainActivity.onCreate\n Susp=0,2455"];
"f6078a12-08e3-4ce4-80f4-ada687a4fa56" -> "891c67e7-5f86-486f-adaf-e24aa24ad0b1";
"891c67e7-5f86-486f-adaf-e24aa24ad0b1" [label="android.app.Activity.setContentView\n Susp=0,2455"];
"891c67e7-5f86-486f-adaf-e24aa24ad0b1" -> "417729e1-2170-4bc7-89f4-53715be22530";
"417729e1-2170-4bc7-89f4-53715be22530" [label="de.robv.android.xposed.XposedBridge.handleHookedMethod\n Susp=0,2455"];
"417729e1-2170-4bc7-89f4-53715be22530" -> "e3210916-c9b8-46d5-b262-10e1fd8c143c";
"e3210916-c9b8-46d5-b262-10e1fd8c143c" [label="de.robv.android.xposed.XposedBridge.invokeOriginalMethodNative\n Susp=0,2455"];
"e3210916-c9b8-46d5-b262-10e1fd8c143c" -> "e58a67fc-f92f-439a-ab2b-ccc747166386";
"e58a67fc-f92f-439a-ab2b-ccc747166386" [label="android.app.Activity.setContentView\n Susp=0,2455"];
"e58a67fc-f92f-439a-ab2b-ccc747166386" -> "9a31c0e3-d113-4318-b79a-a1fe39bf9170";
"9a31c0e3-d113-4318-b79a-a1fe39bf9170" [label="com.android.internal.policy.PhoneWindow.setContentView\n Susp=0,2455"];
"9a31c0e3-d113-4318-b79a-a1fe39bf9170" -> "12a6059a-24ce-472e-bd86-4df9573a2cd5";
"12a6059a-24ce-472e-bd86-4df9573a2cd5" [label="de.robv.android.xposed.XposedBridge.handleHookedMethod\n Susp=0,2455"];
"12a6059a-24ce-472e-bd86-4df9573a2cd5" -> "aca262db-375b-435d-bcd5-77077d68cec9";
"aca262db-375b-435d-bcd5-77077d68cec9" [label="de.robv.android.xposed.XposedBridge.invokeOriginalMethodNative\n Susp=0,2455"];
"aca262db-375b-435d-bcd5-77077d68cec9" -> "d80b1d6a-e572-4321-820c-1384195c4bf7";
"d80b1d6a-e572-4321-820c-1384195c4bf7" [label="com.android.internal.policy.PhoneWindow.setContentView\n Susp=0,2455"];
"d80b1d6a-e572-4321-820c-1384195c4bf7" -> "a20df4fc-e0b5-4e67-8e34-81a301b9e7fd";
"a20df4fc-e0b5-4e67-8e34-81a301b9e7fd" [label="android.view.LayoutInflater.inflate\n Susp=0,2455"];
"a20df4fc-e0b5-4e67-8e34-81a301b9e7fd" -> "65f534ed-7649-4c6c-b2a9-9ca1f168b665";
"65f534ed-7649-4c6c-b2a9-9ca1f168b665" [label="de.robv.android.xposed.XposedBridge.handleHookedMethod\n Susp=0,2455"];
"65f534ed-7649-4c6c-b2a9-9ca1f168b665" -> "717a2288-7bd4-444a-b7ad-5a8f68b40c6a";
"717a2288-7bd4-444a-b7ad-5a8f68b40c6a" [label="de.robv.android.xposed.XposedBridge.invokeOriginalMethodNative\n Susp=0,2455"];
"717a2288-7bd4-444a-b7ad-5a8f68b40c6a" -> "ee86721e-8709-40eb-aaad-7f9302f7139d";
"ee86721e-8709-40eb-aaad-7f9302f7139d" [label="android.view.LayoutInflater.inflate\n Susp=0,2455"];
"ee86721e-8709-40eb-aaad-7f9302f7139d" -> "0bef6f2e-8d1c-44d3-9e34-6d5250f82450";
"0bef6f2e-8d1c-44d3-9e34-6d5250f82450" [label="de.robv.android.xposed.XposedBridge.handleHookedMethod\n Susp=0,2455"];
"0bef6f2e-8d1c-44d3-9e34-6d5250f82450" -> "c57aab2c-df7b-4c74-8316-dd43f83bd17c";
"c57aab2c-df7b-4c74-8316-dd43f83bd17c" [label="de.robv.android.xposed.XposedBridge.invokeOriginalMethodNative\n Susp=0,2455"];
"c57aab2c-df7b-4c74-8316-dd43f83bd17c" -> "fdfee0e1-4d8d-4e99-9afc-cfdffb2bc973";
"fdfee0e1-4d8d-4e99-9afc-cfdffb2bc973" [label="android.view.LayoutInflater.inflate\n Susp=0,2455"];
"fdfee0e1-4d8d-4e99-9afc-cfdffb2bc973" -> "891e0e8b-d1b5-45a8-843b-389eb2a41b5d";
"891e0e8b-d1b5-45a8-843b-389eb2a41b5d" [label="de.robv.android.xposed.XposedBridge.handleHookedMethod\n Susp=0,2455"];
"891e0e8b-d1b5-45a8-843b-389eb2a41b5d" -> "fd5140f6-a90f-4330-9fb5-0cdb475686ed";
"fd5140f6-a90f-4330-9fb5-0cdb475686ed" [label="de.robv.android.xposed.XposedBridge.invokeOriginalMethodNative\n Susp=0,2455"];
"fd5140f6-a90f-4330-9fb5-0cdb475686ed" -> "a71fc19f-3de1-4fd8-be50-250522f16eb3";
"a71fc19f-3de1-4fd8-be50-250522f16eb3" [label="android.view.LayoutInflater.inflate\n Susp=0,2455"];
"a71fc19f-3de1-4fd8-be50-250522f16eb3" -> "2f699cf1-1bc3-4ccb-b649-3d015c7ba63f";
"2f699cf1-1bc3-4ccb-b649-3d015c7ba63f" [label="android.view.LayoutInflater.createViewFromTag\n Susp=0,2455"];
"2f699cf1-1bc3-4ccb-b649-3d015c7ba63f" -> "d743dc91-9ce4-4a8d-9cb6-8ef23cb1c626";
"d743dc91-9ce4-4a8d-9cb6-8ef23cb1c626" [label="android.app.Activity.onCreateView\n Susp=0,2455"];
"d743dc91-9ce4-4a8d-9cb6-8ef23cb1c626" -> "e74d5b46-24f6-4ea8-af8a-9e52e8b3b540";
"e74d5b46-24f6-4ea8-af8a-9e52e8b3b540" [label="android.app.FragmentController.onCreateView\n Susp=0,2455"];
"e74d5b46-24f6-4ea8-af8a-9e52e8b3b540" -> "d9b6908a-2f8e-4210-9ca5-d8acbc015d2b";
"d9b6908a-2f8e-4210-9ca5-d8acbc015d2b" [label="android.app.FragmentManagerImpl.onCreateView\n Susp=0,4455"];
"d9b6908a-2f8e-4210-9ca5-d8acbc015d2b" -> "ba0125a6-e5a5-4668-85c1-ecc85a595e4a";
"ba0125a6-e5a5-4668-85c1-ecc85a595e4a" [label="android.app.Fragment.onInflate\n Susp=0,2182"];
"ba0125a6-e5a5-4668-85c1-ecc85a595e4a" -> "293f1c4f-a55f-4b3f-b4e5-0c5365b13df1";
"293f1c4f-a55f-4b3f-b4e5-0c5365b13df1" [label="dk.example.example_fragment_oninflate.MainActivityFragment.onInflate\n Susp=0,2182"];
"293f1c4f-a55f-4b3f-b4e5-0c5365b13df1" -> "bd3b07a9-eeff-4575-b3f2-f4dc24c2c11f";
"bd3b07a9-eeff-4575-b3f2-f4dc24c2c11f" [label="de.robv.android.xposed.XposedBridge.handleHookedMethod\n Susp=0,2182"];
"bd3b07a9-eeff-4575-b3f2-f4dc24c2c11f" -> "33a50fb5-7ac8-4a55-aa7a-b448cdb491fa";
"33a50fb5-7ac8-4a55-aa7a-b448cdb491fa" [label="it.unimib.disco.lta.unimiblogger.MyMethodHook.beforeHookedMethod\n Susp=0,2182"];
"33a50fb5-7ac8-4a55-aa7a-b448cdb491fa" -> "f9d42b81-fc34-4d29-87d8-bff7b38ac785";
"f9d42b81-fc34-4d29-87d8-bff7b38ac785" [label="java.lang.Thread.getStackTrace\n Susp=0,2182"];
"f9d42b81-fc34-4d29-87d8-bff7b38ac785" -> "c81802bc-c938-4256-8224-a0dc22524644";
"c81802bc-c938-4256-8224-a0dc22524644" [label="dalvik.system.VMStack.getThreadStackTrace\n Susp=0,0182"];
"d9b6908a-2f8e-4210-9ca5-d8acbc015d2b" -> "e45e0d7e-e8a8-45c4-a404-f1ebb54bab75";
"e45e0d7e-e8a8-45c4-a404-f1ebb54bab75" [label="android.app.FragmentManagerImpl.addFragment\n Susp=0,2273"];
"e45e0d7e-e8a8-45c4-a404-f1ebb54bab75" -> "ef17d9c4-e9e9-411f-be7b-af242b3d91b8";
"ef17d9c4-e9e9-411f-be7b-af242b3d91b8" [label="android.app.FragmentManagerImpl.moveToState\n Susp=0,2273"];
"ef17d9c4-e9e9-411f-be7b-af242b3d91b8" -> "dfba6c3b-0ec8-49ab-b72f-bb8872a65c8a";
"dfba6c3b-0ec8-49ab-b72f-bb8872a65c8a" [label="android.app.Fragment.performCreateView\n Susp=0,2273"];
"dfba6c3b-0ec8-49ab-b72f-bb8872a65c8a" -> "eaaa507c-ad65-43b3-8798-e69e4caced35";
"eaaa507c-ad65-43b3-8798-e69e4caced35" [label="dk.example.example_fragment_oninflate.MainActivityFragment.onCreateView\n Susp=0,2273"];
"eaaa507c-ad65-43b3-8798-e69e4caced35" -> "4e52e193-8280-431b-88f6-a7ed342d547a";
"4e52e193-8280-431b-88f6-a7ed342d547a" [label="de.robv.android.xposed.XposedBridge.handleHookedMethod\n Susp=0,2273"];
"4e52e193-8280-431b-88f6-a7ed342d547a" -> "5bccc4dc-167e-4400-b436-ed5d8537744a";
"5bccc4dc-167e-4400-b436-ed5d8537744a" [label="de.robv.android.xposed.XposedBridge.invokeOriginalMethodNative\n Susp=0,2273"];
"5bccc4dc-167e-4400-b436-ed5d8537744a" -> "cb1508d7-212d-49c3-b647-9656baf85954";
"cb1508d7-212d-49c3-b647-9656baf85954" [label="dk.example.example_fragment_oninflate.MainActivityFragment.onCreateView\n Susp=0,2273"];
"cb1508d7-212d-49c3-b647-9656baf85954" -> "4ab1c79d-5a5b-4a93-931f-a6f7dc3a1eef";
"4ab1c79d-5a5b-4a93-931f-a6f7dc3a1eef" [label="android.view.LayoutInflater.inflate\n Susp=0,2273"];
"4ab1c79d-5a5b-4a93-931f-a6f7dc3a1eef" -> "91967839-0ae2-49ab-a2cc-a18d332722b6";
"91967839-0ae2-49ab-a2cc-a18d332722b6" [label="de.robv.android.xposed.XposedBridge.handleHookedMethod\n Susp=0,2273"];
"91967839-0ae2-49ab-a2cc-a18d332722b6" -> "091d31e0-9f98-401f-b9d3-0a1267b34373";
"091d31e0-9f98-401f-b9d3-0a1267b34373" [label="de.robv.android.xposed.XposedBridge.invokeOriginalMethodNative\n Susp=0,2273"];
"091d31e0-9f98-401f-b9d3-0a1267b34373" -> "69a7f79a-09bd-4570-be9b-fcb6700fd4ef";
"69a7f79a-09bd-4570-be9b-fcb6700fd4ef" [label="android.view.LayoutInflater.inflate\n Susp=0,2273"];
"69a7f79a-09bd-4570-be9b-fcb6700fd4ef" -> "87ed709f-2a8f-4c7e-b1df-616c78ebdba2";
"87ed709f-2a8f-4c7e-b1df-616c78ebdba2" [label="de.robv.android.xposed.XposedBridge.handleHookedMethod\n Susp=0,2273"];
"87ed709f-2a8f-4c7e-b1df-616c78ebdba2" -> "71a0bd3c-0510-45a6-a564-a77ccb39c4f2";
"71a0bd3c-0510-45a6-a564-a77ccb39c4f2" [label="it.unimib.disco.lta.unimiblogger.MyMethodHook.beforeHookedMethod\n Susp=0,2273"];
"71a0bd3c-0510-45a6-a564-a77ccb39c4f2" -> "fa7dc767-cbf8-4bd8-9812-99016b91bd7c";
"fa7dc767-cbf8-4bd8-9812-99016b91bd7c" [label="java.lang.Thread.getStackTrace\n Susp=0,2273"];
"fa7dc767-cbf8-4bd8-9812-99016b91bd7c" -> "20facf6b-fd09-4b2e-ade5-70798b5cbb08";
"20facf6b-fd09-4b2e-ade5-70798b5cbb08" [label="dalvik.system.VMStack.getThreadStackTrace\n Susp=0,0273"];
"f9129549-e64e-4d6f-8fd0-9781e7c5db78" -> "7fbc3355-f27c-483b-9b6c-f09c49a60385";
"7fbc3355-f27c-483b-9b6c-f09c49a60385" [label="android.app.ActivityThread.-wrap15\n Susp=0,2545"];
"7fbc3355-f27c-483b-9b6c-f09c49a60385" -> "45389298-1c43-4c0e-a288-2c661df4123c";
"45389298-1c43-4c0e-a288-2c661df4123c" [label="android.app.ActivityThread.handleRelaunchActivity\n Susp=0,2545"];
"45389298-1c43-4c0e-a288-2c661df4123c" -> "73e3da98-cb88-408c-b13e-c91c868faeeb";
"73e3da98-cb88-408c-b13e-c91c868faeeb" [label="android.app.ActivityThread.handleLaunchActivity\n Susp=0,2545"];
"73e3da98-cb88-408c-b13e-c91c868faeeb" -> "02afff54-12aa-4f94-ab13-8bbeb95a16b5";
"02afff54-12aa-4f94-ab13-8bbeb95a16b5" [label="android.app.ActivityThread.performLaunchActivity\n Susp=0,2545"];
"02afff54-12aa-4f94-ab13-8bbeb95a16b5" -> "d7568367-1516-4be5-bb57-0f7747c9b03b";
"d7568367-1516-4be5-bb57-0f7747c9b03b" [label="android.app.Instrumentation.callActivityOnCreate\n Susp=0,2545"];
"d7568367-1516-4be5-bb57-0f7747c9b03b" -> "379165b3-f76d-4a5b-8373-93afa5d36662";
"379165b3-f76d-4a5b-8373-93afa5d36662" [label="android.app.Activity.performCreate\n Susp=0,2545"];
"379165b3-f76d-4a5b-8373-93afa5d36662" -> "b6e466c2-30b8-495c-b21c-99e2cb1dd981";
"b6e466c2-30b8-495c-b21c-99e2cb1dd981" [label="dk.example.example_fragment_oninflate.MainActivity.onCreate\n Susp=0,2545"];
"b6e466c2-30b8-495c-b21c-99e2cb1dd981" -> "3196e0bc-8990-4612-8a48-61ebe997296a";
"3196e0bc-8990-4612-8a48-61ebe997296a" [label="de.robv.android.xposed.XposedBridge.handleHookedMethod\n Susp=0,2545"];
"3196e0bc-8990-4612-8a48-61ebe997296a" -> "41a58e3e-60c5-4160-ab2a-6a74559c9e59";
"41a58e3e-60c5-4160-ab2a-6a74559c9e59" [label="de.robv.android.xposed.XposedBridge.invokeOriginalMethodNative\n Susp=0,2545"];
"41a58e3e-60c5-4160-ab2a-6a74559c9e59" -> "f42a9e73-1fa4-4435-8b0a-faaa96966420";
"f42a9e73-1fa4-4435-8b0a-faaa96966420" [label="dk.example.example_fragment_oninflate.MainActivity.onCreate\n Susp=0,2545"];
"f42a9e73-1fa4-4435-8b0a-faaa96966420" -> "af1635f4-a3c4-4bec-b063-bf21426cfdcb";
"af1635f4-a3c4-4bec-b063-bf21426cfdcb" [label="android.app.Activity.setContentView\n Susp=0,2545"];
"af1635f4-a3c4-4bec-b063-bf21426cfdcb" -> "74d08297-5807-4307-8f2f-7f890a790220";
"74d08297-5807-4307-8f2f-7f890a790220" [label="de.robv.android.xposed.XposedBridge.handleHookedMethod\n Susp=0,2545"];
"74d08297-5807-4307-8f2f-7f890a790220" -> "b2bda58c-d1d0-4710-90a4-7653708cef10";
"b2bda58c-d1d0-4710-90a4-7653708cef10" [label="de.robv.android.xposed.XposedBridge.invokeOriginalMethodNative\n Susp=0,2545"];
"b2bda58c-d1d0-4710-90a4-7653708cef10" -> "d2fa0de0-7e20-4edf-b1ab-a9f79dc2e251";
"d2fa0de0-7e20-4edf-b1ab-a9f79dc2e251" [label="android.app.Activity.setContentView\n Susp=0,2545"];
"d2fa0de0-7e20-4edf-b1ab-a9f79dc2e251" -> "bee5d293-2bc7-43f3-a08a-af96eb9c00f6";
"bee5d293-2bc7-43f3-a08a-af96eb9c00f6" [label="com.android.internal.policy.PhoneWindow.setContentView\n Susp=0,2545"];
"bee5d293-2bc7-43f3-a08a-af96eb9c00f6" -> "5d5c492c-4d2e-463e-8540-201ad71583de";
"5d5c492c-4d2e-463e-8540-201ad71583de" [label="de.robv.android.xposed.XposedBridge.handleHookedMethod\n Susp=0,2545"];
"5d5c492c-4d2e-463e-8540-201ad71583de" -> "1291dee9-5cc1-40dd-b9e1-d0e59a9a49e6";
"1291dee9-5cc1-40dd-b9e1-d0e59a9a49e6" [label="de.robv.android.xposed.XposedBridge.invokeOriginalMethodNative\n Susp=0,2545"];
"1291dee9-5cc1-40dd-b9e1-d0e59a9a49e6" -> "f7f36abf-f069-4d4c-8718-8bce2eeb4006";
"f7f36abf-f069-4d4c-8718-8bce2eeb4006" [label="com.android.internal.policy.PhoneWindow.setContentView\n Susp=0,2545"];
"f7f36abf-f069-4d4c-8718-8bce2eeb4006" -> "eaa9168b-e3d9-4558-b09c-0c7a69061b8e";
"eaa9168b-e3d9-4558-b09c-0c7a69061b8e" [label="android.view.LayoutInflater.inflate\n Susp=0,2545"];
"eaa9168b-e3d9-4558-b09c-0c7a69061b8e" -> "13f48077-8ea6-48f6-aae6-849fa2650471";
"13f48077-8ea6-48f6-aae6-849fa2650471" [label="de.robv.android.xposed.XposedBridge.handleHookedMethod\n Susp=0,2545"];
"13f48077-8ea6-48f6-aae6-849fa2650471" -> "c0c01902-850f-478d-af81-3cf775250d60";
"c0c01902-850f-478d-af81-3cf775250d60" [label="de.robv.android.xposed.XposedBridge.invokeOriginalMethodNative\n Susp=0,2545"];
"c0c01902-850f-478d-af81-3cf775250d60" -> "374af27f-7bdb-45fa-af97-7b60eac635d7";
"374af27f-7bdb-45fa-af97-7b60eac635d7" [label="android.view.LayoutInflater.inflate\n Susp=0,2545"];
"374af27f-7bdb-45fa-af97-7b60eac635d7" -> "52db71b3-f4d8-452e-8b3c-f7032fdcf3ac";
"52db71b3-f4d8-452e-8b3c-f7032fdcf3ac" [label="de.robv.android.xposed.XposedBridge.handleHookedMethod\n Susp=0,2545"];
"52db71b3-f4d8-452e-8b3c-f7032fdcf3ac" -> "f7685057-f4f7-45a8-ac26-1c7118b2839d";
"f7685057-f4f7-45a8-ac26-1c7118b2839d" [label="de.robv.android.xposed.XposedBridge.invokeOriginalMethodNative\n Susp=0,2545"];
"f7685057-f4f7-45a8-ac26-1c7118b2839d" -> "717d6ed9-0319-48c3-89ad-4286f44ea89b";
"717d6ed9-0319-48c3-89ad-4286f44ea89b" [label="android.view.LayoutInflater.inflate\n Susp=0,2545"];
"717d6ed9-0319-48c3-89ad-4286f44ea89b" -> "9af270df-1180-404f-b6c2-de5eb46f5137";
"9af270df-1180-404f-b6c2-de5eb46f5137" [label="de.robv.android.xposed.XposedBridge.handleHookedMethod\n Susp=0,2545"];
"9af270df-1180-404f-b6c2-de5eb46f5137" -> "589ca308-98e2-47b1-a685-cd31f9421dbd";
"589ca308-98e2-47b1-a685-cd31f9421dbd" [label="de.robv.android.xposed.XposedBridge.invokeOriginalMethodNative\n Susp=0,2545"];
"589ca308-98e2-47b1-a685-cd31f9421dbd" -> "f5cef91e-fa69-4ee4-bc2d-091abcac0880";
"f5cef91e-fa69-4ee4-bc2d-091abcac0880" [label="android.view.LayoutInflater.inflate\n Susp=0,2545"];
"f5cef91e-fa69-4ee4-bc2d-091abcac0880" -> "beba21a1-a7dd-473c-bfe7-fb0d1e864f56";
"beba21a1-a7dd-473c-bfe7-fb0d1e864f56" [label="android.view.LayoutInflater.createViewFromTag\n Susp=0,2545"];
"beba21a1-a7dd-473c-bfe7-fb0d1e864f56" -> "b08be0cf-6f14-4e6c-9bef-0b5677dce713";
"b08be0cf-6f14-4e6c-9bef-0b5677dce713" [label="android.app.Activity.onCreateView\n Susp=0,2545"];
"b08be0cf-6f14-4e6c-9bef-0b5677dce713" -> "2907c62d-5cd3-4b22-8d3f-58e6bd450683";
"2907c62d-5cd3-4b22-8d3f-58e6bd450683" [label="android.app.FragmentController.onCreateView\n Susp=0,2545"];
"2907c62d-5cd3-4b22-8d3f-58e6bd450683" -> "5f4ff232-fa2b-4851-a243-1813ffac2c34";
"5f4ff232-fa2b-4851-a243-1813ffac2c34" [label="android.app.FragmentManagerImpl.onCreateView\n Susp=0,4545"];
"5f4ff232-fa2b-4851-a243-1813ffac2c34" -> "393c4917-ccee-4c53-a388-b1dd6ba9b41d";
"393c4917-ccee-4c53-a388-b1dd6ba9b41d" [label="android.app.Fragment.onInflate\n Susp=0,2273"];
"393c4917-ccee-4c53-a388-b1dd6ba9b41d" -> "eae54092-273d-4547-b02b-1743d901f202";
"eae54092-273d-4547-b02b-1743d901f202" [label="dk.example.example_fragment_oninflate.MainActivityFragment.onInflate\n Susp=0,2273"];
"eae54092-273d-4547-b02b-1743d901f202" -> "d31c02b1-1ca2-40a9-8ac5-54cc2e623797";
"d31c02b1-1ca2-40a9-8ac5-54cc2e623797" [label="de.robv.android.xposed.XposedBridge.handleHookedMethod\n Susp=0,2273"];
"d31c02b1-1ca2-40a9-8ac5-54cc2e623797" -> "35012c56-07fe-4237-ad7d-b215248d42c0";
"35012c56-07fe-4237-ad7d-b215248d42c0" [label="it.unimib.disco.lta.unimiblogger.MyMethodHook.beforeHookedMethod\n Susp=0,2273"];
"35012c56-07fe-4237-ad7d-b215248d42c0" -> "d42c82f7-500e-44bc-b25e-76063439175b";
"d42c82f7-500e-44bc-b25e-76063439175b" [label="java.lang.Thread.getStackTrace\n Susp=0,2273"];
"d42c82f7-500e-44bc-b25e-76063439175b" -> "3d28e2fa-bc10-4a6b-8d76-bb0093242e68";
"3d28e2fa-bc10-4a6b-8d76-bb0093242e68" [label="dalvik.system.VMStack.getThreadStackTrace\n Susp=0,0273"];
"5f4ff232-fa2b-4851-a243-1813ffac2c34" -> "9940d263-a399-491c-84eb-348086d75ed5";
"9940d263-a399-491c-84eb-348086d75ed5" [label="android.app.FragmentManagerImpl.moveToState\n Susp=0,2273"];
"9940d263-a399-491c-84eb-348086d75ed5" -> "223fead9-0f03-43d7-91c8-8cd7d961d247";
"223fead9-0f03-43d7-91c8-8cd7d961d247" [label="android.app.Fragment.performCreateView\n Susp=0,2273"];
"223fead9-0f03-43d7-91c8-8cd7d961d247" -> "ef52f7bd-fdd2-4531-9c15-e6cca6f89db6";
"ef52f7bd-fdd2-4531-9c15-e6cca6f89db6" [label="dk.example.example_fragment_oninflate.MainActivityFragment.onCreateView\n Susp=0,2273"];
"ef52f7bd-fdd2-4531-9c15-e6cca6f89db6" -> "c308b31b-d598-44b3-a120-48ea787924e2";
"c308b31b-d598-44b3-a120-48ea787924e2" [label="de.robv.android.xposed.XposedBridge.handleHookedMethod\n Susp=0,2273"];
"c308b31b-d598-44b3-a120-48ea787924e2" -> "7b4fe55f-3839-4b08-a77e-821747f9b722";
"7b4fe55f-3839-4b08-a77e-821747f9b722" [label="de.robv.android.xposed.XposedBridge.invokeOriginalMethodNative\n Susp=0,2273"];
"7b4fe55f-3839-4b08-a77e-821747f9b722" -> "b5b03cc6-0aa0-44c9-a1f8-efd6671aa37b";
"b5b03cc6-0aa0-44c9-a1f8-efd6671aa37b" [label="dk.example.example_fragment_oninflate.MainActivityFragment.onCreateView\n Susp=0,2273"];
"b5b03cc6-0aa0-44c9-a1f8-efd6671aa37b" -> "bb868710-9980-4e48-8049-fce21c812556";
"bb868710-9980-4e48-8049-fce21c812556" [label="android.view.LayoutInflater.inflate\n Susp=0,2273"];
"bb868710-9980-4e48-8049-fce21c812556" -> "07b82b65-bd3a-46a7-89b8-d78c396bbde3";
"07b82b65-bd3a-46a7-89b8-d78c396bbde3" [label="de.robv.android.xposed.XposedBridge.handleHookedMethod\n Susp=0,2273"];
"07b82b65-bd3a-46a7-89b8-d78c396bbde3" -> "a35da90d-4111-43bd-831b-8ce4327013dc";
"a35da90d-4111-43bd-831b-8ce4327013dc" [label="de.robv.android.xposed.XposedBridge.invokeOriginalMethodNative\n Susp=0,2273"];
"a35da90d-4111-43bd-831b-8ce4327013dc" -> "8efe36d9-df0c-4009-ac67-43de64b1dac8";
"8efe36d9-df0c-4009-ac67-43de64b1dac8" [label="android.view.LayoutInflater.inflate\n Susp=0,2273"];
"8efe36d9-df0c-4009-ac67-43de64b1dac8" -> "a90335e9-57a5-4b7d-bf2a-a4d1d1d96f5b";
"a90335e9-57a5-4b7d-bf2a-a4d1d1d96f5b" [label="de.robv.android.xposed.XposedBridge.handleHookedMethod\n Susp=0,2273"];
"a90335e9-57a5-4b7d-bf2a-a4d1d1d96f5b" -> "c75ce5f5-1e8d-451c-93b7-d75d1248fef1";
"c75ce5f5-1e8d-451c-93b7-d75d1248fef1" [label="it.unimib.disco.lta.unimiblogger.MyMethodHook.beforeHookedMethod\n Susp=0,2273"];
"c75ce5f5-1e8d-451c-93b7-d75d1248fef1" -> "b9a4fc4f-3d1f-4fe6-a158-9059b945ddc5";
"b9a4fc4f-3d1f-4fe6-a158-9059b945ddc5" [label="java.lang.Thread.getStackTrace\n Susp=0,2273"];
"b9a4fc4f-3d1f-4fe6-a158-9059b945ddc5" -> "1ffd03e2-1f38-4485-b073-6b4476a595c5";
"1ffd03e2-1f38-4485-b073-6b4476a595c5" [label="dalvik.system.VMStack.getThreadStackTrace\n Susp=0,0273"];
"f9129549-e64e-4d6f-8fd0-9781e7c5db78" -> "612501bf-4497-49c7-b3b3-ad31f96523ae";
"612501bf-4497-49c7-b3b3-ad31f96523ae" [label="android.app.ActivityThread.access$800\n Susp=0,2273"];
"612501bf-4497-49c7-b3b3-ad31f96523ae" -> "b3b1df0c-5db6-49b3-920d-16c8a3f2e1b5";
"b3b1df0c-5db6-49b3-920d-16c8a3f2e1b5" [label="android.app.ActivityThread.handleLaunchActivity\n Susp=0,2273"];
"b3b1df0c-5db6-49b3-920d-16c8a3f2e1b5" -> "a0a404d9-ff29-47e0-a5bc-a293d40d8192";
"a0a404d9-ff29-47e0-a5bc-a293d40d8192" [label="android.app.ActivityThread.performLaunchActivity\n Susp=0,2273"];
"a0a404d9-ff29-47e0-a5bc-a293d40d8192" -> "31d46005-f2d4-47e3-b8e3-a052477a2f09";
"31d46005-f2d4-47e3-b8e3-a052477a2f09" [label="android.app.Instrumentation.callActivityOnCreate\n Susp=0,2273"];
"31d46005-f2d4-47e3-b8e3-a052477a2f09" -> "98920c20-f1f6-415d-965f-cd0c5d27195a";
"98920c20-f1f6-415d-965f-cd0c5d27195a" [label="android.app.Activity.performCreate\n Susp=0,2273"];
"98920c20-f1f6-415d-965f-cd0c5d27195a" -> "c887e0d7-23e9-4d21-8f02-b4aaf40b8d5c";
"c887e0d7-23e9-4d21-8f02-b4aaf40b8d5c" [label="dk.example.example_fragment_oninflate.MainActivity.onCreate\n Susp=0,2273"];
"c887e0d7-23e9-4d21-8f02-b4aaf40b8d5c" -> "8dffb1db-f7c6-4555-a8f6-bbb0e14d6f89";
"8dffb1db-f7c6-4555-a8f6-bbb0e14d6f89" [label="de.robv.android.xposed.XposedBridge.handleHookedMethod\n Susp=0,2273"];
"8dffb1db-f7c6-4555-a8f6-bbb0e14d6f89" -> "6d68f3c6-004a-444b-9e71-c3172535bc6c";
"6d68f3c6-004a-444b-9e71-c3172535bc6c" [label="de.robv.android.xposed.XposedBridge.invokeOriginalMethodNative\n Susp=0,2273"];
"6d68f3c6-004a-444b-9e71-c3172535bc6c" -> "85b7bbf6-140d-4468-aa25-745dcd544c5d";
"85b7bbf6-140d-4468-aa25-745dcd544c5d" [label="dk.example.example_fragment_oninflate.MainActivity.onCreate\n Susp=0,2273"];
"85b7bbf6-140d-4468-aa25-745dcd544c5d" -> "27068ed9-5a2a-4537-891c-18da012be70e";
"27068ed9-5a2a-4537-891c-18da012be70e" [label="android.app.Activity.setContentView\n Susp=0,2273"];
"27068ed9-5a2a-4537-891c-18da012be70e" -> "9ba6bf51-db38-498f-8fe2-0403a3d89448";
"9ba6bf51-db38-498f-8fe2-0403a3d89448" [label="de.robv.android.xposed.XposedBridge.handleHookedMethod\n Susp=0,2273"];
"9ba6bf51-db38-498f-8fe2-0403a3d89448" -> "fde26eb2-cc1f-4a43-a234-1706d4be9626";
"fde26eb2-cc1f-4a43-a234-1706d4be9626" [label="de.robv.android.xposed.XposedBridge.invokeOriginalMethodNative\n Susp=0,2273"];
"fde26eb2-cc1f-4a43-a234-1706d4be9626" -> "f10f1bd4-c943-435a-ac28-941ff01e9490";
"f10f1bd4-c943-435a-ac28-941ff01e9490" [label="android.app.Activity.setContentView\n Susp=0,2273"];
"f10f1bd4-c943-435a-ac28-941ff01e9490" -> "572490ab-c77c-41c3-bd0a-13a1a9ba76fc";
"572490ab-c77c-41c3-bd0a-13a1a9ba76fc" [label="com.android.internal.policy.impl.PhoneWindow.setContentView\n Susp=0,2273"];
"572490ab-c77c-41c3-bd0a-13a1a9ba76fc" -> "83d274c7-f67d-4a5d-9beb-4a5158cf38b8";
"83d274c7-f67d-4a5d-9beb-4a5158cf38b8" [label="de.robv.android.xposed.XposedBridge.handleHookedMethod\n Susp=0,2273"];
"83d274c7-f67d-4a5d-9beb-4a5158cf38b8" -> "940fcc4c-158f-424e-9d53-30fc21e03cab";
"940fcc4c-158f-424e-9d53-30fc21e03cab" [label="de.robv.android.xposed.XposedBridge.invokeOriginalMethodNative\n Susp=0,2273"];
"940fcc4c-158f-424e-9d53-30fc21e03cab" -> "d17ad857-105f-42d0-a33f-b7abd1d3151f";
"d17ad857-105f-42d0-a33f-b7abd1d3151f" [label="com.android.internal.policy.impl.PhoneWindow.setContentView\n Susp=0,2273"];
"d17ad857-105f-42d0-a33f-b7abd1d3151f" -> "cf3ce0a5-5a25-4ed9-ac1b-fb7921d8fb0f";
"cf3ce0a5-5a25-4ed9-ac1b-fb7921d8fb0f" [label="android.view.LayoutInflater.inflate\n Susp=0,2273"];
"cf3ce0a5-5a25-4ed9-ac1b-fb7921d8fb0f" -> "3b91cf39-0509-4a45-bc19-9ffe2faed1d7";
"3b91cf39-0509-4a45-bc19-9ffe2faed1d7" [label="de.robv.android.xposed.XposedBridge.handleHookedMethod\n Susp=0,2273"];
"3b91cf39-0509-4a45-bc19-9ffe2faed1d7" -> "a57b8d72-36cc-4ef2-9769-2dda71c1a773";
"a57b8d72-36cc-4ef2-9769-2dda71c1a773" [label="de.robv.android.xposed.XposedBridge.invokeOriginalMethodNative\n Susp=0,2273"];
"a57b8d72-36cc-4ef2-9769-2dda71c1a773" -> "17e98422-bc45-4df4-ae69-09acfe6ae899";
"17e98422-bc45-4df4-ae69-09acfe6ae899" [label="android.view.LayoutInflater.inflate\n Susp=0,2273"];
"17e98422-bc45-4df4-ae69-09acfe6ae899" -> "b898357c-3ed8-4ffa-9a41-4188bb461361";
"b898357c-3ed8-4ffa-9a41-4188bb461361" [label="de.robv.android.xposed.XposedBridge.handleHookedMethod\n Susp=0,2273"];
"b898357c-3ed8-4ffa-9a41-4188bb461361" -> "af258831-d651-4193-8d9e-734903838aae";
"af258831-d651-4193-8d9e-734903838aae" [label="de.robv.android.xposed.XposedBridge.invokeOriginalMethodNative\n Susp=0,2273"];
"af258831-d651-4193-8d9e-734903838aae" -> "d6683c36-b797-4513-b182-b0a8369c0453";
"d6683c36-b797-4513-b182-b0a8369c0453" [label="android.view.LayoutInflater.inflate\n Susp=0,2273"];
"d6683c36-b797-4513-b182-b0a8369c0453" -> "f1980167-e4f2-4194-9a9c-a4e7d5a47f60";
"f1980167-e4f2-4194-9a9c-a4e7d5a47f60" [label="de.robv.android.xposed.XposedBridge.handleHookedMethod\n Susp=0,2273"];
"f1980167-e4f2-4194-9a9c-a4e7d5a47f60" -> "2edd518f-acab-46c4-b6b5-92e72f917174";
"2edd518f-acab-46c4-b6b5-92e72f917174" [label="de.robv.android.xposed.XposedBridge.invokeOriginalMethodNative\n Susp=0,2273"];
"2edd518f-acab-46c4-b6b5-92e72f917174" -> "934ccaef-6ebc-4fe7-9c66-2bcde2370635";
"934ccaef-6ebc-4fe7-9c66-2bcde2370635" [label="android.view.LayoutInflater.inflate\n Susp=0,2273"];
"934ccaef-6ebc-4fe7-9c66-2bcde2370635" -> "9ee5f788-ccb7-4c8a-9034-91c4bdd1e3cc";
"9ee5f788-ccb7-4c8a-9034-91c4bdd1e3cc" [label="android.view.LayoutInflater.createViewFromTag\n Susp=0,2273"];
"9ee5f788-ccb7-4c8a-9034-91c4bdd1e3cc" -> "39d9ed2e-f259-4987-b82a-1ea96bfd354b";
"39d9ed2e-f259-4987-b82a-1ea96bfd354b" [label="android.app.Activity.onCreateView\n Susp=0,2273"];
"39d9ed2e-f259-4987-b82a-1ea96bfd354b" -> "71d73a67-d6a2-4522-84b4-05750b2c8e5c";
"71d73a67-d6a2-4522-84b4-05750b2c8e5c" [label="android.app.FragmentManagerImpl.onCreateView\n Susp=0,2273"];
"71d73a67-d6a2-4522-84b4-05750b2c8e5c" -> "cc0bb0af-efb4-4727-ad0a-bd5399ab17fb";
"cc0bb0af-efb4-4727-ad0a-bd5399ab17fb" [label="android.app.FragmentManagerImpl.addFragment\n Susp=0,2273"];
"cc0bb0af-efb4-4727-ad0a-bd5399ab17fb" -> "6d8c00d3-63b3-4f71-b9e9-96cf6ac6d3aa";
"6d8c00d3-63b3-4f71-b9e9-96cf6ac6d3aa" [label="android.app.FragmentManagerImpl.moveToState\n Susp=0,2273"];
"6d8c00d3-63b3-4f71-b9e9-96cf6ac6d3aa" -> "b18eed0b-a8df-4167-91b9-de9a6d8f6523";
"b18eed0b-a8df-4167-91b9-de9a6d8f6523" [label="android.app.Fragment.performCreateView\n Susp=0,2273"];
"b18eed0b-a8df-4167-91b9-de9a6d8f6523" -> "26c03967-fc4e-4336-9042-f1fdc4e9bbe0";
"26c03967-fc4e-4336-9042-f1fdc4e9bbe0" [label="dk.example.example_fragment_oninflate.MainActivityFragment.onCreateView\n Susp=0,2273"];
"26c03967-fc4e-4336-9042-f1fdc4e9bbe0" -> "365e17af-1c6e-4a4e-bba3-20b4ac9848ed";
"365e17af-1c6e-4a4e-bba3-20b4ac9848ed" [label="de.robv.android.xposed.XposedBridge.handleHookedMethod\n Susp=0,2273"];
"365e17af-1c6e-4a4e-bba3-20b4ac9848ed" -> "47dfa03b-c2cb-4caa-bd4c-e4878ecf3de4";
"47dfa03b-c2cb-4caa-bd4c-e4878ecf3de4" [label="de.robv.android.xposed.XposedBridge.invokeOriginalMethodNative\n Susp=0,2273"];
"47dfa03b-c2cb-4caa-bd4c-e4878ecf3de4" -> "2d79865d-0abd-4e27-a984-85ce78ccce80";
"2d79865d-0abd-4e27-a984-85ce78ccce80" [label="dk.example.example_fragment_oninflate.MainActivityFragment.onCreateView\n Susp=0,2273"];
"2d79865d-0abd-4e27-a984-85ce78ccce80" -> "c4c78530-1313-4b3e-ad82-cc63f9633826";
"c4c78530-1313-4b3e-ad82-cc63f9633826" [label="android.view.LayoutInflater.inflate\n Susp=0,2273"];
"c4c78530-1313-4b3e-ad82-cc63f9633826" -> "82aa7380-e270-4a69-9fb9-cc74a59d7ac6";
"82aa7380-e270-4a69-9fb9-cc74a59d7ac6" [label="de.robv.android.xposed.XposedBridge.handleHookedMethod\n Susp=0,2273"];
"82aa7380-e270-4a69-9fb9-cc74a59d7ac6" -> "881a614c-4afe-4871-9783-4d716994a89c";
"881a614c-4afe-4871-9783-4d716994a89c" [label="de.robv.android.xposed.XposedBridge.invokeOriginalMethodNative\n Susp=0,2273"];
"881a614c-4afe-4871-9783-4d716994a89c" -> "735677f4-1c65-46dc-af73-b5ac5533b2df";
"735677f4-1c65-46dc-af73-b5ac5533b2df" [label="android.view.LayoutInflater.inflate\n Susp=0,2273"];
"735677f4-1c65-46dc-af73-b5ac5533b2df" -> "787ad786-1323-465b-b53d-0693289dd173";
"787ad786-1323-465b-b53d-0693289dd173" [label="de.robv.android.xposed.XposedBridge.handleHookedMethod\n Susp=0,2273"];
"787ad786-1323-465b-b53d-0693289dd173" -> "c49f404f-7418-4386-9139-16dda4c610a0";
"c49f404f-7418-4386-9139-16dda4c610a0" [label="it.unimib.disco.lta.unimiblogger.MyMethodHook.beforeHookedMethod\n Susp=0,2273"];
"c49f404f-7418-4386-9139-16dda4c610a0" -> "7658d4d1-6547-4664-8871-72ffccb99033";
"7658d4d1-6547-4664-8871-72ffccb99033" [label="java.lang.Thread.getStackTrace\n Susp=0,2273"];
"7658d4d1-6547-4664-8871-72ffccb99033" -> "15a590d1-05ac-4b5e-95f0-7d6dbad9bff0";
"15a590d1-05ac-4b5e-95f0-7d6dbad9bff0" [label="dalvik.system.VMStack.getThreadStackTrace\n Susp=0,0273"];
"f9129549-e64e-4d6f-8fd0-9781e7c5db78" -> "9ec36c95-4c37-48ae-a880-8aa93ff882d2";
"9ec36c95-4c37-48ae-a880-8aa93ff882d2" [label="android.app.ActivityThread.access$900\n Susp=0,2727"];
"9ec36c95-4c37-48ae-a880-8aa93ff882d2" -> "2085f66e-2ffa-4dd5-be69-1239c0fac376";
"2085f66e-2ffa-4dd5-be69-1239c0fac376" [label="android.app.ActivityThread.handleRelaunchActivity\n Susp=0,2727"];
"2085f66e-2ffa-4dd5-be69-1239c0fac376" -> "59960e9d-77ce-40e6-8155-5d95b3e97624";
"59960e9d-77ce-40e6-8155-5d95b3e97624" [label="android.app.ActivityThread.handleLaunchActivity\n Susp=0,2727"];
"59960e9d-77ce-40e6-8155-5d95b3e97624" -> "cf77e832-9fff-4a53-a906-fc7e90cc1bfa";
"cf77e832-9fff-4a53-a906-fc7e90cc1bfa" [label="android.app.ActivityThread.performLaunchActivity\n Susp=0,2727"];
"cf77e832-9fff-4a53-a906-fc7e90cc1bfa" -> "06d440d5-3b0c-45a6-b455-11010ece4c1e";
"06d440d5-3b0c-45a6-b455-11010ece4c1e" [label="android.app.Instrumentation.callActivityOnCreate\n Susp=0,2727"];
"06d440d5-3b0c-45a6-b455-11010ece4c1e" -> "59656d72-5e78-4fcc-95e8-c5afefeea653";
"59656d72-5e78-4fcc-95e8-c5afefeea653" [label="android.app.Activity.performCreate\n Susp=0,2727"];
"59656d72-5e78-4fcc-95e8-c5afefeea653" -> "3ab2f05a-0bf6-40f8-8d32-2ce6b90f61a0";
"3ab2f05a-0bf6-40f8-8d32-2ce6b90f61a0" [label="dk.example.example_fragment_oninflate.MainActivity.onCreate\n Susp=0,2727"];
"3ab2f05a-0bf6-40f8-8d32-2ce6b90f61a0" -> "7ccabbba-1dda-4a02-a272-0e6a6b961735";
"7ccabbba-1dda-4a02-a272-0e6a6b961735" [label="de.robv.android.xposed.XposedBridge.handleHookedMethod\n Susp=0,2727"];
"7ccabbba-1dda-4a02-a272-0e6a6b961735" -> "69493691-2b3d-4320-9dfd-d5482af250db";
"69493691-2b3d-4320-9dfd-d5482af250db" [label="de.robv.android.xposed.XposedBridge.invokeOriginalMethodNative\n Susp=0,2727"];
"69493691-2b3d-4320-9dfd-d5482af250db" -> "aaf4c338-f8ac-43a0-afa2-fcabdbfeb202";
"aaf4c338-f8ac-43a0-afa2-fcabdbfeb202" [label="dk.example.example_fragment_oninflate.MainActivity.onCreate\n Susp=0,2727"];
"aaf4c338-f8ac-43a0-afa2-fcabdbfeb202" -> "c553b0ee-e514-48c3-ab4e-3799948dd5ab";
"c553b0ee-e514-48c3-ab4e-3799948dd5ab" [label="android.app.Activity.setContentView\n Susp=0,2727"];
"c553b0ee-e514-48c3-ab4e-3799948dd5ab" -> "5a188b46-9b23-453e-a61a-d050377a4f44";
"5a188b46-9b23-453e-a61a-d050377a4f44" [label="de.robv.android.xposed.XposedBridge.handleHookedMethod\n Susp=0,2727"];
"5a188b46-9b23-453e-a61a-d050377a4f44" -> "a0c819f3-2e5b-4567-bd07-e70e2688c813";
"a0c819f3-2e5b-4567-bd07-e70e2688c813" [label="de.robv.android.xposed.XposedBridge.invokeOriginalMethodNative\n Susp=0,2727"];
"a0c819f3-2e5b-4567-bd07-e70e2688c813" -> "25ec6571-73b9-4cdc-9fc0-ae774afe7600";
"25ec6571-73b9-4cdc-9fc0-ae774afe7600" [label="android.app.Activity.setContentView\n Susp=0,2727"];
"25ec6571-73b9-4cdc-9fc0-ae774afe7600" -> "10c08467-64fb-45ea-965a-ca5a39ea1bd0";
"10c08467-64fb-45ea-965a-ca5a39ea1bd0" [label="com.android.internal.policy.impl.PhoneWindow.setContentView\n Susp=0,2727"];
"10c08467-64fb-45ea-965a-ca5a39ea1bd0" -> "d5db6a3d-db15-4a99-aac1-53fb9713461d";
"d5db6a3d-db15-4a99-aac1-53fb9713461d" [label="de.robv.android.xposed.XposedBridge.handleHookedMethod\n Susp=0,2727"];
"d5db6a3d-db15-4a99-aac1-53fb9713461d" -> "2bae71af-2013-413f-9e42-6d8769c0a373";
"2bae71af-2013-413f-9e42-6d8769c0a373" [label="de.robv.android.xposed.XposedBridge.invokeOriginalMethodNative\n Susp=0,2727"];
"2bae71af-2013-413f-9e42-6d8769c0a373" -> "c8619868-0a35-4b4c-80fe-0db8f8f3156f";
"c8619868-0a35-4b4c-80fe-0db8f8f3156f" [label="com.android.internal.policy.impl.PhoneWindow.setContentView\n Susp=0,2727"];
"c8619868-0a35-4b4c-80fe-0db8f8f3156f" -> "9fd9650e-f320-419d-abf4-0046233b2098";
"9fd9650e-f320-419d-abf4-0046233b2098" [label="android.view.LayoutInflater.inflate\n Susp=0,2727"];
"9fd9650e-f320-419d-abf4-0046233b2098" -> "d4800711-64da-495f-bbc1-ff92df11357b";
"d4800711-64da-495f-bbc1-ff92df11357b" [label="de.robv.android.xposed.XposedBridge.handleHookedMethod\n Susp=0,2727"];
"d4800711-64da-495f-bbc1-ff92df11357b" -> "6cf8a8ff-5a13-4d45-a5d2-e55a0b83d094";
"6cf8a8ff-5a13-4d45-a5d2-e55a0b83d094" [label="de.robv.android.xposed.XposedBridge.invokeOriginalMethodNative\n Susp=0,2727"];
"6cf8a8ff-5a13-4d45-a5d2-e55a0b83d094" -> "26d418e0-636e-4d13-9cac-a4667e840ae4";
"26d418e0-636e-4d13-9cac-a4667e840ae4" [label="android.view.LayoutInflater.inflate\n Susp=0,2727"];
"26d418e0-636e-4d13-9cac-a4667e840ae4" -> "96d30ded-099d-4a21-8e57-faedc01643f0";
"96d30ded-099d-4a21-8e57-faedc01643f0" [label="de.robv.android.xposed.XposedBridge.handleHookedMethod\n Susp=0,2727"];
"96d30ded-099d-4a21-8e57-faedc01643f0" -> "20dda09d-6ddc-437b-a6c1-005439d39806";
"20dda09d-6ddc-437b-a6c1-005439d39806" [label="de.robv.android.xposed.XposedBridge.invokeOriginalMethodNative\n Susp=0,2727"];
"20dda09d-6ddc-437b-a6c1-005439d39806" -> "8c503b08-9341-4eaf-9464-ab2270153174";
"8c503b08-9341-4eaf-9464-ab2270153174" [label="android.view.LayoutInflater.inflate\n Susp=0,2727"];
"8c503b08-9341-4eaf-9464-ab2270153174" -> "54b935b5-836e-4ccc-ae06-09df08aeb37a";
"54b935b5-836e-4ccc-ae06-09df08aeb37a" [label="de.robv.android.xposed.XposedBridge.handleHookedMethod\n Susp=0,2727"];
"54b935b5-836e-4ccc-ae06-09df08aeb37a" -> "d15767f1-c6e0-464d-ab71-7d0971645de3";
"d15767f1-c6e0-464d-ab71-7d0971645de3" [label="de.robv.android.xposed.XposedBridge.invokeOriginalMethodNative\n Susp=0,2727"];
"d15767f1-c6e0-464d-ab71-7d0971645de3" -> "d137684f-7164-4ec4-abed-ecad01c15ed0";
"d137684f-7164-4ec4-abed-ecad01c15ed0" [label="android.view.LayoutInflater.inflate\n Susp=0,2727"];
"d137684f-7164-4ec4-abed-ecad01c15ed0" -> "954383c7-8d9d-4463-a167-6cdc4bafcb07";
"954383c7-8d9d-4463-a167-6cdc4bafcb07" [label="android.view.LayoutInflater.createViewFromTag\n Susp=0,2727"];
"954383c7-8d9d-4463-a167-6cdc4bafcb07" -> "877f5b19-d495-4333-9b15-ec3a8ba1c2b6";
"877f5b19-d495-4333-9b15-ec3a8ba1c2b6" [label="android.app.Activity.onCreateView\n Susp=0,2727"];
"877f5b19-d495-4333-9b15-ec3a8ba1c2b6" -> "6d6afc91-1826-40f7-a5cf-bb26fc868901";
"6d6afc91-1826-40f7-a5cf-bb26fc868901" [label="android.app.FragmentManagerImpl.onCreateView\n Susp=0,4727"];
"6d6afc91-1826-40f7-a5cf-bb26fc868901" -> "f80e9a1c-4142-4f79-b76f-1e651aa0d6e2";
"f80e9a1c-4142-4f79-b76f-1e651aa0d6e2" [label="dk.example.example_fragment_oninflate.MainActivityFragment.onInflate\n Susp=0,2455"];
"f80e9a1c-4142-4f79-b76f-1e651aa0d6e2" -> "15e535b3-f301-429f-ae20-ee4f9f2b1d76";
"15e535b3-f301-429f-ae20-ee4f9f2b1d76" [label="de.robv.android.xposed.XposedBridge.handleHookedMethod\n Susp=0,2455"];
"15e535b3-f301-429f-ae20-ee4f9f2b1d76" -> "06f4169c-d016-4cd7-9ce1-714d16b188ae";
"06f4169c-d016-4cd7-9ce1-714d16b188ae" [label="it.unimib.disco.lta.unimiblogger.MyMethodHook.beforeHookedMethod\n Susp=0,2455"];
"06f4169c-d016-4cd7-9ce1-714d16b188ae" -> "e5e784b2-2381-4e43-89ff-dba0bf88d049";
"e5e784b2-2381-4e43-89ff-dba0bf88d049" [label="java.lang.Thread.getStackTrace\n Susp=0,2455"];
"e5e784b2-2381-4e43-89ff-dba0bf88d049" -> "696bd5c7-c345-474d-8ffd-fd0ac2b51621";
"696bd5c7-c345-474d-8ffd-fd0ac2b51621" [label="dalvik.system.VMStack.getThreadStackTrace\n Susp=0,0455"];
"6d6afc91-1826-40f7-a5cf-bb26fc868901" -> "ad699a1e-0285-43de-a181-0fab6f9f6c29";
"ad699a1e-0285-43de-a181-0fab6f9f6c29" [label="android.app.FragmentManagerImpl.moveToState\n Susp=0,2273"];
"ad699a1e-0285-43de-a181-0fab6f9f6c29" -> "a4581644-ae27-435b-b422-9ddc40902a16";
"a4581644-ae27-435b-b422-9ddc40902a16" [label="android.app.Fragment.performCreateView\n Susp=0,2273"];
"a4581644-ae27-435b-b422-9ddc40902a16" -> "d6562ba8-47ff-4633-833f-f8075d907b6d";
"d6562ba8-47ff-4633-833f-f8075d907b6d" [label="dk.example.example_fragment_oninflate.MainActivityFragment.onCreateView\n Susp=0,2273"];
"d6562ba8-47ff-4633-833f-f8075d907b6d" -> "01f9e520-6bc2-4c42-bb01-58299a7161f4";
"01f9e520-6bc2-4c42-bb01-58299a7161f4" [label="de.robv.android.xposed.XposedBridge.handleHookedMethod\n Susp=0,2273"];
"01f9e520-6bc2-4c42-bb01-58299a7161f4" -> "e6a08c69-3cbf-4cb6-8a71-ed22c7c78054";
"e6a08c69-3cbf-4cb6-8a71-ed22c7c78054" [label="de.robv.android.xposed.XposedBridge.invokeOriginalMethodNative\n Susp=0,2273"];
"e6a08c69-3cbf-4cb6-8a71-ed22c7c78054" -> "78febcb1-2008-4960-a89a-4007f5c9ae65";
"78febcb1-2008-4960-a89a-4007f5c9ae65" [label="dk.example.example_fragment_oninflate.MainActivityFragment.onCreateView\n Susp=0,2273"];
"78febcb1-2008-4960-a89a-4007f5c9ae65" -> "9c2234ae-8431-4be5-bac7-042fc91316e5";
"9c2234ae-8431-4be5-bac7-042fc91316e5" [label="android.view.LayoutInflater.inflate\n Susp=0,2273"];
"9c2234ae-8431-4be5-bac7-042fc91316e5" -> "9986bbf6-faf8-4bb6-a5d1-e88101ded773";
"9986bbf6-faf8-4bb6-a5d1-e88101ded773" [label="de.robv.android.xposed.XposedBridge.handleHookedMethod\n Susp=0,2273"];
"9986bbf6-faf8-4bb6-a5d1-e88101ded773" -> "a3789447-d667-4f68-9ca8-68752350009a";
"a3789447-d667-4f68-9ca8-68752350009a" [label="de.robv.android.xposed.XposedBridge.invokeOriginalMethodNative\n Susp=0,2273"];
"a3789447-d667-4f68-9ca8-68752350009a" -> "cc623044-7c09-4a8c-8cd8-533cf62e1d4e";
"cc623044-7c09-4a8c-8cd8-533cf62e1d4e" [label="android.view.LayoutInflater.inflate\n Susp=0,2273"];
"cc623044-7c09-4a8c-8cd8-533cf62e1d4e" -> "9ff4edc7-52de-4ceb-a6f8-f12f133d6718";
"9ff4edc7-52de-4ceb-a6f8-f12f133d6718" [label="de.robv.android.xposed.XposedBridge.handleHookedMethod\n Susp=0,2273"];
"9ff4edc7-52de-4ceb-a6f8-f12f133d6718" -> "80042b85-7fc7-476f-b5fc-bf52c560a5c2";
"80042b85-7fc7-476f-b5fc-bf52c560a5c2" [label="it.unimib.disco.lta.unimiblogger.MyMethodHook.beforeHookedMethod\n Susp=0,2273"];
"80042b85-7fc7-476f-b5fc-bf52c560a5c2" -> "47940cbd-8d64-47e9-9cb3-30747ce5cff1";
"47940cbd-8d64-47e9-9cb3-30747ce5cff1" [label="java.lang.Thread.getStackTrace\n Susp=0,2273"];
"47940cbd-8d64-47e9-9cb3-30747ce5cff1" -> "4d56ed1b-d96a-4bd3-abac-7cb6f8d8e72f";
"4d56ed1b-d96a-4bd3-abac-7cb6f8d8e72f" [label="dalvik.system.VMStack.getThreadStackTrace\n Susp=0,0273"];
}
