BEFORE dk.example.example_fragment_oninflate.MainActivity.onCreate()
BEFORE android.app.Activity.onCreate()
AFTER android.app.Activity.onCreate
BEFORE android.app.Activity.setContentView(2130968576)
BEFORE dk.example.example_fragment_oninflate.MainActivityFragment.onInflate(dk.example.example_fragment_oninflate.MainActivity,android.content.res.XmlBlock$Parser)
BEFORE android.content.Context.obtainStyledAttributes(android.content.res.XmlBlock$Parser,[I)
AFTER android.content.Context.obtainStyledAttributes, returnValue: [3, 5, -1, 0, 0, 0, 18, 0, 2, 2130903041, 0, 0, 0, 0, 2, 0, 0, 0, 0, 0, 2, 0, 0, 0, 0, 0, 2, 0, 0, 0, 0, 0, 2, 0, 0, 0, 0, 0, 2, 0, 0, 0, 0, 0, 2, 0, 0, 0, 0, 0, 2, 0, 0, 0, 0, 0, 2, 0, 0, 0, 0, 0, 2, 0, 0, 0, 1, 16974098, 1, 16974098, 1073746944, 0, 1, 16974099, 1, 16974099, 1073746944, 0, 3, 696, 1, 17302282, 1073746944, 0, 1, 16973977, 1, 16973977, 1073746944, 0, 5, 8193, 1, 0, 1073746944, 0, 3, 962, 1, 17367064, 1073746944, 0, 5, 2049, 1, 0, 1073746944, 0, 3, 6335, 1, 17301695, 1073747200, 480, 3, 6315, 1, 17301665, 1073747200, 480, 0, 0, 1, 0, 0, 0, 0, 0, 1, 0, 0, 0, 0, 0, 1, 0, 0, 0, 0, 0, 1, 0, 0, 0, 0, 0, 1, 0, 0, 0, 0, 0, 1, 0, 0, 0, 0, 0, 1, 0, 0, 0, 0, 0, -1, 0, 0, 0, 0, 0, -1, 0, 0, 0, 0, 0, -1, 0, 0, 0, 0, 0, -1, 0, 0, 0, 0, 0, -1, 0, 0, 0, 0, 0, -1, 0, 0, 0, 0, 0, -1, 0, 0, 0, 0, 0, -1, 0, 0, 0, 0, 0, -1, 0, 0, 0, 0, 0, -1, 0, 0, 0, 0, 0, -1, 0, 0, 0, 0, 0, -1, 0, 0, 0, 0, 0, -1, 0, 0, 0, 0, 0, -1, 0, 0, 0, 0, 0, -1, 0, 0, 0, 0, 0, -1, 0, 0, 0, 16, 250, -1, 0, 1073746944, 0, 16, 300, -1, 0, 1073746944, 0, 0, 0, -1, 0, 0, 0, 0, 0, -1, 0, 0, 0, 0, 0, -1, 0, 0, 0, 0, 0, -1, 0, 0, 0, 0, 0, -1, 0, 0, 0, 0, 0, -1, 0, 0, 0, 0, 0, -1, 0, 0, 0, 0, 0, -1, 0, 0, 0, 0, 0, -1, 0, 0, 0, 0, 0, -1, 0, 0, 0, 0, 0, -1, 0, 0, 0, 0, 0, -1, 0, 0, 0, 0, 0, -1, 0, 0, 0, 0, 0, -1, 0, 0, 0, 0, 0, -1, 0, 0, 0, 0, 0, -1, 0, 0, 0, 0, 0, -1, 0, 0, 0, 0, 0, -1, 0, 0, 0, 0, 0, -1, 0, 0, 0, 0, 0, -1, 0, 0, 0, 0, 0, -1, 0, 0, 0, 5, 1, 1, 0, 1073746944, 0, 5, 1, 1, 0, 1073746944, 0, 0, 0, 1, 0, 0, 0, 0, 0, 1, 0, 0, 0, 0, 0, 1, 0, 0, 0, 0, 0, 1, 0, 0, 0, 0, 0, 1, 0, 0, 0, 0, 0, 1, 0, 0, 0, 0, 0, 1, 0, 0, 0, 0, 0, 1, 0, 0, 0, 0, 0, 1, 0, 0, 0, 0, 0, 1, 0, 0, 0, 0, 0, 1, 0, 0, 0, 0, 0, 1, 0, 0, 0]
BEFORE android.content.res.TypedArray.recycle()
AFTER android.content.res.TypedArray.recycle
AFTER dk.example.example_fragment_oninflate.MainActivityFragment.onInflate
BEFORE dk.example.example_fragment_oninflate.MainActivityFragment.onCreateView(com.android.internal.policy.impl.PhoneLayoutInflater)
BEFORE android.view.LayoutInflater.inflate(2130968577,false)
AFTER android.view.LayoutInflater.inflate, returnValue: android.widget.RelativeLayout{30967cb3 V.E..... ......I. 0,0-0,0}
AFTER dk.example.example_fragment_oninflate.MainActivityFragment.onCreateView, returnValue: android.widget.RelativeLayout{30967cb3 V.E..... ......I. 0,0-0,0}
AFTER android.app.Activity.setContentView
AFTER dk.example.example_fragment_oninflate.MainActivity.onCreate
BEFORE dk.example.example_fragment_oninflate.MainActivity.onCreateOptionsMenu(com.android.internal.view.menu.MenuBuilder)
BEFORE android.app.Activity.getMenuInflater()
AFTER android.app.Activity.getMenuInflater, returnValue: android.view.MenuInflater
BEFORE android.view.MenuInflater.inflate(2131034112,com.android.internal.view.menu.MenuBuilder)
AFTER android.view.MenuInflater.inflate
AFTER dk.example.example_fragment_oninflate.MainActivity.onCreateOptionsMenu, returnValue: true
BEFORE dk.example.example_fragment_oninflate.MainActivity.onPause()
BEFORE android.app.Activity.onPause()
AFTER android.app.Activity.onPause
AFTER dk.example.example_fragment_oninflate.MainActivity.onPause
BEFORE dk.example.example_fragment_oninflate.MainActivity.onCreate(android.os.Bundle)
BEFORE android.app.Activity.onCreate(android.os.Bundle)
AFTER android.app.Activity.onCreate
BEFORE android.app.Activity.setContentView(2130968576)
BEFORE dk.example.example_fragment_oninflate.MainActivityFragment.onInflate(dk.example.example_fragment_oninflate.MainActivity,android.content.res.XmlBlock$Parser,android.os.Bundle)
BEFORE android.content.Context.obtainStyledAttributes(android.content.res.XmlBlock$Parser,[I)
AFTER android.content.Context.obtainStyledAttributes, returnValue: [3, 5, -1, 0, 0, 0, 18, 0, 2, 2130903041, 0, 0, 0, 0, 2, 0, 0, 0, 0, 0, 2, 0, 0, 0, 0, 0, 2, 0, 0, 0, 0, 0, 2, 0, 0, 0, 0, 0, 2, 0, 0, 0, 0, 0, 2, 0, 0, 0, 0, 0, 2, 0, 0, 0, 0, 0, 2, 0, 0, 0, 0, 0, 2, 0, 0, 0, 1, 16974098, 1, 16974098, 1073746944, 0, 1, 16974099, 1, 16974099, 1073746944, 0, 3, 696, 1, 17302282, 1073746944, 0, 1, 16973977, 1, 16973977, 1073746944, 0, 5, 8193, 1, 0, 1073746944, 0, 3, 962, 1, 17367064, 1073746944, 0, 5, 2049, 1, 0, 1073746944, 0, 3, 6335, 1, 17301695, 1073747200, 480, 3, 6315, 1, 17301665, 1073747200, 480, 0, 0, 1, 0, 0, 0, 0, 0, 1, 0, 0, 0, 0, 0, 1, 0, 0, 0, 0, 0, 1, 0, 0, 0, 0, 0, 1, 0, 0, 0, 0, 0, 1, 0, 0, 0, 0, 0, 1, 0, 0, 0, 0, 0, -1, 0, 0, 0, 0, 0, -1, 0, 0, 0, 0, 0, -1, 0, 0, 0, 0, 0, -1, 0, 0, 0, 0, 0, -1, 0, 0, 0, 0, 0, -1, 0, 0, 0, 0, 0, -1, 0, 0, 0, 0, 0, -1, 0, 0, 0, 0, 0, -1, 0, 0, 0, 0, 0, -1, 0, 0, 0, 0, 0, -1, 0, 0, 0, 0, 0, -1, 0, 0, 0, 0, 0, -1, 0, 0, 0, 0, 0, -1, 0, 0, 0, 0, 0, -1, 0, 0, 0, 0, 0, -1, 0, 0, 0, 16, 250, -1, 0, 1073746944, 0, 16, 300, -1, 0, 1073746944, 0, 0, 0, -1, 0, 0, 0, 0, 0, -1, 0, 0, 0, 0, 0, -1, 0, 0, 0, 0, 0, -1, 0, 0, 0, 0, 0, -1, 0, 0, 0, 0, 0, -1, 0, 0, 0, 0, 0, -1, 0, 0, 0, 0, 0, -1, 0, 0, 0, 0, 0, -1, 0, 0, 0, 0, 0, -1, 0, 0, 0, 0, 0, -1, 0, 0, 0, 0, 0, -1, 0, 0, 0, 0, 0, -1, 0, 0, 0, 0, 0, -1, 0, 0, 0, 0, 0, -1, 0, 0, 0, 0, 0, -1, 0, 0, 0, 0, 0, -1, 0, 0, 0, 0, 0, -1, 0, 0, 0, 0, 0, -1, 0, 0, 0, 0, 0, -1, 0, 0, 0, 0, 0, -1, 0, 0, 0, 5, 1, 1, 0, 1073746944, 0, 5, 1, 1, 0, 1073746944, 0, 0, 0, 1, 0, 0, 0, 0, 0, 1, 0, 0, 0, 0, 0, 1, 0, 0, 0, 0, 0, 1, 0, 0, 0, 0, 0, 1, 0, 0, 0, 0, 0, 1, 0, 0, 0, 0, 0, 1, 0, 0, 0, 0, 0, 1, 0, 0, 0, 0, 0, 1, 0, 0, 0, 0, 0, 1, 0, 0, 0, 0, 0, 1, 0, 0, 0, 0, 0, 1, 0, 0, 0]
BEFORE android.content.res.TypedArray.recycle()
AFTER android.content.res.TypedArray.recycle
AFTER dk.example.example_fragment_oninflate.MainActivityFragment.onInflate
BEFORE dk.example.example_fragment_oninflate.MainActivityFragment.onCreateView(com.android.internal.policy.impl.PhoneLayoutInflater,android.os.Bundle)
BEFORE android.view.LayoutInflater.inflate(2130968577,false)
AFTER android.view.LayoutInflater.inflate, returnValue: android.widget.RelativeLayout{1d79001 V.E..... ......I. 0,0-0,0}
AFTER dk.example.example_fragment_oninflate.MainActivityFragment.onCreateView, returnValue: android.widget.RelativeLayout{1d79001 V.E..... ......I. 0,0-0,0}
AFTER android.app.Activity.setContentView
AFTER dk.example.example_fragment_oninflate.MainActivity.onCreate
BEFORE dk.example.example_fragment_oninflate.MainActivity.onCreateOptionsMenu(com.android.internal.view.menu.MenuBuilder)
BEFORE android.app.Activity.getMenuInflater()
AFTER android.app.Activity.getMenuInflater, returnValue: android.view.MenuInflater
BEFORE android.view.MenuInflater.inflate(2131034112,com.android.internal.view.menu.MenuBuilder)
AFTER android.view.MenuInflater.inflate
AFTER dk.example.example_fragment_oninflate.MainActivity.onCreateOptionsMenu, returnValue: true
BEFORE dk.example.example_fragment_oninflate.MainActivity.onPause()
BEFORE android.app.Activity.onPause()
AFTER android.app.Activity.onPause
AFTER dk.example.example_fragment_oninflate.MainActivity.onPause
