7a8
> AFTER android.content.ContextWrapper.getApplicationContext, returnValue: com.lapism.searchview.sample.Leak
11a13
> AFTER com.squareup.leakcanary.internal.LeakCanaryInternals$1.run
21,23c23,25
< AFTER android.content.ContextWrapper.getPackageName, returnValue: com.lapism.searchview.samplebug, isEmpty: false
< BEFORE android.app.ApplicationPackageManager.getPackageInfo(com.lapism.searchview.samplebug,4)
< AFTER android.app.ApplicationPackageManager.getPackageInfo, returnValue: PackageInfo{130c7796 com.lapism.searchview.samplebug}
---
> AFTER android.content.ContextWrapper.getPackageName, returnValue: com.lapism.searchview.samplefix, isEmpty: false
> BEFORE android.app.ApplicationPackageManager.getPackageInfo(com.lapism.searchview.samplefix,4)
> AFTER android.app.ApplicationPackageManager.getPackageInfo, returnValue: PackageInfo{2cae4fb8 com.lapism.searchview.samplefix}
25c27
< AFTER android.app.ApplicationPackageManager.getServiceInfo, returnValue: ServiceInfo{3cc2cf17 com.squareup.leakcanary.internal.HeapAnalyzerService}
---
> AFTER android.app.ApplicationPackageManager.getServiceInfo, returnValue: ServiceInfo{2d23191 com.squareup.leakcanary.internal.HeapAnalyzerService}
27c29
< AFTER android.os.Process.myPid, returnValue: 1919
---
> AFTER android.os.Process.myPid, returnValue: 2486
37c39
< AFTER android.os.Looper.getMainLooper, returnValue: Looper (main, tid 1) {21f9442a}
---
> AFTER android.os.Looper.getMainLooper, returnValue: Looper (main, tid 1) {1ec3fedf}
39c41
< AFTER android.os.Looper.getMainLooper, returnValue: Looper (main, tid 1) {21f9442a}
---
> AFTER android.os.Looper.getMainLooper, returnValue: Looper (main, tid 1) {1ec3fedf}
41c43
< AFTER android.os.HandlerThread.getLooper, returnValue: Looper (LeakCanary-Heap-Dump, tid 158) {c63021b}
---
> AFTER android.os.HandlerThread.getLooper, returnValue: Looper (LeakCanary-Heap-Dump, tid 178) {1095a72c}
47d48
< BEFORE android.app.Application.registerActivityLifecycleCallbacks(com.squareup.leakcanary.ActivityRefWatcher$1)
48a50,51
> BEFORE android.app.Application.registerActivityLifecycleCallbacks(com.squareup.leakcanary.ActivityRefWatcher$1)
> AFTER android.app.Application.registerActivityLifecycleCallbacks
51a55
> AFTER com.squareup.leakcanary.internal.LeakCanaryInternals$1.run
53c57
< BEFORE android.support.v7.app.AppCompatActivity.setTheme(2131296318)
---
> BEFORE android.support.v7.app.AppCompatActivity.setTheme(2131230782)
62,65c66,67
< BEFORE android.view.LayoutInflater.inflate(2130968644,com.lapism.searchview.SearchView,true)
< AFTER android.view.LayoutInflater.inflate, returnValue: com.lapism.searchview.SearchView{32d9c1c V.E..... ......I. 0,0-0,0 #7f0d007b app:id/searchView}
< BEFORE android.support.v7.widget.RecyclerView.setNestedScrollingEnabled(false)
< AFTER android.support.v7.widget.RecyclerView.setNestedScrollingEnabled
---
> BEFORE android.view.LayoutInflater.inflate(2130968645,com.lapism.searchview.SearchView,true)
> AFTER android.view.LayoutInflater.inflate, returnValue: com.lapism.searchview.SearchView{2583229f V.E..... ......I. 0,0-0,0 #7f0c007b app:id/searchView}
68,72c70,72
< BEFORE android.support.v7.widget.RecyclerView.setItemAnimator()
< AFTER android.support.v7.widget.RecyclerView.setItemAnimator
< BEFORE android.animation.LayoutTransition.setDuration(java.lang.Long)
< AFTER android.animation.LayoutTransition.setDuration
< BEFORE android.support.v7.widget.RecyclerView.addOnScrollListener(com.lapism.searchview.SearchView$1)
---
> BEFORE android.support.v7.widget.RecyclerView.setNestedScrollingEnabled(false)
> AFTER android.support.v7.widget.RecyclerView.setNestedScrollingEnabled
> BEFORE android.support.v7.widget.RecyclerView.addOnScrollListener(com.lapism.searchview.SearchView$2)
74c74
< BEFORE android.support.v4.content.ContextCompat.getColor(com.lapism.searchview.sample.activity.menu.ToolbarActivity,2131492945)
---
> BEFORE android.support.v4.content.ContextCompat.getColor(com.lapism.searchview.sample.activity.menu.ToolbarActivity,2131427410)
102c102
< BEFORE android.support.v4.content.ContextCompat.getColor(com.lapism.searchview.sample.activity.menu.ToolbarActivity,2131492940)
---
> BEFORE android.support.v4.content.ContextCompat.getColor(com.lapism.searchview.sample.activity.menu.ToolbarActivity,2131427405)
106c106
< BEFORE android.support.v4.content.ContextCompat.getColor(com.lapism.searchview.sample.activity.menu.ToolbarActivity,2131492942)
---
> BEFORE android.support.v4.content.ContextCompat.getColor(com.lapism.searchview.sample.activity.menu.ToolbarActivity,2131427407)
114c114
< BEFORE android.support.v4.content.ContextCompat.getColor(com.lapism.searchview.sample.activity.menu.ToolbarActivity,2131492941)
---
> BEFORE android.support.v4.content.ContextCompat.getColor(com.lapism.searchview.sample.activity.menu.ToolbarActivity,2131427406)
116c116
< BEFORE android.support.v4.content.ContextCompat.getColor(com.lapism.searchview.sample.activity.menu.ToolbarActivity,2131492943)
---
> BEFORE android.support.v4.content.ContextCompat.getColor(com.lapism.searchview.sample.activity.menu.ToolbarActivity,2131427408)
118c118
< BEFORE android.support.v4.content.ContextCompat.getColor(com.lapism.searchview.sample.activity.menu.ToolbarActivity,2131492944)
---
> BEFORE android.support.v4.content.ContextCompat.getColor(com.lapism.searchview.sample.activity.menu.ToolbarActivity,2131427409)
126a127,128
> BEFORE android.content.Context.obtainStyledAttributes(android.content.res.XmlBlock$Parser,[I,0,0)
> AFTER android.content.Context.obtainStyledAttributes, returnValue: [0, 0, 1, 0, 0, 0, 0, 0, 1, 0, 0, 0, 0, 0, 1, 0, 0, 0, 0, 0, 1, 0, 0, 0, 0, 0, 1, 0, 0, 0, 0, 0, 1, 0, 0, 0, 0, 0, 1, 0, 0, 0, 0, 0, 1, 0, 0, 0, 0, 0, 1, 0, 0, 0, 0, 0, 1, 0, 0, 0, 0, 0, 1, 0, 0, 0, 0, 0, 1, 0, 0, 0, 0, 0, 1, 0, 0, 0, 0, 0, 1, 0, 0, 0, 0, 0, 1, 0, 0, 0, 0, 0, 1, 0, 0, 0, 0, 0, 1, 0, 0, 0, 0, 0, 1, 0, 0, 0, 0, 0, 1, 0, 0, 0, 0, 0, 1, 0, 0, 0, 0, 0, 1, 0, 0, 0, 0, 0, 1, 0, 0, 0, 0, 0, 1, 0, 0, 0, 0, 0, 1, 0, 0, 0, 0, 0, 1, 0, 0, 0, 0, 0, 1, 0, 0, 0, 0, 0, 1, 0, 0, 0, 0, 0, 1, 0, 0, 0, 0, 0, 1, 0, 0, 0, 0, 0, 1, 0, 0, 0, 0, 0, 1, 0, 0, 0, 0, 0, 1, 0, 0, 0, 0, 0, 1, 0, 0, 0, 0, 0, 1, 0, 0, 0, 0, 0, 1, 0, 0, 0, 0, 0, 1, 0, 0, 0, 0, 0, 1, 0, 0, 0, 0, 0, 1, 0, 0, 0, 0, 0, 1, 0, 0, 0, 0, 0, 1, 0, 0, 0, 0, 0, 1, 0, 0, 0, 0, 0, 2, 0, 0, 0, 0, 0, 2, 0, 0, 0, 16, 250, 2, 0, 1073746944, 0, 16, 300, 2, 0, 1073746944, 0, 0, 0, 2, 0, 0, 0, 0, 0, 2, 0, 0, 0, 0, 0, 2, 0, 0, 0, 0, 0, 2, 0, 0, 0, 0, 0, 2, 0, 0, 0, 0, 0, 2, 0, 0, 0, 0, 0, 2, 0, 0, 0, 0, 0, 2, 0, 0, 0, 0, 0, 2, 0, 0, 0, 0, 0, 2, 0, 0, 0, 0, 0, 2, 0, 0, 0, 0, 0, 2, 0, 0, 0, 0, 0, 2, 0, 0, 0, 0, 0, 2, 0, 0, 0, 0, 0, 2, 0, 0, 0, 0, 0, 2, 0, 0, 0, 0, 0, 2, 0, 0, 0, 0, 0, 2, 0, 0, 0, 0, 0, 2, 0, 0, 0, 0, 0, 2, 0, 0, 0, 0, 0, 2, 0, 0, 0, 0, 0, 2, 0, 0, 0, 0, 0, 2, 0, 0, 0, 0, 0, 2, 0, 0, 0, 0, 0, 2, 0, 0, 0, 0, 0, 2, 0, 0, 0, 0, 0, 2, 0, 0, 0, 0, 0, 2, 0, 0, 0, 0, 0, 2, 0, 0, 0, 0, 0, 2, 0, 0, 0, 0, 0, 2, 0, 0, 0, 0, 0, 2, 0, 0, 0, 0, 0, 2, 0, 0, 0]
181,182c183,184
< BEFORE android.support.v7.app.AppCompatActivity.findViewById(2131558462)
< AFTER android.support.v7.app.AppCompatActivity.findViewById, returnValue: android.support.v7.widget.Toolbar{35054fd6 V.E..... ......I. 0,0-0,0 #7f0d003e app:id/toolbar}
---
> BEFORE android.support.v7.app.AppCompatActivity.findViewById(2131492926)
> AFTER android.support.v7.app.AppCompatActivity.findViewById, returnValue: android.support.v7.widget.Toolbar{f05167 V.E..... ......I. 0,0-0,0 #7f0c003e app:id/toolbar}
185,187c187,189
< BEFORE android.content.res.Resources.getString(2131165241)
< AFTER android.content.res.Resources.getString, returnValue: Bug-SearchView Sample, isEmpty: false
< BEFORE android.support.v7.widget.Toolbar.setNavigationContentDescription(Bug-SearchView Sample)
---
> BEFORE android.content.res.Resources.getString(2131099705)
> AFTER android.content.res.Resources.getString, returnValue: Fix-SearchView Sample, isEmpty: false
> BEFORE android.support.v7.widget.Toolbar.setNavigationContentDescription(Fix-SearchView Sample)
192,193c194,195
< AFTER android.support.v4.app.FragmentActivity.getSupportFragmentManager, returnValue: FragmentManager{5e4c22d in HostCallbacks{115e9362}}
< BEFORE android.content.Context.getString(2131165248)
---
> AFTER android.support.v4.app.FragmentActivity.getSupportFragmentManager, returnValue: FragmentManager{c0059b2 in HostCallbacks{9269d03}}
> BEFORE android.content.Context.getString(2131099712)
195c197
< BEFORE android.content.Context.getString(2131165240)
---
> BEFORE android.content.Context.getString(2131099704)
197,198c199,200
< BEFORE android.support.v7.app.AppCompatActivity.findViewById(2131558522)
< AFTER android.support.v7.app.AppCompatActivity.findViewById, returnValue: android.support.v4.view.ViewPager{15f8ccf3 VFED.... ......I. 0,0-0,0 #7f0d007a app:id/viewPager}
---
> BEFORE android.support.v7.app.AppCompatActivity.findViewById(2131492986)
> AFTER android.support.v7.app.AppCompatActivity.findViewById, returnValue: android.support.v4.view.ViewPager{1c99f480 VFED.... ......I. 0,0-0,0 #7f0c007a app:id/viewPager}
203,204c205,206
< BEFORE android.support.v7.app.AppCompatActivity.findViewById(2131558521)
< AFTER android.support.v7.app.AppCompatActivity.findViewById, returnValue: android.support.design.widget.TabLayout{20537db0 VFED.... ......I. 0,0-0,0 #7f0d0079 app:id/tabs}
---
> BEFORE android.support.v7.app.AppCompatActivity.findViewById(2131492985)
> AFTER android.support.v7.app.AppCompatActivity.findViewById, returnValue: android.support.design.widget.TabLayout{310c4ab9 VFED.... ......I. 0,0-0,0 #7f0c0079 app:id/tabs}
225,228c227,230
< BEFORE android.support.v7.app.AppCompatActivity.findViewById(2131558524)
< AFTER android.support.v7.app.AppCompatActivity.findViewById, returnValue: android.support.design.widget.FloatingActionButton{f81345e VFED.... ......I. 0,0-0,0 #7f0d007c app:id/floatingActionButton}
< BEFORE android.support.v7.app.AppCompatActivity.findViewById(2131558520)
< AFTER android.support.v7.app.AppCompatActivity.findViewById, returnValue: android.support.v4.widget.DrawerLayout{16ac203f VFE..... ......I. 0,0-0,0 #7f0d0078 app:id/drawerLayout}
---
> BEFORE android.support.v7.app.AppCompatActivity.findViewById(2131492988)
> AFTER android.support.v7.app.AppCompatActivity.findViewById, returnValue: android.support.design.widget.FloatingActionButton{19f85429 VFED.... ......I. 0,0-0,0 #7f0c007c app:id/floatingActionButton}
> BEFORE android.support.v7.app.AppCompatActivity.findViewById(2131492984)
> AFTER android.support.v7.app.AppCompatActivity.findViewById, returnValue: android.support.v4.widget.DrawerLayout{391683ae VFE..... ......I. 0,0-0,0 #7f0c0078 app:id/drawerLayout}
233,234c235,236
< BEFORE android.support.v7.app.AppCompatActivity.findViewById(2131558547)
< AFTER android.support.v7.app.AppCompatActivity.findViewById, returnValue: android.support.design.widget.NavigationView{8d71d0c V.E..... ......ID 0,0-0,0 #7f0d0093 app:id/nav_view}
---
> BEFORE android.support.v7.app.AppCompatActivity.findViewById(2131493011)
> AFTER android.support.v7.app.AppCompatActivity.findViewById, returnValue: android.support.design.widget.NavigationView{3149454f V.E..... ......ID 0,0-0,0 #7f0c0093 app:id/nav_view}
247,248c249,250
< BEFORE android.support.v7.app.AppCompatActivity.findViewById(2131558523)
< AFTER android.support.v7.app.AppCompatActivity.findViewById, returnValue: com.lapism.searchview.SearchView{32d9c1c V.E..... ......I. 0,0-0,0 #7f0d007b app:id/searchView}
---
> BEFORE android.support.v7.app.AppCompatActivity.findViewById(2131492987)
> AFTER android.support.v7.app.AppCompatActivity.findViewById, returnValue: com.lapism.searchview.SearchView{2583229f V.E..... ......I. 0,0-0,0 #7f0c007b app:id/searchView}
258c260
< AFTER android.app.Activity.getIntent, returnValue: Intent { act=android.intent.action.MAIN cat=[android.intent.category.LAUNCHER] flg=0x10200000 cmp=com.lapism.searchview.samplebug/com.lapism.searchview.sample.activity.menu.ToolbarActivity }
---
> AFTER android.app.Activity.getIntent, returnValue: Intent { act=android.intent.action.MAIN cat=[android.intent.category.LAUNCHER] flg=0x10200000 cmp=com.lapism.searchview.samplefix/com.lapism.searchview.sample.activity.menu.ToolbarActivity }
268c270
< AFTER android.database.sqlite.SQLiteOpenHelper.getWritableDatabase, returnValue: SQLiteDatabase: /data/data/com.lapism.searchview.samplebug/databases/search_history_database.db
---
> AFTER android.database.sqlite.SQLiteOpenHelper.getWritableDatabase, returnValue: SQLiteDatabase: /data/data/com.lapism.searchview.samplefix/databases/search_history_database.db
295c297
< AFTER com.lapism.searchview.sample.view.FragmentAdapter.getItem, returnValue: SearchFragment{cb3972f}
---
> AFTER com.lapism.searchview.sample.view.FragmentAdapter.getItem, returnValue: SearchFragment{f4c815b}
297c299
< AFTER com.lapism.searchview.sample.view.FragmentAdapter.getItem, returnValue: SearchFragment{3de1e13c}
---
> AFTER com.lapism.searchview.sample.view.FragmentAdapter.getItem, returnValue: SearchFragment{3a5efdf8}
301c303
< BEFORE android.support.v4.app.Fragment.getString(2131165248)
---
> BEFORE android.support.v4.app.Fragment.getString(2131099712)
303c305
< BEFORE android.support.v4.app.Fragment.getString(2131165240)
---
> BEFORE android.support.v4.app.Fragment.getString(2131099704)
305,306c307,308
< BEFORE android.view.LayoutInflater.inflate(2130968642,android.support.v4.view.ViewPager,false)
< AFTER android.view.LayoutInflater.inflate, returnValue: android.support.v7.widget.RecyclerView{1089d528 VFED.... ......I. 0,0-0,0 #7f0d007d app:id/recyclerView}
---
> BEFORE android.view.LayoutInflater.inflate(2130968643,android.support.v4.view.ViewPager,false)
> AFTER android.view.LayoutInflater.inflate, returnValue: android.support.v7.widget.RecyclerView{10897136 VFED.... ......I. 0,0-0,0 #7f0c007d app:id/recyclerView}
310a313,320
> BEFORE android.content.Context.obtainStyledAttributes([I)
> BEFORE android.content.Context.obtainStyledAttributes([I)
> AFTER android.content.Context.obtainStyledAttributes, returnValue: [3, 776, 1, 17302681, 1073746944, 0, 16, -1, -1, 0, 0, 0, 0, 0, 1, 0, 0, 0, 0, 0, 1, 0, 0, 0, 0, 0, 1, 0, 0, 0, 0, 0, 1, 0, 0, 0, 0, 0, -1, 0, 0, 0, 0, 0, -1, 0, 0, 0, 0, 0, -1, 0, 0, 0, 0, 0, -1, 0, 0, 0, 0, 0, -1, 0, 0, 0, 0, 0, -1, 0, 0, 0, 0, 0, -1, 0, 0, 0, 0, 0, 2, 0, 0, 0, 0, 0, 2, 0, 0, 0, 0, 0, 2, 0, 0, 0, 5, 2049, 2, 2131165331, 0, 0, 0, 0, 2, 0, 0, 0, 5, 2049, 2, 2131165331, 0, 0, 0, 0, 2, 0, 0, 0, 0, 0, 2, 0, 0, 0, 0, 0, 2, 0, 0, 0, 0, 0, 2, 0, 0, 0, 0, 0, 2, 0, 0, 0, 0, 0, 2, 0, 0, 0, 0, 0, 2, 0, 0, 0, 0, 0, 2, 0, 0, 0, 0, 0, 2, 0, 0, 0, 0, 0, 2, 0, 0, 0, 0, 0, 2, 0, 0, 0, 0, 0, 2, 0, 0, 0, 0, 0, 2, 0, 0, 0, 0, 0, 2, 0, 0, 0, 0, 0, 2, 0, 0, 0, 0, 0, 2, 0, 0, 0, 0, 0, 2, 0, 0, 0, 0, 0, 2, 0, 0, 0, 0, 0, 2, 0, 0, 0, 0, 0, 2, 0, 0, 0, 0, 0, 2, 0, 0, 0, 0, 0, 2, 0, 0, 0, 0, 0, 2, 0, 0, 0, 0, 0, 2, 0, 0, 0, 16, 250, 2, 0, 1073746944, 0, 16, 300, 2, 0, 1073746944, 0, 0, 0, 2, 0, 0, 0, 0, 0, 2, 0, 0, 0, 0, 0, 2, 0, 0, 0, 0, 0, 2, 0, 0, 0, 0, 0, 2, 0, 0, 0, 0, 0, 2, 0, 0, 0, 0, 0, 2, 0, 0, 0, 0, 0, 2, 0, 0, 0, 0, 0, 2, 0, 0, 0, 0, 0, 2, 0, 0, 0, 0, 0, 2, 0, 0, 0, 0, 0, 2, 0, 0, 0, 0, 0, 2, 0, 0, 0, 0, 0, 2, 0, 0, 0, 0, 0, 2, 0, 0, 0, 0, 0, 2, 0, 0, 0, 0, 0, 2, 0, 0, 0, 0, 0, 2, 0, 0, 0, 0, 0, 2, 0, 0, 0, 0, 0, 2, 0, 0, 0, 0, 0, 2, 0, 0, 0, 0, 0, 2, 0, 0, 0, 0, 0, 2, 0, 0, 0, 0, 0, 2, 0, 0, 0, 0, 0, 2, 0, 0, 0, 0, 0, 2, 0, 0, 0, 0, 0, 2, 0, 0, 0, 0, 0, 2, 0, 0, 0, 0, 0, 2, 0, 0, 0, 0, 0, 2, 0, 0, 0, 0, 0, 2, 0, 0, 0, 0, 0, 2, 0, 0, 0, 0, 0, 2, 0, 0, 0, 0, 0, 1, 0, 0, 0]
> AFTER android.content.Context.obtainStyledAttributes, returnValue: [3, 776, 1, 17302681, 1073746944, 0, 16, -1, -1, 0, 0, 0, 0, 0, 1, 0, 0, 0, 0, 0, 1, 0, 0, 0, 0, 0, 1, 0, 0, 0, 0, 0, 1, 0, 0, 0, 0, 0, -1, 0, 0, 0, 0, 0, -1, 0, 0, 0, 0, 0, -1, 0, 0, 0, 0, 0, -1, 0, 0, 0, 0, 0, -1, 0, 0, 0, 0, 0, -1, 0, 0, 0, 0, 0, -1, 0, 0, 0, 0, 0, 2, 0, 0, 0, 0, 0, 2, 0, 0, 0, 0, 0, 2, 0, 0, 0, 5, 2049, 2, 2131165331, 0, 0, 0, 0, 2, 0, 0, 0, 5, 2049, 2, 2131165331, 0, 0, 0, 0, 2, 0, 0, 0, 0, 0, 2, 0, 0, 0, 0, 0, 2, 0, 0, 0, 0, 0, 2, 0, 0, 0, 0, 0, 2, 0, 0, 0, 0, 0, 2, 0, 0, 0, 0, 0, 2, 0, 0, 0, 0, 0, 2, 0, 0, 0, 0, 0, 2, 0, 0, 0, 0, 0, 2, 0, 0, 0, 0, 0, 2, 0, 0, 0, 0, 0, 2, 0, 0, 0, 0, 0, 2, 0, 0, 0, 0, 0, 2, 0, 0, 0, 0, 0, 2, 0, 0, 0, 0, 0, 2, 0, 0, 0, 0, 0, 2, 0, 0, 0, 0, 0, 2, 0, 0, 0, 0, 0, 2, 0, 0, 0, 0, 0, 2, 0, 0, 0, 0, 0, 2, 0, 0, 0, 0, 0, 2, 0, 0, 0, 0, 0, 2, 0, 0, 0, 0, 0, 2, 0, 0, 0, 16, 250, 2, 0, 1073746944, 0, 16, 300, 2, 0, 1073746944, 0, 0, 0, 2, 0, 0, 0, 0, 0, 2, 0, 0, 0, 0, 0, 2, 0, 0, 0, 0, 0, 2, 0, 0, 0, 0, 0, 2, 0, 0, 0, 0, 0, 2, 0, 0, 0, 0, 0, 2, 0, 0, 0, 0, 0, 2, 0, 0, 0, 0, 0, 2, 0, 0, 0, 0, 0, 2, 0, 0, 0, 0, 0, 2, 0, 0, 0, 0, 0, 2, 0, 0, 0, 0, 0, 2, 0, 0, 0, 0, 0, 2, 0, 0, 0, 0, 0, 2, 0, 0, 0, 0, 0, 2, 0, 0, 0, 0, 0, 2, 0, 0, 0, 0, 0, 2, 0, 0, 0, 0, 0, 2, 0, 0, 0, 0, 0, 2, 0, 0, 0, 0, 0, 2, 0, 0, 0, 0, 0, 2, 0, 0, 0, 0, 0, 2, 0, 0, 0, 0, 0, 2, 0, 0, 0, 0, 0, 2, 0, 0, 0, 0, 0, 2, 0, 0, 0, 0, 0, 2, 0, 0, 0, 0, 0, 2, 0, 0, 0, 0, 0, 2, 0, 0, 0, 0, 0, 2, 0, 0, 0, 0, 0, 2, 0, 0, 0, 0, 0, 2, 0, 0, 0, 0, 0, 2, 0, 0, 0, 0, 0, 1, 0, 0, 0]
> BEFORE android.content.res.TypedArray.recycle()
> AFTER android.content.res.TypedArray.recycle
> BEFORE android.support.v7.widget.RecyclerView.addItemDecoration(com.lapism.searchview.SearchDivider)
> AFTER android.support.v7.widget.RecyclerView.addItemDecoration
313c323
< AFTER com.lapism.searchview.sample.view.SearchFragment.onCreateView, returnValue: android.support.v7.widget.RecyclerView{1089d528 VFED.... ......I. 0,0-0,0 #7f0d007d app:id/recyclerView}
---
> AFTER com.lapism.searchview.sample.view.SearchFragment.onCreateView, returnValue: android.support.v7.widget.RecyclerView{10897136 VFED.... ......I. 0,0-0,0 #7f0c007d app:id/recyclerView}
317c327
< BEFORE android.support.v4.app.Fragment.getString(2131165248)
---
> BEFORE android.support.v4.app.Fragment.getString(2131099712)
319c329
< BEFORE android.support.v4.app.Fragment.getString(2131165240)
---
> BEFORE android.support.v4.app.Fragment.getString(2131099704)
321,322c331,332
< BEFORE android.view.LayoutInflater.inflate(2130968642,android.support.v4.view.ViewPager,false)
< AFTER android.view.LayoutInflater.inflate, returnValue: android.support.v7.widget.RecyclerView{25893d27 VFED.... ......I. 0,0-0,0 #7f0d007d app:id/recyclerView}
---
> BEFORE android.view.LayoutInflater.inflate(2130968643,android.support.v4.view.ViewPager,false)
> AFTER android.view.LayoutInflater.inflate, returnValue: android.support.v7.widget.RecyclerView{eb2db0d VFED.... ......I. 0,0-0,0 #7f0c007d app:id/recyclerView}
326a337,344
> BEFORE android.content.Context.obtainStyledAttributes([I)
> BEFORE android.content.Context.obtainStyledAttributes([I)
> AFTER android.content.Context.obtainStyledAttributes, returnValue: [3, 776, 1, 17302681, 1073746944, 0, 16, -1, -1, 0, 0, 0, 0, 0, 1, 0, 0, 0, 0, 0, 1, 0, 0, 0, 0, 0, 1, 0, 0, 0, 0, 0, 1, 0, 0, 0, 0, 0, -1, 0, 0, 0, 0, 0, -1, 0, 0, 0, 0, 0, -1, 0, 0, 0, 0, 0, -1, 0, 0, 0, 0, 0, -1, 0, 0, 0, 0, 0, -1, 0, 0, 0, 0, 0, -1, 0, 0, 0, 0, 0, 2, 0, 0, 0, 0, 0, 2, 0, 0, 0, 0, 0, 2, 0, 0, 0, 5, 2049, 2, 2131165331, 0, 0, 0, 0, 2, 0, 0, 0, 5, 2049, 2, 2131165331, 0, 0, 0, 0, 2, 0, 0, 0, 0, 0, 2, 0, 0, 0, 0, 0, 2, 0, 0, 0, 0, 0, 2, 0, 0, 0, 0, 0, 2, 0, 0, 0, 0, 0, 2, 0, 0, 0, 0, 0, 2, 0, 0, 0, 0, 0, 2, 0, 0, 0, 0, 0, 2, 0, 0, 0, 0, 0, 2, 0, 0, 0, 0, 0, 2, 0, 0, 0, 0, 0, 2, 0, 0, 0, 0, 0, 2, 0, 0, 0, 0, 0, 2, 0, 0, 0, 0, 0, 2, 0, 0, 0, 0, 0, 2, 0, 0, 0, 0, 0, 2, 0, 0, 0, 0, 0, 2, 0, 0, 0, 0, 0, 2, 0, 0, 0, 0, 0, 2, 0, 0, 0, 0, 0, 2, 0, 0, 0, 0, 0, 2, 0, 0, 0, 0, 0, 2, 0, 0, 0, 0, 0, 2, 0, 0, 0, 16, 250, 2, 0, 1073746944, 0, 16, 300, 2, 0, 1073746944, 0, 0, 0, 2, 0, 0, 0, 0, 0, 2, 0, 0, 0, 0, 0, 2, 0, 0, 0, 0, 0, 2, 0, 0, 0, 0, 0, 2, 0, 0, 0, 0, 0, 2, 0, 0, 0, 0, 0, 2, 0, 0, 0, 0, 0, 2, 0, 0, 0, 0, 0, 2, 0, 0, 0, 0, 0, 2, 0, 0, 0, 0, 0, 2, 0, 0, 0, 0, 0, 2, 0, 0, 0, 0, 0, 2, 0, 0, 0, 0, 0, 2, 0, 0, 0, 0, 0, 2, 0, 0, 0, 0, 0, 2, 0, 0, 0, 0, 0, 2, 0, 0, 0, 0, 0, 2, 0, 0, 0, 0, 0, 2, 0, 0, 0, 0, 0, 2, 0, 0, 0, 0, 0, 2, 0, 0, 0, 0, 0, 2, 0, 0, 0, 0, 0, 2, 0, 0, 0, 0, 0, 2, 0, 0, 0, 0, 0, 2, 0, 0, 0, 0, 0, 2, 0, 0, 0, 0, 0, 2, 0, 0, 0, 0, 0, 2, 0, 0, 0, 0, 0, 2, 0, 0, 0, 0, 0, 2, 0, 0, 0, 0, 0, 2, 0, 0, 0, 0, 0, 2, 0, 0, 0, 0, 0, 2, 0, 0, 0, 0, 0, 1, 0, 0, 0]
> AFTER android.content.Context.obtainStyledAttributes, returnValue: [3, 776, 1, 17302681, 1073746944, 0, 16, -1, -1, 0, 0, 0, 0, 0, 1, 0, 0, 0, 0, 0, 1, 0, 0, 0, 0, 0, 1, 0, 0, 0, 0, 0, 1, 0, 0, 0, 0, 0, -1, 0, 0, 0, 0, 0, -1, 0, 0, 0, 0, 0, -1, 0, 0, 0, 0, 0, -1, 0, 0, 0, 0, 0, -1, 0, 0, 0, 0, 0, -1, 0, 0, 0, 0, 0, -1, 0, 0, 0, 0, 0, 2, 0, 0, 0, 0, 0, 2, 0, 0, 0, 0, 0, 2, 0, 0, 0, 5, 2049, 2, 2131165331, 0, 0, 0, 0, 2, 0, 0, 0, 5, 2049, 2, 2131165331, 0, 0, 0, 0, 2, 0, 0, 0, 0, 0, 2, 0, 0, 0, 0, 0, 2, 0, 0, 0, 0, 0, 2, 0, 0, 0, 0, 0, 2, 0, 0, 0, 0, 0, 2, 0, 0, 0, 0, 0, 2, 0, 0, 0, 0, 0, 2, 0, 0, 0, 0, 0, 2, 0, 0, 0, 0, 0, 2, 0, 0, 0, 0, 0, 2, 0, 0, 0, 0, 0, 2, 0, 0, 0, 0, 0, 2, 0, 0, 0, 0, 0, 2, 0, 0, 0, 0, 0, 2, 0, 0, 0, 0, 0, 2, 0, 0, 0, 0, 0, 2, 0, 0, 0, 0, 0, 2, 0, 0, 0, 0, 0, 2, 0, 0, 0, 0, 0, 2, 0, 0, 0, 0, 0, 2, 0, 0, 0, 0, 0, 2, 0, 0, 0, 0, 0, 2, 0, 0, 0, 0, 0, 2, 0, 0, 0, 16, 250, 2, 0, 1073746944, 0, 16, 300, 2, 0, 1073746944, 0, 0, 0, 2, 0, 0, 0, 0, 0, 2, 0, 0, 0, 0, 0, 2, 0, 0, 0, 0, 0, 2, 0, 0, 0, 0, 0, 2, 0, 0, 0, 0, 0, 2, 0, 0, 0, 0, 0, 2, 0, 0, 0, 0, 0, 2, 0, 0, 0, 0, 0, 2, 0, 0, 0, 0, 0, 2, 0, 0, 0, 0, 0, 2, 0, 0, 0, 0, 0, 2, 0, 0, 0, 0, 0, 2, 0, 0, 0, 0, 0, 2, 0, 0, 0, 0, 0, 2, 0, 0, 0, 0, 0, 2, 0, 0, 0, 0, 0, 2, 0, 0, 0, 0, 0, 2, 0, 0, 0, 0, 0, 2, 0, 0, 0, 0, 0, 2, 0, 0, 0, 0, 0, 2, 0, 0, 0, 0, 0, 2, 0, 0, 0, 0, 0, 2, 0, 0, 0, 0, 0, 2, 0, 0, 0, 0, 0, 2, 0, 0, 0, 0, 0, 2, 0, 0, 0, 0, 0, 2, 0, 0, 0, 0, 0, 2, 0, 0, 0, 0, 0, 2, 0, 0, 0, 0, 0, 2, 0, 0, 0, 0, 0, 2, 0, 0, 0, 0, 0, 2, 0, 0, 0, 0, 0, 2, 0, 0, 0, 0, 0, 1, 0, 0, 0]
> BEFORE android.content.res.TypedArray.recycle()
> AFTER android.content.res.TypedArray.recycle
> BEFORE android.support.v7.widget.RecyclerView.addItemDecoration(com.lapism.searchview.SearchDivider)
> AFTER android.support.v7.widget.RecyclerView.addItemDecoration
329c347
< AFTER com.lapism.searchview.sample.view.SearchFragment.onCreateView, returnValue: android.support.v7.widget.RecyclerView{25893d27 VFED.... ......I. 0,0-0,0 #7f0d007d app:id/recyclerView}
---
> AFTER com.lapism.searchview.sample.view.SearchFragment.onCreateView, returnValue: android.support.v7.widget.RecyclerView{eb2db0d VFED.... ......I. 0,0-0,0 #7f0c007d app:id/recyclerView}
358,359c376,377
< AFTER android.view.LayoutInflater.inflate, returnValue: android.support.v7.widget.CardView{2e45fd46 V.ED..C. ......I. 0,0-0,0}
< AFTER com.lapism.searchview.sample.view.RecyclerViewAdapter.onCreateViewHolder, returnValue: ViewHolder{3b391434 position=-1 id=-1, oldPos=-1, pLpos:-1 unbound no parent} '
---
> AFTER android.view.LayoutInflater.inflate, returnValue: android.widget.LinearLayout{1b182140 V.E...C. ......ID 0,0-0,0}
> AFTER com.lapism.searchview.sample.view.RecyclerViewAdapter.onCreateViewHolder, returnValue: ViewHolder{3f4239be position=-1 id=-1, oldPos=-1, pLpos:-1 unbound no parent} '
361a380,387
> BEFORE com.lapism.searchview.SearchDivider.getItemOffsets(android.graphics.Rect,android.widget.LinearLayout,android.support.v7.widget.RecyclerView,android.support.v7.widget.RecyclerView$State)
> BEFORE android.support.v7.widget.RecyclerView$LayoutParams.getViewLayoutPosition()
> AFTER android.support.v7.widget.RecyclerView$LayoutParams.getViewLayoutPosition, returnValue: 0
> BEFORE android.support.v7.widget.RecyclerView.getLayoutManager()
> AFTER android.support.v7.widget.RecyclerView.getLayoutManager, returnValue: android.support.v7.widget.LinearLayoutManager
> BEFORE android.support.v7.widget.LinearLayoutManager.getOrientation()
> AFTER android.support.v7.widget.LinearLayoutManager.getOrientation, returnValue: 1
> AFTER com.lapism.searchview.SearchDivider.getItemOffsets
368,369c394,395
< AFTER android.view.LayoutInflater.inflate, returnValue: android.support.v7.widget.CardView{3b90811b V.ED..C. ......I. 0,0-0,0}
< AFTER com.lapism.searchview.sample.view.RecyclerViewAdapter.onCreateViewHolder, returnValue: ViewHolder{18e14891 position=-1 id=-1, oldPos=-1, pLpos:-1 unbound no parent} '
---
> AFTER android.view.LayoutInflater.inflate, returnValue: android.widget.LinearLayout{3b2dc93b V.E...C. ......ID 0,0-0,0}
> AFTER com.lapism.searchview.sample.view.RecyclerViewAdapter.onCreateViewHolder, returnValue: ViewHolder{32071db1 position=-1 id=-1, oldPos=-1, pLpos:-1 unbound no parent} '
371a398,405
> BEFORE com.lapism.searchview.SearchDivider.getItemOffsets(android.graphics.Rect,android.widget.LinearLayout,android.support.v7.widget.RecyclerView,android.support.v7.widget.RecyclerView$State)
> BEFORE android.support.v7.widget.RecyclerView$LayoutParams.getViewLayoutPosition()
> AFTER android.support.v7.widget.RecyclerView$LayoutParams.getViewLayoutPosition, returnValue: 1
> BEFORE android.support.v7.widget.RecyclerView.getLayoutManager()
> AFTER android.support.v7.widget.RecyclerView.getLayoutManager, returnValue: android.support.v7.widget.LinearLayoutManager
> BEFORE android.support.v7.widget.LinearLayoutManager.getOrientation()
> AFTER android.support.v7.widget.LinearLayoutManager.getOrientation, returnValue: 1
> AFTER com.lapism.searchview.SearchDivider.getItemOffsets
378,379c412,413
< AFTER android.view.LayoutInflater.inflate, returnValue: android.support.v7.widget.CardView{2a5dbce V.ED..C. ......I. 0,0-0,0}
< AFTER com.lapism.searchview.sample.view.RecyclerViewAdapter.onCreateViewHolder, returnValue: ViewHolder{247929fc position=-1 id=-1, oldPos=-1, pLpos:-1 unbound no parent} '
---
> AFTER android.view.LayoutInflater.inflate, returnValue: android.widget.LinearLayout{30bee3ed V.E...C. ......ID 0,0-0,0}
> AFTER com.lapism.searchview.sample.view.RecyclerViewAdapter.onCreateViewHolder, returnValue: ViewHolder{3d3e24b3 position=-1 id=-1, oldPos=-1, pLpos:-1 unbound no parent} '
381a416,423
> BEFORE com.lapism.searchview.SearchDivider.getItemOffsets(android.graphics.Rect,android.widget.LinearLayout,android.support.v7.widget.RecyclerView,android.support.v7.widget.RecyclerView$State)
> BEFORE android.support.v7.widget.RecyclerView$LayoutParams.getViewLayoutPosition()
> AFTER android.support.v7.widget.RecyclerView$LayoutParams.getViewLayoutPosition, returnValue: 2
> BEFORE android.support.v7.widget.RecyclerView.getLayoutManager()
> AFTER android.support.v7.widget.RecyclerView.getLayoutManager, returnValue: android.support.v7.widget.LinearLayoutManager
> BEFORE android.support.v7.widget.LinearLayoutManager.getOrientation()
> AFTER android.support.v7.widget.LinearLayoutManager.getOrientation, returnValue: 1
> AFTER com.lapism.searchview.SearchDivider.getItemOffsets
388,389c430,431
< AFTER android.view.LayoutInflater.inflate, returnValue: android.support.v7.widget.CardView{270f933d V.ED..C. ......I. 0,0-0,0}
< AFTER com.lapism.searchview.sample.view.RecyclerViewAdapter.onCreateViewHolder, returnValue: ViewHolder{1e6c2c83 position=-1 id=-1, oldPos=-1, pLpos:-1 unbound no parent} '
---
> AFTER android.view.LayoutInflater.inflate, returnValue: android.widget.LinearLayout{1ec590f V.E...C. ......ID 0,0-0,0}
> AFTER com.lapism.searchview.sample.view.RecyclerViewAdapter.onCreateViewHolder, returnValue: ViewHolder{4dda3a5 position=-1 id=-1, oldPos=-1, pLpos:-1 unbound no parent} '
391a434,441
> BEFORE com.lapism.searchview.SearchDivider.getItemOffsets(android.graphics.Rect,android.widget.LinearLayout,android.support.v7.widget.RecyclerView,android.support.v7.widget.RecyclerView$State)
> BEFORE android.support.v7.widget.RecyclerView$LayoutParams.getViewLayoutPosition()
> AFTER android.support.v7.widget.RecyclerView$LayoutParams.getViewLayoutPosition, returnValue: 3
> BEFORE android.support.v7.widget.RecyclerView.getLayoutManager()
> AFTER android.support.v7.widget.RecyclerView.getLayoutManager, returnValue: android.support.v7.widget.LinearLayoutManager
> BEFORE android.support.v7.widget.LinearLayoutManager.getOrientation()
> AFTER android.support.v7.widget.LinearLayoutManager.getOrientation, returnValue: 1
> AFTER com.lapism.searchview.SearchDivider.getItemOffsets
398,399c448,449
< AFTER android.view.LayoutInflater.inflate, returnValue: android.support.v7.widget.CardView{36629d18 V.ED..C. ......I. 0,0-0,0}
< AFTER com.lapism.searchview.sample.view.RecyclerViewAdapter.onCreateViewHolder, returnValue: ViewHolder{dfef556 position=-1 id=-1, oldPos=-1, pLpos:-1 unbound no parent} '
---
> AFTER android.view.LayoutInflater.inflate, returnValue: android.widget.LinearLayout{1929d521 V.E...C. ......ID 0,0-0,0}
> AFTER com.lapism.searchview.sample.view.RecyclerViewAdapter.onCreateViewHolder, returnValue: ViewHolder{311c5b07 position=-1 id=-1, oldPos=-1, pLpos:-1 unbound no parent} '
401a452,459
> BEFORE com.lapism.searchview.SearchDivider.getItemOffsets(android.graphics.Rect,android.widget.LinearLayout,android.support.v7.widget.RecyclerView,android.support.v7.widget.RecyclerView$State)
> BEFORE android.support.v7.widget.RecyclerView$LayoutParams.getViewLayoutPosition()
> AFTER android.support.v7.widget.RecyclerView$LayoutParams.getViewLayoutPosition, returnValue: 4
> BEFORE android.support.v7.widget.RecyclerView.getLayoutManager()
> AFTER android.support.v7.widget.RecyclerView.getLayoutManager, returnValue: android.support.v7.widget.LinearLayoutManager
> BEFORE android.support.v7.widget.LinearLayoutManager.getOrientation()
> AFTER android.support.v7.widget.LinearLayoutManager.getOrientation, returnValue: 1
> AFTER com.lapism.searchview.SearchDivider.getItemOffsets
408,409c466,467
< AFTER android.view.LayoutInflater.inflate, returnValue: android.support.v7.widget.CardView{35a92ccf V.ED..C. ......I. 0,0-0,0}
< AFTER com.lapism.searchview.sample.view.RecyclerViewAdapter.onCreateViewHolder, returnValue: ViewHolder{1431fd65 position=-1 id=-1, oldPos=-1, pLpos:-1 unbound no parent} '
---
> AFTER android.view.LayoutInflater.inflate, returnValue: android.widget.LinearLayout{e99a0a3 V.E...C. ......ID 0,0-0,0}
> AFTER com.lapism.searchview.sample.view.RecyclerViewAdapter.onCreateViewHolder, returnValue: ViewHolder{28a70759 position=-1 id=-1, oldPos=-1, pLpos:-1 unbound no parent} '
411a470,495
> BEFORE com.lapism.searchview.SearchDivider.getItemOffsets(android.graphics.Rect,android.widget.LinearLayout,android.support.v7.widget.RecyclerView,android.support.v7.widget.RecyclerView$State)
> BEFORE android.support.v7.widget.RecyclerView$LayoutParams.getViewLayoutPosition()
> AFTER android.support.v7.widget.RecyclerView$LayoutParams.getViewLayoutPosition, returnValue: 5
> BEFORE android.support.v7.widget.RecyclerView.getLayoutManager()
> AFTER android.support.v7.widget.RecyclerView.getLayoutManager, returnValue: android.support.v7.widget.LinearLayoutManager
> BEFORE android.support.v7.widget.LinearLayoutManager.getOrientation()
> AFTER android.support.v7.widget.LinearLayoutManager.getOrientation, returnValue: 1
> AFTER com.lapism.searchview.SearchDivider.getItemOffsets
> BEFORE com.lapism.searchview.sample.view.RecyclerViewAdapter.getItemCount()
> AFTER com.lapism.searchview.sample.view.RecyclerViewAdapter.getItemCount, returnValue: 30
> BEFORE com.lapism.searchview.sample.view.RecyclerViewAdapter.onCreateViewHolder(android.support.v7.widget.RecyclerView,0)
> BEFORE android.view.LayoutInflater.from(com.lapism.searchview.sample.activity.menu.ToolbarActivity)
> AFTER android.view.LayoutInflater.from, returnValue: com.android.internal.policy.impl.PhoneLayoutInflater
> BEFORE android.view.LayoutInflater.inflate(2130968624,android.support.v7.widget.RecyclerView,false)
> AFTER android.view.LayoutInflater.inflate, returnValue: android.widget.LinearLayout{1037c015 V.E...C. ......ID 0,0-0,0}
> AFTER com.lapism.searchview.sample.view.RecyclerViewAdapter.onCreateViewHolder, returnValue: ViewHolder{3b90811b position=-1 id=-1, oldPos=-1, pLpos:-1 unbound no parent} '
> BEFORE com.lapism.searchview.sample.view.RecyclerViewAdapter.onBindViewHolder(com.lapism.searchview.sample.view.RecyclerViewAdapter$ViewHolder,6)
> AFTER com.lapism.searchview.sample.view.RecyclerViewAdapter.onBindViewHolder
> BEFORE com.lapism.searchview.SearchDivider.getItemOffsets(android.graphics.Rect,android.widget.LinearLayout,android.support.v7.widget.RecyclerView,android.support.v7.widget.RecyclerView$State)
> BEFORE android.support.v7.widget.RecyclerView$LayoutParams.getViewLayoutPosition()
> AFTER android.support.v7.widget.RecyclerView$LayoutParams.getViewLayoutPosition, returnValue: 6
> BEFORE android.support.v7.widget.RecyclerView.getLayoutManager()
> AFTER android.support.v7.widget.RecyclerView.getLayoutManager, returnValue: android.support.v7.widget.LinearLayoutManager
> BEFORE android.support.v7.widget.LinearLayoutManager.getOrientation()
> AFTER android.support.v7.widget.LinearLayoutManager.getOrientation, returnValue: 1
> AFTER com.lapism.searchview.SearchDivider.getItemOffsets
422,423c506,507
< AFTER android.view.LayoutInflater.inflate, returnValue: android.support.v7.widget.CardView{35f7692 V.ED..C. ......I. 0,0-0,0}
< AFTER com.lapism.searchview.sample.view.RecyclerViewAdapter.onCreateViewHolder, returnValue: ViewHolder{fbb8c60 position=-1 id=-1, oldPos=-1, pLpos:-1 unbound no parent} '
---
> AFTER android.view.LayoutInflater.inflate, returnValue: android.widget.LinearLayout{1bac13f7 V.E...C. ......ID 0,0-0,0}
> AFTER com.lapism.searchview.sample.view.RecyclerViewAdapter.onCreateViewHolder, returnValue: ViewHolder{1c0dccd position=-1 id=-1, oldPos=-1, pLpos:-1 unbound no parent} '
425a510,517
> BEFORE com.lapism.searchview.SearchDivider.getItemOffsets(android.graphics.Rect,android.widget.LinearLayout,android.support.v7.widget.RecyclerView,android.support.v7.widget.RecyclerView$State)
> BEFORE android.support.v7.widget.RecyclerView$LayoutParams.getViewLayoutPosition()
> AFTER android.support.v7.widget.RecyclerView$LayoutParams.getViewLayoutPosition, returnValue: 0
> BEFORE android.support.v7.widget.RecyclerView.getLayoutManager()
> AFTER android.support.v7.widget.RecyclerView.getLayoutManager, returnValue: android.support.v7.widget.LinearLayoutManager
> BEFORE android.support.v7.widget.LinearLayoutManager.getOrientation()
> AFTER android.support.v7.widget.LinearLayoutManager.getOrientation, returnValue: 1
> AFTER com.lapism.searchview.SearchDivider.getItemOffsets
432,433c524,525
< AFTER android.view.LayoutInflater.inflate, returnValue: android.support.v7.widget.CardView{2eda6e51 V.ED..C. ......I. 0,0-0,0}
< AFTER com.lapism.searchview.sample.view.RecyclerViewAdapter.onCreateViewHolder, returnValue: ViewHolder{23120fb7 position=-1 id=-1, oldPos=-1, pLpos:-1 unbound no parent} '
---
> AFTER android.view.LayoutInflater.inflate, returnValue: android.widget.LinearLayout{2a5dbce V.E...C. ......ID 0,0-0,0}
> AFTER com.lapism.searchview.sample.view.RecyclerViewAdapter.onCreateViewHolder, returnValue: ViewHolder{247929fc position=-1 id=-1, oldPos=-1, pLpos:-1 unbound no parent} '
435a528,535
> BEFORE com.lapism.searchview.SearchDivider.getItemOffsets(android.graphics.Rect,android.widget.LinearLayout,android.support.v7.widget.RecyclerView,android.support.v7.widget.RecyclerView$State)
> BEFORE android.support.v7.widget.RecyclerView$LayoutParams.getViewLayoutPosition()
> AFTER android.support.v7.widget.RecyclerView$LayoutParams.getViewLayoutPosition, returnValue: 1
> BEFORE android.support.v7.widget.RecyclerView.getLayoutManager()
> AFTER android.support.v7.widget.RecyclerView.getLayoutManager, returnValue: android.support.v7.widget.LinearLayoutManager
> BEFORE android.support.v7.widget.LinearLayoutManager.getOrientation()
> AFTER android.support.v7.widget.LinearLayoutManager.getOrientation, returnValue: 1
> AFTER com.lapism.searchview.SearchDivider.getItemOffsets
442,443c542,543
< AFTER android.view.LayoutInflater.inflate, returnValue: android.support.v7.widget.CardView{17e732bc V.ED..C. ......I. 0,0-0,0}
< AFTER com.lapism.searchview.sample.view.RecyclerViewAdapter.onCreateViewHolder, returnValue: ViewHolder{92cfd9a position=-1 id=-1, oldPos=-1, pLpos:-1 unbound no parent} '
---
> AFTER android.view.LayoutInflater.inflate, returnValue: android.widget.LinearLayout{222ce9e8 V.E...C. ......ID 0,0-0,0}
> AFTER com.lapism.searchview.sample.view.RecyclerViewAdapter.onCreateViewHolder, returnValue: ViewHolder{31cd96a6 position=-1 id=-1, oldPos=-1, pLpos:-1 unbound no parent} '
445a546,553
> BEFORE com.lapism.searchview.SearchDivider.getItemOffsets(android.graphics.Rect,android.widget.LinearLayout,android.support.v7.widget.RecyclerView,android.support.v7.widget.RecyclerView$State)
> BEFORE android.support.v7.widget.RecyclerView$LayoutParams.getViewLayoutPosition()
> AFTER android.support.v7.widget.RecyclerView$LayoutParams.getViewLayoutPosition, returnValue: 2
> BEFORE android.support.v7.widget.RecyclerView.getLayoutManager()
> AFTER android.support.v7.widget.RecyclerView.getLayoutManager, returnValue: android.support.v7.widget.LinearLayoutManager
> BEFORE android.support.v7.widget.LinearLayoutManager.getOrientation()
> AFTER android.support.v7.widget.LinearLayoutManager.getOrientation, returnValue: 1
> AFTER com.lapism.searchview.SearchDivider.getItemOffsets
452,453c560,561
< AFTER android.view.LayoutInflater.inflate, returnValue: android.support.v7.widget.CardView{37e39443 V.ED..C. ......I. 0,0-0,0}
< AFTER com.lapism.searchview.sample.view.RecyclerViewAdapter.onCreateViewHolder, returnValue: ViewHolder{3fca33f9 position=-1 id=-1, oldPos=-1, pLpos:-1 unbound no parent} '
---
> AFTER android.view.LayoutInflater.inflate, returnValue: android.widget.LinearLayout{3eac7732 V.E...C. ......ID 0,0-0,0}
> AFTER com.lapism.searchview.sample.view.RecyclerViewAdapter.onCreateViewHolder, returnValue: ViewHolder{19f10e00 position=-1 id=-1, oldPos=-1, pLpos:-1 unbound no parent} '
455a564,571
> BEFORE com.lapism.searchview.SearchDivider.getItemOffsets(android.graphics.Rect,android.widget.LinearLayout,android.support.v7.widget.RecyclerView,android.support.v7.widget.RecyclerView$State)
> BEFORE android.support.v7.widget.RecyclerView$LayoutParams.getViewLayoutPosition()
> AFTER android.support.v7.widget.RecyclerView$LayoutParams.getViewLayoutPosition, returnValue: 3
> BEFORE android.support.v7.widget.RecyclerView.getLayoutManager()
> AFTER android.support.v7.widget.RecyclerView.getLayoutManager, returnValue: android.support.v7.widget.LinearLayoutManager
> BEFORE android.support.v7.widget.LinearLayoutManager.getOrientation()
> AFTER android.support.v7.widget.LinearLayoutManager.getOrientation, returnValue: 1
> AFTER com.lapism.searchview.SearchDivider.getItemOffsets
462,463c578,579
< AFTER android.view.LayoutInflater.inflate, returnValue: android.support.v7.widget.CardView{1dd4e816 V.ED..C. ......I. 0,0-0,0}
< AFTER com.lapism.searchview.sample.view.RecyclerViewAdapter.onCreateViewHolder, returnValue: ViewHolder{2db88384 position=-1 id=-1, oldPos=-1, pLpos:-1 unbound no parent} '
---
> AFTER android.view.LayoutInflater.inflate, returnValue: android.widget.LinearLayout{39590a2c V.E...C. ......ID 0,0-0,0}
> AFTER com.lapism.searchview.sample.view.RecyclerViewAdapter.onCreateViewHolder, returnValue: ViewHolder{3157ba8a position=-1 id=-1, oldPos=-1, pLpos:-1 unbound no parent} '
465a582,589
> BEFORE com.lapism.searchview.SearchDivider.getItemOffsets(android.graphics.Rect,android.widget.LinearLayout,android.support.v7.widget.RecyclerView,android.support.v7.widget.RecyclerView$State)
> BEFORE android.support.v7.widget.RecyclerView$LayoutParams.getViewLayoutPosition()
> AFTER android.support.v7.widget.RecyclerView$LayoutParams.getViewLayoutPosition, returnValue: 4
> BEFORE android.support.v7.widget.RecyclerView.getLayoutManager()
> AFTER android.support.v7.widget.RecyclerView.getLayoutManager, returnValue: android.support.v7.widget.LinearLayoutManager
> BEFORE android.support.v7.widget.LinearLayoutManager.getOrientation()
> AFTER android.support.v7.widget.LinearLayoutManager.getOrientation, returnValue: 1
> AFTER com.lapism.searchview.SearchDivider.getItemOffsets
472,473c596,597
< AFTER android.view.LayoutInflater.inflate, returnValue: android.support.v7.widget.CardView{3c561725 V.ED..C. ......I. 0,0-0,0}
< AFTER com.lapism.searchview.sample.view.RecyclerViewAdapter.onCreateViewHolder, returnValue: ViewHolder{c81d6ab position=-1 id=-1, oldPos=-1, pLpos:-1 unbound no parent} '
---
> AFTER android.view.LayoutInflater.inflate, returnValue: android.widget.LinearLayout{dfef556 V.E...C. ......ID 0,0-0,0}
> AFTER com.lapism.searchview.sample.view.RecyclerViewAdapter.onCreateViewHolder, returnValue: ViewHolder{1d7072c4 position=-1 id=-1, oldPos=-1, pLpos:-1 unbound no parent} '
475a600,669
> BEFORE com.lapism.searchview.SearchDivider.getItemOffsets(android.graphics.Rect,android.widget.LinearLayout,android.support.v7.widget.RecyclerView,android.support.v7.widget.RecyclerView$State)
> BEFORE android.support.v7.widget.RecyclerView$LayoutParams.getViewLayoutPosition()
> AFTER android.support.v7.widget.RecyclerView$LayoutParams.getViewLayoutPosition, returnValue: 5
> BEFORE android.support.v7.widget.RecyclerView.getLayoutManager()
> AFTER android.support.v7.widget.RecyclerView.getLayoutManager, returnValue: android.support.v7.widget.LinearLayoutManager
> BEFORE android.support.v7.widget.LinearLayoutManager.getOrientation()
> AFTER android.support.v7.widget.LinearLayoutManager.getOrientation, returnValue: 1
> AFTER com.lapism.searchview.SearchDivider.getItemOffsets
> BEFORE com.lapism.searchview.sample.view.RecyclerViewAdapter.getItemCount()
> AFTER com.lapism.searchview.sample.view.RecyclerViewAdapter.getItemCount, returnValue: 30
> BEFORE com.lapism.searchview.sample.view.RecyclerViewAdapter.onCreateViewHolder(android.support.v7.widget.RecyclerView,0)
> BEFORE android.view.LayoutInflater.from(com.lapism.searchview.sample.activity.menu.ToolbarActivity)
> AFTER android.view.LayoutInflater.from, returnValue: com.android.internal.policy.impl.PhoneLayoutInflater
> BEFORE android.view.LayoutInflater.inflate(2130968624,android.support.v7.widget.RecyclerView,false)
> AFTER android.view.LayoutInflater.inflate, returnValue: android.widget.LinearLayout{3c63f730 V.E...C. ......ID 0,0-0,0}
> AFTER com.lapism.searchview.sample.view.RecyclerViewAdapter.onCreateViewHolder, returnValue: ViewHolder{7ef592e position=-1 id=-1, oldPos=-1, pLpos:-1 unbound no parent} '
> BEFORE com.lapism.searchview.sample.view.RecyclerViewAdapter.onBindViewHolder(com.lapism.searchview.sample.view.RecyclerViewAdapter$ViewHolder,6)
> AFTER com.lapism.searchview.sample.view.RecyclerViewAdapter.onBindViewHolder
> BEFORE com.lapism.searchview.SearchDivider.getItemOffsets(android.graphics.Rect,android.widget.LinearLayout,android.support.v7.widget.RecyclerView,android.support.v7.widget.RecyclerView$State)
> BEFORE android.support.v7.widget.RecyclerView$LayoutParams.getViewLayoutPosition()
> AFTER android.support.v7.widget.RecyclerView$LayoutParams.getViewLayoutPosition, returnValue: 6
> BEFORE android.support.v7.widget.RecyclerView.getLayoutManager()
> AFTER android.support.v7.widget.RecyclerView.getLayoutManager, returnValue: android.support.v7.widget.LinearLayoutManager
> BEFORE android.support.v7.widget.LinearLayoutManager.getOrientation()
> AFTER android.support.v7.widget.LinearLayoutManager.getOrientation, returnValue: 1
> AFTER com.lapism.searchview.SearchDivider.getItemOffsets
> BEFORE com.lapism.searchview.SearchBehavior.layoutDependsOn(android.support.design.widget.CoordinatorLayout,com.lapism.searchview.SearchView,android.support.design.widget.AppBarLayout)
> BEFORE android.support.design.widget.CoordinatorLayout$LayoutParams.getBehavior()
> AFTER android.support.design.widget.CoordinatorLayout$LayoutParams.getBehavior, returnValue: android.support.design.widget.AppBarLayout$Behavior
> AFTER com.lapism.searchview.SearchBehavior.layoutDependsOn, returnValue: true
> BEFORE com.lapism.searchview.SearchBehavior.onDependentViewChanged(android.support.design.widget.CoordinatorLayout,com.lapism.searchview.SearchView,android.support.design.widget.AppBarLayout)
> AFTER com.lapism.searchview.SearchBehavior.onDependentViewChanged, returnValue: true
> BEFORE com.lapism.searchview.SearchDivider.onDraw(android.view.GLES20RecordingCanvas,android.support.v7.widget.RecyclerView,android.support.v7.widget.RecyclerView$State)
> BEFORE android.support.v7.widget.RecyclerView.getLayoutManager()
> AFTER android.support.v7.widget.RecyclerView.getLayoutManager, returnValue: android.support.v7.widget.LinearLayoutManager
> BEFORE android.support.v7.widget.LinearLayoutManager.getOrientation()
> AFTER android.support.v7.widget.LinearLayoutManager.getOrientation, returnValue: 1
> BEFORE android.support.v7.widget.RecyclerView$LayoutParams.getViewLayoutPosition()
> AFTER android.support.v7.widget.RecyclerView$LayoutParams.getViewLayoutPosition, returnValue: 0
> BEFORE android.support.v7.widget.RecyclerView$LayoutParams.getViewLayoutPosition()
> AFTER android.support.v7.widget.RecyclerView$LayoutParams.getViewLayoutPosition, returnValue: 1
> BEFORE android.support.v7.widget.RecyclerView$LayoutParams.getViewLayoutPosition()
> AFTER android.support.v7.widget.RecyclerView$LayoutParams.getViewLayoutPosition, returnValue: 2
> BEFORE android.support.v7.widget.RecyclerView$LayoutParams.getViewLayoutPosition()
> AFTER android.support.v7.widget.RecyclerView$LayoutParams.getViewLayoutPosition, returnValue: 3
> BEFORE android.support.v7.widget.RecyclerView$LayoutParams.getViewLayoutPosition()
> AFTER android.support.v7.widget.RecyclerView$LayoutParams.getViewLayoutPosition, returnValue: 4
> BEFORE android.support.v7.widget.RecyclerView$LayoutParams.getViewLayoutPosition()
> AFTER android.support.v7.widget.RecyclerView$LayoutParams.getViewLayoutPosition, returnValue: 5
> BEFORE android.support.v7.widget.RecyclerView$LayoutParams.getViewLayoutPosition()
> AFTER android.support.v7.widget.RecyclerView$LayoutParams.getViewLayoutPosition, returnValue: 6
> AFTER com.lapism.searchview.SearchDivider.onDraw
> BEFORE com.lapism.searchview.sample.view.FragmentAdapter.getCount()
> AFTER com.lapism.searchview.sample.view.FragmentAdapter.getCount, returnValue: 2
> BEFORE com.lapism.searchview.sample.view.FragmentAdapter.getCount()
> AFTER com.lapism.searchview.sample.view.FragmentAdapter.getCount, returnValue: 2
> BEFORE com.lapism.searchview.SearchView$7.run()
> BEFORE android.support.v4.widget.DrawerLayout.isDrawerOpen(8388611)
> BEFORE android.support.v4.widget.DrawerLayout.isDrawerOpen(8388611)
> AFTER android.support.v4.widget.DrawerLayout.isDrawerOpen, returnValue: false
> AFTER android.support.v4.widget.DrawerLayout.isDrawerOpen, returnValue: false
> BEFORE android.support.design.widget.FloatingActionButton.show()
> BEFORE android.support.design.widget.FloatingActionButton.show()
> AFTER android.support.design.widget.FloatingActionButton.show
> AFTER android.support.design.widget.FloatingActionButton.show
> AFTER com.lapism.searchview.SearchView$7.run
> BEFORE com.lapism.searchview.sample.view.RecyclerViewAdapter.getItemCount()
> AFTER com.lapism.searchview.sample.view.RecyclerViewAdapter.getItemCount, returnValue: 30
> BEFORE com.lapism.searchview.sample.view.RecyclerViewAdapter.getItemCount()
> AFTER com.lapism.searchview.sample.view.RecyclerViewAdapter.getItemCount, returnValue: 30
487a682,807
> BEFORE com.lapism.searchview.sample.view.FragmentAdapter.getCount()
> AFTER com.lapism.searchview.sample.view.FragmentAdapter.getCount, returnValue: 2
> BEFORE com.lapism.searchview.sample.view.FragmentAdapter.getCount()
> AFTER com.lapism.searchview.sample.view.FragmentAdapter.getCount, returnValue: 2
> BEFORE com.lapism.searchview.sample.view.RecyclerViewAdapter.getItemCount()
> AFTER com.lapism.searchview.sample.view.RecyclerViewAdapter.getItemCount, returnValue: 30
> BEFORE com.lapism.searchview.sample.view.RecyclerViewAdapter.getItemCount()
> AFTER com.lapism.searchview.sample.view.RecyclerViewAdapter.getItemCount, returnValue: 30
> BEFORE com.lapism.searchview.sample.view.RecyclerViewAdapter.getItemCount()
> AFTER com.lapism.searchview.sample.view.RecyclerViewAdapter.getItemCount, returnValue: 30
> BEFORE com.lapism.searchview.sample.view.RecyclerViewAdapter.getItemCount()
> AFTER com.lapism.searchview.sample.view.RecyclerViewAdapter.getItemCount, returnValue: 30
> BEFORE com.lapism.searchview.sample.view.RecyclerViewAdapter.getItemCount()
> AFTER com.lapism.searchview.sample.view.RecyclerViewAdapter.getItemCount, returnValue: 30
> BEFORE com.lapism.searchview.sample.view.RecyclerViewAdapter.getItemCount()
> AFTER com.lapism.searchview.sample.view.RecyclerViewAdapter.getItemCount, returnValue: 30
> BEFORE com.lapism.searchview.sample.view.RecyclerViewAdapter.getItemCount()
> AFTER com.lapism.searchview.sample.view.RecyclerViewAdapter.getItemCount, returnValue: 30
> BEFORE com.lapism.searchview.sample.view.RecyclerViewAdapter.getItemCount()
> AFTER com.lapism.searchview.sample.view.RecyclerViewAdapter.getItemCount, returnValue: 30
> BEFORE com.lapism.searchview.sample.view.RecyclerViewAdapter.getItemCount()
> AFTER com.lapism.searchview.sample.view.RecyclerViewAdapter.getItemCount, returnValue: 30
> BEFORE com.lapism.searchview.sample.view.RecyclerViewAdapter.getItemCount()
> AFTER com.lapism.searchview.sample.view.RecyclerViewAdapter.getItemCount, returnValue: 30
> BEFORE com.lapism.searchview.sample.view.RecyclerViewAdapter.getItemCount()
> AFTER com.lapism.searchview.sample.view.RecyclerViewAdapter.getItemCount, returnValue: 30
> BEFORE com.lapism.searchview.sample.view.RecyclerViewAdapter.getItemCount()
> AFTER com.lapism.searchview.sample.view.RecyclerViewAdapter.getItemCount, returnValue: 30
> BEFORE com.lapism.searchview.sample.view.RecyclerViewAdapter.getItemCount()
> AFTER com.lapism.searchview.sample.view.RecyclerViewAdapter.getItemCount, returnValue: 30
> BEFORE com.lapism.searchview.sample.view.RecyclerViewAdapter.getItemCount()
> AFTER com.lapism.searchview.sample.view.RecyclerViewAdapter.getItemCount, returnValue: 30
> BEFORE com.lapism.searchview.sample.view.RecyclerViewAdapter.getItemCount()
> AFTER com.lapism.searchview.sample.view.RecyclerViewAdapter.getItemCount, returnValue: 30
> BEFORE com.lapism.searchview.sample.view.RecyclerViewAdapter.getItemCount()
> AFTER com.lapism.searchview.sample.view.RecyclerViewAdapter.getItemCount, returnValue: 30
> BEFORE com.lapism.searchview.sample.view.RecyclerViewAdapter.getItemCount()
> AFTER com.lapism.searchview.sample.view.RecyclerViewAdapter.getItemCount, returnValue: 30
> BEFORE com.lapism.searchview.sample.view.RecyclerViewAdapter.getItemCount()
> AFTER com.lapism.searchview.sample.view.RecyclerViewAdapter.getItemCount, returnValue: 30
> BEFORE com.lapism.searchview.SearchDivider.onDraw(android.view.GLES20RecordingCanvas,android.support.v7.widget.RecyclerView,android.support.v7.widget.RecyclerView$State)
> BEFORE android.support.v7.widget.RecyclerView.getLayoutManager()
> AFTER android.support.v7.widget.RecyclerView.getLayoutManager, returnValue: android.support.v7.widget.LinearLayoutManager
> BEFORE android.support.v7.widget.LinearLayoutManager.getOrientation()
> AFTER android.support.v7.widget.LinearLayoutManager.getOrientation, returnValue: 1
> BEFORE android.support.v7.widget.RecyclerView$LayoutParams.getViewLayoutPosition()
> AFTER android.support.v7.widget.RecyclerView$LayoutParams.getViewLayoutPosition, returnValue: 0
> BEFORE android.support.v7.widget.RecyclerView$LayoutParams.getViewLayoutPosition()
> AFTER android.support.v7.widget.RecyclerView$LayoutParams.getViewLayoutPosition, returnValue: 1
> BEFORE android.support.v7.widget.RecyclerView$LayoutParams.getViewLayoutPosition()
> AFTER android.support.v7.widget.RecyclerView$LayoutParams.getViewLayoutPosition, returnValue: 2
> BEFORE android.support.v7.widget.RecyclerView$LayoutParams.getViewLayoutPosition()
> AFTER android.support.v7.widget.RecyclerView$LayoutParams.getViewLayoutPosition, returnValue: 3
> BEFORE android.support.v7.widget.RecyclerView$LayoutParams.getViewLayoutPosition()
> AFTER android.support.v7.widget.RecyclerView$LayoutParams.getViewLayoutPosition, returnValue: 4
> BEFORE android.support.v7.widget.RecyclerView$LayoutParams.getViewLayoutPosition()
> AFTER android.support.v7.widget.RecyclerView$LayoutParams.getViewLayoutPosition, returnValue: 5
> BEFORE android.support.v7.widget.RecyclerView$LayoutParams.getViewLayoutPosition()
> AFTER android.support.v7.widget.RecyclerView$LayoutParams.getViewLayoutPosition, returnValue: 6
> AFTER com.lapism.searchview.SearchDivider.onDraw
> BEFORE com.lapism.searchview.sample.view.FragmentAdapter.getCount()
> AFTER com.lapism.searchview.sample.view.FragmentAdapter.getCount, returnValue: 2
> BEFORE com.lapism.searchview.sample.view.RecyclerViewAdapter.getItemCount()
> AFTER com.lapism.searchview.sample.view.RecyclerViewAdapter.getItemCount, returnValue: 30
> BEFORE com.lapism.searchview.sample.view.FragmentAdapter.getCount()
> AFTER com.lapism.searchview.sample.view.FragmentAdapter.getCount, returnValue: 2
> BEFORE com.lapism.searchview.sample.view.RecyclerViewAdapter.getItemCount()
> AFTER com.lapism.searchview.sample.view.RecyclerViewAdapter.getItemCount, returnValue: 30
> BEFORE com.lapism.searchview.sample.view.RecyclerViewAdapter.getItemCount()
> AFTER com.lapism.searchview.sample.view.RecyclerViewAdapter.getItemCount, returnValue: 30
> BEFORE com.lapism.searchview.SearchBehavior.layoutDependsOn(android.support.design.widget.CoordinatorLayout,com.lapism.searchview.SearchView,android.support.design.widget.AppBarLayout)
> BEFORE android.support.design.widget.CoordinatorLayout$LayoutParams.getBehavior()
> AFTER android.support.design.widget.CoordinatorLayout$LayoutParams.getBehavior, returnValue: android.support.design.widget.AppBarLayout$Behavior
> AFTER com.lapism.searchview.SearchBehavior.layoutDependsOn, returnValue: true
> BEFORE com.lapism.searchview.SearchBehavior.layoutDependsOn(android.support.design.widget.CoordinatorLayout,com.lapism.searchview.SearchView,android.support.v4.view.ViewPager)
> BEFORE android.support.design.widget.CoordinatorLayout$Behavior.layoutDependsOn(android.support.design.widget.CoordinatorLayout,com.lapism.searchview.SearchView,android.support.v4.view.ViewPager)
> AFTER android.support.design.widget.CoordinatorLayout$Behavior.layoutDependsOn, returnValue: false
> AFTER com.lapism.searchview.SearchBehavior.layoutDependsOn, returnValue: false
> BEFORE com.lapism.searchview.SearchBehavior.layoutDependsOn(android.support.design.widget.CoordinatorLayout,com.lapism.searchview.SearchView,android.support.design.widget.FloatingActionButton)
> BEFORE android.support.design.widget.CoordinatorLayout$Behavior.layoutDependsOn(android.support.design.widget.CoordinatorLayout,com.lapism.searchview.SearchView,android.support.design.widget.FloatingActionButton)
> AFTER android.support.design.widget.CoordinatorLayout$Behavior.layoutDependsOn, returnValue: false
> AFTER com.lapism.searchview.SearchBehavior.layoutDependsOn, returnValue: false
> BEFORE com.lapism.searchview.SearchDivider.onDraw(android.view.GLES20RecordingCanvas,android.support.v7.widget.RecyclerView,android.support.v7.widget.RecyclerView$State)
> BEFORE android.support.v7.widget.RecyclerView.getLayoutManager()
> AFTER android.support.v7.widget.RecyclerView.getLayoutManager, returnValue: android.support.v7.widget.LinearLayoutManager
> BEFORE android.support.v7.widget.LinearLayoutManager.getOrientation()
> AFTER android.support.v7.widget.LinearLayoutManager.getOrientation, returnValue: 1
> BEFORE android.support.v7.widget.RecyclerView$LayoutParams.getViewLayoutPosition()
> AFTER android.support.v7.widget.RecyclerView$LayoutParams.getViewLayoutPosition, returnValue: 0
> BEFORE android.support.v7.widget.RecyclerView$LayoutParams.getViewLayoutPosition()
> AFTER android.support.v7.widget.RecyclerView$LayoutParams.getViewLayoutPosition, returnValue: 1
> BEFORE android.support.v7.widget.RecyclerView$LayoutParams.getViewLayoutPosition()
> AFTER android.support.v7.widget.RecyclerView$LayoutParams.getViewLayoutPosition, returnValue: 2
> BEFORE android.support.v7.widget.RecyclerView$LayoutParams.getViewLayoutPosition()
> AFTER android.support.v7.widget.RecyclerView$LayoutParams.getViewLayoutPosition, returnValue: 3
> BEFORE android.support.v7.widget.RecyclerView$LayoutParams.getViewLayoutPosition()
> AFTER android.support.v7.widget.RecyclerView$LayoutParams.getViewLayoutPosition, returnValue: 4
> BEFORE android.support.v7.widget.RecyclerView$LayoutParams.getViewLayoutPosition()
> AFTER android.support.v7.widget.RecyclerView$LayoutParams.getViewLayoutPosition, returnValue: 5
> BEFORE android.support.v7.widget.RecyclerView$LayoutParams.getViewLayoutPosition()
> AFTER android.support.v7.widget.RecyclerView$LayoutParams.getViewLayoutPosition, returnValue: 6
> AFTER com.lapism.searchview.SearchDivider.onDraw
> BEFORE com.lapism.searchview.sample.view.FragmentAdapter.getCount()
> AFTER com.lapism.searchview.sample.view.FragmentAdapter.getCount, returnValue: 2
> BEFORE com.lapism.searchview.sample.view.RecyclerViewAdapter.getItemCount()
> AFTER com.lapism.searchview.sample.view.RecyclerViewAdapter.getItemCount, returnValue: 30
> BEFORE com.lapism.searchview.sample.view.RecyclerViewAdapter.getItemCount()
> AFTER com.lapism.searchview.sample.view.RecyclerViewAdapter.getItemCount, returnValue: 30
> BEFORE com.lapism.searchview.sample.view.FragmentAdapter.getCount()
> AFTER com.lapism.searchview.sample.view.FragmentAdapter.getCount, returnValue: 2
> BEFORE com.lapism.searchview.sample.view.RecyclerViewAdapter.getItemCount()
> AFTER com.lapism.searchview.sample.view.RecyclerViewAdapter.getItemCount, returnValue: 30
> BEFORE com.lapism.searchview.sample.view.RecyclerViewAdapter.getItemCount()
> AFTER com.lapism.searchview.sample.view.RecyclerViewAdapter.getItemCount, returnValue: 30
> BEFORE com.squareup.leakcanary.ActivityRefWatcher$1.onActivityPaused(com.lapism.searchview.sample.activity.menu.ToolbarActivity)
> AFTER com.squareup.leakcanary.ActivityRefWatcher$1.onActivityPaused
> BEFORE com.lapism.searchview.SearchView.onSaveInstanceState()
> AFTER com.lapism.searchview.SearchView.onSaveInstanceState, returnValue: com.lapism.searchview.SearchView$SavedState
> BEFORE com.squareup.leakcanary.ActivityRefWatcher$1.onActivitySaveInstanceState(com.lapism.searchview.sample.activity.menu.ToolbarActivity,android.os.Bundle)
> AFTER com.squareup.leakcanary.ActivityRefWatcher$1.onActivitySaveInstanceState
> BEFORE com.squareup.leakcanary.ActivityRefWatcher$1.onActivityStopped(com.lapism.searchview.sample.activity.menu.ToolbarActivity)
> AFTER com.squareup.leakcanary.ActivityRefWatcher$1.onActivityStopped
> BEFORE com.lapism.searchview.SearchView$SavedState.writeToParcel(android.os.Parcel,0)
> BEFORE android.view.AbsSavedState.writeToParcel(android.os.Parcel,0)
> AFTER android.view.AbsSavedState.writeToParcel
> AFTER com.lapism.searchview.SearchView$SavedState.writeToParcel
