digraph SIB_treshold_2 {
"30883615-8444-41b4-9994-211921445322" [style=filled, fillcolor="#5E5E5E",fontcolor=white, label="java.lang.Thread.run\n Susp=0,95"];
"30883615-8444-41b4-9994-211921445322" -> "ab0ca780-3d3a-4a3d-b033-2c3822836198";
"ab0ca780-3d3a-4a3d-b033-2c3822836198" [style=filled, fillcolor="#C0C0C0", label="java.util.concurrent.ThreadPoolExecutor$Worker.run\n Susp=0,2646"];
"ab0ca780-3d3a-4a3d-b033-2c3822836198" -> "0f550ac1-a55d-42da-b246-870f2c4b7cdd";
"0f550ac1-a55d-42da-b246-870f2c4b7cdd" [style=filled, fillcolor="#C0C0C0", label="java.util.concurrent.ThreadPoolExecutor.runWorker\n Susp=0,2655"];
"0f550ac1-a55d-42da-b246-870f2c4b7cdd" -> "682b96fe-67d5-4306-bd5f-cfd35931f283";
"682b96fe-67d5-4306-bd5f-cfd35931f283" [style=filled, fillcolor="#C0C0C0", label="okhttp3.internal.NamedRunnable.run\n Susp=0,2664"];
"682b96fe-67d5-4306-bd5f-cfd35931f283" -> "097c1d7e-298d-4bb0-8b4d-e2668331d5af";
"097c1d7e-298d-4bb0-8b4d-e2668331d5af" [style=filled, fillcolor="#919191", label="okhttp3.RealCall$AsyncCall.execute\n Susp=0,4885"];
"097c1d7e-298d-4bb0-8b4d-e2668331d5af" -> "7f1512ff-85ec-4c3e-b16b-16e10df5f3a6";
"7f1512ff-85ec-4c3e-b16b-16e10df5f3a6" [style=filled, fillcolor="#C0C0C0", label="okhttp3.RealCall.access$100\n Susp=0,259"];
"7f1512ff-85ec-4c3e-b16b-16e10df5f3a6" -> "ebee15e8-6229-4a77-a467-b8b5f6829f84";
"ebee15e8-6229-4a77-a467-b8b5f6829f84" [style=filled, fillcolor="#C0C0C0", label="okhttp3.RealCall.getResponseWithInterceptorChain\n Susp=0,26"];
"ebee15e8-6229-4a77-a467-b8b5f6829f84" -> "23da5ea2-df1f-4abb-a830-0e7b1a2b07d4";
"23da5ea2-df1f-4abb-a830-0e7b1a2b07d4" [style=filled, fillcolor="#C0C0C0", label="okhttp3.internal.http.RealInterceptorChain.proceed\n Susp=0,2609"];
"23da5ea2-df1f-4abb-a830-0e7b1a2b07d4" -> "26c56fe4-980d-4d30-9751-c507438baa85";
"26c56fe4-980d-4d30-9751-c507438baa85" [style=filled, fillcolor="#919191", label="okhttp3.internal.http.RetryAndFollowUpInterceptor.intercept\n Susp=0,4885"];
"26c56fe4-980d-4d30-9751-c507438baa85" -> "648433d4-04d3-4c36-a62b-a2fa9b3d4c55";
"648433d4-04d3-4c36-a62b-a2fa9b3d4c55" [style=filled, fillcolor="#C0C0C0", label="okhttp3.internal.http.RealInterceptorChain.proceed\n Susp=0,259"];
"648433d4-04d3-4c36-a62b-a2fa9b3d4c55" -> "abcc0ec4-a321-4147-a3e9-681c1eecceb0";
"abcc0ec4-a321-4147-a3e9-681c1eecceb0" [style=filled, fillcolor="#C0C0C0", label="okhttp3.internal.http.BridgeInterceptor.intercept\n Susp=0,26"];
"abcc0ec4-a321-4147-a3e9-681c1eecceb0" -> "ffa99b6e-b2d6-4169-b7e5-31c5054fc591";
"ffa99b6e-b2d6-4169-b7e5-31c5054fc591" [style=filled, fillcolor="#C0C0C0", label="okhttp3.internal.http.RealInterceptorChain.proceed\n Susp=0,2609"];
"ffa99b6e-b2d6-4169-b7e5-31c5054fc591" -> "5e314adb-f0d6-4547-aeb0-fb726ce6d6b5";
"5e314adb-f0d6-4547-aeb0-fb726ce6d6b5" [style=filled, fillcolor="#C0C0C0", label="okhttp3.internal.cache.CacheInterceptor.intercept\n Susp=0,2618"];
"5e314adb-f0d6-4547-aeb0-fb726ce6d6b5" -> "6f0672f2-0ab9-4458-8019-bbe781fd2ccd";
"6f0672f2-0ab9-4458-8019-bbe781fd2ccd" [style=filled, fillcolor="#C0C0C0", label="okhttp3.internal.http.RealInterceptorChain.proceed\n Susp=0,2627"];
"6f0672f2-0ab9-4458-8019-bbe781fd2ccd" -> "76080fb2-5e15-4c44-a6e5-92b71e72bf1a";
"76080fb2-5e15-4c44-a6e5-92b71e72bf1a" [style=filled, fillcolor="#919191", label="okhttp3.internal.connection.ConnectInterceptor.intercept\n Susp=0,4903"];
"76080fb2-5e15-4c44-a6e5-92b71e72bf1a" -> "31512633-233e-431d-afc0-a6a58a9e54e4";
"31512633-233e-431d-afc0-a6a58a9e54e4" [style=filled, fillcolor="#C0C0C0", label="okhttp3.internal.connection.StreamAllocation.newStream\n Susp=0,2572"];
"31512633-233e-431d-afc0-a6a58a9e54e4" -> "38238ddd-70f0-497b-ba11-35cd342f33ae";
"38238ddd-70f0-497b-ba11-35cd342f33ae" [style=filled, fillcolor="#C0C0C0", label="okhttp3.internal.connection.StreamAllocation.findHealthyConnection\n Susp=0,2581"];
"38238ddd-70f0-497b-ba11-35cd342f33ae" -> "0b1c1ade-0185-4ac2-b64f-691f326c4f76";
"0b1c1ade-0185-4ac2-b64f-691f326c4f76" [style=filled, fillcolor="#C0C0C0", label="okhttp3.internal.connection.StreamAllocation.findConnection\n Susp=0,2591"];
"0b1c1ade-0185-4ac2-b64f-691f326c4f76" -> "83f330e9-f608-4a55-accc-b9998c204f9a";
"83f330e9-f608-4a55-accc-b9998c204f9a" [style=filled, fillcolor="#C0C0C0", label="okhttp3.internal.connection.RealConnection.connect\n Susp=0,26"];
"83f330e9-f608-4a55-accc-b9998c204f9a" -> "d3b7f89b-da7c-43bb-94cf-bfb52feac12f";
"d3b7f89b-da7c-43bb-94cf-bfb52feac12f" [style=filled, fillcolor="#C0C0C0", label="okhttp3.internal.connection.RealConnection.buildConnection\n Susp=0,2609"];
"d3b7f89b-da7c-43bb-94cf-bfb52feac12f" -> "19f2ce3a-b313-46bd-872d-74e186d3cea0";
"19f2ce3a-b313-46bd-872d-74e186d3cea0" [style=filled, fillcolor="#5E5E5E",fontcolor=white, label="okhttp3.internal.connection.RealConnection.establishProtocol\n Susp=0,7152"];
"19f2ce3a-b313-46bd-872d-74e186d3cea0" -> "15bacfcd-f6dc-48c9-b940-ddbe0b626679";
"15bacfcd-f6dc-48c9-b940-ddbe0b626679" [style=filled, fillcolor="#919191", label="okhttp3.internal.connection.RealConnection.connectTls\n Susp=0,482"];
"15bacfcd-f6dc-48c9-b940-ddbe0b626679" -> "fdaa97ac-e01e-4109-9134-70df9aa1b856";
"fdaa97ac-e01e-4109-9134-70df9aa1b856" [style=filled, fillcolor="#FFFFFF", label="com.android.org.conscrypt.OpenSSLSocketImpl.startHandshake\n Susp=0,0241"];
"15bacfcd-f6dc-48c9-b940-ddbe0b626679" -> "d38cfc2c-5872-4444-a07b-1a5a2b8d7e84";
"d38cfc2c-5872-4444-a07b-1a5a2b8d7e84" [style=filled, fillcolor="#FFFFFF", label="com.android.org.conscrypt.OpenSSLSocketImpl.getSession\n Susp=0,0259"];
"19f2ce3a-b313-46bd-872d-74e186d3cea0" -> "115b14fa-1b25-4733-8970-4bcea0171469";
"115b14fa-1b25-4733-8970-4bcea0171469" [style=filled, fillcolor="#FFFFFF", label="com.android.org.conscrypt.OpenSSLSocketImpl.setSoTimeout\n Susp=0,0231"];
"19f2ce3a-b313-46bd-872d-74e186d3cea0" -> "9e8ae9cc-fd4b-4337-8c49-129c81c2359d";
"9e8ae9cc-fd4b-4337-8c49-129c81c2359d" [style=filled, fillcolor="#FFFFFF", label="com.android.org.conscrypt.OpenSSLSocketImplWrapper.setSoTimeout\n Susp=0,0231"];
"76080fb2-5e15-4c44-a6e5-92b71e72bf1a" -> "c29010c8-3963-4659-a398-fa4ef853c665";
"c29010c8-3963-4659-a398-fa4ef853c665" [style=filled, fillcolor="#EBEBEB", label="okhttp3.internal.http.RealInterceptorChain.proceed\n Susp=0,248"];
"c29010c8-3963-4659-a398-fa4ef853c665" -> "e1e12ef0-de28-4912-815b-70442ec6ec51";
"e1e12ef0-de28-4912-815b-70442ec6ec51" [style=filled, fillcolor="#EBEBEB", label="okhttp3.internal.http.CallServerInterceptor.intercept\n Susp=0,2489"];
"e1e12ef0-de28-4912-815b-70442ec6ec51" -> "21a6578d-2f1e-467f-a2b8-9b98f7b66d98";
"21a6578d-2f1e-467f-a2b8-9b98f7b66d98" [style=filled, fillcolor="#EBEBEB", label="okhttp3.internal.http.Http2xStream.writeRequestHeaders\n Susp=0,2498"];
"21a6578d-2f1e-467f-a2b8-9b98f7b66d98" -> "c4a2af5a-5740-4fb5-8fcd-516ebcecc7cd";
"c4a2af5a-5740-4fb5-8fcd-516ebcecc7cd" [style=filled, fillcolor="#C0C0C0", label="okhttp3.internal.framed.FramedConnection.newStream\n Susp=0,2507"];
"c4a2af5a-5740-4fb5-8fcd-516ebcecc7cd" -> "c070e1d3-e25e-44c1-a012-f214dca459da";
"c070e1d3-e25e-44c1-a012-f214dca459da" [style=filled, fillcolor="#C0C0C0", label="okhttp3.internal.framed.Http2$Writer.flush\n Susp=0,2517"];
"c070e1d3-e25e-44c1-a012-f214dca459da" -> "9ea5e43e-d1eb-4035-a0c4-07c3389305eb";
"9ea5e43e-d1eb-4035-a0c4-07c3389305eb" [style=filled, fillcolor="#C0C0C0", label="okio.RealBufferedSink.flush\n Susp=0,2526"];
"9ea5e43e-d1eb-4035-a0c4-07c3389305eb" -> "9a429116-43cf-4547-829f-9f051b9e82ce";
"9a429116-43cf-4547-829f-9f051b9e82ce" [style=filled, fillcolor="#C0C0C0", label="okio.AsyncTimeout$1.write\n Susp=0,2535"];
"9a429116-43cf-4547-829f-9f051b9e82ce" -> "c07a71bf-b744-4c47-971e-10adf603ef8d";
"c07a71bf-b744-4c47-971e-10adf603ef8d" [style=filled, fillcolor="#C0C0C0", label="okio.Okio$1.write\n Susp=0,2544"];
"c07a71bf-b744-4c47-971e-10adf603ef8d" -> "248a939e-adcd-4b9b-b6f6-958a59091537";
"248a939e-adcd-4b9b-b6f6-958a59091537" [style=filled, fillcolor="#FFFFFF", label="com.android.org.conscrypt.OpenSSLSocketImpl$SSLOutputStream.write\n Susp=0,0287"];
"26c56fe4-980d-4d30-9751-c507438baa85" -> "4d5c90ac-107e-46c0-8714-fb927cf3ebfa";
"4d5c90ac-107e-46c0-8714-fb927cf3ebfa" [style=filled, fillcolor="#EBEBEB", label="okhttp3.internal.connection.StreamAllocation.<init>\n Susp=0,2387"];
"4d5c90ac-107e-46c0-8714-fb927cf3ebfa" -> "329b1f06-1e2d-4eca-acb5-3ebe81d87826";
"329b1f06-1e2d-4eca-acb5-3ebe81d87826" [style=filled, fillcolor="#EBEBEB", label="okhttp3.internal.connection.RouteSelector.<init>\n Susp=0,2396"];
"329b1f06-1e2d-4eca-acb5-3ebe81d87826" -> "2d47d96e-1264-43e2-84fd-53b3f85affcd";
"2d47d96e-1264-43e2-84fd-53b3f85affcd" [style=filled, fillcolor="#EBEBEB", label="okhttp3.internal.connection.RouteSelector.resetNextProxy\n Susp=0,2406"];
"2d47d96e-1264-43e2-84fd-53b3f85affcd" -> "d832572e-bbad-481a-b14a-8daf9de36310";
"d832572e-bbad-481a-b14a-8daf9de36310" [style=filled, fillcolor="#FFFFFF", label="sun.net.spi.DefaultProxySelector.select\n Susp=0,0148"];
"097c1d7e-298d-4bb0-8b4d-e2668331d5af" -> "a8823e3c-fee6-47b3-96a5-92172fc55aff";
"a8823e3c-fee6-47b3-96a5-92172fc55aff" [style=filled, fillcolor="#EBEBEB", label="com.kamron.pogoiv.updater.AppUpdateUtil$1.onResponse\n Susp=0,235"];
"a8823e3c-fee6-47b3-96a5-92172fc55aff" -> "d8200a90-4bcf-4ee5-8f51-4d992fcf3b66";
"d8200a90-4bcf-4ee5-8f51-4d992fcf3b66" [style=filled, fillcolor="#EBEBEB", label="com.kamron.pogoiv.MainActivity.createUpdateDialogIntent\n Susp=0,2359"];
"d8200a90-4bcf-4ee5-8f51-4d992fcf3b66" -> "1189fd55-c87d-4277-a2de-1b7733654247";
"1189fd55-c87d-4277-a2de-1b7733654247" [style=filled, fillcolor="#FFFFFF", label="android.content.Intent.putExtra\n Susp=0,0102"];
"30883615-8444-41b4-9994-211921445322" -> "f38b7ed4-5c87-478a-802b-21de151f3769";
"f38b7ed4-5c87-478a-802b-21de151f3769" [style=filled, fillcolor="#EBEBEB", label="okhttp3.internal.NamedRunnable.run\n Susp=0,2498"];
"f38b7ed4-5c87-478a-802b-21de151f3769" -> "2aad2de5-a609-4193-b7f3-d58f8715994f";
"2aad2de5-a609-4193-b7f3-d58f8715994f" [style=filled, fillcolor="#EBEBEB", label="okhttp3.internal.framed.FramedConnection$Reader.execute\n Susp=0,2433"];
"2aad2de5-a609-4193-b7f3-d58f8715994f" -> "39f644f3-402e-43a6-ab77-0017a50303b3";
"39f644f3-402e-43a6-ab77-0017a50303b3" [style=filled, fillcolor="#919191", label="okhttp3.internal.framed.Http2$Reader.nextFrame\n Susp=0,4635"];
"39f644f3-402e-43a6-ab77-0017a50303b3" -> "d51db697-1f7c-460e-9a58-0331defa2cbd";
"d51db697-1f7c-460e-9a58-0331defa2cbd" [style=filled, fillcolor="#EBEBEB", label="okhttp3.internal.framed.Http2$Reader.readData\n Susp=0,2341"];
"d51db697-1f7c-460e-9a58-0331defa2cbd" -> "fbbd5daa-cd26-4b82-846b-3956093b64e5";
"fbbd5daa-cd26-4b82-846b-3956093b64e5" [style=filled, fillcolor="#EBEBEB", label="okhttp3.internal.framed.FramedConnection$Reader.data\n Susp=0,235"];
"fbbd5daa-cd26-4b82-846b-3956093b64e5" -> "5e25777b-3c50-4c5d-99ce-82e22ba6e9ec";
"5e25777b-3c50-4c5d-99ce-82e22ba6e9ec" [style=filled, fillcolor="#EBEBEB", label="okhttp3.internal.framed.FramedStream.receiveData\n Susp=0,2359"];
"5e25777b-3c50-4c5d-99ce-82e22ba6e9ec" -> "f799ead6-aafa-4ef0-b357-757a1aae5df8";
"f799ead6-aafa-4ef0-b357-757a1aae5df8" [style=filled, fillcolor="#EBEBEB", label="okhttp3.internal.framed.FramedStream$FramedDataSource.receive\n Susp=0,2368"];
"f799ead6-aafa-4ef0-b357-757a1aae5df8" -> "d88614ab-28c4-496f-85c2-b40b16572f8d";
"d88614ab-28c4-496f-85c2-b40b16572f8d" [style=filled, fillcolor="#EBEBEB", label="okio.RealBufferedSource.read\n Susp=0,2378"];
"d88614ab-28c4-496f-85c2-b40b16572f8d" -> "50ec13f6-aa49-4e72-bbdf-724f9a76baf1";
"50ec13f6-aa49-4e72-bbdf-724f9a76baf1" [style=filled, fillcolor="#EBEBEB", label="okio.AsyncTimeout$2.read\n Susp=0,2387"];
"50ec13f6-aa49-4e72-bbdf-724f9a76baf1" -> "ad6f6d00-0cf1-4422-baf5-661022ce97b1";
"ad6f6d00-0cf1-4422-baf5-661022ce97b1" [style=filled, fillcolor="#EBEBEB", label="okio.Okio$2.read\n Susp=0,2396"];
"ad6f6d00-0cf1-4422-baf5-661022ce97b1" -> "7e4c8f5b-96d9-41ca-93c2-9be8e0a81578";
"7e4c8f5b-96d9-41ca-93c2-9be8e0a81578" [style=filled, fillcolor="#FFFFFF", label="com.android.org.conscrypt.OpenSSLSocketImpl$SSLInputStream.read\n Susp=0,0139"];
"39f644f3-402e-43a6-ab77-0017a50303b3" -> "ae8c096b-c841-40c1-beae-a72b81ed79dc";
"ae8c096b-c841-40c1-beae-a72b81ed79dc" [style=filled, fillcolor="#EBEBEB", label="okio.RealBufferedSource.require\n Susp=0,2341"];
"ae8c096b-c841-40c1-beae-a72b81ed79dc" -> "a18484d2-1219-43f9-af49-4ab1bb803e0b";
"a18484d2-1219-43f9-af49-4ab1bb803e0b" [style=filled, fillcolor="#EBEBEB", label="okio.RealBufferedSource.request\n Susp=0,235"];
"a18484d2-1219-43f9-af49-4ab1bb803e0b" -> "d5a01590-a426-4586-8ffc-90ef9c545301";
"d5a01590-a426-4586-8ffc-90ef9c545301" [style=filled, fillcolor="#EBEBEB", label="okio.AsyncTimeout$2.read\n Susp=0,2359"];
"d5a01590-a426-4586-8ffc-90ef9c545301" -> "e5bd86ca-6f3d-4692-a6b7-c0669b07ead8";
"e5bd86ca-6f3d-4692-a6b7-c0669b07ead8" [style=filled, fillcolor="#EBEBEB", label="okio.Okio$2.read\n Susp=0,2368"];
"e5bd86ca-6f3d-4692-a6b7-c0669b07ead8" -> "2471c46a-5015-4491-b5ac-3cc77682ddbb";
"2471c46a-5015-4491-b5ac-3cc77682ddbb" [style=filled, fillcolor="#FFFFFF", label="com.android.org.conscrypt.OpenSSLSocketImpl$SSLInputStream.read\n Susp=0,0111"];
"30883615-8444-41b4-9994-211921445322" -> "0120eea0-dd87-4b69-b869-d5d432868836";
"0120eea0-dd87-4b69-b869-d5d432868836" [style=filled, fillcolor="#A9A9A9", label="com.android.internal.os.ZygoteInit.main\n Susp=0,3459"];
"0120eea0-dd87-4b69-b869-d5d432868836" -> "191dd074-3fac-4f0b-a4b1-be8150b55b86";
"191dd074-3fac-4f0b-a4b1-be8150b55b86" [style=filled, fillcolor="#A9A9A9", label="com.android.internal.os.ZygoteInit$MethodAndArgsCaller.run\n Susp=0,3469"];
"191dd074-3fac-4f0b-a4b1-be8150b55b86" -> "81b4e3ff-eae1-428c-8bb6-ee7f9d7d5e4d";
"81b4e3ff-eae1-428c-8bb6-ee7f9d7d5e4d" [style=filled, fillcolor="#A9A9A9", label="java.lang.reflect.Method.invoke\n Susp=0,3478"];
"81b4e3ff-eae1-428c-8bb6-ee7f9d7d5e4d" -> "88d190c1-4197-4689-99e5-5c57a5f9b002";
"88d190c1-4197-4689-99e5-5c57a5f9b002" [style=filled, fillcolor="#A9A9A9", label="android.app.ActivityThread.main\n Susp=0,3487"];
"88d190c1-4197-4689-99e5-5c57a5f9b002" -> "45d0bfe8-2288-49b4-94f1-fe282ba42e0c";
"45d0bfe8-2288-49b4-94f1-fe282ba42e0c" [style=filled, fillcolor="#A9A9A9", label="android.os.Looper.loop\n Susp=0,3497"];
"45d0bfe8-2288-49b4-94f1-fe282ba42e0c" -> "8872a13d-316b-445d-af25-7e4dc91ea737";
"8872a13d-316b-445d-af25-7e4dc91ea737" [style=filled, fillcolor="#5E5E5E",fontcolor=white, label="android.os.Handler.dispatchMessage\n Susp=0,8039"];
"8872a13d-316b-445d-af25-7e4dc91ea737" -> "1ffa18b8-6949-44ad-9a82-20e8062f9ef9";
"1ffa18b8-6949-44ad-9a82-20e8062f9ef9" [style=filled, fillcolor="#EBEBEB", label="android.view.AccessibilityInteractionController$PrivateHandler.handleMessage\n Susp=0,2368"];
"1ffa18b8-6949-44ad-9a82-20e8062f9ef9" -> "8c7861ab-a094-461b-88e6-0ef2c4762707";
"8c7861ab-a094-461b-88e6-0ef2c4762707" [style=filled, fillcolor="#EBEBEB", label="android.view.AccessibilityInteractionController.-wrap1\n Susp=0,2378"];
"8c7861ab-a094-461b-88e6-0ef2c4762707" -> "a11b72cb-8b94-44aa-bf9c-fec09ecd4aa1";
"a11b72cb-8b94-44aa-bf9c-fec09ecd4aa1" [style=filled, fillcolor="#EBEBEB", label="android.view.AccessibilityInteractionController.findAccessibilityNodeInfoByAccessibilityIdUiThread\n Susp=0,2387"];
"a11b72cb-8b94-44aa-bf9c-fec09ecd4aa1" -> "0c3374f8-ada3-49b9-a77f-6a31db62bdc4";
"0c3374f8-ada3-49b9-a77f-6a31db62bdc4" [style=filled, fillcolor="#EBEBEB", label="android.view.AccessibilityInteractionController$AccessibilityNodePrefetcher.prefetchAccessibilityNodeInfos\n Susp=0,2396"];
"0c3374f8-ada3-49b9-a77f-6a31db62bdc4" -> "8c09b749-c770-4d55-b678-058c284bcb21";
"8c09b749-c770-4d55-b678-058c284bcb21" [style=filled, fillcolor="#EBEBEB", label="android.view.AccessibilityInteractionController$AccessibilityNodePrefetcher.prefetchDescendantsOfRealNode\n Susp=0,2406"];
"8c09b749-c770-4d55-b678-058c284bcb21" -> "d2f079fc-2531-4e0b-8577-1c87c3708a0e";
"d2f079fc-2531-4e0b-8577-1c87c3708a0e" [style=filled, fillcolor="#EBEBEB", label="android.view.View.createAccessibilityNodeInfo\n Susp=0,2415"];
"d2f079fc-2531-4e0b-8577-1c87c3708a0e" -> "5a4284c1-97c4-4c08-bd92-558c120083d0";
"5a4284c1-97c4-4c08-bd92-558c120083d0" [style=filled, fillcolor="#EBEBEB", label="android.view.View.createAccessibilityNodeInfoInternal\n Susp=0,2424"];
"5a4284c1-97c4-4c08-bd92-558c120083d0" -> "2a89fd53-fee6-4e42-9184-a1a9b1ddbaec";
"2a89fd53-fee6-4e42-9184-a1a9b1ddbaec" [style=filled, fillcolor="#EBEBEB", label="android.view.View.onInitializeAccessibilityNodeInfo\n Susp=0,2433"];
"2a89fd53-fee6-4e42-9184-a1a9b1ddbaec" -> "4a70fca9-48a4-45e3-b5bf-b39c752f4007";
"4a70fca9-48a4-45e3-b5bf-b39c752f4007" [style=filled, fillcolor="#EBEBEB", label="android.widget.Spinner.onInitializeAccessibilityNodeInfoInternal\n Susp=0,2443"];
"4a70fca9-48a4-45e3-b5bf-b39c752f4007" -> "0f037c1e-4186-4ea0-8dc8-34c7f5a046a3";
"0f037c1e-4186-4ea0-8dc8-34c7f5a046a3" [style=filled, fillcolor="#EBEBEB", label="android.widget.AdapterView.onInitializeAccessibilityNodeInfoInternal\n Susp=0,2452"];
"0f037c1e-4186-4ea0-8dc8-34c7f5a046a3" -> "f3627013-7787-4f34-adbc-0928b41c0388";
"f3627013-7787-4f34-adbc-0928b41c0388" [style=filled, fillcolor="#EBEBEB", label="android.widget.AdapterView.isScrollableForAccessibility\n Susp=0,2461"];
"f3627013-7787-4f34-adbc-0928b41c0388" -> "3390858b-995e-4b24-a519-bb3cdcfcf846";
"3390858b-995e-4b24-a519-bb3cdcfcf846" [style=filled, fillcolor="#FFFFFF", label="com.kamron.pogoiv.widgets.PlayerTeamAdapter.getCount\n Susp=0,0204"];
"8872a13d-316b-445d-af25-7e4dc91ea737" -> "7f2facb5-f367-427f-8cb0-4d306ad16bb5";
"7f2facb5-f367-427f-8cb0-4d306ad16bb5" [style=filled, fillcolor="#919191", label="android.app.ActivityThread$H.handleMessage\n Susp=0,4857"];
"7f2facb5-f367-427f-8cb0-4d306ad16bb5" -> "f692b1fb-26e9-4dd2-a05a-9b7aa93b70a9";
"f692b1fb-26e9-4dd2-a05a-9b7aa93b70a9" [style=filled, fillcolor="#EBEBEB", label="android.app.ActivityThread.-wrap12\n Susp=0,2415"];
"f692b1fb-26e9-4dd2-a05a-9b7aa93b70a9" -> "a09cbb27-1ae0-45d5-9b1c-ebc9b230c855";
"a09cbb27-1ae0-45d5-9b1c-ebc9b230c855" [style=filled, fillcolor="#EBEBEB", label="android.app.ActivityThread.handleLaunchActivity\n Susp=0,2424"];
"a09cbb27-1ae0-45d5-9b1c-ebc9b230c855" -> "dd38ba2a-ccab-4800-b089-0a913b38bfa8";
"dd38ba2a-ccab-4800-b089-0a913b38bfa8" [style=filled, fillcolor="#EBEBEB", label="android.app.ActivityThread.performLaunchActivity\n Susp=0,2433"];
"dd38ba2a-ccab-4800-b089-0a913b38bfa8" -> "30ecfd40-bfa2-40c7-80b5-81fff7b184fa";
"30ecfd40-bfa2-40c7-80b5-81fff7b184fa" [style=filled, fillcolor="#EBEBEB", label="android.app.Instrumentation.callActivityOnCreate\n Susp=0,2442"];
"30ecfd40-bfa2-40c7-80b5-81fff7b184fa" -> "7bd7a11f-83a3-47e8-8e4c-a4d2a191fd87";
"7bd7a11f-83a3-47e8-8e4c-a4d2a191fd87" [style=filled, fillcolor="#EBEBEB", label="android.app.Activity.performCreate\n Susp=0,2452"];
"7bd7a11f-83a3-47e8-8e4c-a4d2a191fd87" -> "67bce579-8d8d-480f-9031-a1cdbb655e76";
"67bce579-8d8d-480f-9031-a1cdbb655e76" [style=filled, fillcolor="#EBEBEB", label="com.kamron.pogoiv.SettingsActivity.onCreate\n Susp=0,2461"];
"67bce579-8d8d-480f-9031-a1cdbb655e76" -> "58ce4a94-0738-42ce-9f42-87f88a32f58f";
"58ce4a94-0738-42ce-9f42-87f88a32f58f" [style=filled, fillcolor="#FFFFFF", label="android.app.BackStackRecord.replace\n Susp=0,0167"];
"7f2facb5-f367-427f-8cb0-4d306ad16bb5" -> "5b3f9ef9-0162-47d0-a030-c20a4193972c";
"5b3f9ef9-0162-47d0-a030-c20a4193972c" [style=filled, fillcolor="#C0C0C0", label="android.app.ActivityThread.-wrap11\n Susp=0,2526"];
"5b3f9ef9-0162-47d0-a030-c20a4193972c" -> "906404ce-14df-407f-8c38-224e21a1716b";
"906404ce-14df-407f-8c38-224e21a1716b" [style=filled, fillcolor="#C0C0C0", label="android.app.ActivityThread.handleLaunchActivity\n Susp=0,2535"];
"906404ce-14df-407f-8c38-224e21a1716b" -> "cd1cbeb1-ee5b-4036-a637-1838cca256ff";
"cd1cbeb1-ee5b-4036-a637-1838cca256ff" [style=filled, fillcolor="#C0C0C0", label="android.app.ActivityThread.performLaunchActivity\n Susp=0,2544"];
"cd1cbeb1-ee5b-4036-a637-1838cca256ff" -> "b481e716-5005-4f63-9a19-aade66b0a74d";
"b481e716-5005-4f63-9a19-aade66b0a74d" [style=filled, fillcolor="#C0C0C0", label="android.app.Instrumentation.callActivityOnCreate\n Susp=0,2553"];
"b481e716-5005-4f63-9a19-aade66b0a74d" -> "418466d3-9ec9-44e4-a62c-45b1e0264199";
"418466d3-9ec9-44e4-a62c-45b1e0264199" [style=filled, fillcolor="#919191", label="android.app.Activity.performCreate\n Susp=0,4829"];
"418466d3-9ec9-44e4-a62c-45b1e0264199" -> "b4c0af5c-8dcd-4f9f-916d-dfe660291f9b";
"b4c0af5c-8dcd-4f9f-916d-dfe660291f9b" [style=filled, fillcolor="#EBEBEB", label="com.kamron.pogoiv.MainActivity.onCreate\n Susp=0,2498"];
"b4c0af5c-8dcd-4f9f-916d-dfe660291f9b" -> "5223f646-d58d-41a0-abb3-f72fb43e74ae";
"5223f646-d58d-41a0-abb3-f72fb43e74ae" [style=filled, fillcolor="#EBEBEB", label="com.kamron.pogoiv.MainActivity.initiateUserScreenSettings\n Susp=0,247"];
"5223f646-d58d-41a0-abb3-f72fb43e74ae" -> "d05bc962-0917-4d88-b0ef-07620dba1b6d";
"d05bc962-0917-4d88-b0ef-07620dba1b6d" [style=filled, fillcolor="#FFFFFF", label="android.view.Display.getRealMetrics\n Susp=0,0176"];
"418466d3-9ec9-44e4-a62c-45b1e0264199" -> "777e8a63-330d-42c3-a9a0-bd21d51358c9";
"777e8a63-330d-42c3-a9a0-bd21d51358c9" [style=filled, fillcolor="#EBEBEB", label="com.kamron.pogoiv.SettingsActivity.onCreate\n Susp=0,2461"];
"777e8a63-330d-42c3-a9a0-bd21d51358c9" -> "af046f5a-de5f-4d2f-8c69-d17d24507a54";
"af046f5a-de5f-4d2f-8c69-d17d24507a54" [style=filled, fillcolor="#FFFFFF", label="android.app.BackStackRecord.replace\n Susp=0,0167"];
"8872a13d-316b-445d-af25-7e4dc91ea737" -> "8350d0d1-254b-4e06-8ba6-4262463143fe";
"8350d0d1-254b-4e06-8ba6-4262463143fe" [style=filled, fillcolor="#5E5E5E",fontcolor=white, label="android.os.Handler.handleCallback\n Susp=0,5486"];
"8350d0d1-254b-4e06-8ba6-4262463143fe" -> "c426f7c0-5c3b-4a61-b898-f397a2e4bcaa";
"c426f7c0-5c3b-4a61-b898-f397a2e4bcaa" [style=filled, fillcolor="#A9A9A9", label="android.view.Choreographer$FrameDisplayEventReceiver.run\n Susp=0,3006"];
"c426f7c0-5c3b-4a61-b898-f397a2e4bcaa" -> "c555bf70-d89f-476b-805f-1edbc8f8b304";
"c555bf70-d89f-476b-805f-1edbc8f8b304" [style=filled, fillcolor="#A9A9A9", label="android.view.Choreographer.doFrame\n Susp=0,3016"];
"c555bf70-d89f-476b-805f-1edbc8f8b304" -> "a89a3358-d3a0-4210-a1ac-bc8d788be463";
"a89a3358-d3a0-4210-a1ac-bc8d788be463" [style=filled, fillcolor="#A9A9A9", label="android.view.Choreographer.doCallbacks\n Susp=0,3025"];
"a89a3358-d3a0-4210-a1ac-bc8d788be463" -> "61cdccef-9eb1-4863-8f08-49291b046aae";
"61cdccef-9eb1-4863-8f08-49291b046aae" [style=filled, fillcolor="#A9A9A9", label="android.view.Choreographer$CallbackRecord.run\n Susp=0,3034"];
"61cdccef-9eb1-4863-8f08-49291b046aae" -> "853c5445-983e-4b30-966b-197997097978";
"853c5445-983e-4b30-966b-197997097978" [style=filled, fillcolor="#A9A9A9", label="android.view.ViewRootImpl$TraversalRunnable.run\n Susp=0,3044"];
"853c5445-983e-4b30-966b-197997097978" -> "70e12d97-0706-4234-ab09-427035eb8936";
"70e12d97-0706-4234-ab09-427035eb8936" [style=filled, fillcolor="#A9A9A9", label="android.view.ViewRootImpl.doTraversal\n Susp=0,3053"];
"70e12d97-0706-4234-ab09-427035eb8936" -> "45dbd352-6362-4917-a9a2-7129e841bc5a";
"45dbd352-6362-4917-a9a2-7129e841bc5a" [style=filled, fillcolor="#A9A9A9", label="android.view.ViewRootImpl.performTraversals\n Susp=0,3062"];
"45dbd352-6362-4917-a9a2-7129e841bc5a" -> "def0ff01-029e-490f-b786-dcb39193a405";
"def0ff01-029e-490f-b786-dcb39193a405" [style=filled, fillcolor="#A9A9A9", label="android.view.ViewRootImpl.measureHierarchy\n Susp=0,3071"];
"def0ff01-029e-490f-b786-dcb39193a405" -> "3c806d28-726b-48b0-8242-a7524536f802";
"3c806d28-726b-48b0-8242-a7524536f802" [style=filled, fillcolor="#A9A9A9", label="android.view.ViewRootImpl.performMeasure\n Susp=0,3081"];
"3c806d28-726b-48b0-8242-a7524536f802" -> "92c5c792-ac3a-46c9-801d-6a7e4e17c1d5";
"92c5c792-ac3a-46c9-801d-6a7e4e17c1d5" [style=filled, fillcolor="#A9A9A9", label="android.view.View.measure\n Susp=0,309"];
"92c5c792-ac3a-46c9-801d-6a7e4e17c1d5" -> "899fc401-0be3-49f1-aef8-62e0c8946755";
"899fc401-0be3-49f1-aef8-62e0c8946755" [style=filled, fillcolor="#A9A9A9", label="com.android.internal.policy.PhoneWindow$DecorView.onMeasure\n Susp=0,3099"];
"899fc401-0be3-49f1-aef8-62e0c8946755" -> "60ded60c-9f3b-48e0-b4d9-80d86755fcfc";
"60ded60c-9f3b-48e0-b4d9-80d86755fcfc" [style=filled, fillcolor="#A9A9A9", label="android.widget.FrameLayout.onMeasure\n Susp=0,3108"];
"60ded60c-9f3b-48e0-b4d9-80d86755fcfc" -> "5ed161f5-9550-42bb-a6e7-f5503f800582";
"5ed161f5-9550-42bb-a6e7-f5503f800582" [style=filled, fillcolor="#A9A9A9", label="android.view.ViewGroup.measureChildWithMargins\n Susp=0,3118"];
"5ed161f5-9550-42bb-a6e7-f5503f800582" -> "01c0faf5-29a0-4511-9cee-16c47e78df9d";
"01c0faf5-29a0-4511-9cee-16c47e78df9d" [style=filled, fillcolor="#A9A9A9", label="android.view.View.measure\n Susp=0,3127"];
"01c0faf5-29a0-4511-9cee-16c47e78df9d" -> "9a46becd-3ca9-4de9-93f1-2d2cd51ea0c7";
"9a46becd-3ca9-4de9-93f1-2d2cd51ea0c7" [style=filled, fillcolor="#A9A9A9", label="android.widget.LinearLayout.onMeasure\n Susp=0,3136"];
"9a46becd-3ca9-4de9-93f1-2d2cd51ea0c7" -> "bf046df5-e327-4850-898c-08de346911d8";
"bf046df5-e327-4850-898c-08de346911d8" [style=filled, fillcolor="#A9A9A9", label="android.widget.LinearLayout.measureVertical\n Susp=0,3145"];
"bf046df5-e327-4850-898c-08de346911d8" -> "d6ef224b-a7e8-43ba-a442-a42e4fb4e2d5";
"d6ef224b-a7e8-43ba-a442-a42e4fb4e2d5" [style=filled, fillcolor="#A9A9A9", label="android.widget.LinearLayout.measureChildBeforeLayout\n Susp=0,3155"];
"d6ef224b-a7e8-43ba-a442-a42e4fb4e2d5" -> "9b819a7d-faa4-4410-a921-ff8977e0769d";
"9b819a7d-faa4-4410-a921-ff8977e0769d" [style=filled, fillcolor="#A9A9A9", label="android.view.ViewGroup.measureChildWithMargins\n Susp=0,3164"];
"9b819a7d-faa4-4410-a921-ff8977e0769d" -> "82ceeb98-975b-4922-aa3c-0c6ecbf05711";
"82ceeb98-975b-4922-aa3c-0c6ecbf05711" [style=filled, fillcolor="#A9A9A9", label="android.view.View.measure\n Susp=0,3173"];
"82ceeb98-975b-4922-aa3c-0c6ecbf05711" -> "6bd035c3-77d3-4055-8ed4-e1be1d328526";
"6bd035c3-77d3-4055-8ed4-e1be1d328526" [style=filled, fillcolor="#A9A9A9", label="android.widget.FrameLayout.onMeasure\n Susp=0,3182"];
"6bd035c3-77d3-4055-8ed4-e1be1d328526" -> "636e1882-7e76-45eb-a1d6-65582314f406";
"636e1882-7e76-45eb-a1d6-65582314f406" [style=filled, fillcolor="#A9A9A9", label="android.view.ViewGroup.measureChildWithMargins\n Susp=0,3192"];
"636e1882-7e76-45eb-a1d6-65582314f406" -> "064c6943-cf9b-44be-87dd-6291909120b1";
"064c6943-cf9b-44be-87dd-6291909120b1" [style=filled, fillcolor="#A9A9A9", label="android.view.View.measure\n Susp=0,3201"];
"064c6943-cf9b-44be-87dd-6291909120b1" -> "810ea739-a91b-45b8-b49e-11f0f1b814c7";
"810ea739-a91b-45b8-b49e-11f0f1b814c7" [style=filled, fillcolor="#A9A9A9", label="android.support.v7.widget.ActionBarOverlayLayout.onMeasure\n Susp=0,321"];
"810ea739-a91b-45b8-b49e-11f0f1b814c7" -> "9a6d425c-77ad-4571-9a66-6d58dd9bb0ed";
"9a6d425c-77ad-4571-9a66-6d58dd9bb0ed" [style=filled, fillcolor="#A9A9A9", label="android.view.ViewGroup.measureChildWithMargins\n Susp=0,3219"];
"9a6d425c-77ad-4571-9a66-6d58dd9bb0ed" -> "e6560d39-f44e-4ebc-a198-3fec19bcd44a";
"e6560d39-f44e-4ebc-a198-3fec19bcd44a" [style=filled, fillcolor="#A9A9A9", label="android.view.View.measure\n Susp=0,3229"];
"e6560d39-f44e-4ebc-a198-3fec19bcd44a" -> "379438eb-218b-4f62-b1c6-a8749fe99a14";
"379438eb-218b-4f62-b1c6-a8749fe99a14" [style=filled, fillcolor="#A9A9A9", label="android.support.v7.widget.ContentFrameLayout.onMeasure\n Susp=0,3238"];
"379438eb-218b-4f62-b1c6-a8749fe99a14" -> "d88eea3a-be16-4ae1-9a7c-6bfe79be36b4";
"d88eea3a-be16-4ae1-9a7c-6bfe79be36b4" [style=filled, fillcolor="#A9A9A9", label="android.widget.FrameLayout.onMeasure\n Susp=0,3247"];
"d88eea3a-be16-4ae1-9a7c-6bfe79be36b4" -> "4ee86796-84f6-4c42-8024-91e5f9f4a442";
"4ee86796-84f6-4c42-8024-91e5f9f4a442" [style=filled, fillcolor="#A9A9A9", label="android.view.ViewGroup.measureChildWithMargins\n Susp=0,3256"];
"4ee86796-84f6-4c42-8024-91e5f9f4a442" -> "beb8e024-39ed-4ea7-adde-f167eab8ad68";
"beb8e024-39ed-4ea7-adde-f167eab8ad68" [style=filled, fillcolor="#A9A9A9", label="android.view.View.measure\n Susp=0,3266"];
"beb8e024-39ed-4ea7-adde-f167eab8ad68" -> "124fc074-a046-4939-ae11-4d70d33f37b8";
"124fc074-a046-4939-ae11-4d70d33f37b8" [style=filled, fillcolor="#A9A9A9", label="android.widget.LinearLayout.onMeasure\n Susp=0,3275"];
"124fc074-a046-4939-ae11-4d70d33f37b8" -> "c9ecf1e1-67e1-4e67-9ad8-fa0f5af27f0b";
"c9ecf1e1-67e1-4e67-9ad8-fa0f5af27f0b" [style=filled, fillcolor="#A9A9A9", label="android.widget.LinearLayout.measureVertical\n Susp=0,3284"];
"c9ecf1e1-67e1-4e67-9ad8-fa0f5af27f0b" -> "9d9dcde5-35ed-4afb-8ee1-602026182a69";
"9d9dcde5-35ed-4afb-8ee1-602026182a69" [style=filled, fillcolor="#A9A9A9", label="android.widget.LinearLayout.measureChildBeforeLayout\n Susp=0,3294"];
"9d9dcde5-35ed-4afb-8ee1-602026182a69" -> "efb81f28-5d7c-4b98-8976-fb8d1d63faea";
"efb81f28-5d7c-4b98-8976-fb8d1d63faea" [style=filled, fillcolor="#A9A9A9", label="android.view.ViewGroup.measureChildWithMargins\n Susp=0,3303"];
"efb81f28-5d7c-4b98-8976-fb8d1d63faea" -> "3798dfe0-2af6-4a2e-be0a-e61ecac205ed";
"3798dfe0-2af6-4a2e-be0a-e61ecac205ed" [style=filled, fillcolor="#A9A9A9", label="android.view.View.measure\n Susp=0,3312"];
"3798dfe0-2af6-4a2e-be0a-e61ecac205ed" -> "ee5d9caf-e9bc-42ab-b6a6-dd486d24f95a";
"ee5d9caf-e9bc-42ab-b6a6-dd486d24f95a" [style=filled, fillcolor="#A9A9A9", label="android.widget.ScrollView.onMeasure\n Susp=0,3321"];
"ee5d9caf-e9bc-42ab-b6a6-dd486d24f95a" -> "9a51e2ec-50e3-42b1-914b-d5a2e981331c";
"9a51e2ec-50e3-42b1-914b-d5a2e981331c" [style=filled, fillcolor="#A9A9A9", label="android.widget.FrameLayout.onMeasure\n Susp=0,3331"];
"9a51e2ec-50e3-42b1-914b-d5a2e981331c" -> "06892fb9-4471-480e-9dac-baa52b05aa4a";
"06892fb9-4471-480e-9dac-baa52b05aa4a" [style=filled, fillcolor="#A9A9A9", label="android.widget.ScrollView.measureChildWithMargins\n Susp=0,334"];
"06892fb9-4471-480e-9dac-baa52b05aa4a" -> "a56a8203-4a93-4b36-8031-32f66cb31bd1";
"a56a8203-4a93-4b36-8031-32f66cb31bd1" [style=filled, fillcolor="#A9A9A9", label="android.view.View.measure\n Susp=0,3349"];
"a56a8203-4a93-4b36-8031-32f66cb31bd1" -> "f50730c7-2bb3-487a-b088-dc7783e9c9e1";
"f50730c7-2bb3-487a-b088-dc7783e9c9e1" [style=filled, fillcolor="#A9A9A9", label="android.widget.LinearLayout.onMeasure\n Susp=0,3358"];
"f50730c7-2bb3-487a-b088-dc7783e9c9e1" -> "fc126cd1-1c76-4331-bd53-948ceb8d250d";
"fc126cd1-1c76-4331-bd53-948ceb8d250d" [style=filled, fillcolor="#A9A9A9", label="android.widget.LinearLayout.measureVertical\n Susp=0,3368"];
"fc126cd1-1c76-4331-bd53-948ceb8d250d" -> "06e24156-9c96-4aff-a893-fd2832f83c70";
"06e24156-9c96-4aff-a893-fd2832f83c70" [style=filled, fillcolor="#A9A9A9", label="android.widget.LinearLayout.measureChildBeforeLayout\n Susp=0,3377"];
"06e24156-9c96-4aff-a893-fd2832f83c70" -> "8f866d85-cdd7-466d-9641-d0ad414a8c60";
"8f866d85-cdd7-466d-9641-d0ad414a8c60" [style=filled, fillcolor="#A9A9A9", label="android.view.ViewGroup.measureChildWithMargins\n Susp=0,3386"];
"8f866d85-cdd7-466d-9641-d0ad414a8c60" -> "fc22e891-6eb3-44aa-8062-f391425240bf";
"fc22e891-6eb3-44aa-8062-f391425240bf" [style=filled, fillcolor="#A9A9A9", label="android.view.View.measure\n Susp=0,3395"];
"fc22e891-6eb3-44aa-8062-f391425240bf" -> "f2fc0b68-9d74-49aa-9aa6-94c55a0e8edc";
"f2fc0b68-9d74-49aa-9aa6-94c55a0e8edc" [style=filled, fillcolor="#A9A9A9", label="android.support.v7.widget.AppCompatSpinner.onMeasure\n Susp=0,3405"];
"f2fc0b68-9d74-49aa-9aa6-94c55a0e8edc" -> "7cb58692-d084-44dc-80e5-5ebd26c5980a";
"7cb58692-d084-44dc-80e5-5ebd26c5980a" [style=filled, fillcolor="#5E5E5E",fontcolor=white, label="android.widget.Spinner.onMeasure\n Susp=0,5681"];
"7cb58692-d084-44dc-80e5-5ebd26c5980a" -> "a8e1e0dc-5c4c-461c-96ed-08b4de8f75e7";
"a8e1e0dc-5c4c-461c-96ed-08b4de8f75e7" [style=filled, fillcolor="#C0C0C0", label="android.widget.AbsSpinner.onMeasure\n Susp=0,2905"];
"a8e1e0dc-5c4c-461c-96ed-08b4de8f75e7" -> "cb7bb5fe-a695-48de-9722-39d4922c5fb7";
"cb7bb5fe-a695-48de-9722-39d4922c5fb7" [style=filled, fillcolor="#FFFFFF", label="com.kamron.pogoiv.widgets.PlayerTeamAdapter.getView\n Susp=0,0648"];
"7cb58692-d084-44dc-80e5-5ebd26c5980a" -> "89e2387f-c512-493c-a523-d08e198666e4";
"89e2387f-c512-493c-a523-d08e198666e4" [style=filled, fillcolor="#A9A9A9", label="android.widget.Spinner.measureContentWidth\n Susp=0,3275"];
"89e2387f-c512-493c-a523-d08e198666e4" -> "ffcfe7c9-6445-4c1e-98d9-4ae160659eb8";
"ffcfe7c9-6445-4c1e-98d9-4ae160659eb8" [style=filled, fillcolor="#FFFFFF", label="com.kamron.pogoiv.widgets.PlayerTeamAdapter.getView\n Susp=0,1018"];
"8350d0d1-254b-4e06-8ba6-4262463143fe" -> "c9e1b6af-4293-4143-a5bc-ec9b7445b13b";
"c9e1b6af-4293-4143-a5bc-ec9b7445b13b" [style=filled, fillcolor="#C0C0C0", label="android.app.LoadedApk$ReceiverDispatcher$Args.run\n Susp=0,2563"];
"c9e1b6af-4293-4143-a5bc-ec9b7445b13b" -> "db6d25fd-24b3-4245-8cb4-5ae7d992384a";
"db6d25fd-24b3-4245-8cb4-5ae7d992384a" [style=filled, fillcolor="#C0C0C0", label="com.kamron.pogoiv.updater.DownloadUpdateService$1.onReceive\n Susp=0,2572"];
"db6d25fd-24b3-4245-8cb4-5ae7d992384a" -> "6b030d11-b801-4a2f-9a43-c8742f1b8b87";
"6b030d11-b801-4a2f-9a43-c8742f1b8b87" [style=filled, fillcolor="#FFFFFF", label="android.content.ContextWrapper.unregisterReceiver\n Susp=0,0204"];
}
