Position |MethodName|Relevancy
0.3333333333333333|dk.example.example_fragment_oninflate.MainActivity.onCreate|1.0541666666666667
0.6666666666666666|dk.example.example_fragment_oninflate.MainActivityFragment.onCreateView|0.46075000000000005
1.0|dk.example.example_fragment_oninflate.MainActivityFragment.onInflate|0.16500000000000004
