Position |MethodName|Relevancy
0.0016260162601626016|android.os.Handler.handleCallback|0.7964009386523634
0.0032520325203252032|de.robv.android.xposed.XposedBridge.main|0.6571428571428571
0.004878048780487805|android.os.Handler.dispatchMessage|0.5769223696183133
0.0065040650406504065|java.lang.reflect.Constructor.newInstance|0.5308276423542935
0.008130081300813009|java.lang.reflect.Constructor.newInstance|0.5292346152004215
0.00975609756097561|org.flyve.inventory.categories.Software.<init>|0.5290541640726019
0.011382113821138212|android.os.Looper.loop|0.5011154638187826
0.013008130081300813|java.lang.reflect.Constructor.newInstance|0.42530338585316796
0.014634146341463415|android.app.ActivityThread.main|0.42511546381878257
0.016260162601626018|java.lang.reflect.Method.invoke|0.4234011781044969
0.01788617886178862|com.android.internal.os.ZygoteInit$MethodAndArgsCaller.run|0.4216868923902112
0.01951219512195122|com.android.internal.os.ZygoteInit.main|0.41997260667592545
0.02113821138211382|org.flyve.inventory.InventoryTask$2$1.run|0.41390623054451414
0.022764227642276424|org.flyve.inventory.categories.Software.<init>|0.38030170968823335
0.024390243902439025|android.app.ActivityThread$H.handleMessage|0.3114956180259566
0.026016260162601626|org.flyve.inventory.agent.core.report.ReportModel$1.onTaskSuccess|0.3064619510559839
0.027642276422764227|android.support.v7.widget.RecyclerView$Recycler.tryGetViewHolderForPositionByDeadline|0.26252286767875105
0.02926829268292683|android.view.ViewRootImpl.performTraversals|0.25035640055552894
0.030894308943089432|android.widget.RelativeLayout.onMeasure|0.24651443896365116
0.032520325203252036|android.widget.AbsListView.obtainView|0.2395251185288061
0.03414634146341464|android.widget.ListView.measureHeightOfChildren|0.23783496958957906
0.03577235772357724|android.widget.ListView.onMeasure|0.23620516258799867
0.03739837398373984|android.widget.RelativeLayout.onMeasure|0.2320519132225468
0.03902439024390244|org.flyve.inventory.categories.Cameras.<init>|0.23153718691633543
0.04065040650406504|android.widget.RelativeLayout.onMeasure|0.23113471577031752
0.04227642276422764|android.widget.RelativeLayout.onMeasure|0.22955318231885447
0.04390243902439024|android.widget.RelativeLayout.onMeasure|0.22928767779320913
0.04552845528455285|android.view.View.layout|0.22075245438436858
0.04715447154471545|android.view.View.layout|0.21991916095972416
0.04878048780487805|android.view.View.layout|0.2167193142090896
0.05040650406504065|org.flyve.inventory.categories.Modems.getIMEI|0.20143364781380202
0.05203252032520325|org.flyve.inventory.InventoryTask.loadCategoriesClass|0.20073195728173937
0.05365853658536585|org.flyve.inventory.categories.Modems.<init>|0.1997193620995163
0.055284552845528454|org.flyve.inventory.InventoryTask.getXMLSyn|0.19901767156745367
0.056910569105691054|android.support.v7.widget.RecyclerView$Adapter.onBindViewHolder|0.19292141180977923
0.05853658536585366|org.flyve.inventory.agent.adapter.InventoryChildAdapter.onCreateViewHolder|0.19131574158325748
0.06016260162601626|android.support.v7.widget.RecyclerView$Adapter.bindViewHolder|0.1912071260954935
0.061788617886178863|android.support.v7.widget.RecyclerView$Adapter.createViewHolder|0.18960145586897179
0.06341463414634146|android.support.v7.widget.RecyclerView$Recycler.tryBindViewHolderByDeadline|0.18949284038120778
0.06504065040650407|android.support.v7.widget.RecyclerView$Recycler.getViewForPosition|0.18652286767875104
0.06666666666666667|android.support.v7.widget.LinearLayoutManager$LayoutState.next|0.1848085819644653
0.06829268292682927|android.support.v7.widget.LinearLayoutManager.layoutChunk|0.1830942962501796
0.06991869918699187|android.support.v7.widget.LinearLayoutManager.fill|0.18138001053589387
0.07154471544715447|android.widget.AdapterView.isScrollableForAccessibility|0.18059556534648724
0.07317073170731707|android.support.v7.widget.LinearLayoutManager.onLayoutChildren|0.17966572482160814
0.07479674796747968|android.support.v7.widget.RecyclerView$LayoutManager.getRowCountForAccessibility|0.17947684497868877
0.07642276422764227|android.view.View.layout|0.17918605430774387
0.07804878048780488|org.flyve.inventory.agent.adapter.HomeAdapter.getView|0.17897782673243617
0.07967479674796749|android.widget.AdapterView.onInitializeAccessibilityEventInternal|0.17888127963220152
0.08130081300813008|android.support.v7.widget.RecyclerView.dispatchLayoutStep2|0.17827728557061442
0.08292682926829269|org.flyve.inventory.agent.adapter.HomeAdapter.getView|0.17807212298261577
0.08455284552845528|android.support.v7.widget.RecyclerView.dispatchLayoutStep2|0.17795143910732242
0.08617886178861789|android.view.View.measure|0.17747234327857864
0.08780487804878048|android.widget.AbsListView.obtainView|0.17726354101815045
0.08943089430894309|android.view.View.onInitializeAccessibilityEvent|0.1771669939179158
0.0910569105691057|android.support.v7.widget.RecyclerView.onMeasure|0.17656299985632873
0.09268292682926829|android.widget.AbsListView.obtainView|0.17635783726833007
0.0943089430894309|android.support.v7.widget.RecyclerView.onMeasure|0.17623715339303675
0.0959349593495935|android.widget.ListView.makeAndAddView|0.17554925530386478
0.0975609756097561|android.view.View.sendAccessibilityEventUncheckedInternal|0.1754527082036301
0.0991869918699187|android.support.v4.view.AccessibilityDelegateCompat$AccessibilityDelegateApi16Impl$1.onInitializeAccessibilityNodeInfo|0.17490120204971027
0.1008130081300813|android.view.View.measure|0.174848714142043
0.1024390243902439|android.view.View.measure|0.1748408601120636
0.1040650406504065|android.widget.ListView.makeAndAddView|0.17464355155404437
0.10569105691056911|android.view.View.measure|0.17452286767875103
0.1073170731707317|android.widget.ListView.fillDown|0.17383496958957906
0.10894308943089431|org.flyve.inventory.agent.adapter.DrawerAdapter.getView|0.17377462765193238
0.11056910569105691|android.view.View.sendAccessibilityEventUnchecked|0.1737384224893444
0.11219512195121951|android.widget.RelativeLayout.measureChild|0.17313442842775728
0.11382113821138211|android.widget.ListView.fillDown|0.17292926583975865
0.11544715447154472|android.widget.RelativeLayout.measureChildHorizontal|0.1728085819644653
0.11707317073170732|org.flyve.inventory.agent.core.main.MainModel.setupDrawer|0.17263177050907524
0.11869918699186992|org.flyve.inventory.agent.adapter.DrawerAdapter.getView|0.17213275226282265
0.12032520325203253|android.widget.ListView.fillFromTop|0.17212068387529333
0.12195121951219512|android.widget.AbsListView.obtainView|0.17206034193764666
0.12357723577235773|android.view.View$SendViewStateChangedAccessibilityEvent.run|0.17202413677505868
0.12520325203252033|android.widget.ListView.fillFromTop|0.17121498012547293
0.12682926829268293|android.view.View.measure|0.17051443896365115
0.12845528455284552|android.widget.AbsListView.obtainView|0.17041846654853696
0.13008130081300814|android.widget.ListView.layoutChildren|0.1704063981610076
0.13170731707317074|android.widget.ListView.makeAndAddView|0.17034605622336096
0.13333333333333333|android.view.View$SendViewStateChangedAccessibilityEvent.runOrPost|0.17030985106077295
0.13495934959349593|android.widget.ListView.layoutChildren|0.1695006944111872
0.13658536585365855|org.flyve.inventory.categories.Software.<init>|0.16933595134332646
0.13821138211382114|android.app.Activity.performCreate|0.16927503472055935
0.13983739837398373|android.app.Activity.performCreate|0.16880436760691536
0.14146341463414633|android.support.v7.widget.RecyclerView$LayoutManager.measureChildWithMargins|0.16880015324936545
0.14308943089430895|android.widget.ListView.makeAndAddView|0.16870418083425123
0.14471544715447154|android.widget.AbsListView.onLayout|0.1686921124467219
0.14634146341463414|android.widget.AdapterView.getItemIdAtPosition|0.16866797567166322
0.14796747967479676|android.widget.ListView.fillDown|0.16863177050907524
0.14959349593495935|android.view.View.notifyViewAccessibilityStateChangedIfNeeded|0.16859556534648723
0.15121951219512195|org.flyve.inventory.agent.adapter.HomeAdapter.getView|0.16779847708443082
0.15284552845528454|android.widget.AbsListView.onLayout|0.16778640869690148
0.15447154471544716|org.flyve.inventory.agent.service.InventoryService.updateTime|0.16770556965662564
0.15609756097560976|org.flyve.inventory.agent.adapter.HomeAdapter.getView|0.16711057899525883
0.15772357723577235|android.support.v7.widget.LinearLayoutManager.layoutChunk|0.16708586753507973
0.15934959349593497|android.widget.AdapterView.setSelectedPositionInt|0.16705023705761218
0.16097560975609757|android.widget.ListView.fillDown|0.16698989511996554
0.16260162601626016|android.view.View.layout|0.1669778267324362
0.16422764227642275|org.flyve.inventory.agent.adapter.HomeAdapter.getView|0.16692955318231883
0.16585365853658537|android.widget.ListView.fillFromTop|0.16691748479478952
0.16747967479674797|android.widget.AbsListView$RecycleBin.addScrapView|0.1668812796322015
0.16910569105691056|org.flyve.inventory.agent.service.InventoryService.twoDatesBetweenTime|0.1660878310425746
0.17073170731707318|android.widget.AbsListView.obtainView|0.1660841913701451
0.17235772357723578|android.view.View.layout|0.16607212298261576
0.17398373983739837|android.app.ActivityThread.performLaunchActivity|0.16603955749245727
0.17560975609756097|android.app.ActivityThread.performLaunchActivity|0.16584646329198793
0.1772357723577236|org.flyve.inventory.agent.utils.LocalStorage.getDataLong|0.16581083281452036
0.17886178861788618|android.widget.AbsListView.obtainView|0.1653962932809731
0.18048780487804877|android.support.v7.widget.LinearLayoutManager.fill|0.16537158182079403
0.1821138211382114|org.flyve.inventory.agent.adapter.HomeAdapter.getView|0.16534801973085578
0.183739837398374|android.widget.AbsListView.onTouchUp|0.16533595134332646
0.18536585365853658|android.widget.ListView.fillFromTop|0.1652756094056798
0.18699186991869918|android.view.ViewGroup.layout|0.16526354101815047
0.1886178861788618|org.flyve.inventory.agent.adapter.HomeAdapter.getView|0.1652152674680331
0.1902439024390244|android.widget.ListView.layoutChildren|0.1652031990805038
0.191869918699187|android.widget.AbsListView$RecycleBin.addScrapView|0.16516699391791578
0.19349593495934958|android.widget.ListView.measureHeightOfChildren|0.1643699056558594
0.1951219512195122|android.view.ViewGroup.layout|0.1643578372683301
0.1967479674796748|android.widget.ListView.measureHeightOfChildren|0.16368200756668744
0.1983739837398374|android.support.v7.widget.LinearLayoutManager.onLayoutChildren|0.1636572961065083
0.2|android.widget.AbsListView.obtainView|0.1636337340165701
0.2016260162601626|android.widget.AbsListView.onTouchEvent|0.16362166562904076
0.2032520325203252|android.widget.ListView.layoutChildren|0.1635613236913941
0.2048780487804878|android.widget.RelativeLayout.onLayout|0.16354925530386477
0.20650406504065041|android.widget.AbsListView.obtainView|0.16350098175374744
0.208130081300813|android.widget.AbsListView.onLayout|0.1634889133662181
0.2097560975609756|android.widget.ListView.onMeasure|0.16265561994157368
0.21138211382113822|android.widget.RelativeLayout.onLayout|0.16264355155404436
0.21300813008130082|android.widget.ListView.onMeasure|0.1619677218524017
0.2146341463414634|android.support.v7.widget.RecyclerView.dispatchLayoutStep2|0.16194301039222259
0.216260162601626|android.widget.ListView.measureHeightOfChildren|0.16191944830228439
0.21788617886178863|android.view.View.dispatchTouchEvent|0.16190737991475504
0.21951219512195122|android.widget.AbsListView.onLayout|0.16184703797710837
0.22113821138211381|android.view.View.layout|0.16183496958957905
0.22276422764227644|org.flyve.inventory.categories.Memory.getRamInfo|0.1618265408744792
0.22439024390243903|android.widget.ListView.measureHeightOfChildren|0.16178669603946172
0.22601626016260162|android.view.View.layout|0.16177462765193237
0.22764227642276422|android.view.View.measure|0.16094133422728796
0.22926829268292684|android.view.View.layout|0.16092926583975864
0.23089430894308943|android.view.View.measure|0.160253436138116
0.23252032520325203|android.support.v7.widget.RecyclerView.dispatchLayout|0.16022872467793686
0.23414634146341465|android.widget.ListView.onMeasure|0.16020516258799866
0.23577235772357724|android.view.ViewGroup.dispatchTransformedTouchEvent|0.16019309420046934
0.23739837398373984|android.view.View.layout|0.16013275226282267
0.23902439024390243|android.view.ViewGroup.layout|0.16012068387529332
0.24065040650406505|org.flyve.inventory.categories.Networks.<init>|0.16008754370001435
0.24227642276422764|android.widget.ListView.onMeasure|0.160072410325176
0.24390243902439024|android.view.ViewGroup.layout|0.16006034193764668
0.24552845528455283|org.flyve.inventory.InventoryTask.access$000|0.1599651357693597
0.24715447154471545|android.view.AccessibilityInteractionController$PrivateHandler.handleMessage|0.15988295579713616
0.24878048780487805|android.widget.RelativeLayout.measureChild|0.15922704851300223
0.25040650406504067|android.view.ViewGroup.layout|0.15921498012547292
0.25203252032520324|android.widget.RelativeLayout.measureChildHorizontal|0.15853915042383027
0.25365853658536586|android.support.v7.widget.RecyclerView.onLayout|0.15851443896365117
0.2552845528455285|android.view.View.measure|0.15849087687371294
0.25691056910569104|android.view.ViewGroup.dispatchTouchEvent|0.15847880848618362
0.25853658536585367|org.flyve.inventory.categories.Hardware.<init>|0.15843417460849576
0.2601626016260163|android.view.ViewGroup.layout|0.15841846654853695
0.26178861788617885|android.widget.FrameLayout.layoutChildren|0.1584063981610076
0.2634146341463415|android.view.View.measure|0.15835812461089027
0.26504065040650404|android.widget.LinearLayout.setChildFrame|0.15834605622336095
0.26666666666666666|android.widget.FrameLayout.layoutChildren|0.1575006944111872
0.2682926829268293|org.flyve.inventory.categories.Modems.<init>|0.15743249844356114
0.26991869918699185|org.flyve.inventory.categories.Cameras.<init>|0.15733595134332645
0.27154471544715447|org.flyve.inventory.categories.Hardware.<init>|0.1572756094056798
0.2731707317073171|android.view.View.layout|0.15680015324936544
0.27479674796747966|android.widget.RelativeLayout.measureChild|0.15677659115942721
0.2764227642276423|android.view.ViewGroup.dispatchTransformedTouchEvent|0.1567645227718979
0.2780487804878049|android.widget.LinearLayout.setChildFrame|0.15670418083425125
0.27967479674796747|android.widget.FrameLayout.onLayout|0.1566921124467219
0.2813008130081301|android.widget.RelativeLayout.measureChild|0.15664383889660455
0.28292682926829266|android.widget.LinearLayout.layoutVertical|0.15663177050907523
0.2845528455284553|android.view.View.measure|0.1560519132225468
0.2861788617886179|android.widget.FrameLayout.onLayout|0.15578640869690147
0.28780487804878047|android.view.View.measure|0.1551347157703175
0.2894308943089431|android.view.ViewGroup.layout|0.15508586753507975
0.2910569105691057|android.view.ViewGroup.dispatchTouchEvent|0.15505023705761217
0.2926829268292683|android.widget.LinearLayout.layoutVertical|0.15498989511996553
0.2943089430894309|android.view.View.layout|0.15497782673243618
0.2959349593495935|android.widget.LinearLayout.onLayout|0.1549174847947895
0.2975609756097561|android.view.ViewGroup.measureChildWithMargins|0.15433762750826108
0.2991869918699187|android.view.View.layout|0.15407212298261577
0.3008130081300813|android.view.View.measure|0.15355318231885445
0.3024390243902439|android.view.ViewGroup.measureChildWithMargins|0.1534204300560318
0.3040650406504065|android.widget.RelativeLayout.onLayout|0.15337158182079402
0.3056910569105691|android.view.ViewGroup.dispatchTransformedTouchEvent|0.15333595134332645
0.3073170731707317|android.view.View.measure|0.15328767779320912
0.3089430894308943|android.widget.LinearLayout.onLayout|0.1532756094056798
0.3105691056910569|android.view.ViewGroup.layout|0.15326354101815048
0.3121951219512195|android.view.View.layout|0.15320319908050378
0.31382113821138213|android.widget.FrameLayout.onMeasure|0.1526233417939754
0.3154471544715447|android.view.ViewGroup.layout|0.15235783726833008
0.3170731707317073|android.view.ViewGroup.measureChildWithMargins|0.15183889660456876
0.31869918699186994|android.widget.FrameLayout.onMeasure|0.1517061443417461
0.3203252032520325|android.view.View.layout|0.1516572961065083
0.32195121951219513|android.view.ViewGroup.dispatchTouchEvent|0.15162166562904078
0.3235772357723577|android.view.ViewGroup.measureChildWithMargins|0.15157339207892345
0.3252032520325203|android.view.View.layout|0.1515613236913941
0.32682926829268294|android.widget.LinearLayout.setChildFrame|0.15154925530386476
0.3284552845528455|android.view.ViewGroup.layout|0.15148891336621811
0.3300813008130081|android.view.View.measure|0.15090905607968969
0.33170731707317075|android.widget.LinearLayout.setChildFrame|0.15064355155404435
0.3333333333333333|android.widget.FrameLayout.onMeasure|0.15012461089028303
0.33495934959349594|android.view.View.measure|0.14999185862746037
0.33658536585365856|android.view.ViewGroup.layout|0.1499430103922226
0.3382113821138211|android.view.ViewGroup.dispatchTransformedTouchEvent|0.14990737991475506
0.33983739837398375|android.widget.FrameLayout.onMeasure|0.14985910636463773
0.34146341463414637|android.view.ViewGroup.layout|0.14984703797710838
0.34308943089430893|android.widget.LinearLayout.layoutVertical|0.14983496958957904
0.34471544715447155|android.widget.FrameLayout.layoutChildren|0.1497746276519324
0.3463414634146341|android.view.ViewGroup.measureChildWithMargins|0.14919477036540396
0.34796747967479674|android.widget.LinearLayout.layoutVertical|0.14892926583975863
0.34959349593495936|android.view.View.measure|0.14841032517599734
0.35121951219512193|android.view.ViewGroup.measureChildWithMargins|0.14827757291317467
0.35284552845528455|android.support.v4.view.ViewPager.onLayout|0.14822872467793688
0.3544715447154472|android.view.ViewGroup.dispatchTouchEvent|0.14819309420046933
0.35609756097560974|android.view.View.measure|0.148144820650352
0.35772357723577236|android.widget.FrameLayout.layoutChildren|0.1481327522628227
0.359349593495935|android.widget.LinearLayout.onLayout|0.14812068387529334
0.36097560975609755|android.widget.FrameLayout.onLayout|0.14806034193764667
0.36260162601626017|android.widget.LinearLayout.measureChildBeforeLayout|0.14748048465111824
0.3642276422764228|android.widget.LinearLayout.onLayout|0.1472149801254729
0.36585365853658536|android.view.ViewGroup.measureChildWithMargins|0.1466960394617116
0.367479674796748|android.widget.LinearLayout.measureChildBeforeLayout|0.14656328719888895
0.36910569105691055|android.view.View.layout|0.14651443896365118
0.37073170731707317|android.view.ViewGroup.dispatchTransformedTouchEvent|0.1464788084861836
0.3723577235772358|android.view.ViewGroup.measureChildWithMargins|0.14643053493606628
0.37398373983739835|android.widget.FrameLayout.onLayout|0.14641846654853696
0.375609756097561|android.widget.LinearLayout.measureVertical|0.14576619893683251
0.3772357723577236|android.widget.LinearLayout.measureChildBeforeLayout|0.1449817537474259
0.37886178861788616|android.widget.LinearLayout.measureVertical|0.14484900148460322
0.3804878048780488|android.view.ViewGroup.layout|0.14480015324936546
0.3821138211382114|android.view.ViewGroup.dispatchTouchEvent|0.14476452277189789
0.383739837398374|android.view.ViewGroup.layout|0.14475245438436857
0.3853658536585366|android.widget.LinearLayout.measureChildBeforeLayout|0.14471624922178056
0.38699186991869916|android.widget.LinearLayout.onMeasure|0.1440519132225468
0.3886178861788618|android.view.ViewGroup.layout|0.14391916095972412
0.3902439024390244|android.widget.LinearLayout.measureVertical|0.14326746803314017
0.39186991869918697|android.widget.LinearLayout.onMeasure|0.1431347157703175
0.3934959349593496|android.widget.RelativeLayout.onLayout|0.14308586753507974
0.3951219512195122|android.view.ViewGroup.dispatchTransformedTouchEvent|0.14305023705761216
0.3967479674796748|android.support.v4.widget.DrawerLayout.onLayout|0.14303816867008284
0.3983739837398374|android.widget.LinearLayout.measureVertical|0.14300196350749483
0.4|android.view.View.measure|0.1423376275082611
0.4016260162601626|android.support.v4.widget.DrawerLayout.onLayout|0.14220487524543843
0.4032520325203252|android.widget.LinearLayout.onMeasure|0.14155318231885444
0.40487804878048783|android.view.View.measure|0.14142043005603178
0.4065040650406504|android.view.ViewGroup.dispatchTouchEvent|0.14133595134332647
0.408130081300813|android.view.View.layout|0.14132388295579712
0.4097560975609756|android.widget.LinearLayout.onMeasure|0.14128767779320914
0.4113821138211382|android.view.ViewGroup.layout|0.14071931420908962
0.41300813008130083|android.support.v4.widget.DrawerLayout.onMeasure|0.1406233417939754
0.4146341463414634|android.view.View.measure|0.13983889660456875
0.416260162601626|android.support.v4.widget.DrawerLayout.onMeasure|0.13970614434174608
0.41788617886178864|android.view.ViewGroup.dispatchTransformedTouchEvent|0.13962166562904077
0.4195121951219512|android.view.ViewGroup.layout|0.13960959724151142
0.4211382113821138|android.view.View.measure|0.13957339207892344
0.42276422764227645|android.widget.FrameLayout.layoutChildren|0.1390050284948039
0.424390243902439|android.view.View.measure|0.13890905607968967
0.42601626016260163|android.support.v4.widget.DrawerLayout.onMeasure|0.13812461089028305
0.4276422764227642|android.view.View.measure|0.13799185862746038
0.4292682926829268|android.view.ViewGroup.dispatchTouchEvent|0.13790737991475505
0.43089430894308944|android.widget.FrameLayout.layoutChildren|0.13789531152722573
0.432520325203252|android.support.v4.widget.DrawerLayout.onMeasure|0.13785910636463772
0.43414634146341463|android.widget.FrameLayout.onLayout|0.13729074278051817
0.43577235772357725|android.view.ViewGroup.measureChildWithMargins|0.13719477036540395
0.4373983739837398|android.view.View.measure|0.13641032517599733
0.43902439024390244|android.view.ViewGroup.measureChildWithMargins|0.13627757291317466
0.44065040650406506|android.view.ViewGroup.dispatchTransformedTouchEvent|0.13619309420046932
0.44227642276422763|android.widget.FrameLayout.onLayout|0.13618102581294
0.44390243902439025|android.view.View.measure|0.136144820650352
0.44552845528455287|android.view.View.layout|0.13557645706623245
0.44715447154471544|android.widget.FrameLayout.onMeasure|0.13548048465111823
0.44878048780487806|android.view.ViewGroup.measureChildWithMargins|0.1346960394617116
0.4504065040650406|android.widget.FrameLayout.onMeasure|0.13456328719888894
0.45203252032520325|android.view.ViewGroup.dispatchTouchEvent|0.1344788084861836
0.45365853658536587|android.view.View.layout|0.13446674009865428
0.45528455284552843|android.view.ViewGroup.measureChildWithMargins|0.13443053493606627
0.45691056910569106|android.view.ViewGroup.layout|0.13386217135194675
0.4585365853658537|android.support.v7.widget.ContentFrameLayout.onMeasure|0.13376619893683253
0.46016260162601624|android.widget.FrameLayout.onMeasure|0.13298175374742588
0.46178861788617886|android.support.v7.widget.ContentFrameLayout.onMeasure|0.1328490014846032
0.4634146341463415|android.view.ViewGroup.dispatchTransformedTouchEvent|0.1327645227718979
0.46504065040650405|android.view.ViewGroup.layout|0.13275245438436856
0.4666666666666667|android.widget.FrameLayout.onMeasure|0.13271624922178057
0.4682926829268293|android.widget.LinearLayout.setChildFrame|0.13214788563766103
0.46991869918699186|android.view.View.measure|0.1320519132225468
0.4715447154471545|android.support.v7.widget.ContentFrameLayout.onMeasure|0.13126746803314018
0.47317073170731705|android.view.View.measure|0.13113471577031752
0.47479674796747967|android.view.ViewGroup.dispatchTouchEvent|0.13105023705761218
0.4764227642276423|android.widget.LinearLayout.setChildFrame|0.13103816867008286
0.47804878048780486|android.support.v7.widget.ContentFrameLayout.onMeasure|0.13100196350749485
0.4796747967479675|android.widget.LinearLayout.layoutVertical|0.1304335999233753
0.4813008130081301|android.view.ViewGroup.measureChildWithMargins|0.1303376275082611
0.48292682926829267|android.view.View.measure|0.12955318231885446
0.4845528455284553|android.view.ViewGroup.measureChildWithMargins|0.1294204300560318
0.4861788617886179|android.view.ViewGroup.dispatchTransformedTouchEvent|0.12933595134332648
0.4878048780487805|android.widget.LinearLayout.layoutVertical|0.12932388295579714
0.4894308943089431|android.view.View.measure|0.12928767779320915
0.49105691056910566|android.telephony.SubscriptionManager.getActiveSubscriptionInfoList|0.12886221924237345
0.4926829268292683|android.widget.LinearLayout.onLayout|0.1287193142090896
0.4943089430894309|android.widget.LinearLayout.measureChildBeforeLayout|0.1286233417939754
0.4959349593495935|android.view.ViewGroup.measureChildWithMargins|0.12783889660456874
0.4975609756097561|android.widget.LinearLayout.measureChildBeforeLayout|0.12770614434174607
0.4991869918699187|android.view.ViewGroup.dispatchTouchEvent|0.12762166562904076
0.5008130081300813|android.widget.LinearLayout.onLayout|0.1276095972415114
0.5024390243902439|android.view.ViewGroup.measureChildWithMargins|0.12757339207892343
0.5040650406504065|android.view.View.layout|0.12700502849480388
0.5056910569105691|android.widget.LinearLayout.measureVertical|0.12690905607968966
0.5073170731707317|android.widget.LinearLayout.measureChildBeforeLayout|0.12612461089028304
0.5089430894308943|android.widget.LinearLayout.measureVertical|0.12599185862746037
0.510569105691057|com.android.internal.policy.PhoneWindow$DecorView.superDispatchTouchEvent|0.12590737991475504
0.5121951219512195|android.view.View.layout|0.12589531152722572
0.5138211382113821|android.widget.LinearLayout.measureChildBeforeLayout|0.1258591063646377
0.5154471544715448|android.view.ViewGroup.layout|0.12529074278051816
0.5170731707317073|android.widget.LinearLayout.onMeasure|0.12519477036540397
0.5186991869918699|android.widget.LinearLayout.measureVertical|0.12441032517599732
0.5203252032520326|android.widget.LinearLayout.onMeasure|0.12427757291317465
0.5219512195121951|com.android.internal.policy.PhoneWindow.superDispatchTouchEvent|0.12419309420046934
0.5235772357723577|android.view.ViewGroup.layout|0.12418102581294
0.5252032520325203|android.widget.LinearLayout.measureVertical|0.12414482065035201
0.526829268292683|org.flyve.inventory.agent.core.home.HomeModel.isMyServiceRunning|0.12406034193764667
0.5284552845528455|org.flyve.inventory.agent.core.home.HomeModel.isMyServiceRunning|0.12403620516258801
0.5300813008130081|android.widget.FrameLayout.layoutChildren|0.12357645706623246
0.5317073170731708|android.view.View.measure|0.12348048465111824
0.5333333333333333|android.widget.LinearLayout.onMeasure|0.1226960394617116
0.5349593495934959|android.view.View.measure|0.12256328719888894
0.5365853658536586|android.app.Activity.dispatchTouchEvent|0.12247880848618362
0.5382113821138211|android.widget.FrameLayout.layoutChildren|0.12246674009865428
0.5398373983739837|android.widget.LinearLayout.onMeasure|0.12243053493606629
0.5414634146341464|org.flyve.inventory.agent.core.home.HomeModel.doBindService|0.12234605622336095
0.5430894308943089|org.flyve.inventory.agent.core.home.HomeModel.doBindService|0.12232191944830229
0.5447154471544715|android.widget.FrameLayout.onLayout|0.12186217135194674
0.5463414634146342|android.view.ViewGroup.measureChildWithMargins|0.12176619893683252
0.5479674796747968|android.view.View.measure|0.1209817537474259
0.5495934959349593|android.view.ViewGroup.measureChildWithMargins|0.12084900148460323
0.551219512195122|android.support.v7.view.WindowCallbackWrapper.dispatchTouchEvent|0.12076452277189789
0.5528455284552846|android.widget.FrameLayout.onLayout|0.12075245438436857
0.5544715447154471|android.view.View.measure|0.12071624922178056
0.5560975609756098|org.flyve.inventory.agent.core.home.HomePresenter.doBindService|0.1206921124467219
0.5577235772357724|org.flyve.inventory.agent.core.home.HomePresenter.doBindService|0.12064383889660457
0.5593495934959349|org.flyve.inventory.agent.adapter.InventoryChildAdapter.onBindViewHolder|0.12034998323835065
0.5609756097560976|android.view.View.layout|0.12014788563766103
0.5626016260162602|android.widget.FrameLayout.onMeasure|0.12005191322254682
0.5642276422764227|org.flyve.inventory.agent.ui.FragmentHome.onCreateView|0.11932780997078685
0.5658536585365853|android.view.ViewGroup.measureChildWithMargins|0.11926746803314017
0.567479674796748|android.widget.FrameLayout.onMeasure|0.1191347157703175
0.5691056910569106|com.android.internal.policy.PhoneWindow$DecorView.dispatchTouchEvent|0.1190502370576122
0.5707317073170731|android.view.View.layout|0.11903816867008285
0.5723577235772358|android.view.ViewGroup.measureChildWithMargins|0.11900196350749487
0.5739837398373984|android.view.LayoutInflater.inflate|0.11851501364877161
0.5756097560975609|android.view.ViewGroup.layout|0.11843359992337532
0.5772357723577236|android.view.View.measure|0.1183376275082611
0.5788617886178862|android.support.v4.app.Fragment.performCreateView|0.11761352425650112
0.5804878048780487|android.widget.FrameLayout.onMeasure|0.11755318231885446
0.5821138211382114|android.view.View.measure|0.1174204300560318
0.583739837398374|android.view.View.dispatchPointerEvent|0.11733595134332647
0.5853658536585366|android.view.ViewGroup.layout|0.11732388295579714
0.5869918699186992|android.widget.FrameLayout.onMeasure|0.11728767779320914
0.5886178861788618|android.widget.LinearLayout.setChildFrame|0.1167193142090896
0.5902439024390244|android.view.ViewGroup.measureChildWithMargins|0.11662334179397538
0.591869918699187|android.support.v4.app.FragmentManagerImpl.moveToState|0.1158992385422154
0.5934959349593496|android.view.View.measure|0.11583889660456875
0.5951219512195122|android.view.ViewGroup.measureChildWithMargins|0.11570614434174609
0.5967479674796748|android.view.ViewRootImpl$ViewPostImeInputStage.processPointerEvent|0.11562166562904075
0.5983739837398374|android.widget.LinearLayout.setChildFrame|0.11560959724151143
0.6|android.view.View.measure|0.11557339207892342
0.6016260162601627|android.widget.LinearLayout.layoutVertical|0.11500502849480389
0.6032520325203252|android.widget.LinearLayout.measureChildBeforeLayout|0.11490905607968967
0.6048780487804878|android.support.v4.app.FragmentManagerImpl.moveFragmentToExpectedState|0.11418495282792969
0.6065040650406504|android.view.ViewGroup.measureChildWithMargins|0.11412461089028303
0.608130081300813|android.widget.LinearLayout.measureChildBeforeLayout|0.11399185862746036
0.6097560975609756|android.view.ViewRootImpl$ViewPostImeInputStage.onProcess|0.11390737991475504
0.6113821138211382|android.widget.LinearLayout.layoutVertical|0.1138953115272257
0.6130081300813008|android.view.ViewGroup.measureChildWithMargins|0.11385910636463771
0.6146341463414634|android.widget.AdapterView.isScrollableForAccessibility|0.11373842248934438
0.616260162601626|android.widget.LinearLayout.onLayout|0.11329074278051818
0.6178861788617886|android.widget.LinearLayout.measureVertical|0.11319477036540396
0.6195121951219512|android.support.v4.app.FragmentManagerImpl.moveToState|0.11247066711364398
0.6211382113821138|android.widget.LinearLayout.measureChildBeforeLayout|0.11241032517599732
0.6227642276422765|android.widget.LinearLayout.measureVertical|0.11227757291317465
0.624390243902439|android.view.ViewRootImpl$InputStage.deliver|0.11219309420046933
0.6260162601626016|android.widget.LinearLayout.onLayout|0.11218102581294
0.6276422764227643|android.widget.LinearLayout.measureChildBeforeLayout|0.112144820650352
0.6292682926829268|android.widget.AdapterView.onInitializeAccessibilityNodeInfoInternal|0.11202413677505867
0.6308943089430894|android.view.View.layout|0.11157645706623245
0.6325203252032521|android.widget.LinearLayout.onMeasure|0.11148048465111823
0.6341463414634146|android.support.v4.app.BackStackRecord.executeOps|0.11075638139935826
0.6357723577235772|android.widget.LinearLayout.measureVertical|0.11069603946171161
0.6373983739837399|android.widget.LinearLayout.onMeasure|0.11056328719888894
0.6390243902439025|android.view.ViewRootImpl$InputStage.onDeliverToNext|0.1104788084861836
0.640650406504065|android.view.View.layout|0.11046674009865429
0.6422764227642277|android.widget.LinearLayout.measureVertical|0.11043053493606628
0.6439024390243903|android.widget.AbsListView.onInitializeAccessibilityNodeInfoInternal|0.11030985106077296
0.6455284552845528|android.view.ViewGroup.layout|0.10986217135194674
0.6471544715447154|android.view.View.measure|0.10976619893683252
0.6487804878048781|android.support.v4.app.FragmentManagerImpl.executeOps|0.10904209568507255
0.6504065040650406|android.widget.LinearLayout.onMeasure|0.10898175374742589
0.6520325203252032|android.view.View.measure|0.10884900148460322
0.6536585365853659|android.view.ViewRootImpl$InputStage.forward|0.1087645227718979
0.6552845528455284|android.view.ViewGroup.layout|0.10875245438436856
0.656910569105691|android.widget.LinearLayout.onMeasure|0.10871624922178057
0.6585365853658537|android.widget.ListView.onInitializeAccessibilityNodeInfoInternal|0.10859556534648723
0.6601626016260163|android.widget.FrameLayout.layoutChildren|0.10814788563766103
0.6617886178861788|android.view.ViewGroup.measureChildWithMargins|0.10805191322254681
0.6634146341463415|org.flyve.inventory.agent.adapter.HomeAdapter.getCount|0.10802413677505866
0.6650406504065041|android.support.v4.app.FragmentManagerImpl.executeOpsTogether|0.10732780997078684
0.6666666666666666|android.view.View.measure|0.10726746803314018
0.6682926829268293|android.view.ViewGroup.measureChildWithMargins|0.10713471577031751
0.6699186991869919|android.view.ViewRootImpl$AsyncInputStage.forward|0.10705023705761219
0.6715447154471544|android.widget.FrameLayout.layoutChildren|0.10703816867008285
0.6731707317073171|android.view.View.measure|0.10700196350749486
0.6747967479674797|android.view.View.onInitializeAccessibilityNodeInfo|0.10688127963220152
0.6764227642276422|android.widget.FrameLayout.onLayout|0.10643359992337531
0.6780487804878049|android.view.LayoutInflater.inflate|0.10634605622336094
0.6796747967479675|android.widget.FrameLayout.onMeasure|0.10633762750826109
0.6813008130081301|org.flyve.inventory.agent.adapter.HomeAdapter.getCount|0.10630985106077294
0.6829268292682927|org.flyve.inventory.agent.adapter.InventoryChildAdapter.getItemCount|0.10570585699918586
0.6845528455284553|android.support.v4.app.FragmentManagerImpl.removeRedundantOperationsAndExecute|0.10561352425650111
0.6861788617886179|android.view.ViewGroup.measureChildWithMargins|0.10555318231885447
0.6878048780487804|android.widget.FrameLayout.onMeasure|0.1054204300560318
0.6894308943089431|android.view.ViewRootImpl$InputStage.apply|0.10533595134332646
0.6910569105691057|android.widget.FrameLayout.onLayout|0.10532388295579714
0.6926829268292682|android.view.ViewGroup.measureChildWithMargins|0.10528767779320913
0.6943089430894309|android.view.View.createAccessibilityNodeInfoInternal|0.10516699391791581
0.6959349593495935|com.android.internal.policy.impl.PhoneWindow$DecorView.onMeasure|0.10462334179397538
0.697560975609756|android.view.LayoutInflater.inflate|0.1046197021215459
0.6991869918699187|android.support.v4.view.ViewPager$MyAccessibilityDelegate.canScroll|0.10399578564245007
0.7008130081300813|android.support.v4.app.FragmentManagerImpl.execPendingActions|0.1038992385422154
0.7024390243902439|android.widget.AdapterView.isScrollableForAccessibility|0.10383889660456874
0.7040650406504065|com.android.internal.policy.PhoneWindow$DecorView.onMeasure|0.10370614434174608
0.7056910569105691|android.view.ViewRootImpl$AsyncInputStage.apply|0.10362166562904075
0.7073170731707317|com.android.internal.policy.PhoneWindow$DecorView.onLayout|0.10360959724151142
0.7089430894308943|android.widget.FrameLayout.onMeasure|0.10357339207892342
0.7105691056910569|android.support.v7.widget.RecyclerView$LayoutManager.onInitializeAccessibilityNodeInfo|0.10347684497868875
0.7121951219512195|android.view.View.createAccessibilityNodeInfo|0.10345270820363009
0.7138211382113822|android.view.ViewGroup.layout|0.10318605430774389
0.7154471544715447|android.support.v4.view.ViewPager$MyAccessibilityDelegate.onInitializeAccessibilityNodeInfo|0.10228149992816436
0.7170731707317073|org.flyve.inventory.CryptoUtil.generateKeyPair|0.10224414539533547
0.71869918699187|android.support.v4.app.FragmentManagerImpl.dispatchStateChange|0.10218495282792969
0.7203252032520325|android.widget.AdapterView.onInitializeAccessibilityNodeInfoInternal|0.10212461089028303
0.7219512195121951|android.view.ViewRootImpl$InputStage.deliver|0.10190737991475504
0.7235772357723578|com.android.internal.policy.PhoneWindow$DecorView.onMeasure|0.10185910636463771
0.7252032520325203|android.support.v7.widget.RecyclerViewAccessibilityDelegate.onInitializeAccessibilityNodeInfo|0.10176255926440304
0.7268292682926829|android.view.accessibility.AccessibilityRecord.setSource|0.10173842248934438
0.7284552845528456|android.view.ViewRootImpl.performMeasure|0.1014723432785786
0.7300813008130081|android.view.ViewRootImpl.performLayout|0.10147176859345816
0.7317073170731707|android.view.LayoutInflater.inflate|0.10116699391791581
0.7333333333333333|org.flyve.inventory.categories.OperatingSystem.getSSHKey|0.10052985968104976
0.734959349593496|android.support.v4.app.FragmentManagerImpl.dispatchActivityCreated|0.10047066711364397
0.7365853658536585|android.widget.AbsListView.onInitializeAccessibilityNodeInfoInternal|0.10041032517599732
0.7382113821138211|org.flyve.inventory.FlyveLog.getMessage|0.10028964130070397
0.7398373983739838|android.view.ViewRootImpl$InputStage.onDeliverToNext|0.10019309420046932
0.7414634146341463|android.view.ViewRootImpl.doTraversal|0.10007068626981466
0.7430894308943089|android.view.View.onInitializeAccessibilityEventInternal|0.10002413677505867
0.7447154471544716|android.view.ViewRootImpl.measureHierarchy|0.0997580575642929
0.7463414634146341|android.view.LayoutInflater.inflate|0.09946477659115943
0.7479674796747967|android.view.View.onInitializeAccessibilityNodeInfo|0.09890120204971026
0.7495934959349594|android.view.ViewRootImpl.performMeasure|0.09884086011206361
0.751219512195122|org.flyve.inventory.categories.OperatingSystem.<init>|0.09881557396676405
0.7528455284552845|android.support.v4.app.FragmentController.dispatchActivityCreated|0.09875638139935827
0.7544715447154472|android.widget.ListView.onInitializeAccessibilityNodeInfoInternal|0.0986960394617116
0.7560975609756098|org.flyve.inventory.categories.Memory.getRamInfo|0.09857535558641828
0.7577235772357723|android.view.ViewRootImpl$InputStage.forward|0.09847880848618362
0.759349593495935|android.view.ViewRootImpl$TraversalRunnable.run|0.09835640055552894
0.7609756097560976|android.widget.AdapterView.onInitializeAccessibilityEventInternal|0.09830985106077295
0.7626016260162601|android.view.View.createAccessibilityNodeInfoInternal|0.09718691633542455
0.7642276422764228|android.support.v4.app.FragmentActivity.onStart|0.09704209568507255
0.7658536585365854|android.view.View.onInitializeAccessibilityNodeInfo|0.09698175374742589
0.767479674796748|org.flyve.inventory.categories.Memory.<init>|0.09686106987213255
0.7691056910569106|android.view.ViewRootImpl$InputStage.apply|0.0967645227718979
0.7707317073170732|org.flyve.inventory.categories.Software.getRemovable|0.0967283176093099
0.7723577235772358|org.flyve.inventory.agent.core.main.MainPresenter.setupDrawer|0.0966921124467219
0.7739837398373983|android.view.Choreographer$CallbackRecord.run|0.09664211484124323
0.775609756097561|org.flyve.inventory.categories.Software.getFolder|0.09660763373401657
0.7772357723577236|android.view.View.onInitializeAccessibilityEvent|0.09659556534648724
0.7788617886178861|org.flyve.inventory.agent.ui.ActivityInventoryReport.onCreate|0.09620880226042815
0.7804878048780488|org.flyve.inventory.agent.adapter.HomeAdapter.getItemId|0.09609654710023466
0.7821138211382114|android.view.View$AccessibilityDelegate.createAccessibilityNodeInfo|0.09547263062113884
0.7837398373983739|android.support.v7.app.AppCompatActivity.onStart|0.09532780997078684
0.7853658536585366|android.view.View.createAccessibilityNodeInfoInternal|0.09526746803314018
0.7869918699186992|org.flyve.inventory.agent.ui.ActivityMain.onCreate|0.09523126287055218
0.7886178861788617|org.flyve.inventory.categories.Hardware.<init>|0.09514678415784684
0.7902439024390244|android.view.ViewRootImpl$InputStage.deliver|0.09505023705761219
0.791869918699187|android.view.Choreographer.doCallbacks|0.09492782912695752
0.7934959349593496|android.view.View.sendAccessibilityEventUncheckedInternal|0.09488127963220153
0.7951219512195122|android.view.LayoutInflater.inflate|0.09438226138594893
0.7967479674796748|android.view.LayoutInflater.inflate|0.0943339878358316
0.7983739837398374|android.view.LayoutInflater.inflate|0.09432191944830227
0.8|android.view.View.createAccessibilityNodeInfo|0.09375834490685311
0.8016260162601626|android.app.Instrumentation.callActivityOnStart|0.09361352425650113
0.8032520325203252|android.view.View.createAccessibilityNodeInfo|0.09355318231885446
0.8048780487804879|android.view.ViewRootImpl.deliverInputEvent|0.09333595134332648
0.8065040650406504|android.app.Instrumentation.callActivityOnCreate|0.09327503472055935
0.808130081300813|org.flyve.inventory.agent.utils.LocalStorage.getSettings|0.09321526746803313
0.8097560975609757|android.view.Choreographer.doFrame|0.0932135434126718
0.8113821138211382|android.view.View.sendAccessibilityEventUnchecked|0.0931669939179158
0.8130081300813008|android.app.Instrumentation.callActivityOnCreate|0.09280436760691538
0.8146341463414634|android.view.LayoutInflater.inflate|0.0926197021215459
0.816260162601626|android.view.LayoutInflater.inflate|0.09260763373401656
0.8178861788617886|org.flyve.inventory.agent.service.InventoryService.access$000|0.09217566208514918
0.8195121951219512|android.view.AccessibilityInteractionController$AccessibilityNodePrefetcher.prefetchDescendantsOfRealNode|0.0920440591925674
0.8211382113821138|android.app.Activity.performStart|0.0918992385422154
0.8227642276422764|android.view.AccessibilityInteractionController$AccessibilityNodePrefetcher.prefetchDescendantsOfRealNode|0.09183889660456875
0.824390243902439|android.view.ViewRootImpl.doProcessInputEvents|0.09162166562904075
0.8260162601626017|android.view.Choreographer$FrameDisplayEventReceiver.run|0.09149925769838609
0.8276422764227642|android.view.View.sendAccessibilityEventInternal|0.09145270820363009
0.8292682926829268|org.flyve.inventory.agent.ui.ActivityMain$1.onReceive|0.09099296010727456
0.8308943089430895|org.flyve.inventory.agent.service.InventoryService$TimeDisplayTimerTask$1.run|0.09081135960921412
0.832520325203252|android.view.AccessibilityInteractionController$AccessibilityNodePrefetcher.prefetchAccessibilityNodeInfos|0.0903297734782817
0.8341463414634146|android.view.AccessibilityInteractionController$AccessibilityNodePrefetcher.prefetchAccessibilityNodeInfos|0.09012461089028304
0.8357723577235773|android.app.ActivityThread.handleLaunchActivity|0.09003955749245726
0.8373983739837398|android.view.ViewRootImpl.enqueueInputEvent|0.08990737991475505
0.8390243902439024|org.flyve.inventory.agent.service.InventoryService.onCreate|0.08984703797710838
0.8406504065040651|android.app.ActivityThread.handleLaunchActivity|0.08984646329198792
0.8422764227642277|org.flyve.inventory.FlyveLog.getMessage|0.08983496958957905
0.8439024390243902|org.flyve.inventory.FlyveLog.getMessage|0.08981083281452037
0.8455284552845529|org.flyve.inventory.agent.service.InventoryService.onCreate|0.08976255926440305
0.8471544715447155|android.widget.AbsListView.sendAccessibilityEventInternal|0.08973842248934438
0.848780487804878|org.flyve.inventory.InventoryTask$2.run|0.08932349983238351
0.8504065040650407|android.app.LoadedApk$ReceiverDispatcher$Args.run|0.08927867439298884
0.8520325203252033|org.flyve.inventory.agent.adapter.HomeAdapter.getCount|0.08922733585556247
0.8536585365853658|org.flyve.inventory.FlyveLog.getMessage|0.08913442842775729
0.8552845528455284|org.flyve.inventory.FlyveLog.getMessage|0.08901316986734352
0.8569105691056911|android.view.AccessibilityInteractionController.findAccessibilityNodeInfoByAccessibilityIdUiThread|0.08861548776399597
0.8585365853658536|android.view.AccessibilityInteractionController.findAccessibilityNodeInfoByAccessibilityIdUiThread|0.08841032517599731
0.8601626016260162|android.app.ActivityThread.access$800|0.08832527177817154
0.8617886178861789|android.view.ViewRootImpl$WindowInputEventReceiver.onInputEvent|0.08819309420046934
0.8634146341463415|android.app.ActivityThread.handleCreateService|0.08813275226282266
0.865040650406504|android.app.ActivityThread.-wrap11|0.08813217757770221
0.8666666666666667|org.flyve.inventory.Utils.getCatInfo|0.08812068387529334
0.8682926829268293|org.flyve.inventory.Utils.getCatInfo|0.08809654710023465
0.8699186991869918|org.flyve.inventory.FlyveLog.getMessage|0.08804827355011732
0.8715447154471545|android.view.View.sendAccessibilityEvent|0.08802413677505866
0.8731707317073171|java.lang.Thread.run|0.0876092141180978
0.8747967479674796|org.flyve.inventory.categories.Networks.getStatus|0.08729888415305781
0.8764227642276423|android.view.AccessibilityInteractionController.access$400|0.08690120204971026
0.8780487804878049|android.view.AccessibilityInteractionController.-wrap1|0.0866960394617116
0.8796747967479674|android.view.InputEventReceiver.dispatchInputEvent|0.08647880848618361
0.8813008130081301|android.app.ActivityThread.access$1800|0.08641846654853695
0.8829268292682927|org.flyve.inventory.categories.Memory.getRamInfo|0.08638226138594894
0.8845528455284553|org.flyve.inventory.FlyveLog.getMessage|0.08635812461089028
0.8861788617886179|org.flyve.inventory.categories.Drives.getFreeSpace|0.08634605622336095
0.8878048780487805|org.flyve.inventory.Utils.getCatInfoMultiple|0.08633398783583161
0.8894308943089431|android.view.View$SendViewScrolledAccessibilityEvent.run|0.08630985106077295
0.8910569105691057|org.flyve.inventory.categories.Memory.<init>|0.08582654087447919
0.8926829268292683|org.flyve.inventory.categories.Simcards.getMultipleSim|0.0848007279344859
0.8943089430894309|org.flyve.inventory.categories.Software.getRemovable|0.08477659115942723
0.8959349593495934|android.os.MessageQueue.nativePollOnce|0.0847645227718979
0.8975609756097561|org.flyve.inventory.categories.Software.getName|0.08475245438436857
0.8991869918699187|org.flyve.inventory.categories.Modems.getIMEI|0.08474038599683924
0.9008130081300812|org.flyve.inventory.FlyveLog.getMessage|0.08469211244672191
0.9024390243902439|org.flyve.inventory.categories.Simcards.getMultipleSim|0.08468004405919258
0.9040650406504065|org.flyve.inventory.categories.Cameras.getVideoResolution|0.08466797567166323
0.9056910569105691|org.flyve.inventory.categories.Memory.getRamInfo|0.08464383889660457
0.9073170731707317|org.flyve.inventory.categories.Cameras.getVideoResolution|0.08463177050907524
0.9089430894308943|org.flyve.inventory.categories.Software.getRemovable|0.08460763373401657
0.9105691056910569|org.flyve.inventory.categories.Software.getFileSize|0.08459556534648724
0.9121951219512195|org.flyve.inventory.InventoryTask.loadCategoriesClass|0.08339907092572195
0.9138211382113821|org.flyve.inventory.categories.Simcards.<init>|0.08308644222020017
0.9154471544715447|android.os.MessageQueue.next|0.08305023705761219
0.9170731707317074|org.flyve.inventory.categories.Simcards.<init>|0.08296575834490685
0.9186991869918699|org.flyve.inventory.categories.User.<init>|0.08295368995737751
0.9203252032520325|org.flyve.inventory.categories.Memory.<init>|0.08292955318231884
0.9219512195121952|org.flyve.inventory.categories.Drives.<init>|0.08291748479478953
0.9235772357723577|org.flyve.inventory.categories.Inputs.<init>|0.08289334801973086
0.9252032520325203|org.flyve.inventory.InventoryTask.loadCategoriesClass|0.08180604377185001
0.926829268292683|org.flyve.inventory.agent.service.InventoryService$TimeDisplayTimerTask.run|0.07604827355011733
0.9284552845528455|java.util.Timer$TimerImpl.run|0.07433398783583162
0.9300813008130081|android.content.ComponentName.getClassName|0.05148891336621809
0.9317073170731708|android.content.ComponentName.getClassName|0.05146477659115942
0.9333333333333333|org.flyve.inventory.agent.adapter.HomeAdapter.getCount|0.041166993917915805
0.9349593495934959|org.flyve.inventory.agent.adapter.InventoryChildAdapter.getItemCount|0.032595565346487235
0.9365853658536586|org.flyve.inventory.agent.adapter.ViewPagerAdapter.getCount|0.0314243570710215
0.9382113821138212|org.flyve.inventory.agent.adapter.HomeAdapter.getCount|0.03126746803314017
0.9398373983739837|com.android.org.conscrypt.OpenSSLRSAPrivateKey.getEncoded|0.029672716823906896
0.9414634146341463|android.content.res.Resources.getString|0.027573392078923422
0.943089430894309|android.app.Activity.getSystemService|0.02745270820363009
0.9447154471544715|android.content.res.Resources.getString|0.02575049087687371
0.9463414634146341|android.app.ApplicationPackageManager.getApplicationInfo|0.024156889037881327
0.9479674796747968|android.app.ApplicationPackageManager.getApplicationInfo|0.024036205162588
0.9495934959349593|android.support.v7.app.AppCompatActivity.setContentView|0.02296154398735693
0.9512195121951219|org.flyve.inventory.agent.ui.ActivityInventoryReport.onCreate|0.022043771850007183
0.9528455284552846|android.content.ContextWrapper.getSharedPreferences|0.020643838896604566
0.9544715447154472|org.flyve.inventory.agent.ui.ActivityMain.onCreate|0.020595565346487234
0.9560975609756097|android.content.Intent.putExtra|0.020522580336190796
0.9577235772357724|android.content.ContextWrapper.sendBroadcast|0.019182989320434846
0.959349593495935|android.app.SharedPreferencesImpl.getLong|0.01888127963220152
0.9609756097560975|android.content.res.Resources.getSystem|0.017191130692974472
0.9626016260162602|android.app.Service.onCreate|0.01717906230544514
0.9642276422764228|android.content.ContextWrapper.getApplicationContext|0.017166993917915804
0.9658536585365853|android.content.Intent.getStringExtra|0.01636990565585939
0.967479674796748|android.support.v7.app.AppCompatActivity.getResources|0.01599578564245007
0.9691056910569106|android.content.res.Resources.getString|0.015452708203630093
0.9707317073170731|android.support.v7.app.AppCompatActivity.getResources|0.015078013505100329
0.9723577235772358|android.os.StatFs.getAvailableBlocksLong|0.013774627651932377
0.9739837398373984|android.content.res.Resources.getString|0.013750490876873711
0.975609756097561|android.telephony.SubscriptionManager.getActiveSubscriptionInfoList|0.012229299363057325
0.9772357723577236|android.app.ApplicationPackageManager.getApplicationInfo|0.012205162587998659
0.9788617886178862|android.app.ApplicationPackageManager.getApplicationLabel|0.012181025812939993
0.9804878048780488|android.telephony.SubscriptionManager.getActiveSubscriptionInfoList|0.012108615487763996
0.9821138211382113|android.os.UserManager.getUserName|0.012096547100234663
0.983739837398374|android.telephony.SubscriptionManager.getActiveSubscriptionInfoList|0.01208447871270533
0.9853658536585366|android.content.res.Resources.getString|0.012060341937646664
0.9869918699186991|android.hardware.Camera.getParameters|0.012048273550117332
0.9886178861788618|android.app.ApplicationPackageManager.getApplicationInfo|0.012036205162587998
0.9902439024390244|android.app.ApplicationPackageManager.getApplicationInfo|0.012024136775058666
0.991869918699187|android.content.ContextWrapper.getApplicationContext|0.010502945261242277
0.9934959349593496|android.app.ApplicationPackageManager.getInstalledApplications|0.010442603323595612
0.9951219512195122|android.content.res.Resources.getConfiguration|0.010321919448302283
0.9967479674796748|android.hardware.Camera.getNumberOfCameras|0.010309851060772951
0.9983739837398374|android.os.Handler.post|0.003452708203630094
1.0|android.os.Binder.execTransact|9.413342272879651E-4
