Position |MethodName|Relevancy
0.017241379310344827|android.app.ActivityThread$H.handleMessage|0.9289853896103897
0.034482758620689655|android.os.Handler.dispatchMessage|0.6247889610389611
0.05172413793103448|de.robv.android.xposed.XposedBridge.main|0.6100000000000001
0.06896551724137931|android.os.Looper.loop|0.45121753246753254
0.08620689655172414|android.app.ActivityThread.main|0.447646103896104
0.10344827586206896|java.lang.reflect.Method.invoke|0.44407467532467537
0.1206896551724138|com.android.internal.os.ZygoteInit$MethodAndArgsCaller.run|0.4405032467532468
0.13793103448275862|com.android.internal.os.ZygoteInit.main|0.43693181818181825
0.15517241379310345|android.os.Handler.handleCallback|0.4008035714285714
0.1724137931034483|com.github.fakegps.ui.MainActivity.onCreate|0.3862094155844156
0.1896551724137931|com.github.fakegps.ui.JoyStickView.<init>|0.3859253246753247
0.20689655172413793|com.github.fakegps.ui.JoyStickView.<init>|0.3854139610389611
0.22413793103448276|android.app.Activity.performCreate|0.382637987012987
0.2413793103448276|android.app.Instrumentation.callActivityOnCreate|0.37906655844155845
0.25862068965517243|android.app.ActivityThread.performLaunchActivity|0.3754951298701299
0.27586206896551724|android.app.ActivityThread.handleLaunchActivity|0.37192370129870134
0.29310344827586204|android.app.ActivityThread.-wrap11|0.3683522727272728
0.3103448275862069|com.github.fakegps.DbUtils.getLastLocPoint|0.330974025974026
0.3275862068965517|com.github.fakegps.ui.MainActivity.onCreate|0.24558441558441563
0.3448275862068966|android.app.Activity.performCreate|0.24201298701298704
0.3620689655172414|android.app.Instrumentation.callActivityOnCreate|0.23844155844155848
0.3793103448275862|android.app.ActivityThread.performLaunchActivity|0.2348701298701299
0.39655172413793105|android.app.ActivityThread.handleLaunchActivity|0.23129870129870134
0.41379310344827586|android.app.ActivityThread.access$800|0.22772727272727275
0.43103448275862066|com.github.fakegps.ui.MainActivity.onClick|0.22617694805194807
0.4482758620689655|android.view.View.performClick|0.22260551948051951
0.46551724137931033|com.github.fakegps.ui.MainActivity.unregisterBroadcastReceiver|0.22154220779220782
0.4827586206896552|com.github.fakegps.ui.MainActivity.onDestroy|0.22052759740259742
0.5|android.view.View$PerformClick.run|0.21903409090909093
0.5172413793103449|com.github.fakegps.FakeGpsApp.initLogger|0.21849025974025976
0.5344827586206896|android.app.Activity.performDestroy|0.21695616883116883
0.5517241379310345|com.github.fakegps.JoyStickManager.showJoyStick|0.21542207792207793
0.5689655172413793|com.github.fakegps.FakeGpsApp.onCreate|0.2149188311688312
0.5862068965517241|com.github.fakegps.ui.MainActivity.onClick|0.21441558441558442
0.603448275862069|android.app.Instrumentation.callActivityOnDestroy|0.21338474025974027
0.6206896551724138|android.app.ActivityThread.handleBindApplication|0.2123782467532468
0.6379310344827587|com.github.fakegps.JoyStickManager.showJoyStick|0.21184253246753249
0.6551724137931034|android.app.Instrumentation.callApplicationOnCreate|0.21134740259740262
0.6724137931034483|android.view.View.performClick|0.21084415584415586
0.6896551724137931|com.github.fakegps.JoyStickManager.start|0.21082792207792211
0.7068965517241379|android.app.ActivityThread.performDestroyActivity|0.2098133116883117
0.7241379310344828|android.app.ActivityThread.-wrap1|0.2088068181818182
0.7413793103448276|android.view.View$PerformClick.run|0.20727272727272728
0.7586206896551724|android.app.ActivityThread.handleDestroyActivity|0.20624188311688313
0.7758620689655172|android.app.ActivityThread.access$1400|0.20267045454545454
0.7931034482758621|com.github.fakegps.LocationThread$1.run|0.18735389610389613
0.8103448275862069|android.os.Handler.handleCallback|0.18378246753246755
0.8275862068965517|android.os.Handler.dispatchMessage|0.180211038961039
0.8448275862068966|android.os.Looper.loop|0.1766396103896104
0.8620689655172413|android.os.HandlerThread.run|0.17306818181818184
0.8793103448275862|android.app.SharedPreferencesImpl.getString|0.10727272727272728
0.896551724137931|android.support.v7.app.AppCompatActivity.setContentView|0.06279220779220779
0.9137931034482759|android.support.v4.content.LocalBroadcastManager.unregisterReceiver|0.052556818181818184
0.9310344827586207|android.view.LayoutInflater.inflate|0.048474025974025975
0.9482758620689655|android.view.LayoutInflater.from|0.04796266233766234
0.9655172413793104|android.os.Environment.getExternalStorageDirectory|0.04745941558441558
0.9827586206896551|android.view.LayoutInflater.from|0.0474512987012987
1.0|android.location.ILocationManager$Stub$Proxy.reportLocation|0.019391233766233768
