digraph SIB_treshold_2 {
"b60ea936-4e83-421f-ae8c-c837f4fa93d2" [style=filled, fillcolor="#5E5E5E",fontcolor=white, label="de.robv.android.xposed.XposedBridge.main\n Susp=0,75"];
"b60ea936-4e83-421f-ae8c-c837f4fa93d2" -> "27db8e53-1ef3-43ea-bb15-6bb03e22569e";
"27db8e53-1ef3-43ea-bb15-6bb03e22569e" [style=filled, fillcolor="#919191", label="com.android.internal.os.ZygoteInit.main\n Susp=0,4277"];
"27db8e53-1ef3-43ea-bb15-6bb03e22569e" -> "9c142698-fff7-4f07-860e-7b5ba0911c1b";
"9c142698-fff7-4f07-860e-7b5ba0911c1b" [style=filled, fillcolor="#919191", label="com.android.internal.os.ZygoteInit$MethodAndArgsCaller.run\n Susp=0,4298"];
"9c142698-fff7-4f07-860e-7b5ba0911c1b" -> "59968b9a-359f-4b99-a5e5-29d5d423d729";
"59968b9a-359f-4b99-a5e5-29d5d423d729" [style=filled, fillcolor="#919191", label="java.lang.reflect.Method.invoke\n Susp=0,4319"];
"59968b9a-359f-4b99-a5e5-29d5d423d729" -> "2fd9a8b3-38b6-4678-b4ce-c04e739d99dd";
"2fd9a8b3-38b6-4678-b4ce-c04e739d99dd" [style=filled, fillcolor="#919191", label="android.app.ActivityThread.main\n Susp=0,434"];
"2fd9a8b3-38b6-4678-b4ce-c04e739d99dd" -> "c2825892-22be-422d-aba3-e35015fdc28f";
"c2825892-22be-422d-aba3-e35015fdc28f" [style=filled, fillcolor="#919191", label="android.os.Looper.loop\n Susp=0,4362"];
"c2825892-22be-422d-aba3-e35015fdc28f" -> "1f787792-8f9d-4eb8-842e-7453bda10cdd";
"1f787792-8f9d-4eb8-842e-7453bda10cdd" [style=filled, fillcolor="#5E5E5E",fontcolor=white, label="android.os.Handler.dispatchMessage\n Susp=0,8283"];
"1f787792-8f9d-4eb8-842e-7453bda10cdd" -> "e95cd5ac-2b68-4c61-aa86-8deb29df0ead";
"e95cd5ac-2b68-4c61-aa86-8deb29df0ead" [style=filled, fillcolor="#C0C0C0", label="android.app.ActivityThread$H.handleMessage\n Susp=0,2999"];
"e95cd5ac-2b68-4c61-aa86-8deb29df0ead" -> "e1e5dbee-c5a5-4a28-8296-dd3092c63ff9";
"e1e5dbee-c5a5-4a28-8296-dd3092c63ff9" [style=filled, fillcolor="#FFFFFF", label="android.app.ActivityThread.-wrap12\n Susp=0,1642"];
"e1e5dbee-c5a5-4a28-8296-dd3092c63ff9" -> "0a2882c6-d6c7-46a2-bf19-d26dc0f14091";
"0a2882c6-d6c7-46a2-bf19-d26dc0f14091" [style=filled, fillcolor="#FFFFFF", label="android.app.ActivityThread.handleLaunchActivity\n Susp=0,1663"];
"0a2882c6-d6c7-46a2-bf19-d26dc0f14091" -> "76e180ea-62ad-4b44-9a27-ce08eccaad4e";
"76e180ea-62ad-4b44-9a27-ce08eccaad4e" [style=filled, fillcolor="#FFFFFF", label="android.app.ActivityThread.performLaunchActivity\n Susp=0,1684"];
"76e180ea-62ad-4b44-9a27-ce08eccaad4e" -> "2a2472c6-fa52-4fc1-b870-8806038c8c33";
"2a2472c6-fa52-4fc1-b870-8806038c8c33" [style=filled, fillcolor="#FFFFFF", label="android.app.Instrumentation.callActivityOnCreate\n Susp=0,1705"];
"2a2472c6-fa52-4fc1-b870-8806038c8c33" -> "ad8eaa64-ed44-4d8d-abc2-470dd441c98e";
"ad8eaa64-ed44-4d8d-abc2-470dd441c98e" [style=filled, fillcolor="#A9A9A9", label="android.app.Activity.performCreate\n Susp=0,3026"];
"ad8eaa64-ed44-4d8d-abc2-470dd441c98e" -> "a3cdd18d-202f-426a-87de-add20269e806";
"a3cdd18d-202f-426a-87de-add20269e806" [style=filled, fillcolor="#FFFFFF", label="com.kamron.pogoiv.MainActivity.onCreate\n Susp=0,1669"];
"a3cdd18d-202f-426a-87de-add20269e806" -> "523bda25-002f-4091-a23b-a2032f70649f";
"523bda25-002f-4091-a23b-a2032f70649f" [style=filled, fillcolor="#FFFFFF", label="com.kamron.pogoiv.MainActivity.initiateUserScreenSettings\n Susp=0,1652"];
"523bda25-002f-4091-a23b-a2032f70649f" -> "8732dd90-80b9-4e20-ad5d-089136d52dd3";
"8732dd90-80b9-4e20-ad5d-089136d52dd3" [style=filled, fillcolor="#FFFFFF", label="android.view.WindowManagerImpl.getDefaultDisplay\n Susp=0,0334"];
"ad8eaa64-ed44-4d8d-abc2-470dd441c98e" -> "66bd9c7a-1171-429e-b964-7b8c85b1e409";
"66bd9c7a-1171-429e-b964-7b8c85b1e409" [style=filled, fillcolor="#FFFFFF", label="com.kamron.pogoiv.SettingsActivity.onCreate\n Susp=0,163"];
"66bd9c7a-1171-429e-b964-7b8c85b1e409" -> "eba71550-74dd-4c4e-b46a-14f6a4594adc";
"eba71550-74dd-4c4e-b46a-14f6a4594adc" [style=filled, fillcolor="#FFFFFF", label="android.app.BackStackRecord.replace\n Susp=0,0313"];
"e95cd5ac-2b68-4c61-aa86-8deb29df0ead" -> "d86ed195-e4b1-4007-a640-f9dd9e288279";
"d86ed195-e4b1-4007-a640-f9dd9e288279" [style=filled, fillcolor="#FFFFFF", label="android.app.ActivityThread.-wrap11\n Susp=0,1525"];
"d86ed195-e4b1-4007-a640-f9dd9e288279" -> "1efc6107-9a1b-430e-8cbc-2b4673e54757";
"1efc6107-9a1b-430e-8cbc-2b4673e54757" [style=filled, fillcolor="#FFFFFF", label="android.app.ActivityThread.handleLaunchActivity\n Susp=0,1546"];
"1efc6107-9a1b-430e-8cbc-2b4673e54757" -> "97259147-d930-4fc9-a8e2-761f205695cb";
"97259147-d930-4fc9-a8e2-761f205695cb" [style=filled, fillcolor="#FFFFFF", label="android.app.ActivityThread.performLaunchActivity\n Susp=0,1567"];
"97259147-d930-4fc9-a8e2-761f205695cb" -> "997f3b7d-ba7a-4443-8015-8a1095f2e6fe";
"997f3b7d-ba7a-4443-8015-8a1095f2e6fe" [style=filled, fillcolor="#FFFFFF", label="android.app.Instrumentation.callActivityOnCreate\n Susp=0,1588"];
"997f3b7d-ba7a-4443-8015-8a1095f2e6fe" -> "be4beccd-9280-4893-b1d5-31d9217ccef2";
"be4beccd-9280-4893-b1d5-31d9217ccef2" [style=filled, fillcolor="#FFFFFF", label="android.app.Activity.performCreate\n Susp=0,1609"];
"be4beccd-9280-4893-b1d5-31d9217ccef2" -> "e7a01b93-0f43-41ec-a8e8-319963bfff5d";
"e7a01b93-0f43-41ec-a8e8-319963bfff5d" [style=filled, fillcolor="#FFFFFF", label="com.kamron.pogoiv.SettingsActivity.onCreate\n Susp=0,163"];
"e7a01b93-0f43-41ec-a8e8-319963bfff5d" -> "1fbef21d-0ed6-4a9b-b5ce-5fc9d7ea01e8";
"1fbef21d-0ed6-4a9b-b5ce-5fc9d7ea01e8" [style=filled, fillcolor="#FFFFFF", label="android.app.BackStackRecord.replace\n Susp=0,0313"];
"1f787792-8f9d-4eb8-842e-7453bda10cdd" -> "c84b232c-adbc-4ce0-8eb9-b8541c64a86d";
"c84b232c-adbc-4ce0-8eb9-b8541c64a86d" [style=filled, fillcolor="#5E5E5E",fontcolor=white, label="android.os.Handler.handleCallback\n Susp=0,6517"];
"c84b232c-adbc-4ce0-8eb9-b8541c64a86d" -> "a0188cc9-0220-463c-a582-8c79c89ecd1f";
"a0188cc9-0220-463c-a582-8c79c89ecd1f" [style=filled, fillcolor="#C0C0C0", label="android.view.Choreographer$FrameDisplayEventReceiver.run\n Susp=0,2576"];
"a0188cc9-0220-463c-a582-8c79c89ecd1f" -> "137f0edd-f6a1-4797-9bc2-0ba241b3b0a4";
"137f0edd-f6a1-4797-9bc2-0ba241b3b0a4" [style=filled, fillcolor="#C0C0C0", label="android.view.Choreographer.doFrame\n Susp=0,2597"];
"137f0edd-f6a1-4797-9bc2-0ba241b3b0a4" -> "db16f49b-2eec-48d0-a1e1-5261213e96bc";
"db16f49b-2eec-48d0-a1e1-5261213e96bc" [style=filled, fillcolor="#C0C0C0", label="android.view.Choreographer.doCallbacks\n Susp=0,2618"];
"db16f49b-2eec-48d0-a1e1-5261213e96bc" -> "f1f41f22-cce7-4e96-8272-5b947fc7316a";
"f1f41f22-cce7-4e96-8272-5b947fc7316a" [style=filled, fillcolor="#C0C0C0", label="android.view.Choreographer$CallbackRecord.run\n Susp=0,2639"];
"f1f41f22-cce7-4e96-8272-5b947fc7316a" -> "1f379c18-9317-4907-b7ae-c7b0282163c3";
"1f379c18-9317-4907-b7ae-c7b0282163c3" [style=filled, fillcolor="#C0C0C0", label="android.view.ViewRootImpl$TraversalRunnable.run\n Susp=0,266"];
"1f379c18-9317-4907-b7ae-c7b0282163c3" -> "e6903f8f-70c7-4dd0-9b2d-4701e8c0bdfe";
"e6903f8f-70c7-4dd0-9b2d-4701e8c0bdfe" [style=filled, fillcolor="#C0C0C0", label="android.view.ViewRootImpl.doTraversal\n Susp=0,2681"];
"e6903f8f-70c7-4dd0-9b2d-4701e8c0bdfe" -> "a38be27a-a611-45d6-97fd-a071277606cf";
"a38be27a-a611-45d6-97fd-a071277606cf" [style=filled, fillcolor="#5E5E5E",fontcolor=white, label="android.view.ViewRootImpl.performTraversals\n Susp=0,5302"];
"a38be27a-a611-45d6-97fd-a071277606cf" -> "643158aa-cc77-431f-9738-93fb2542e346";
"643158aa-cc77-431f-9738-93fb2542e346" [style=filled, fillcolor="#C0C0C0", label="android.view.ViewRootImpl.measureHierarchy\n Susp=0,2568"];
"643158aa-cc77-431f-9738-93fb2542e346" -> "8784cf32-2cdc-4261-baa2-1aa4ac8ac6ff";
"8784cf32-2cdc-4261-baa2-1aa4ac8ac6ff" [style=filled, fillcolor="#C0C0C0", label="android.view.ViewRootImpl.performMeasure\n Susp=0,2589"];
"8784cf32-2cdc-4261-baa2-1aa4ac8ac6ff" -> "5e7d0f0f-7c42-4b28-8690-3e0c5783211a";
"5e7d0f0f-7c42-4b28-8690-3e0c5783211a" [style=filled, fillcolor="#C0C0C0", label="android.view.View.measure\n Susp=0,261"];
"5e7d0f0f-7c42-4b28-8690-3e0c5783211a" -> "9807f026-0d04-4b04-b1f8-ef2d5d53f23a";
"9807f026-0d04-4b04-b1f8-ef2d5d53f23a" [style=filled, fillcolor="#C0C0C0", label="com.android.internal.policy.PhoneWindow$DecorView.onMeasure\n Susp=0,2631"];
"9807f026-0d04-4b04-b1f8-ef2d5d53f23a" -> "9cfd48f2-560e-4ba4-94b6-5115d006f8d9";
"9cfd48f2-560e-4ba4-94b6-5115d006f8d9" [style=filled, fillcolor="#C0C0C0", label="android.widget.FrameLayout.onMeasure\n Susp=0,2652"];
"9cfd48f2-560e-4ba4-94b6-5115d006f8d9" -> "7b1fc6ec-962a-42c5-a6bd-47a0e5c07dbf";
"7b1fc6ec-962a-42c5-a6bd-47a0e5c07dbf" [style=filled, fillcolor="#C0C0C0", label="android.view.ViewGroup.measureChildWithMargins\n Susp=0,2673"];
"7b1fc6ec-962a-42c5-a6bd-47a0e5c07dbf" -> "a6216c62-74d2-4a1c-b944-affec6ad2de2";
"a6216c62-74d2-4a1c-b944-affec6ad2de2" [style=filled, fillcolor="#C0C0C0", label="android.view.View.measure\n Susp=0,2694"];
"a6216c62-74d2-4a1c-b944-affec6ad2de2" -> "48a87444-008c-44d0-9d91-6c798d58d1c4";
"48a87444-008c-44d0-9d91-6c798d58d1c4" [style=filled, fillcolor="#C0C0C0", label="android.widget.LinearLayout.onMeasure\n Susp=0,2715"];
"48a87444-008c-44d0-9d91-6c798d58d1c4" -> "202f02d8-d59e-4725-beb7-fb18de912a10";
"202f02d8-d59e-4725-beb7-fb18de912a10" [style=filled, fillcolor="#C0C0C0", label="android.widget.LinearLayout.measureVertical\n Susp=0,2736"];
"202f02d8-d59e-4725-beb7-fb18de912a10" -> "ae410974-599d-4548-8a0b-135a4e409f7b";
"ae410974-599d-4548-8a0b-135a4e409f7b" [style=filled, fillcolor="#C0C0C0", label="android.widget.LinearLayout.measureChildBeforeLayout\n Susp=0,2757"];
"ae410974-599d-4548-8a0b-135a4e409f7b" -> "c4dd45d3-9d43-40ae-b38b-45dcbf633ddc";
"c4dd45d3-9d43-40ae-b38b-45dcbf633ddc" [style=filled, fillcolor="#C0C0C0", label="android.view.ViewGroup.measureChildWithMargins\n Susp=0,2778"];
"c4dd45d3-9d43-40ae-b38b-45dcbf633ddc" -> "b8ec1da7-be46-4bb1-a80c-f469d0006527";
"b8ec1da7-be46-4bb1-a80c-f469d0006527" [style=filled, fillcolor="#C0C0C0", label="android.view.View.measure\n Susp=0,2799"];
"b8ec1da7-be46-4bb1-a80c-f469d0006527" -> "ee18e462-5b45-4f95-89ed-03a6a20d1980";
"ee18e462-5b45-4f95-89ed-03a6a20d1980" [style=filled, fillcolor="#C0C0C0", label="android.widget.FrameLayout.onMeasure\n Susp=0,282"];
"ee18e462-5b45-4f95-89ed-03a6a20d1980" -> "f721096d-b62c-45a1-a4b8-32e2fc4ff5e5";
"f721096d-b62c-45a1-a4b8-32e2fc4ff5e5" [style=filled, fillcolor="#C0C0C0", label="android.view.ViewGroup.measureChildWithMargins\n Susp=0,2841"];
"f721096d-b62c-45a1-a4b8-32e2fc4ff5e5" -> "2f7f1751-e306-4986-b19a-4c058c345654";
"2f7f1751-e306-4986-b19a-4c058c345654" [style=filled, fillcolor="#C0C0C0", label="android.view.View.measure\n Susp=0,2862"];
"2f7f1751-e306-4986-b19a-4c058c345654" -> "13576f96-ad39-432d-97a1-f80e0bf099f5";
"13576f96-ad39-432d-97a1-f80e0bf099f5" [style=filled, fillcolor="#C0C0C0", label="android.support.v7.widget.ActionBarOverlayLayout.onMeasure\n Susp=0,2883"];
"13576f96-ad39-432d-97a1-f80e0bf099f5" -> "615624f2-adf5-46df-ac03-3b1a7f534b37";
"615624f2-adf5-46df-ac03-3b1a7f534b37" [style=filled, fillcolor="#C0C0C0", label="android.view.ViewGroup.measureChildWithMargins\n Susp=0,2905"];
"615624f2-adf5-46df-ac03-3b1a7f534b37" -> "3fff1226-cb06-4bd7-a3d2-4565e24a48c5";
"3fff1226-cb06-4bd7-a3d2-4565e24a48c5" [style=filled, fillcolor="#C0C0C0", label="android.view.View.measure\n Susp=0,2926"];
"3fff1226-cb06-4bd7-a3d2-4565e24a48c5" -> "9205ee0e-f1d5-43fe-9a3e-1b353cad885b";
"9205ee0e-f1d5-43fe-9a3e-1b353cad885b" [style=filled, fillcolor="#C0C0C0", label="android.support.v7.widget.ContentFrameLayout.onMeasure\n Susp=0,2947"];
"9205ee0e-f1d5-43fe-9a3e-1b353cad885b" -> "21b2a84c-9b11-4017-a631-93899b1e0c07";
"21b2a84c-9b11-4017-a631-93899b1e0c07" [style=filled, fillcolor="#C0C0C0", label="android.widget.FrameLayout.onMeasure\n Susp=0,2968"];
"21b2a84c-9b11-4017-a631-93899b1e0c07" -> "b114f5e1-3e81-44e7-afce-845e92125672";
"b114f5e1-3e81-44e7-afce-845e92125672" [style=filled, fillcolor="#C0C0C0", label="android.view.ViewGroup.measureChildWithMargins\n Susp=0,2989"];
"b114f5e1-3e81-44e7-afce-845e92125672" -> "c3d3c431-e4d8-4118-aa79-ad3a102b944d";
"c3d3c431-e4d8-4118-aa79-ad3a102b944d" [style=filled, fillcolor="#A9A9A9", label="android.view.View.measure\n Susp=0,301"];
"c3d3c431-e4d8-4118-aa79-ad3a102b944d" -> "e848c77c-ca3d-444a-92c9-73d35bad0f97";
"e848c77c-ca3d-444a-92c9-73d35bad0f97" [style=filled, fillcolor="#A9A9A9", label="android.widget.LinearLayout.onMeasure\n Susp=0,3031"];
"e848c77c-ca3d-444a-92c9-73d35bad0f97" -> "91c64521-7ede-4a0d-a367-d5f0f46dddd2";
"91c64521-7ede-4a0d-a367-d5f0f46dddd2" [style=filled, fillcolor="#A9A9A9", label="android.widget.LinearLayout.measureVertical\n Susp=0,3052"];
"91c64521-7ede-4a0d-a367-d5f0f46dddd2" -> "6ef421d7-c6b2-44a8-b506-c2f53135a4ca";
"6ef421d7-c6b2-44a8-b506-c2f53135a4ca" [style=filled, fillcolor="#A9A9A9", label="android.widget.LinearLayout.measureChildBeforeLayout\n Susp=0,3073"];
"6ef421d7-c6b2-44a8-b506-c2f53135a4ca" -> "d4b75169-c809-494f-a5ea-7dc659ffac07";
"d4b75169-c809-494f-a5ea-7dc659ffac07" [style=filled, fillcolor="#A9A9A9", label="android.view.ViewGroup.measureChildWithMargins\n Susp=0,3094"];
"d4b75169-c809-494f-a5ea-7dc659ffac07" -> "3c105437-47d7-415e-aa9e-b3b50271a296";
"3c105437-47d7-415e-aa9e-b3b50271a296" [style=filled, fillcolor="#A9A9A9", label="android.view.View.measure\n Susp=0,3115"];
"3c105437-47d7-415e-aa9e-b3b50271a296" -> "502113b5-112f-48b9-bd79-4a528c3957f5";
"502113b5-112f-48b9-bd79-4a528c3957f5" [style=filled, fillcolor="#A9A9A9", label="android.widget.ScrollView.onMeasure\n Susp=0,3136"];
"502113b5-112f-48b9-bd79-4a528c3957f5" -> "25470936-0175-4ada-b799-c9254b290c8b";
"25470936-0175-4ada-b799-c9254b290c8b" [style=filled, fillcolor="#A9A9A9", label="android.widget.FrameLayout.onMeasure\n Susp=0,3157"];
"25470936-0175-4ada-b799-c9254b290c8b" -> "5bcf8537-ca77-4887-b975-741beef53104";
"5bcf8537-ca77-4887-b975-741beef53104" [style=filled, fillcolor="#A9A9A9", label="android.widget.ScrollView.measureChildWithMargins\n Susp=0,3178"];
"5bcf8537-ca77-4887-b975-741beef53104" -> "4365585e-c50f-4580-9350-392919d248d7";
"4365585e-c50f-4580-9350-392919d248d7" [style=filled, fillcolor="#A9A9A9", label="android.view.View.measure\n Susp=0,3199"];
"4365585e-c50f-4580-9350-392919d248d7" -> "a9d0cced-9b5c-4e87-a012-47e04569982a";
"a9d0cced-9b5c-4e87-a012-47e04569982a" [style=filled, fillcolor="#A9A9A9", label="android.widget.LinearLayout.onMeasure\n Susp=0,322"];
"a9d0cced-9b5c-4e87-a012-47e04569982a" -> "b25b5ee4-e32f-4ae7-a57c-6f36532330dc";
"b25b5ee4-e32f-4ae7-a57c-6f36532330dc" [style=filled, fillcolor="#A9A9A9", label="android.widget.LinearLayout.measureVertical\n Susp=0,3241"];
"b25b5ee4-e32f-4ae7-a57c-6f36532330dc" -> "352ecc4f-4c18-4c1a-9776-c11ab14da1f1";
"352ecc4f-4c18-4c1a-9776-c11ab14da1f1" [style=filled, fillcolor="#A9A9A9", label="android.widget.LinearLayout.measureChildBeforeLayout\n Susp=0,3262"];
"352ecc4f-4c18-4c1a-9776-c11ab14da1f1" -> "003c9f3c-bb0b-4612-8070-64a79f815ea2";
"003c9f3c-bb0b-4612-8070-64a79f815ea2" [style=filled, fillcolor="#A9A9A9", label="android.view.ViewGroup.measureChildWithMargins\n Susp=0,3283"];
"003c9f3c-bb0b-4612-8070-64a79f815ea2" -> "dfd592c7-5bad-4756-ab99-9ec20d96e473";
"dfd592c7-5bad-4756-ab99-9ec20d96e473" [style=filled, fillcolor="#A9A9A9", label="android.view.View.measure\n Susp=0,3305"];
"dfd592c7-5bad-4756-ab99-9ec20d96e473" -> "35c5495a-dfb8-4f3a-9350-ddd1d61cab43";
"35c5495a-dfb8-4f3a-9350-ddd1d61cab43" [style=filled, fillcolor="#A9A9A9", label="android.support.v7.widget.AppCompatSpinner.onMeasure\n Susp=0,3326"];
"35c5495a-dfb8-4f3a-9350-ddd1d61cab43" -> "24a7b461-4c7a-4b2a-a6fc-d787dfda860d";
"24a7b461-4c7a-4b2a-a6fc-d787dfda860d" [style=filled, fillcolor="#919191", label="android.widget.Spinner.onMeasure\n Susp=0,4647"];
"24a7b461-4c7a-4b2a-a6fc-d787dfda860d" -> "036aa4da-f30b-4c54-a7c8-34459d87a125";
"036aa4da-f30b-4c54-a7c8-34459d87a125" [style=filled, fillcolor="#A9A9A9", label="android.widget.Spinner.measureContentWidth\n Susp=0,3134"];
"036aa4da-f30b-4c54-a7c8-34459d87a125" -> "a26be77b-3534-4886-9688-aa69864acbdb";
"a26be77b-3534-4886-9688-aa69864acbdb" [style=filled, fillcolor="#A9A9A9", label="com.kamron.pogoiv.widgets.PlayerTeamAdapter.getView\n Susp=0,3155"];
"a26be77b-3534-4886-9688-aa69864acbdb" -> "1ec81382-f712-4adf-9eb2-83ccf43e4336";
"1ec81382-f712-4adf-9eb2-83ccf43e4336" [style=filled, fillcolor="#FFFFFF", label="android.view.LayoutInflater.inflate\n Susp=0,1176"];
"24a7b461-4c7a-4b2a-a6fc-d787dfda860d" -> "2b1605db-41c7-4274-b63c-b84fc12009c1";
"2b1605db-41c7-4274-b63c-b84fc12009c1" [style=filled, fillcolor="#C0C0C0", label="android.widget.AbsSpinner.onMeasure\n Susp=0,2628"];
"2b1605db-41c7-4274-b63c-b84fc12009c1" -> "f7f1173b-7d25-4a25-b9dd-908646256dfd";
"f7f1173b-7d25-4a25-b9dd-908646256dfd" [style=filled, fillcolor="#FFFFFF", label="com.kamron.pogoiv.widgets.PlayerTeamAdapter.getView\n Susp=0,1349"];
"a38be27a-a611-45d6-97fd-a071277606cf" -> "89517d9a-f445-4adc-bf00-a7096798dfae";
"89517d9a-f445-4adc-bf00-a7096798dfae" [style=filled, fillcolor="#FFFFFF", label="android.view.ViewRootImpl.performMeasure\n Susp=0,1673"];
"89517d9a-f445-4adc-bf00-a7096798dfae" -> "088162bc-0741-434b-9511-014a5f95a24b";
"088162bc-0741-434b-9511-014a5f95a24b" [style=filled, fillcolor="#FFFFFF", label="android.view.View.measure\n Susp=0,1694"];
"088162bc-0741-434b-9511-014a5f95a24b" -> "fa700200-2b74-4c4f-8ec6-6e0722c0b72c";
"fa700200-2b74-4c4f-8ec6-6e0722c0b72c" [style=filled, fillcolor="#FFFFFF", label="com.android.internal.policy.PhoneWindow$DecorView.onMeasure\n Susp=0,1715"];
"fa700200-2b74-4c4f-8ec6-6e0722c0b72c" -> "ddeb17e4-afae-4c54-8151-f761ff93a1f5";
"ddeb17e4-afae-4c54-8151-f761ff93a1f5" [style=filled, fillcolor="#FFFFFF", label="android.widget.FrameLayout.onMeasure\n Susp=0,1736"];
"ddeb17e4-afae-4c54-8151-f761ff93a1f5" -> "0d3b041e-7b92-4a2f-af6f-2a3347bb464f";
"0d3b041e-7b92-4a2f-af6f-2a3347bb464f" [style=filled, fillcolor="#FFFFFF", label="android.view.ViewGroup.measureChildWithMargins\n Susp=0,1757"];
"0d3b041e-7b92-4a2f-af6f-2a3347bb464f" -> "0a0599e2-9410-477b-9cab-2abbd08ec1c5";
"0a0599e2-9410-477b-9cab-2abbd08ec1c5" [style=filled, fillcolor="#FFFFFF", label="android.view.View.measure\n Susp=0,1778"];
"0a0599e2-9410-477b-9cab-2abbd08ec1c5" -> "8ea52485-0417-48da-9b71-dfcae527d654";
"8ea52485-0417-48da-9b71-dfcae527d654" [style=filled, fillcolor="#FFFFFF", label="android.widget.LinearLayout.onMeasure\n Susp=0,1799"];
"8ea52485-0417-48da-9b71-dfcae527d654" -> "8ce5f5d8-2990-4f7a-9636-32209ae73a0e";
"8ce5f5d8-2990-4f7a-9636-32209ae73a0e" [style=filled, fillcolor="#FFFFFF", label="android.widget.LinearLayout.measureVertical\n Susp=0,182"];
"8ce5f5d8-2990-4f7a-9636-32209ae73a0e" -> "ec46ec99-5056-4fbc-806e-32ec24162d6a";
"ec46ec99-5056-4fbc-806e-32ec24162d6a" [style=filled, fillcolor="#FFFFFF", label="android.widget.LinearLayout.measureChildBeforeLayout\n Susp=0,1841"];
"ec46ec99-5056-4fbc-806e-32ec24162d6a" -> "8df312c1-26a1-4c86-8c94-3f14ce37d0a9";
"8df312c1-26a1-4c86-8c94-3f14ce37d0a9" [style=filled, fillcolor="#FFFFFF", label="android.view.ViewGroup.measureChildWithMargins\n Susp=0,1862"];
"8df312c1-26a1-4c86-8c94-3f14ce37d0a9" -> "46d8efaf-7079-45da-9900-7bbfc43f8039";
"46d8efaf-7079-45da-9900-7bbfc43f8039" [style=filled, fillcolor="#FFFFFF", label="android.view.View.measure\n Susp=0,1883"];
"46d8efaf-7079-45da-9900-7bbfc43f8039" -> "cbe89bd2-9845-4fb8-8185-005ee8a5f3b1";
"cbe89bd2-9845-4fb8-8185-005ee8a5f3b1" [style=filled, fillcolor="#FFFFFF", label="android.widget.FrameLayout.onMeasure\n Susp=0,1904"];
"cbe89bd2-9845-4fb8-8185-005ee8a5f3b1" -> "56348911-379c-449c-aca4-1398b960b745";
"56348911-379c-449c-aca4-1398b960b745" [style=filled, fillcolor="#FFFFFF", label="android.view.ViewGroup.measureChildWithMargins\n Susp=0,1925"];
"56348911-379c-449c-aca4-1398b960b745" -> "be48dae0-3ecf-418a-b27f-fd5a6daa71ef";
"be48dae0-3ecf-418a-b27f-fd5a6daa71ef" [style=filled, fillcolor="#FFFFFF", label="android.view.View.measure\n Susp=0,1946"];
"be48dae0-3ecf-418a-b27f-fd5a6daa71ef" -> "8103fb84-babc-458d-9133-930986412850";
"8103fb84-babc-458d-9133-930986412850" [style=filled, fillcolor="#FFFFFF", label="android.support.v7.widget.ActionBarOverlayLayout.onMeasure\n Susp=0,1967"];
"8103fb84-babc-458d-9133-930986412850" -> "16679c0c-39ed-4fb3-b0bd-9b3b1e7ab7f8";
"16679c0c-39ed-4fb3-b0bd-9b3b1e7ab7f8" [style=filled, fillcolor="#FFFFFF", label="android.view.ViewGroup.measureChildWithMargins\n Susp=0,1988"];
"16679c0c-39ed-4fb3-b0bd-9b3b1e7ab7f8" -> "feb5b156-8cf9-41b4-b471-66f2808aba7d";
"feb5b156-8cf9-41b4-b471-66f2808aba7d" [style=filled, fillcolor="#EBEBEB", label="android.view.View.measure\n Susp=0,2009"];
"feb5b156-8cf9-41b4-b471-66f2808aba7d" -> "55c9d16d-00b1-4e87-8201-c15ee7bdd3a7";
"55c9d16d-00b1-4e87-8201-c15ee7bdd3a7" [style=filled, fillcolor="#EBEBEB", label="android.support.v7.widget.ContentFrameLayout.onMeasure\n Susp=0,203"];
"55c9d16d-00b1-4e87-8201-c15ee7bdd3a7" -> "5e75da8f-c291-4fe3-a804-143508343c26";
"5e75da8f-c291-4fe3-a804-143508343c26" [style=filled, fillcolor="#EBEBEB", label="android.widget.FrameLayout.onMeasure\n Susp=0,2052"];
"5e75da8f-c291-4fe3-a804-143508343c26" -> "eebf4c1b-ea70-49a2-b20e-cb4d29c54f23";
"eebf4c1b-ea70-49a2-b20e-cb4d29c54f23" [style=filled, fillcolor="#EBEBEB", label="android.view.ViewGroup.measureChildWithMargins\n Susp=0,2073"];
"eebf4c1b-ea70-49a2-b20e-cb4d29c54f23" -> "34fa74f3-677e-412d-8610-da27396266a7";
"34fa74f3-677e-412d-8610-da27396266a7" [style=filled, fillcolor="#EBEBEB", label="android.view.View.measure\n Susp=0,2094"];
"34fa74f3-677e-412d-8610-da27396266a7" -> "5fc03fe7-7a34-48fd-8dcb-4674e35444c5";
"5fc03fe7-7a34-48fd-8dcb-4674e35444c5" [style=filled, fillcolor="#EBEBEB", label="android.widget.LinearLayout.onMeasure\n Susp=0,2115"];
"5fc03fe7-7a34-48fd-8dcb-4674e35444c5" -> "7d36784b-0611-4d88-9090-c96940503030";
"7d36784b-0611-4d88-9090-c96940503030" [style=filled, fillcolor="#EBEBEB", label="android.widget.LinearLayout.measureVertical\n Susp=0,2136"];
"7d36784b-0611-4d88-9090-c96940503030" -> "7d29985a-89d8-45c3-b23d-044e0164c783";
"7d29985a-89d8-45c3-b23d-044e0164c783" [style=filled, fillcolor="#EBEBEB", label="android.widget.LinearLayout.measureChildBeforeLayout\n Susp=0,2157"];
"7d29985a-89d8-45c3-b23d-044e0164c783" -> "3fad6a24-d115-4259-99f1-0320c08e490c";
"3fad6a24-d115-4259-99f1-0320c08e490c" [style=filled, fillcolor="#EBEBEB", label="android.view.ViewGroup.measureChildWithMargins\n Susp=0,2178"];
"3fad6a24-d115-4259-99f1-0320c08e490c" -> "2c9dec0b-3f4c-4dde-8565-619b11c28e12";
"2c9dec0b-3f4c-4dde-8565-619b11c28e12" [style=filled, fillcolor="#EBEBEB", label="android.view.View.measure\n Susp=0,2199"];
"2c9dec0b-3f4c-4dde-8565-619b11c28e12" -> "093d1191-45c2-4930-a91f-0930708f61ad";
"093d1191-45c2-4930-a91f-0930708f61ad" [style=filled, fillcolor="#EBEBEB", label="android.widget.ScrollView.onMeasure\n Susp=0,222"];
"093d1191-45c2-4930-a91f-0930708f61ad" -> "4316fe74-2b03-4325-8de3-f9a448ecffc4";
"4316fe74-2b03-4325-8de3-f9a448ecffc4" [style=filled, fillcolor="#EBEBEB", label="android.widget.FrameLayout.onMeasure\n Susp=0,2241"];
"4316fe74-2b03-4325-8de3-f9a448ecffc4" -> "081080ef-7358-4226-8c82-0a8adf5eb8ca";
"081080ef-7358-4226-8c82-0a8adf5eb8ca" [style=filled, fillcolor="#EBEBEB", label="android.widget.ScrollView.measureChildWithMargins\n Susp=0,2262"];
"081080ef-7358-4226-8c82-0a8adf5eb8ca" -> "3e87f932-f142-416f-bbac-74a41040da21";
"3e87f932-f142-416f-bbac-74a41040da21" [style=filled, fillcolor="#EBEBEB", label="android.view.View.measure\n Susp=0,2283"];
"3e87f932-f142-416f-bbac-74a41040da21" -> "5d651b95-b737-4733-9bf7-47b4648a7e32";
"5d651b95-b737-4733-9bf7-47b4648a7e32" [style=filled, fillcolor="#EBEBEB", label="android.widget.LinearLayout.onMeasure\n Susp=0,2304"];
"5d651b95-b737-4733-9bf7-47b4648a7e32" -> "883a76d1-9627-4d45-baab-9be33f4a0159";
"883a76d1-9627-4d45-baab-9be33f4a0159" [style=filled, fillcolor="#EBEBEB", label="android.widget.LinearLayout.measureVertical\n Susp=0,2325"];
"883a76d1-9627-4d45-baab-9be33f4a0159" -> "231d4a2c-8a31-40cb-a820-641c393d5bf9";
"231d4a2c-8a31-40cb-a820-641c393d5bf9" [style=filled, fillcolor="#EBEBEB", label="android.widget.LinearLayout.measureChildBeforeLayout\n Susp=0,2346"];
"231d4a2c-8a31-40cb-a820-641c393d5bf9" -> "ee3b1f77-4d96-4b02-b1fe-02edcaacccaa";
"ee3b1f77-4d96-4b02-b1fe-02edcaacccaa" [style=filled, fillcolor="#EBEBEB", label="android.view.ViewGroup.measureChildWithMargins\n Susp=0,2367"];
"ee3b1f77-4d96-4b02-b1fe-02edcaacccaa" -> "af7e3ccd-8956-4800-bd31-f0bdf0bd921d";
"af7e3ccd-8956-4800-bd31-f0bdf0bd921d" [style=filled, fillcolor="#EBEBEB", label="android.view.View.measure\n Susp=0,2388"];
"af7e3ccd-8956-4800-bd31-f0bdf0bd921d" -> "c7fee5a8-5d50-430d-8147-3318a30ad409";
"c7fee5a8-5d50-430d-8147-3318a30ad409" [style=filled, fillcolor="#EBEBEB", label="android.support.v7.widget.AppCompatSpinner.onMeasure\n Susp=0,2409"];
"c7fee5a8-5d50-430d-8147-3318a30ad409" -> "cbd96c38-5d18-4beb-9bcc-3f30b0cbe795";
"cbd96c38-5d18-4beb-9bcc-3f30b0cbe795" [style=filled, fillcolor="#EBEBEB", label="android.widget.Spinner.onMeasure\n Susp=0,243"];
"cbd96c38-5d18-4beb-9bcc-3f30b0cbe795" -> "6badf4d4-8ba1-4af9-955f-085645e0ac96";
"6badf4d4-8ba1-4af9-955f-085645e0ac96" [style=filled, fillcolor="#EBEBEB", label="android.widget.Spinner.measureContentWidth\n Susp=0,2452"];
"6badf4d4-8ba1-4af9-955f-085645e0ac96" -> "256355cb-6b58-463f-af9b-be6477ece1a0";
"256355cb-6b58-463f-af9b-be6477ece1a0" [style=filled, fillcolor="#EBEBEB", label="com.kamron.pogoiv.widgets.PlayerTeamAdapter.getView\n Susp=0,2473"];
"256355cb-6b58-463f-af9b-be6477ece1a0" -> "0cdaf861-918b-4009-a569-3d0b5a8c34bc";
"0cdaf861-918b-4009-a569-3d0b5a8c34bc" [style=filled, fillcolor="#FFFFFF", label="android.view.LayoutInflater.inflate\n Susp=0,1155"];
"a38be27a-a611-45d6-97fd-a071277606cf" -> "16282b36-54c3-4948-9e45-306c89f226cd";
"16282b36-54c3-4948-9e45-306c89f226cd" [style=filled, fillcolor="#FFFFFF", label="android.view.ViewRootImpl.performLayout\n Susp=0,1673"];
"16282b36-54c3-4948-9e45-306c89f226cd" -> "e70684f8-094d-4798-9ffd-28fdcb19df1f";
"e70684f8-094d-4798-9ffd-28fdcb19df1f" [style=filled, fillcolor="#FFFFFF", label="android.view.ViewGroup.layout\n Susp=0,1694"];
"e70684f8-094d-4798-9ffd-28fdcb19df1f" -> "1001b54b-0991-4f75-a252-a14e09f26089";
"1001b54b-0991-4f75-a252-a14e09f26089" [style=filled, fillcolor="#FFFFFF", label="android.view.View.layout\n Susp=0,1715"];
"1001b54b-0991-4f75-a252-a14e09f26089" -> "a52a2cc7-e0cd-4365-a527-3209ed90f7ce";
"a52a2cc7-e0cd-4365-a527-3209ed90f7ce" [style=filled, fillcolor="#FFFFFF", label="com.android.internal.policy.PhoneWindow$DecorView.onLayout\n Susp=0,1736"];
"a52a2cc7-e0cd-4365-a527-3209ed90f7ce" -> "1c449058-8dfe-4fc6-bedd-882c37d409c0";
"1c449058-8dfe-4fc6-bedd-882c37d409c0" [style=filled, fillcolor="#FFFFFF", label="android.widget.FrameLayout.onLayout\n Susp=0,1757"];
"1c449058-8dfe-4fc6-bedd-882c37d409c0" -> "5761c37f-c565-4b97-b04d-b885dd312d81";
"5761c37f-c565-4b97-b04d-b885dd312d81" [style=filled, fillcolor="#FFFFFF", label="android.widget.FrameLayout.layoutChildren\n Susp=0,1778"];
"5761c37f-c565-4b97-b04d-b885dd312d81" -> "5abadb4c-8341-4b1e-9051-fa7b0d558ea1";
"5abadb4c-8341-4b1e-9051-fa7b0d558ea1" [style=filled, fillcolor="#FFFFFF", label="android.view.ViewGroup.layout\n Susp=0,1799"];
"5abadb4c-8341-4b1e-9051-fa7b0d558ea1" -> "070003ac-ad0e-404e-8754-e062085965e0";
"070003ac-ad0e-404e-8754-e062085965e0" [style=filled, fillcolor="#FFFFFF", label="android.view.View.layout\n Susp=0,182"];
"070003ac-ad0e-404e-8754-e062085965e0" -> "3a440993-cc04-4beb-9873-2e902dea8364";
"3a440993-cc04-4beb-9873-2e902dea8364" [style=filled, fillcolor="#FFFFFF", label="android.widget.LinearLayout.onLayout\n Susp=0,1841"];
"3a440993-cc04-4beb-9873-2e902dea8364" -> "ed9af549-e004-4f21-a98d-276163bf8684";
"ed9af549-e004-4f21-a98d-276163bf8684" [style=filled, fillcolor="#FFFFFF", label="android.widget.LinearLayout.layoutVertical\n Susp=0,1862"];
"ed9af549-e004-4f21-a98d-276163bf8684" -> "30453878-c15e-474d-bece-869df7a0d91a";
"30453878-c15e-474d-bece-869df7a0d91a" [style=filled, fillcolor="#FFFFFF", label="android.widget.LinearLayout.setChildFrame\n Susp=0,1883"];
"30453878-c15e-474d-bece-869df7a0d91a" -> "118d6b91-2b34-423e-bff1-1df9842151d2";
"118d6b91-2b34-423e-bff1-1df9842151d2" [style=filled, fillcolor="#FFFFFF", label="android.view.ViewGroup.layout\n Susp=0,1904"];
"118d6b91-2b34-423e-bff1-1df9842151d2" -> "d0d3b2bc-d826-4386-8ddf-61a0649910e3";
"d0d3b2bc-d826-4386-8ddf-61a0649910e3" [style=filled, fillcolor="#FFFFFF", label="android.view.View.layout\n Susp=0,1925"];
"d0d3b2bc-d826-4386-8ddf-61a0649910e3" -> "398821af-333e-48c0-a7fe-578535cd1473";
"398821af-333e-48c0-a7fe-578535cd1473" [style=filled, fillcolor="#FFFFFF", label="android.widget.FrameLayout.onLayout\n Susp=0,1946"];
"398821af-333e-48c0-a7fe-578535cd1473" -> "5d3595f4-c80f-40e7-8649-8053400cb51d";
"5d3595f4-c80f-40e7-8649-8053400cb51d" [style=filled, fillcolor="#FFFFFF", label="android.widget.FrameLayout.layoutChildren\n Susp=0,1967"];
"5d3595f4-c80f-40e7-8649-8053400cb51d" -> "5fa975a8-4875-406f-bb82-cd106e7d3e9c";
"5fa975a8-4875-406f-bb82-cd106e7d3e9c" [style=filled, fillcolor="#FFFFFF", label="android.view.ViewGroup.layout\n Susp=0,1988"];
"5fa975a8-4875-406f-bb82-cd106e7d3e9c" -> "14d5b3b0-4d0b-44a2-88f8-136d6e4da664";
"14d5b3b0-4d0b-44a2-88f8-136d6e4da664" [style=filled, fillcolor="#EBEBEB", label="android.view.View.layout\n Susp=0,2009"];
"14d5b3b0-4d0b-44a2-88f8-136d6e4da664" -> "d0afc2f8-612c-4364-b73b-5454b82cbaf4";
"d0afc2f8-612c-4364-b73b-5454b82cbaf4" [style=filled, fillcolor="#EBEBEB", label="android.support.v7.widget.ActionBarOverlayLayout.onLayout\n Susp=0,203"];
"d0afc2f8-612c-4364-b73b-5454b82cbaf4" -> "daeaf794-46bb-47dc-b114-fb93aca48286";
"daeaf794-46bb-47dc-b114-fb93aca48286" [style=filled, fillcolor="#EBEBEB", label="android.view.ViewGroup.layout\n Susp=0,2052"];
"daeaf794-46bb-47dc-b114-fb93aca48286" -> "b5d4b2db-095e-4271-817d-37e32df71e30";
"b5d4b2db-095e-4271-817d-37e32df71e30" [style=filled, fillcolor="#EBEBEB", label="android.view.View.layout\n Susp=0,2073"];
"b5d4b2db-095e-4271-817d-37e32df71e30" -> "6d985cda-5e24-44fd-810b-5201cedfb823";
"6d985cda-5e24-44fd-810b-5201cedfb823" [style=filled, fillcolor="#EBEBEB", label="android.widget.FrameLayout.onLayout\n Susp=0,2094"];
"6d985cda-5e24-44fd-810b-5201cedfb823" -> "76239243-864f-4b73-a541-e6c385c1fd11";
"76239243-864f-4b73-a541-e6c385c1fd11" [style=filled, fillcolor="#EBEBEB", label="android.widget.FrameLayout.layoutChildren\n Susp=0,2115"];
"76239243-864f-4b73-a541-e6c385c1fd11" -> "a8b37443-03a5-43ef-a4e5-0f49ab5a1609";
"a8b37443-03a5-43ef-a4e5-0f49ab5a1609" [style=filled, fillcolor="#EBEBEB", label="android.view.ViewGroup.layout\n Susp=0,2136"];
"a8b37443-03a5-43ef-a4e5-0f49ab5a1609" -> "936b8455-3d90-4183-8ff0-238f50a37ebe";
"936b8455-3d90-4183-8ff0-238f50a37ebe" [style=filled, fillcolor="#EBEBEB", label="android.view.View.layout\n Susp=0,2157"];
"936b8455-3d90-4183-8ff0-238f50a37ebe" -> "8fdadc1b-b167-4bc0-a070-85c84b21575f";
"8fdadc1b-b167-4bc0-a070-85c84b21575f" [style=filled, fillcolor="#EBEBEB", label="android.widget.LinearLayout.onLayout\n Susp=0,2178"];
"8fdadc1b-b167-4bc0-a070-85c84b21575f" -> "2b17b400-e727-4847-a068-2389283df6fd";
"2b17b400-e727-4847-a068-2389283df6fd" [style=filled, fillcolor="#EBEBEB", label="android.widget.LinearLayout.layoutVertical\n Susp=0,2199"];
"2b17b400-e727-4847-a068-2389283df6fd" -> "1635e580-4a3d-41e7-8319-b24f8c284bb1";
"1635e580-4a3d-41e7-8319-b24f8c284bb1" [style=filled, fillcolor="#EBEBEB", label="android.widget.LinearLayout.setChildFrame\n Susp=0,222"];
"1635e580-4a3d-41e7-8319-b24f8c284bb1" -> "95fd9688-1660-4947-b680-fa9b544d4499";
"95fd9688-1660-4947-b680-fa9b544d4499" [style=filled, fillcolor="#EBEBEB", label="android.view.ViewGroup.layout\n Susp=0,2241"];
"95fd9688-1660-4947-b680-fa9b544d4499" -> "56f714b2-4943-47c1-8ef3-a7b9efdb4bba";
"56f714b2-4943-47c1-8ef3-a7b9efdb4bba" [style=filled, fillcolor="#EBEBEB", label="android.view.View.layout\n Susp=0,2262"];
"56f714b2-4943-47c1-8ef3-a7b9efdb4bba" -> "f24208dc-e709-48f3-91d1-6cc7990884b3";
"f24208dc-e709-48f3-91d1-6cc7990884b3" [style=filled, fillcolor="#EBEBEB", label="android.widget.ScrollView.onLayout\n Susp=0,2283"];
"f24208dc-e709-48f3-91d1-6cc7990884b3" -> "3018f536-ffae-45d0-96ed-0185653c084c";
"3018f536-ffae-45d0-96ed-0185653c084c" [style=filled, fillcolor="#EBEBEB", label="android.widget.FrameLayout.onLayout\n Susp=0,2304"];
"3018f536-ffae-45d0-96ed-0185653c084c" -> "ba65a5de-c7d9-4501-ad1a-cd52f63d4f6e";
"ba65a5de-c7d9-4501-ad1a-cd52f63d4f6e" [style=filled, fillcolor="#EBEBEB", label="android.widget.FrameLayout.layoutChildren\n Susp=0,2325"];
"ba65a5de-c7d9-4501-ad1a-cd52f63d4f6e" -> "11ba91b3-7a17-4679-9964-6e883c37b4c1";
"11ba91b3-7a17-4679-9964-6e883c37b4c1" [style=filled, fillcolor="#EBEBEB", label="android.view.ViewGroup.layout\n Susp=0,2346"];
"11ba91b3-7a17-4679-9964-6e883c37b4c1" -> "29b4b318-44c2-4f61-9133-917b0c73136d";
"29b4b318-44c2-4f61-9133-917b0c73136d" [style=filled, fillcolor="#EBEBEB", label="android.view.View.layout\n Susp=0,2367"];
"29b4b318-44c2-4f61-9133-917b0c73136d" -> "b708ea4b-2fc2-4e56-bd41-3667af6e08ac";
"b708ea4b-2fc2-4e56-bd41-3667af6e08ac" [style=filled, fillcolor="#EBEBEB", label="android.widget.LinearLayout.onLayout\n Susp=0,2388"];
"b708ea4b-2fc2-4e56-bd41-3667af6e08ac" -> "251643b1-7236-4372-9cbd-e1977440125b";
"251643b1-7236-4372-9cbd-e1977440125b" [style=filled, fillcolor="#EBEBEB", label="android.widget.LinearLayout.layoutVertical\n Susp=0,2409"];
"251643b1-7236-4372-9cbd-e1977440125b" -> "59435bbc-dea2-4576-9a25-a81bd7459cae";
"59435bbc-dea2-4576-9a25-a81bd7459cae" [style=filled, fillcolor="#EBEBEB", label="android.widget.LinearLayout.setChildFrame\n Susp=0,243"];
"59435bbc-dea2-4576-9a25-a81bd7459cae" -> "bc5cee2e-cad4-4c3c-9dc5-24cb7207644b";
"bc5cee2e-cad4-4c3c-9dc5-24cb7207644b" [style=filled, fillcolor="#EBEBEB", label="android.view.ViewGroup.layout\n Susp=0,2452"];
"bc5cee2e-cad4-4c3c-9dc5-24cb7207644b" -> "d506f063-f7e8-4d2a-83f9-99e1a30bd04f";
"d506f063-f7e8-4d2a-83f9-99e1a30bd04f" [style=filled, fillcolor="#EBEBEB", label="android.view.View.layout\n Susp=0,2473"];
"d506f063-f7e8-4d2a-83f9-99e1a30bd04f" -> "536e6669-b9fe-4124-aa4f-6a61d6001b7f";
"536e6669-b9fe-4124-aa4f-6a61d6001b7f" [style=filled, fillcolor="#EBEBEB", label="android.widget.Spinner.onLayout\n Susp=0,2494"];
"536e6669-b9fe-4124-aa4f-6a61d6001b7f" -> "ea753fe2-5529-4f6c-8ee6-5a860bd79937";
"ea753fe2-5529-4f6c-8ee6-5a860bd79937" [style=filled, fillcolor="#C0C0C0", label="android.widget.Spinner.layout\n Susp=0,2515"];
"ea753fe2-5529-4f6c-8ee6-5a860bd79937" -> "f60df516-1ff5-40b2-9387-1fb1ccd083db";
"f60df516-1ff5-40b2-9387-1fb1ccd083db" [style=filled, fillcolor="#C0C0C0", label="android.widget.Spinner.makeView\n Susp=0,2536"];
"f60df516-1ff5-40b2-9387-1fb1ccd083db" -> "376ad6a0-a9e4-4dc4-9c15-1479fb412293";
"376ad6a0-a9e4-4dc4-9c15-1479fb412293" [style=filled, fillcolor="#C0C0C0", label="com.kamron.pogoiv.widgets.PlayerTeamAdapter.getView\n Susp=0,2557"];
"376ad6a0-a9e4-4dc4-9c15-1479fb412293" -> "1e142ee8-846f-42a0-9cd2-80fc19c94b2c";
"1e142ee8-846f-42a0-9cd2-80fc19c94b2c" [style=filled, fillcolor="#FFFFFF", label="android.view.LayoutInflater.inflate\n Susp=0,1239"];
"c84b232c-adbc-4ce0-8eb9-b8541c64a86d" -> "d26a803e-573d-480c-b6dd-7f7efe92208e";
"d26a803e-573d-480c-b6dd-7f7efe92208e" [style=filled, fillcolor="#EBEBEB", label="android.app.LoadedApk$ReceiverDispatcher$Args.run\n Susp=0,2459"];
"d26a803e-573d-480c-b6dd-7f7efe92208e" -> "8fa786af-d0dd-47b6-8113-46fbfc03dd18";
"8fa786af-d0dd-47b6-8113-46fbfc03dd18" [style=filled, fillcolor="#EBEBEB", label="com.kamron.pogoiv.updater.DownloadUpdateService$1.onReceive\n Susp=0,248"];
"8fa786af-d0dd-47b6-8113-46fbfc03dd18" -> "fb54c476-5ac9-461b-8045-ac66b6ddbcb2";
"fb54c476-5ac9-461b-8045-ac66b6ddbcb2" [style=filled, fillcolor="#FFFFFF", label="android.content.ContextWrapper.unregisterReceiver\n Susp=0,0695"];
"c84b232c-adbc-4ce0-8eb9-b8541c64a86d" -> "e35f96a5-fe7d-41bc-b2a7-99e092ec5dc1";
"e35f96a5-fe7d-41bc-b2a7-99e092ec5dc1" [style=filled, fillcolor="#FFFFFF", label="android.view.Choreographer$FrameDisplayEventReceiver.run\n Susp=0,1681"];
"e35f96a5-fe7d-41bc-b2a7-99e092ec5dc1" -> "265e7068-7419-4ff6-bf19-49690985f0c7";
"265e7068-7419-4ff6-bf19-49690985f0c7" [style=filled, fillcolor="#FFFFFF", label="android.view.Choreographer.doFrame\n Susp=0,1702"];
"265e7068-7419-4ff6-bf19-49690985f0c7" -> "ac4f18a2-5f40-4ec4-b55a-2aa728c8efcd";
"ac4f18a2-5f40-4ec4-b55a-2aa728c8efcd" [style=filled, fillcolor="#FFFFFF", label="android.view.Choreographer.doCallbacks\n Susp=0,1723"];
"ac4f18a2-5f40-4ec4-b55a-2aa728c8efcd" -> "5650959d-8a05-4b93-b167-ec7b2d9444b1";
"5650959d-8a05-4b93-b167-ec7b2d9444b1" [style=filled, fillcolor="#FFFFFF", label="android.view.Choreographer$CallbackRecord.run\n Susp=0,1744"];
"5650959d-8a05-4b93-b167-ec7b2d9444b1" -> "40f5d607-e0b0-4d8b-9219-313fa1dfa35a";
"40f5d607-e0b0-4d8b-9219-313fa1dfa35a" [style=filled, fillcolor="#FFFFFF", label="android.view.ViewRootImpl$TraversalRunnable.run\n Susp=0,1765"];
"40f5d607-e0b0-4d8b-9219-313fa1dfa35a" -> "10f11676-df9d-4479-9dbb-0721736b3fd9";
"10f11676-df9d-4479-9dbb-0721736b3fd9" [style=filled, fillcolor="#FFFFFF", label="android.view.ViewRootImpl.doTraversal\n Susp=0,1786"];
"10f11676-df9d-4479-9dbb-0721736b3fd9" -> "41620f06-cc3e-4d4c-a7d3-0fa267e9c7d3";
"41620f06-cc3e-4d4c-a7d3-0fa267e9c7d3" [style=filled, fillcolor="#919191", label="android.view.ViewRootImpl.performTraversals\n Susp=0,4407"];
"41620f06-cc3e-4d4c-a7d3-0fa267e9c7d3" -> "05284b41-a650-4fde-889f-1829d522184c";
"05284b41-a650-4fde-889f-1829d522184c" [style=filled, fillcolor="#FFFFFF", label="android.view.ViewRootImpl.measureHierarchy\n Susp=0,1673"];
"05284b41-a650-4fde-889f-1829d522184c" -> "e5dcd3dd-c60f-4999-a1ab-3c89f2a2b5d1";
"e5dcd3dd-c60f-4999-a1ab-3c89f2a2b5d1" [style=filled, fillcolor="#FFFFFF", label="android.view.ViewRootImpl.performMeasure\n Susp=0,1694"];
"e5dcd3dd-c60f-4999-a1ab-3c89f2a2b5d1" -> "a8ca2378-025f-4aa2-be2a-801b443ec5c6";
"a8ca2378-025f-4aa2-be2a-801b443ec5c6" [style=filled, fillcolor="#FFFFFF", label="android.view.View.measure\n Susp=0,1715"];
"a8ca2378-025f-4aa2-be2a-801b443ec5c6" -> "e75c5151-97f4-457b-b362-c4a86b9a90b7";
"e75c5151-97f4-457b-b362-c4a86b9a90b7" [style=filled, fillcolor="#FFFFFF", label="com.android.internal.policy.DecorView.onMeasure\n Susp=0,1736"];
"e75c5151-97f4-457b-b362-c4a86b9a90b7" -> "8b04df7b-1ebe-43f9-a7db-a1a412565c98";
"8b04df7b-1ebe-43f9-a7db-a1a412565c98" [style=filled, fillcolor="#FFFFFF", label="android.widget.FrameLayout.onMeasure\n Susp=0,1757"];
"8b04df7b-1ebe-43f9-a7db-a1a412565c98" -> "e1e60c39-e2b2-46d9-8390-37cd2c241231";
"e1e60c39-e2b2-46d9-8390-37cd2c241231" [style=filled, fillcolor="#FFFFFF", label="android.view.ViewGroup.measureChildWithMargins\n Susp=0,1778"];
"e1e60c39-e2b2-46d9-8390-37cd2c241231" -> "de7c81a1-529b-40eb-afe9-879ee5a95377";
"de7c81a1-529b-40eb-afe9-879ee5a95377" [style=filled, fillcolor="#FFFFFF", label="android.view.View.measure\n Susp=0,1799"];
"de7c81a1-529b-40eb-afe9-879ee5a95377" -> "1efd7ec9-2c3c-4ad4-8d13-281b27570df8";
"1efd7ec9-2c3c-4ad4-8d13-281b27570df8" [style=filled, fillcolor="#FFFFFF", label="android.widget.LinearLayout.onMeasure\n Susp=0,182"];
"1efd7ec9-2c3c-4ad4-8d13-281b27570df8" -> "3fe77823-e24c-4a9b-b7d1-2dd1544befc5";
"3fe77823-e24c-4a9b-b7d1-2dd1544befc5" [style=filled, fillcolor="#FFFFFF", label="android.widget.LinearLayout.measureVertical\n Susp=0,1841"];
"3fe77823-e24c-4a9b-b7d1-2dd1544befc5" -> "a56a0210-2228-4f18-9c21-772e49f20cf0";
"a56a0210-2228-4f18-9c21-772e49f20cf0" [style=filled, fillcolor="#FFFFFF", label="android.widget.LinearLayout.measureChildBeforeLayout\n Susp=0,1862"];
"a56a0210-2228-4f18-9c21-772e49f20cf0" -> "9bd40082-ce7d-40e3-ae15-885d5436de5c";
"9bd40082-ce7d-40e3-ae15-885d5436de5c" [style=filled, fillcolor="#FFFFFF", label="android.view.ViewGroup.measureChildWithMargins\n Susp=0,1883"];
"9bd40082-ce7d-40e3-ae15-885d5436de5c" -> "daaad650-1a2b-40a9-a858-886c511bd944";
"daaad650-1a2b-40a9-a858-886c511bd944" [style=filled, fillcolor="#FFFFFF", label="android.view.View.measure\n Susp=0,1904"];
"daaad650-1a2b-40a9-a858-886c511bd944" -> "47ca5ad7-76a9-41fd-8304-c38723795263";
"47ca5ad7-76a9-41fd-8304-c38723795263" [style=filled, fillcolor="#FFFFFF", label="android.widget.FrameLayout.onMeasure\n Susp=0,1925"];
"47ca5ad7-76a9-41fd-8304-c38723795263" -> "e0e78a97-be2b-49ca-8d00-a1d3826e6beb";
"e0e78a97-be2b-49ca-8d00-a1d3826e6beb" [style=filled, fillcolor="#FFFFFF", label="android.view.ViewGroup.measureChildWithMargins\n Susp=0,1946"];
"e0e78a97-be2b-49ca-8d00-a1d3826e6beb" -> "a4a1f1b6-8287-4f0a-9429-adba17d08cf4";
"a4a1f1b6-8287-4f0a-9429-adba17d08cf4" [style=filled, fillcolor="#FFFFFF", label="android.view.View.measure\n Susp=0,1967"];
"a4a1f1b6-8287-4f0a-9429-adba17d08cf4" -> "49acb207-a302-49b7-aaa4-6e4a39f9289c";
"49acb207-a302-49b7-aaa4-6e4a39f9289c" [style=filled, fillcolor="#FFFFFF", label="android.support.v7.widget.ActionBarOverlayLayout.onMeasure\n Susp=0,1988"];
"49acb207-a302-49b7-aaa4-6e4a39f9289c" -> "fdab4e54-c04f-4324-83e4-8d3b1ee004cf";
"fdab4e54-c04f-4324-83e4-8d3b1ee004cf" [style=filled, fillcolor="#EBEBEB", label="android.view.ViewGroup.measureChildWithMargins\n Susp=0,2009"];
"fdab4e54-c04f-4324-83e4-8d3b1ee004cf" -> "ef75502f-948a-4557-a62b-f748f5e44591";
"ef75502f-948a-4557-a62b-f748f5e44591" [style=filled, fillcolor="#EBEBEB", label="android.view.View.measure\n Susp=0,203"];
"ef75502f-948a-4557-a62b-f748f5e44591" -> "e8a133f7-c2bd-4824-90a9-e11d07264d2e";
"e8a133f7-c2bd-4824-90a9-e11d07264d2e" [style=filled, fillcolor="#EBEBEB", label="android.support.v7.widget.ContentFrameLayout.onMeasure\n Susp=0,2052"];
"e8a133f7-c2bd-4824-90a9-e11d07264d2e" -> "3dbe496f-0f93-4897-9a6e-bc1caf307881";
"3dbe496f-0f93-4897-9a6e-bc1caf307881" [style=filled, fillcolor="#EBEBEB", label="android.widget.FrameLayout.onMeasure\n Susp=0,2073"];
"3dbe496f-0f93-4897-9a6e-bc1caf307881" -> "6ff0bdf9-da20-470f-a0f2-4e0f69d987ac";
"6ff0bdf9-da20-470f-a0f2-4e0f69d987ac" [style=filled, fillcolor="#EBEBEB", label="android.view.ViewGroup.measureChildWithMargins\n Susp=0,2094"];
"6ff0bdf9-da20-470f-a0f2-4e0f69d987ac" -> "d260360d-9c40-4559-9454-8d7113c58afb";
"d260360d-9c40-4559-9454-8d7113c58afb" [style=filled, fillcolor="#EBEBEB", label="android.view.View.measure\n Susp=0,2115"];
"d260360d-9c40-4559-9454-8d7113c58afb" -> "44e6779b-3890-42f3-88b2-b58b4de864d0";
"44e6779b-3890-42f3-88b2-b58b4de864d0" [style=filled, fillcolor="#EBEBEB", label="android.widget.LinearLayout.onMeasure\n Susp=0,2136"];
"44e6779b-3890-42f3-88b2-b58b4de864d0" -> "319dcaf3-46c0-4a4f-88ef-d082875c59a3";
"319dcaf3-46c0-4a4f-88ef-d082875c59a3" [style=filled, fillcolor="#EBEBEB", label="android.widget.LinearLayout.measureVertical\n Susp=0,2157"];
"319dcaf3-46c0-4a4f-88ef-d082875c59a3" -> "2c4608d0-85ac-43e7-9400-d148ad57dfbf";
"2c4608d0-85ac-43e7-9400-d148ad57dfbf" [style=filled, fillcolor="#EBEBEB", label="android.widget.LinearLayout.measureChildBeforeLayout\n Susp=0,2178"];
"2c4608d0-85ac-43e7-9400-d148ad57dfbf" -> "a080d064-cd93-47aa-b487-e6827cd5c26e";
"a080d064-cd93-47aa-b487-e6827cd5c26e" [style=filled, fillcolor="#EBEBEB", label="android.view.ViewGroup.measureChildWithMargins\n Susp=0,2199"];
"a080d064-cd93-47aa-b487-e6827cd5c26e" -> "4501abc3-b7b1-46fa-8dd6-49c336c428b5";
"4501abc3-b7b1-46fa-8dd6-49c336c428b5" [style=filled, fillcolor="#EBEBEB", label="android.view.View.measure\n Susp=0,222"];
"4501abc3-b7b1-46fa-8dd6-49c336c428b5" -> "1ebecd62-5270-4e94-a2b4-c19c61dd9388";
"1ebecd62-5270-4e94-a2b4-c19c61dd9388" [style=filled, fillcolor="#EBEBEB", label="android.widget.ScrollView.onMeasure\n Susp=0,2241"];
"1ebecd62-5270-4e94-a2b4-c19c61dd9388" -> "47d582ed-c9ff-49bf-aee3-11199fb96da2";
"47d582ed-c9ff-49bf-aee3-11199fb96da2" [style=filled, fillcolor="#EBEBEB", label="android.widget.FrameLayout.onMeasure\n Susp=0,2262"];
"47d582ed-c9ff-49bf-aee3-11199fb96da2" -> "885acff5-a360-46a2-803b-1876af02499b";
"885acff5-a360-46a2-803b-1876af02499b" [style=filled, fillcolor="#EBEBEB", label="android.widget.ScrollView.measureChildWithMargins\n Susp=0,2283"];
"885acff5-a360-46a2-803b-1876af02499b" -> "b774af52-2d58-4346-9461-6718b7047ba5";
"b774af52-2d58-4346-9461-6718b7047ba5" [style=filled, fillcolor="#EBEBEB", label="android.view.View.measure\n Susp=0,2304"];
"b774af52-2d58-4346-9461-6718b7047ba5" -> "1ecfce23-82ce-4508-84a0-51edeb006fed";
"1ecfce23-82ce-4508-84a0-51edeb006fed" [style=filled, fillcolor="#EBEBEB", label="android.widget.LinearLayout.onMeasure\n Susp=0,2325"];
"1ecfce23-82ce-4508-84a0-51edeb006fed" -> "e235c64a-1860-4f35-9555-b5b058137873";
"e235c64a-1860-4f35-9555-b5b058137873" [style=filled, fillcolor="#EBEBEB", label="android.widget.LinearLayout.measureVertical\n Susp=0,2346"];
"e235c64a-1860-4f35-9555-b5b058137873" -> "9de29659-ee7c-49b3-b4d2-92a249cc7c77";
"9de29659-ee7c-49b3-b4d2-92a249cc7c77" [style=filled, fillcolor="#EBEBEB", label="android.widget.LinearLayout.measureChildBeforeLayout\n Susp=0,2367"];
"9de29659-ee7c-49b3-b4d2-92a249cc7c77" -> "451ab9de-9e40-49c5-896e-8658be908bb7";
"451ab9de-9e40-49c5-896e-8658be908bb7" [style=filled, fillcolor="#EBEBEB", label="android.view.ViewGroup.measureChildWithMargins\n Susp=0,2388"];
"451ab9de-9e40-49c5-896e-8658be908bb7" -> "4f72694d-3e82-43a6-ab8e-3f3b0ab8f096";
"4f72694d-3e82-43a6-ab8e-3f3b0ab8f096" [style=filled, fillcolor="#EBEBEB", label="android.view.View.measure\n Susp=0,2409"];
"4f72694d-3e82-43a6-ab8e-3f3b0ab8f096" -> "fe432865-f3e0-40f9-8dad-267a0c093b00";
"fe432865-f3e0-40f9-8dad-267a0c093b00" [style=filled, fillcolor="#EBEBEB", label="android.support.v7.widget.AppCompatSpinner.onMeasure\n Susp=0,243"];
"fe432865-f3e0-40f9-8dad-267a0c093b00" -> "1cc01d43-7fb2-4050-ad37-c1d2592589db";
"1cc01d43-7fb2-4050-ad37-c1d2592589db" [style=filled, fillcolor="#EBEBEB", label="android.widget.Spinner.onMeasure\n Susp=0,2452"];
"1cc01d43-7fb2-4050-ad37-c1d2592589db" -> "0ea5333f-477d-4740-b9e6-5dd19eda15c1";
"0ea5333f-477d-4740-b9e6-5dd19eda15c1" [style=filled, fillcolor="#EBEBEB", label="android.widget.Spinner.measureContentWidth\n Susp=0,2473"];
"0ea5333f-477d-4740-b9e6-5dd19eda15c1" -> "bd8fea2d-1638-4cc9-82df-b21fac6581a2";
"bd8fea2d-1638-4cc9-82df-b21fac6581a2" [style=filled, fillcolor="#EBEBEB", label="com.kamron.pogoiv.widgets.PlayerTeamAdapter.getView\n Susp=0,2494"];
"bd8fea2d-1638-4cc9-82df-b21fac6581a2" -> "e9e898c7-38de-49d9-9cf7-3f764c087798";
"e9e898c7-38de-49d9-9cf7-3f764c087798" [style=filled, fillcolor="#FFFFFF", label="android.view.LayoutInflater.inflate\n Susp=0,1176"];
"41620f06-cc3e-4d4c-a7d3-0fa267e9c7d3" -> "964a5127-f03a-4690-9fa9-e9a048640e30";
"964a5127-f03a-4690-9fa9-e9a048640e30" [style=filled, fillcolor="#FFFFFF", label="android.view.ViewRootImpl.performMeasure\n Susp=0,1673"];
"964a5127-f03a-4690-9fa9-e9a048640e30" -> "d23647d0-858a-4fe7-bc13-467e5b38d6ae";
"d23647d0-858a-4fe7-bc13-467e5b38d6ae" [style=filled, fillcolor="#FFFFFF", label="android.view.View.measure\n Susp=0,1694"];
"d23647d0-858a-4fe7-bc13-467e5b38d6ae" -> "59913056-8af6-466a-b363-378d07b4b3bc";
"59913056-8af6-466a-b363-378d07b4b3bc" [style=filled, fillcolor="#FFFFFF", label="com.android.internal.policy.DecorView.onMeasure\n Susp=0,1715"];
"59913056-8af6-466a-b363-378d07b4b3bc" -> "d1fef433-61b4-44a2-a15b-8d5f95f9be1b";
"d1fef433-61b4-44a2-a15b-8d5f95f9be1b" [style=filled, fillcolor="#FFFFFF", label="android.widget.FrameLayout.onMeasure\n Susp=0,1736"];
"d1fef433-61b4-44a2-a15b-8d5f95f9be1b" -> "dbfea0a4-aef8-4182-b363-8d676613672f";
"dbfea0a4-aef8-4182-b363-8d676613672f" [style=filled, fillcolor="#FFFFFF", label="android.view.ViewGroup.measureChildWithMargins\n Susp=0,1757"];
"dbfea0a4-aef8-4182-b363-8d676613672f" -> "4484c520-6e69-44a7-8b37-5ec865d68265";
"4484c520-6e69-44a7-8b37-5ec865d68265" [style=filled, fillcolor="#FFFFFF", label="android.view.View.measure\n Susp=0,1778"];
"4484c520-6e69-44a7-8b37-5ec865d68265" -> "1e6f4ddf-bc0e-4bce-8d6d-8857e69fbe35";
"1e6f4ddf-bc0e-4bce-8d6d-8857e69fbe35" [style=filled, fillcolor="#FFFFFF", label="android.widget.LinearLayout.onMeasure\n Susp=0,1799"];
"1e6f4ddf-bc0e-4bce-8d6d-8857e69fbe35" -> "0d60b16b-004c-4032-ab8f-306aef0241f6";
"0d60b16b-004c-4032-ab8f-306aef0241f6" [style=filled, fillcolor="#FFFFFF", label="android.widget.LinearLayout.measureVertical\n Susp=0,182"];
"0d60b16b-004c-4032-ab8f-306aef0241f6" -> "c63f7438-e3c0-43f6-9082-d65adee559ea";
"c63f7438-e3c0-43f6-9082-d65adee559ea" [style=filled, fillcolor="#FFFFFF", label="android.widget.LinearLayout.measureChildBeforeLayout\n Susp=0,1841"];
"c63f7438-e3c0-43f6-9082-d65adee559ea" -> "83b19a7e-70d4-4ed3-992d-699be7d30b4f";
"83b19a7e-70d4-4ed3-992d-699be7d30b4f" [style=filled, fillcolor="#FFFFFF", label="android.view.ViewGroup.measureChildWithMargins\n Susp=0,1862"];
"83b19a7e-70d4-4ed3-992d-699be7d30b4f" -> "026f0859-9e98-40ab-a694-b5d85edb419d";
"026f0859-9e98-40ab-a694-b5d85edb419d" [style=filled, fillcolor="#FFFFFF", label="android.view.View.measure\n Susp=0,1883"];
"026f0859-9e98-40ab-a694-b5d85edb419d" -> "90583df3-a9b1-448d-a4a1-d52b7c900450";
"90583df3-a9b1-448d-a4a1-d52b7c900450" [style=filled, fillcolor="#FFFFFF", label="android.widget.FrameLayout.onMeasure\n Susp=0,1904"];
"90583df3-a9b1-448d-a4a1-d52b7c900450" -> "84043d7e-c0e9-4ba1-84e3-50cb70723873";
"84043d7e-c0e9-4ba1-84e3-50cb70723873" [style=filled, fillcolor="#FFFFFF", label="android.view.ViewGroup.measureChildWithMargins\n Susp=0,1925"];
"84043d7e-c0e9-4ba1-84e3-50cb70723873" -> "686bb3db-789a-4f47-80b8-cbf61a0f8fec";
"686bb3db-789a-4f47-80b8-cbf61a0f8fec" [style=filled, fillcolor="#FFFFFF", label="android.view.View.measure\n Susp=0,1946"];
"686bb3db-789a-4f47-80b8-cbf61a0f8fec" -> "85874091-e8ec-4371-a8dd-ec4d8e39878f";
"85874091-e8ec-4371-a8dd-ec4d8e39878f" [style=filled, fillcolor="#FFFFFF", label="android.support.v7.widget.ActionBarOverlayLayout.onMeasure\n Susp=0,1967"];
"85874091-e8ec-4371-a8dd-ec4d8e39878f" -> "9b265e0c-1ff0-4666-af24-01721849fa79";
"9b265e0c-1ff0-4666-af24-01721849fa79" [style=filled, fillcolor="#FFFFFF", label="android.view.ViewGroup.measureChildWithMargins\n Susp=0,1988"];
"9b265e0c-1ff0-4666-af24-01721849fa79" -> "6e1108ee-ccd3-492e-8cd8-34668799f157";
"6e1108ee-ccd3-492e-8cd8-34668799f157" [style=filled, fillcolor="#EBEBEB", label="android.view.View.measure\n Susp=0,2009"];
"6e1108ee-ccd3-492e-8cd8-34668799f157" -> "ab2df32b-9edf-43d7-869e-00e1922ca2fc";
"ab2df32b-9edf-43d7-869e-00e1922ca2fc" [style=filled, fillcolor="#EBEBEB", label="android.support.v7.widget.ContentFrameLayout.onMeasure\n Susp=0,203"];
"ab2df32b-9edf-43d7-869e-00e1922ca2fc" -> "bd108be7-ba7e-4de3-8730-548a1b4d50cd";
"bd108be7-ba7e-4de3-8730-548a1b4d50cd" [style=filled, fillcolor="#EBEBEB", label="android.widget.FrameLayout.onMeasure\n Susp=0,2052"];
"bd108be7-ba7e-4de3-8730-548a1b4d50cd" -> "66d776d7-be6e-4a7e-a0b2-d739295a876b";
"66d776d7-be6e-4a7e-a0b2-d739295a876b" [style=filled, fillcolor="#EBEBEB", label="android.view.ViewGroup.measureChildWithMargins\n Susp=0,2073"];
"66d776d7-be6e-4a7e-a0b2-d739295a876b" -> "65803ea3-aa0f-4ced-8c8f-4cfe1a6a099e";
"65803ea3-aa0f-4ced-8c8f-4cfe1a6a099e" [style=filled, fillcolor="#EBEBEB", label="android.view.View.measure\n Susp=0,2094"];
"65803ea3-aa0f-4ced-8c8f-4cfe1a6a099e" -> "4bb34b28-94a0-4d91-9cf4-9ee336305646";
"4bb34b28-94a0-4d91-9cf4-9ee336305646" [style=filled, fillcolor="#EBEBEB", label="android.widget.LinearLayout.onMeasure\n Susp=0,2115"];
"4bb34b28-94a0-4d91-9cf4-9ee336305646" -> "a2f7d372-7505-4032-baa7-abbdcd3d1701";
"a2f7d372-7505-4032-baa7-abbdcd3d1701" [style=filled, fillcolor="#EBEBEB", label="android.widget.LinearLayout.measureVertical\n Susp=0,2136"];
"a2f7d372-7505-4032-baa7-abbdcd3d1701" -> "a72cbff5-9cf5-4a51-87fc-fc1a794f7627";
"a72cbff5-9cf5-4a51-87fc-fc1a794f7627" [style=filled, fillcolor="#EBEBEB", label="android.widget.LinearLayout.measureChildBeforeLayout\n Susp=0,2157"];
"a72cbff5-9cf5-4a51-87fc-fc1a794f7627" -> "6a3674ed-244e-4cd7-a876-a8e0ec10e83c";
"6a3674ed-244e-4cd7-a876-a8e0ec10e83c" [style=filled, fillcolor="#EBEBEB", label="android.view.ViewGroup.measureChildWithMargins\n Susp=0,2178"];
"6a3674ed-244e-4cd7-a876-a8e0ec10e83c" -> "68741ace-391a-4adc-81c9-8cbe7946f852";
"68741ace-391a-4adc-81c9-8cbe7946f852" [style=filled, fillcolor="#EBEBEB", label="android.view.View.measure\n Susp=0,2199"];
"68741ace-391a-4adc-81c9-8cbe7946f852" -> "790349cb-5ec0-4c56-a74c-fdf889e7303a";
"790349cb-5ec0-4c56-a74c-fdf889e7303a" [style=filled, fillcolor="#EBEBEB", label="android.widget.ScrollView.onMeasure\n Susp=0,222"];
"790349cb-5ec0-4c56-a74c-fdf889e7303a" -> "493c4a96-8276-4425-94a4-1af3b69f8234";
"493c4a96-8276-4425-94a4-1af3b69f8234" [style=filled, fillcolor="#EBEBEB", label="android.widget.FrameLayout.onMeasure\n Susp=0,2241"];
"493c4a96-8276-4425-94a4-1af3b69f8234" -> "405f3b84-6b3a-442b-b82d-ce4d4161d5e0";
"405f3b84-6b3a-442b-b82d-ce4d4161d5e0" [style=filled, fillcolor="#EBEBEB", label="android.widget.ScrollView.measureChildWithMargins\n Susp=0,2262"];
"405f3b84-6b3a-442b-b82d-ce4d4161d5e0" -> "d6e3e60a-2454-4350-8b1a-ca1d48ab043a";
"d6e3e60a-2454-4350-8b1a-ca1d48ab043a" [style=filled, fillcolor="#EBEBEB", label="android.view.View.measure\n Susp=0,2283"];
"d6e3e60a-2454-4350-8b1a-ca1d48ab043a" -> "62717c32-057f-4aec-b804-85d5d053a1b1";
"62717c32-057f-4aec-b804-85d5d053a1b1" [style=filled, fillcolor="#EBEBEB", label="android.widget.LinearLayout.onMeasure\n Susp=0,2304"];
"62717c32-057f-4aec-b804-85d5d053a1b1" -> "70cc6c06-9147-4e64-8625-9736e804a380";
"70cc6c06-9147-4e64-8625-9736e804a380" [style=filled, fillcolor="#EBEBEB", label="android.widget.LinearLayout.measureVertical\n Susp=0,2325"];
"70cc6c06-9147-4e64-8625-9736e804a380" -> "bc8b37cd-ed63-4912-b567-a1423522d6c1";
"bc8b37cd-ed63-4912-b567-a1423522d6c1" [style=filled, fillcolor="#EBEBEB", label="android.widget.LinearLayout.measureChildBeforeLayout\n Susp=0,2346"];
"bc8b37cd-ed63-4912-b567-a1423522d6c1" -> "6d62df42-f2c7-4818-82a6-006839d0d963";
"6d62df42-f2c7-4818-82a6-006839d0d963" [style=filled, fillcolor="#EBEBEB", label="android.view.ViewGroup.measureChildWithMargins\n Susp=0,2367"];
"6d62df42-f2c7-4818-82a6-006839d0d963" -> "f7056b55-2edc-466e-96ac-3c9d2a73fb8c";
"f7056b55-2edc-466e-96ac-3c9d2a73fb8c" [style=filled, fillcolor="#EBEBEB", label="android.view.View.measure\n Susp=0,2388"];
"f7056b55-2edc-466e-96ac-3c9d2a73fb8c" -> "41f7400e-f7a7-4ebe-b569-80c1bdc9aac9";
"41f7400e-f7a7-4ebe-b569-80c1bdc9aac9" [style=filled, fillcolor="#EBEBEB", label="android.support.v7.widget.AppCompatSpinner.onMeasure\n Susp=0,2409"];
"41f7400e-f7a7-4ebe-b569-80c1bdc9aac9" -> "90708381-0c3a-43a5-80a6-8859a304ed0a";
"90708381-0c3a-43a5-80a6-8859a304ed0a" [style=filled, fillcolor="#EBEBEB", label="android.widget.Spinner.onMeasure\n Susp=0,243"];
"90708381-0c3a-43a5-80a6-8859a304ed0a" -> "048c7f11-b141-4a2a-87eb-e6deac25c475";
"048c7f11-b141-4a2a-87eb-e6deac25c475" [style=filled, fillcolor="#EBEBEB", label="android.widget.Spinner.measureContentWidth\n Susp=0,2452"];
"048c7f11-b141-4a2a-87eb-e6deac25c475" -> "2aa8f5e8-55dc-4ffc-a7c6-f1565c700d7e";
"2aa8f5e8-55dc-4ffc-a7c6-f1565c700d7e" [style=filled, fillcolor="#EBEBEB", label="com.kamron.pogoiv.widgets.PlayerTeamAdapter.getView\n Susp=0,2473"];
"2aa8f5e8-55dc-4ffc-a7c6-f1565c700d7e" -> "e1e30e75-c451-4798-8298-c91962e046da";
"e1e30e75-c451-4798-8298-c91962e046da" [style=filled, fillcolor="#FFFFFF", label="android.view.LayoutInflater.inflate\n Susp=0,1155"];
"41620f06-cc3e-4d4c-a7d3-0fa267e9c7d3" -> "b221e3fa-700c-4686-b291-a08eb571b914";
"b221e3fa-700c-4686-b291-a08eb571b914" [style=filled, fillcolor="#FFFFFF", label="android.view.ViewRootImpl.performLayout\n Susp=0,1673"];
"b221e3fa-700c-4686-b291-a08eb571b914" -> "107ce8c0-3501-4d66-940b-251f7051061b";
"107ce8c0-3501-4d66-940b-251f7051061b" [style=filled, fillcolor="#FFFFFF", label="android.view.ViewGroup.layout\n Susp=0,1694"];
"107ce8c0-3501-4d66-940b-251f7051061b" -> "a6ee2ffc-b4d7-47bb-8dd7-7ea357726778";
"a6ee2ffc-b4d7-47bb-8dd7-7ea357726778" [style=filled, fillcolor="#FFFFFF", label="android.view.View.layout\n Susp=0,1715"];
"a6ee2ffc-b4d7-47bb-8dd7-7ea357726778" -> "35b3380d-0c7a-45c5-8b88-0c5fcae62cc9";
"35b3380d-0c7a-45c5-8b88-0c5fcae62cc9" [style=filled, fillcolor="#FFFFFF", label="com.android.internal.policy.DecorView.onLayout\n Susp=0,1736"];
"35b3380d-0c7a-45c5-8b88-0c5fcae62cc9" -> "668f68ac-6f3c-4912-a59a-d563439271e0";
"668f68ac-6f3c-4912-a59a-d563439271e0" [style=filled, fillcolor="#FFFFFF", label="android.widget.FrameLayout.onLayout\n Susp=0,1757"];
"668f68ac-6f3c-4912-a59a-d563439271e0" -> "b3c27f88-d6c8-4a53-991f-f4ad9933f234";
"b3c27f88-d6c8-4a53-991f-f4ad9933f234" [style=filled, fillcolor="#FFFFFF", label="android.widget.FrameLayout.layoutChildren\n Susp=0,1778"];
"b3c27f88-d6c8-4a53-991f-f4ad9933f234" -> "13b60b21-19cc-490c-af3d-531758045d5d";
"13b60b21-19cc-490c-af3d-531758045d5d" [style=filled, fillcolor="#FFFFFF", label="android.view.ViewGroup.layout\n Susp=0,1799"];
"13b60b21-19cc-490c-af3d-531758045d5d" -> "4d595329-b2c3-429b-be4f-8ef37228fc4b";
"4d595329-b2c3-429b-be4f-8ef37228fc4b" [style=filled, fillcolor="#FFFFFF", label="android.view.View.layout\n Susp=0,182"];
"4d595329-b2c3-429b-be4f-8ef37228fc4b" -> "fa6eac83-3c95-45ec-82bb-452f0b2e050d";
"fa6eac83-3c95-45ec-82bb-452f0b2e050d" [style=filled, fillcolor="#FFFFFF", label="android.widget.LinearLayout.onLayout\n Susp=0,1841"];
"fa6eac83-3c95-45ec-82bb-452f0b2e050d" -> "ca082248-57cb-43b9-8678-82c13d43b655";
"ca082248-57cb-43b9-8678-82c13d43b655" [style=filled, fillcolor="#FFFFFF", label="android.widget.LinearLayout.layoutVertical\n Susp=0,1862"];
"ca082248-57cb-43b9-8678-82c13d43b655" -> "4062e655-c09e-49b1-8b72-63f326a5e4ef";
"4062e655-c09e-49b1-8b72-63f326a5e4ef" [style=filled, fillcolor="#FFFFFF", label="android.widget.LinearLayout.setChildFrame\n Susp=0,1883"];
"4062e655-c09e-49b1-8b72-63f326a5e4ef" -> "8e463617-272a-47c1-b0a2-ddd094f3e44a";
"8e463617-272a-47c1-b0a2-ddd094f3e44a" [style=filled, fillcolor="#FFFFFF", label="android.view.ViewGroup.layout\n Susp=0,1904"];
"8e463617-272a-47c1-b0a2-ddd094f3e44a" -> "3bd6e9ff-5490-4648-b664-257169982cca";
"3bd6e9ff-5490-4648-b664-257169982cca" [style=filled, fillcolor="#FFFFFF", label="android.view.View.layout\n Susp=0,1925"];
"3bd6e9ff-5490-4648-b664-257169982cca" -> "2552068f-e132-4151-be5d-26832758f30a";
"2552068f-e132-4151-be5d-26832758f30a" [style=filled, fillcolor="#FFFFFF", label="android.widget.FrameLayout.onLayout\n Susp=0,1946"];
"2552068f-e132-4151-be5d-26832758f30a" -> "fdd696e5-8a45-43a5-98d7-320520caddbe";
"fdd696e5-8a45-43a5-98d7-320520caddbe" [style=filled, fillcolor="#FFFFFF", label="android.widget.FrameLayout.layoutChildren\n Susp=0,1967"];
"fdd696e5-8a45-43a5-98d7-320520caddbe" -> "bf383059-0765-46da-ac77-d2d2a92dcb54";
"bf383059-0765-46da-ac77-d2d2a92dcb54" [style=filled, fillcolor="#FFFFFF", label="android.view.ViewGroup.layout\n Susp=0,1988"];
"bf383059-0765-46da-ac77-d2d2a92dcb54" -> "fc88d598-e6b0-420a-a61a-5264938a49dd";
"fc88d598-e6b0-420a-a61a-5264938a49dd" [style=filled, fillcolor="#EBEBEB", label="android.view.View.layout\n Susp=0,2009"];
"fc88d598-e6b0-420a-a61a-5264938a49dd" -> "341f7412-bc82-4356-946d-993b340ce46d";
"341f7412-bc82-4356-946d-993b340ce46d" [style=filled, fillcolor="#EBEBEB", label="android.support.v7.widget.ActionBarOverlayLayout.onLayout\n Susp=0,203"];
"341f7412-bc82-4356-946d-993b340ce46d" -> "ea8d39b6-afb8-4041-840a-0215ac08dd88";
"ea8d39b6-afb8-4041-840a-0215ac08dd88" [style=filled, fillcolor="#EBEBEB", label="android.view.ViewGroup.layout\n Susp=0,2052"];
"ea8d39b6-afb8-4041-840a-0215ac08dd88" -> "7d8429e9-cbb1-4491-b5dd-70e4d717cb20";
"7d8429e9-cbb1-4491-b5dd-70e4d717cb20" [style=filled, fillcolor="#EBEBEB", label="android.view.View.layout\n Susp=0,2073"];
"7d8429e9-cbb1-4491-b5dd-70e4d717cb20" -> "1d73d5e6-bd03-4222-bd47-3ca2b4487ccc";
"1d73d5e6-bd03-4222-bd47-3ca2b4487ccc" [style=filled, fillcolor="#EBEBEB", label="android.widget.FrameLayout.onLayout\n Susp=0,2094"];
"1d73d5e6-bd03-4222-bd47-3ca2b4487ccc" -> "1f901a86-bd51-417b-8058-58c722474389";
"1f901a86-bd51-417b-8058-58c722474389" [style=filled, fillcolor="#EBEBEB", label="android.widget.FrameLayout.layoutChildren\n Susp=0,2115"];
"1f901a86-bd51-417b-8058-58c722474389" -> "5e71b8e4-5f14-42c3-9e32-694333ea8d93";
"5e71b8e4-5f14-42c3-9e32-694333ea8d93" [style=filled, fillcolor="#EBEBEB", label="android.view.ViewGroup.layout\n Susp=0,2136"];
"5e71b8e4-5f14-42c3-9e32-694333ea8d93" -> "7b42c516-7718-4dad-9dda-4df5309e99e1";
"7b42c516-7718-4dad-9dda-4df5309e99e1" [style=filled, fillcolor="#EBEBEB", label="android.view.View.layout\n Susp=0,2157"];
"7b42c516-7718-4dad-9dda-4df5309e99e1" -> "c4828eb2-cd79-417b-8f2e-2d959979627a";
"c4828eb2-cd79-417b-8f2e-2d959979627a" [style=filled, fillcolor="#EBEBEB", label="android.widget.LinearLayout.onLayout\n Susp=0,2178"];
"c4828eb2-cd79-417b-8f2e-2d959979627a" -> "90d07c96-0b0e-4ed4-86ae-bf421a7dfe51";
"90d07c96-0b0e-4ed4-86ae-bf421a7dfe51" [style=filled, fillcolor="#EBEBEB", label="android.widget.LinearLayout.layoutVertical\n Susp=0,2199"];
"90d07c96-0b0e-4ed4-86ae-bf421a7dfe51" -> "da7e48ea-a7e9-4599-92c4-fb58a6280e18";
"da7e48ea-a7e9-4599-92c4-fb58a6280e18" [style=filled, fillcolor="#EBEBEB", label="android.widget.LinearLayout.setChildFrame\n Susp=0,222"];
"da7e48ea-a7e9-4599-92c4-fb58a6280e18" -> "87a60f6c-5405-4f08-bdf6-f643f8d552b0";
"87a60f6c-5405-4f08-bdf6-f643f8d552b0" [style=filled, fillcolor="#EBEBEB", label="android.view.ViewGroup.layout\n Susp=0,2241"];
"87a60f6c-5405-4f08-bdf6-f643f8d552b0" -> "cbf0c7be-9f98-49d0-8bb1-546de10d8515";
"cbf0c7be-9f98-49d0-8bb1-546de10d8515" [style=filled, fillcolor="#EBEBEB", label="android.view.View.layout\n Susp=0,2262"];
"cbf0c7be-9f98-49d0-8bb1-546de10d8515" -> "287a4cad-e40c-4bc2-acc1-dc8c1883fa8d";
"287a4cad-e40c-4bc2-acc1-dc8c1883fa8d" [style=filled, fillcolor="#EBEBEB", label="android.widget.ScrollView.onLayout\n Susp=0,2283"];
"287a4cad-e40c-4bc2-acc1-dc8c1883fa8d" -> "11b9c45e-13da-4409-8778-47cf59c04d64";
"11b9c45e-13da-4409-8778-47cf59c04d64" [style=filled, fillcolor="#EBEBEB", label="android.widget.FrameLayout.onLayout\n Susp=0,2304"];
"11b9c45e-13da-4409-8778-47cf59c04d64" -> "58e51656-6f13-4672-8305-bbea90ac96c6";
"58e51656-6f13-4672-8305-bbea90ac96c6" [style=filled, fillcolor="#EBEBEB", label="android.widget.FrameLayout.layoutChildren\n Susp=0,2325"];
"58e51656-6f13-4672-8305-bbea90ac96c6" -> "a7b6e2c6-9c51-4781-bbed-9939578f1037";
"a7b6e2c6-9c51-4781-bbed-9939578f1037" [style=filled, fillcolor="#EBEBEB", label="android.view.ViewGroup.layout\n Susp=0,2346"];
"a7b6e2c6-9c51-4781-bbed-9939578f1037" -> "ac6234c5-eb6f-4d0d-9276-078b1f9371e9";
"ac6234c5-eb6f-4d0d-9276-078b1f9371e9" [style=filled, fillcolor="#EBEBEB", label="android.view.View.layout\n Susp=0,2367"];
"ac6234c5-eb6f-4d0d-9276-078b1f9371e9" -> "164c6347-f7a6-44c6-a7f7-6ce32282511a";
"164c6347-f7a6-44c6-a7f7-6ce32282511a" [style=filled, fillcolor="#EBEBEB", label="android.widget.LinearLayout.onLayout\n Susp=0,2388"];
"164c6347-f7a6-44c6-a7f7-6ce32282511a" -> "1f4d53c8-9ca1-44d6-af2e-ed6a65c3c244";
"1f4d53c8-9ca1-44d6-af2e-ed6a65c3c244" [style=filled, fillcolor="#EBEBEB", label="android.widget.LinearLayout.layoutVertical\n Susp=0,2409"];
"1f4d53c8-9ca1-44d6-af2e-ed6a65c3c244" -> "996dadc8-7dc5-4678-8b4a-759464406383";
"996dadc8-7dc5-4678-8b4a-759464406383" [style=filled, fillcolor="#EBEBEB", label="android.widget.LinearLayout.setChildFrame\n Susp=0,243"];
"996dadc8-7dc5-4678-8b4a-759464406383" -> "bbe7f03f-a3c0-4698-91c7-3bfd92ecc6f5";
"bbe7f03f-a3c0-4698-91c7-3bfd92ecc6f5" [style=filled, fillcolor="#EBEBEB", label="android.view.ViewGroup.layout\n Susp=0,2452"];
"bbe7f03f-a3c0-4698-91c7-3bfd92ecc6f5" -> "1881c2b4-243e-4bfe-893a-4f43f1c57192";
"1881c2b4-243e-4bfe-893a-4f43f1c57192" [style=filled, fillcolor="#EBEBEB", label="android.view.View.layout\n Susp=0,2473"];
"1881c2b4-243e-4bfe-893a-4f43f1c57192" -> "5f6ccbfe-11c6-4c20-94ae-c299a3f93461";
"5f6ccbfe-11c6-4c20-94ae-c299a3f93461" [style=filled, fillcolor="#EBEBEB", label="android.widget.Spinner.onLayout\n Susp=0,2494"];
"5f6ccbfe-11c6-4c20-94ae-c299a3f93461" -> "1a3de53a-9659-4411-b22d-36023b5225d3";
"1a3de53a-9659-4411-b22d-36023b5225d3" [style=filled, fillcolor="#C0C0C0", label="android.widget.Spinner.layout\n Susp=0,2515"];
"1a3de53a-9659-4411-b22d-36023b5225d3" -> "4ea5fd81-07db-422f-a771-f248069352ca";
"4ea5fd81-07db-422f-a771-f248069352ca" [style=filled, fillcolor="#C0C0C0", label="android.widget.Spinner.makeView\n Susp=0,2536"];
"4ea5fd81-07db-422f-a771-f248069352ca" -> "1e0c39df-d900-4dd3-b7ae-3f7f22e6f352";
"1e0c39df-d900-4dd3-b7ae-3f7f22e6f352" [style=filled, fillcolor="#C0C0C0", label="com.kamron.pogoiv.widgets.PlayerTeamAdapter.getView\n Susp=0,2557"];
"1e0c39df-d900-4dd3-b7ae-3f7f22e6f352" -> "fa6c1436-e43b-4822-86a4-c77e44a12295";
"fa6c1436-e43b-4822-86a4-c77e44a12295" [style=filled, fillcolor="#FFFFFF", label="android.view.LayoutInflater.inflate\n Susp=0,1239"];
"1f787792-8f9d-4eb8-842e-7453bda10cdd" -> "39212748-5328-49f5-bda7-869978994c7e";
"39212748-5328-49f5-bda7-869978994c7e" [style=filled, fillcolor="#FFFFFF", label="android.view.AccessibilityInteractionController$PrivateHandler.handleMessage\n Susp=0,1563"];
"39212748-5328-49f5-bda7-869978994c7e" -> "0fac279f-aae5-4dc2-8a9b-59a6d9a4f85d";
"0fac279f-aae5-4dc2-8a9b-59a6d9a4f85d" [style=filled, fillcolor="#FFFFFF", label="android.view.AccessibilityInteractionController.-wrap1\n Susp=0,1584"];
"0fac279f-aae5-4dc2-8a9b-59a6d9a4f85d" -> "00764f34-0a4e-4b90-9f9c-19ad11698eeb";
"00764f34-0a4e-4b90-9f9c-19ad11698eeb" [style=filled, fillcolor="#FFFFFF", label="android.view.AccessibilityInteractionController.findAccessibilityNodeInfoByAccessibilityIdUiThread\n Susp=0,1605"];
"00764f34-0a4e-4b90-9f9c-19ad11698eeb" -> "364a96e9-eca6-42fd-860f-265913219bf1";
"364a96e9-eca6-42fd-860f-265913219bf1" [style=filled, fillcolor="#FFFFFF", label="android.view.AccessibilityInteractionController$AccessibilityNodePrefetcher.prefetchAccessibilityNodeInfos\n Susp=0,1626"];
"364a96e9-eca6-42fd-860f-265913219bf1" -> "09f21c50-a8c4-4522-ab34-27d5b6d5510c";
"09f21c50-a8c4-4522-ab34-27d5b6d5510c" [style=filled, fillcolor="#FFFFFF", label="android.view.AccessibilityInteractionController$AccessibilityNodePrefetcher.prefetchDescendantsOfRealNode\n Susp=0,1647"];
"09f21c50-a8c4-4522-ab34-27d5b6d5510c" -> "cfc88fb6-7b92-4ff3-be87-5011600f490e";
"cfc88fb6-7b92-4ff3-be87-5011600f490e" [style=filled, fillcolor="#FFFFFF", label="android.view.View.createAccessibilityNodeInfo\n Susp=0,1668"];
"cfc88fb6-7b92-4ff3-be87-5011600f490e" -> "41a9f1f9-10c4-4c9f-bb03-3df5339e1fec";
"41a9f1f9-10c4-4c9f-bb03-3df5339e1fec" [style=filled, fillcolor="#FFFFFF", label="android.view.View.createAccessibilityNodeInfoInternal\n Susp=0,1689"];
"41a9f1f9-10c4-4c9f-bb03-3df5339e1fec" -> "24be079a-74f1-4b93-bfbc-428d5883fc41";
"24be079a-74f1-4b93-bfbc-428d5883fc41" [style=filled, fillcolor="#FFFFFF", label="android.view.View.onInitializeAccessibilityNodeInfo\n Susp=0,171"];
"24be079a-74f1-4b93-bfbc-428d5883fc41" -> "562d63cf-2c10-4f5e-9a3c-de4f5b8ce2a5";
"562d63cf-2c10-4f5e-9a3c-de4f5b8ce2a5" [style=filled, fillcolor="#FFFFFF", label="android.widget.Spinner.onInitializeAccessibilityNodeInfoInternal\n Susp=0,1731"];
"562d63cf-2c10-4f5e-9a3c-de4f5b8ce2a5" -> "aeee1e17-ce2a-4ad8-8a60-652ea908fe28";
"aeee1e17-ce2a-4ad8-8a60-652ea908fe28" [style=filled, fillcolor="#FFFFFF", label="android.widget.AdapterView.onInitializeAccessibilityNodeInfoInternal\n Susp=0,1752"];
"aeee1e17-ce2a-4ad8-8a60-652ea908fe28" -> "d1b4bed4-be29-406e-88bd-aa089b78934d";
"d1b4bed4-be29-406e-88bd-aa089b78934d" [style=filled, fillcolor="#FFFFFF", label="android.widget.AdapterView.isScrollableForAccessibility\n Susp=0,1773"];
"d1b4bed4-be29-406e-88bd-aa089b78934d" -> "e82e419f-1b0a-4976-a8d5-edd968d2208f";
"e82e419f-1b0a-4976-a8d5-edd968d2208f" [style=filled, fillcolor="#FFFFFF", label="com.kamron.pogoiv.widgets.PlayerTeamAdapter.getCount\n Susp=0,0494"];
"1f787792-8f9d-4eb8-842e-7453bda10cdd" -> "aa170201-63ba-4e0d-bb78-5b36242e12f5";
"aa170201-63ba-4e0d-bb78-5b36242e12f5" [style=filled, fillcolor="#FFFFFF", label="android.support.v7.app.AlertController$ButtonHandler.handleMessage\n Susp=0,1504"];
"aa170201-63ba-4e0d-bb78-5b36242e12f5" -> "225c13a6-43a1-4a69-9e9e-33239468c9b4";
"225c13a6-43a1-4a69-9e9e-33239468c9b4" [style=filled, fillcolor="#FFFFFF", label="com.kamron.pogoiv.updater.AppUpdateUtil$3.onClick\n Susp=0,1525"];
"225c13a6-43a1-4a69-9e9e-33239468c9b4" -> "3a1045b4-1560-4b25-930b-29a2c4f43708";
"3a1045b4-1560-4b25-930b-29a2c4f43708" [style=filled, fillcolor="#FFFFFF", label="android.content.ContextWrapper.startService\n Susp=0,0207"];
"b60ea936-4e83-421f-ae8c-c837f4fa93d2" -> "ce3bac89-abff-4d76-9322-891398956895";
"ce3bac89-abff-4d76-9322-891398956895" [style=filled, fillcolor="#A9A9A9", label="java.lang.Thread.run\n Susp=0,3184"];
"ce3bac89-abff-4d76-9322-891398956895" -> "4220d9e9-56c8-41a0-a936-53ef7626559c";
"4220d9e9-56c8-41a0-a936-53ef7626559c" [style=filled, fillcolor="#FFFFFF", label="java.util.concurrent.ThreadPoolExecutor$Worker.run\n Susp=0,1788"];
"4220d9e9-56c8-41a0-a936-53ef7626559c" -> "100c4ded-8639-4140-ac3f-2a7c116765b2";
"100c4ded-8639-4140-ac3f-2a7c116765b2" [style=filled, fillcolor="#FFFFFF", label="java.util.concurrent.ThreadPoolExecutor.runWorker\n Susp=0,1809"];
"100c4ded-8639-4140-ac3f-2a7c116765b2" -> "4c79aba0-6990-4d96-81fc-0e700cfa4e63";
"4c79aba0-6990-4d96-81fc-0e700cfa4e63" [style=filled, fillcolor="#FFFFFF", label="okhttp3.internal.NamedRunnable.run\n Susp=0,183"];
"4c79aba0-6990-4d96-81fc-0e700cfa4e63" -> "aba6d907-097b-47de-b904-5ff9bf58d999";
"aba6d907-097b-47de-b904-5ff9bf58d999" [style=filled, fillcolor="#FFFFFF", label="okhttp3.RealCall$AsyncCall.execute\n Susp=0,1598"];
"aba6d907-097b-47de-b904-5ff9bf58d999" -> "f9bb85c4-4b5a-4db0-81bf-42e0519beb5c";
"f9bb85c4-4b5a-4db0-81bf-42e0519beb5c" [style=filled, fillcolor="#FFFFFF", label="okhttp3.RealCall.access$100\n Susp=0,1619"];
"f9bb85c4-4b5a-4db0-81bf-42e0519beb5c" -> "1107696f-a60f-461f-9cc9-316f0b8a82ff";
"1107696f-a60f-461f-9cc9-316f0b8a82ff" [style=filled, fillcolor="#FFFFFF", label="okhttp3.RealCall.getResponseWithInterceptorChain\n Susp=0,164"];
"1107696f-a60f-461f-9cc9-316f0b8a82ff" -> "c95ae0be-c26b-48ce-a902-6d477ad60b5d";
"c95ae0be-c26b-48ce-a902-6d477ad60b5d" [style=filled, fillcolor="#FFFFFF", label="okhttp3.internal.http.RealInterceptorChain.proceed\n Susp=0,1661"];
"c95ae0be-c26b-48ce-a902-6d477ad60b5d" -> "d2f0a369-a342-4ca4-81b5-62f33ae8e085";
"d2f0a369-a342-4ca4-81b5-62f33ae8e085" [style=filled, fillcolor="#C0C0C0", label="okhttp3.internal.http.RetryAndFollowUpInterceptor.intercept\n Susp=0,2982"];
"d2f0a369-a342-4ca4-81b5-62f33ae8e085" -> "31ee8d88-b165-4c33-8ca6-b16d26cceb8a";
"31ee8d88-b165-4c33-8ca6-b16d26cceb8a" [style=filled, fillcolor="#FFFFFF", label="okhttp3.internal.http.RealInterceptorChain.proceed\n Susp=0,1665"];
"31ee8d88-b165-4c33-8ca6-b16d26cceb8a" -> "0a7a04ff-f573-4f9d-b53f-eeb254b77e4d";
"0a7a04ff-f573-4f9d-b53f-eeb254b77e4d" [style=filled, fillcolor="#FFFFFF", label="okhttp3.internal.http.BridgeInterceptor.intercept\n Susp=0,1686"];
"0a7a04ff-f573-4f9d-b53f-eeb254b77e4d" -> "097cba95-d672-43bc-8345-a95e6c832cd0";
"097cba95-d672-43bc-8345-a95e6c832cd0" [style=filled, fillcolor="#FFFFFF", label="okhttp3.internal.http.RealInterceptorChain.proceed\n Susp=0,1707"];
"097cba95-d672-43bc-8345-a95e6c832cd0" -> "2e187f72-f1e1-4306-9caa-a1462551e2e8";
"2e187f72-f1e1-4306-9caa-a1462551e2e8" [style=filled, fillcolor="#FFFFFF", label="okhttp3.internal.cache.CacheInterceptor.intercept\n Susp=0,1728"];
"2e187f72-f1e1-4306-9caa-a1462551e2e8" -> "3c347736-9282-43fa-8acb-ecaf9bd2c60c";
"3c347736-9282-43fa-8acb-ecaf9bd2c60c" [style=filled, fillcolor="#FFFFFF", label="okhttp3.internal.http.RealInterceptorChain.proceed\n Susp=0,1749"];
"3c347736-9282-43fa-8acb-ecaf9bd2c60c" -> "768f6c0c-6eb3-46cb-9fb8-e42686e661d6";
"768f6c0c-6eb3-46cb-9fb8-e42686e661d6" [style=filled, fillcolor="#A9A9A9", label="okhttp3.internal.connection.ConnectInterceptor.intercept\n Susp=0,307"];
"768f6c0c-6eb3-46cb-9fb8-e42686e661d6" -> "03a84ff1-cb87-4bba-b8be-72877e0dfefc";
"03a84ff1-cb87-4bba-b8be-72877e0dfefc" [style=filled, fillcolor="#FFFFFF", label="okhttp3.internal.connection.StreamAllocation.newStream\n Susp=0,1752"];
"03a84ff1-cb87-4bba-b8be-72877e0dfefc" -> "e3dde597-9959-4437-a636-9b98baa95f14";
"e3dde597-9959-4437-a636-9b98baa95f14" [style=filled, fillcolor="#FFFFFF", label="okhttp3.internal.connection.StreamAllocation.findHealthyConnection\n Susp=0,1773"];
"e3dde597-9959-4437-a636-9b98baa95f14" -> "f540690f-c955-4d26-a0ed-c6d43adeb8cd";
"f540690f-c955-4d26-a0ed-c6d43adeb8cd" [style=filled, fillcolor="#FFFFFF", label="okhttp3.internal.connection.StreamAllocation.findConnection\n Susp=0,1794"];
"f540690f-c955-4d26-a0ed-c6d43adeb8cd" -> "631f3d39-de15-4440-91a3-39957b2fff0c";
"631f3d39-de15-4440-91a3-39957b2fff0c" [style=filled, fillcolor="#FFFFFF", label="okhttp3.internal.connection.RealConnection.connect\n Susp=0,1815"];
"631f3d39-de15-4440-91a3-39957b2fff0c" -> "44c0d6dd-f2ac-43c3-bf36-6228255146da";
"44c0d6dd-f2ac-43c3-bf36-6228255146da" [style=filled, fillcolor="#FFFFFF", label="okhttp3.internal.connection.RealConnection.buildConnection\n Susp=0,1836"];
"44c0d6dd-f2ac-43c3-bf36-6228255146da" -> "865d26c1-0385-4c10-9b6d-7cdf4cf2bf12";
"865d26c1-0385-4c10-9b6d-7cdf4cf2bf12" [style=filled, fillcolor="#919191", label="okhttp3.internal.connection.RealConnection.establishProtocol\n Susp=0,4457"];
"865d26c1-0385-4c10-9b6d-7cdf4cf2bf12" -> "1fc22895-2c1e-4a19-9793-644c8f029ee8";
"1fc22895-2c1e-4a19-9793-644c8f029ee8" [style=filled, fillcolor="#FFFFFF", label="okhttp3.internal.connection.RealConnection.connectTls\n Susp=0,18"];
"1fc22895-2c1e-4a19-9793-644c8f029ee8" -> "f932e8c2-3047-4095-97a3-dca2430b3e73";
"f932e8c2-3047-4095-97a3-dca2430b3e73" [style=filled, fillcolor="#FFFFFF", label="com.android.org.conscrypt.OpenSSLSocketImpl.getSession\n Susp=0,0522"];
"865d26c1-0385-4c10-9b6d-7cdf4cf2bf12" -> "46bdd8cc-7c6a-496b-af31-599664ec220a";
"46bdd8cc-7c6a-496b-af31-599664ec220a" [style=filled, fillcolor="#FFFFFF", label="com.android.org.conscrypt.OpenSSLSocketImpl.setSoTimeout\n Susp=0,0481"];
"865d26c1-0385-4c10-9b6d-7cdf4cf2bf12" -> "fbed6d48-cb88-48c1-93ca-528e1d094f93";
"fbed6d48-cb88-48c1-93ca-528e1d094f93" [style=filled, fillcolor="#FFFFFF", label="com.android.org.conscrypt.OpenSSLSocketImplWrapper.setSoTimeout\n Susp=0,0481"];
"768f6c0c-6eb3-46cb-9fb8-e42686e661d6" -> "7bcb5f08-5b95-4e80-969a-48b6f4e098bd";
"7bcb5f08-5b95-4e80-969a-48b6f4e098bd" [style=filled, fillcolor="#FFFFFF", label="okhttp3.internal.http.RealInterceptorChain.proceed\n Susp=0,1655"];
"7bcb5f08-5b95-4e80-969a-48b6f4e098bd" -> "fbcc5db5-8158-44ae-892e-f733777df1fb";
"fbcc5db5-8158-44ae-892e-f733777df1fb" [style=filled, fillcolor="#FFFFFF", label="okhttp3.internal.http.CallServerInterceptor.intercept\n Susp=0,1676"];
"fbcc5db5-8158-44ae-892e-f733777df1fb" -> "545a487f-0731-479f-beea-d8da5e0e0ad5";
"545a487f-0731-479f-beea-d8da5e0e0ad5" [style=filled, fillcolor="#FFFFFF", label="okhttp3.internal.http.Http2xStream.writeRequestHeaders\n Susp=0,1697"];
"545a487f-0731-479f-beea-d8da5e0e0ad5" -> "6a1b4ee4-541f-43e6-a03c-6516909d1b1d";
"6a1b4ee4-541f-43e6-a03c-6516909d1b1d" [style=filled, fillcolor="#FFFFFF", label="okhttp3.internal.framed.FramedConnection.newStream\n Susp=0,1718"];
"6a1b4ee4-541f-43e6-a03c-6516909d1b1d" -> "2fd87380-399a-4aba-8ded-84e7a389dc1b";
"2fd87380-399a-4aba-8ded-84e7a389dc1b" [style=filled, fillcolor="#FFFFFF", label="okhttp3.internal.framed.Http2$Writer.flush\n Susp=0,1739"];
"2fd87380-399a-4aba-8ded-84e7a389dc1b" -> "b976ca95-349b-4878-846d-a4ed6ffe5729";
"b976ca95-349b-4878-846d-a4ed6ffe5729" [style=filled, fillcolor="#FFFFFF", label="okio.RealBufferedSink.flush\n Susp=0,176"];
"b976ca95-349b-4878-846d-a4ed6ffe5729" -> "5eabef3e-b32c-4275-99b6-4871c9da0695";
"5eabef3e-b32c-4275-99b6-4871c9da0695" [style=filled, fillcolor="#FFFFFF", label="okio.AsyncTimeout$1.write\n Susp=0,1781"];
"5eabef3e-b32c-4275-99b6-4871c9da0695" -> "f6cc6cda-74c8-42dd-a1bd-09d758d814fa";
"f6cc6cda-74c8-42dd-a1bd-09d758d814fa" [style=filled, fillcolor="#FFFFFF", label="okio.Okio$1.write\n Susp=0,1802"];
"f6cc6cda-74c8-42dd-a1bd-09d758d814fa" -> "301a9491-8b2d-4982-bb10-69c99974da6b";
"301a9491-8b2d-4982-bb10-69c99974da6b" [style=filled, fillcolor="#FFFFFF", label="com.android.org.conscrypt.OpenSSLSocketImpl$SSLOutputStream.write\n Susp=0,0523"];
"d2f0a369-a342-4ca4-81b5-62f33ae8e085" -> "05023a14-89a9-4404-a14f-8f8d2f2ad34f";
"05023a14-89a9-4404-a14f-8f8d2f2ad34f" [style=filled, fillcolor="#FFFFFF", label="okhttp3.internal.connection.StreamAllocation.<init>\n Susp=0,1528"];
"05023a14-89a9-4404-a14f-8f8d2f2ad34f" -> "36e8e044-bdc4-43b8-a407-dce2279339bb";
"36e8e044-bdc4-43b8-a407-dce2279339bb" [style=filled, fillcolor="#FFFFFF", label="okhttp3.internal.connection.RouteSelector.<init>\n Susp=0,1549"];
"36e8e044-bdc4-43b8-a407-dce2279339bb" -> "06aac721-0b94-4878-9d03-db52bdf93024";
"06aac721-0b94-4878-9d03-db52bdf93024" [style=filled, fillcolor="#FFFFFF", label="okhttp3.internal.connection.RouteSelector.resetNextProxy\n Susp=0,157"];
"06aac721-0b94-4878-9d03-db52bdf93024" -> "04439a71-e760-4756-8ab9-924da247233e";
"04439a71-e760-4756-8ab9-924da247233e" [style=filled, fillcolor="#FFFFFF", label="sun.net.spi.DefaultProxySelector.select\n Susp=0,0292"];
"ce3bac89-abff-4d76-9322-891398956895" -> "26fe7ec8-1e14-4b55-b9c5-a276a5e91936";
"26fe7ec8-1e14-4b55-b9c5-a276a5e91936" [style=filled, fillcolor="#FFFFFF", label="okhttp3.internal.NamedRunnable.run\n Susp=0,1438"];
"26fe7ec8-1e14-4b55-b9c5-a276a5e91936" -> "9ab0b06b-4023-4d19-9b35-a8a2e0cf1de7";
"9ab0b06b-4023-4d19-9b35-a8a2e0cf1de7" [style=filled, fillcolor="#FFFFFF", label="okhttp3.internal.framed.FramedConnection$Reader.execute\n Susp=0,142"];
"9ab0b06b-4023-4d19-9b35-a8a2e0cf1de7" -> "7e100e30-4d9c-425d-8a8e-640e58915d85";
"7e100e30-4d9c-425d-8a8e-640e58915d85" [style=filled, fillcolor="#FFFFFF", label="okhttp3.internal.framed.Http2$Reader.nextFrame\n Susp=0,1402"];
"7e100e30-4d9c-425d-8a8e-640e58915d85" -> "3ead5b3c-0831-4c95-ac8a-5f712bad613a";
"3ead5b3c-0831-4c95-ac8a-5f712bad613a" [style=filled, fillcolor="#FFFFFF", label="okio.RealBufferedSource.require\n Susp=0,1423"];
"3ead5b3c-0831-4c95-ac8a-5f712bad613a" -> "4358e92e-0d3e-45f2-9769-c13a26b3506b";
"4358e92e-0d3e-45f2-9769-c13a26b3506b" [style=filled, fillcolor="#FFFFFF", label="okio.RealBufferedSource.request\n Susp=0,1444"];
"4358e92e-0d3e-45f2-9769-c13a26b3506b" -> "269c215f-d793-46d1-9d56-f4cc4dc91d17";
"269c215f-d793-46d1-9d56-f4cc4dc91d17" [style=filled, fillcolor="#FFFFFF", label="okio.AsyncTimeout$2.read\n Susp=0,1465"];
"269c215f-d793-46d1-9d56-f4cc4dc91d17" -> "cd7743d4-1ced-4146-8e46-7325340424e8";
"cd7743d4-1ced-4146-8e46-7325340424e8" [style=filled, fillcolor="#FFFFFF", label="okio.Okio$2.read\n Susp=0,1486"];
"cd7743d4-1ced-4146-8e46-7325340424e8" -> "cd360206-b4f8-4168-8deb-1913e313c50b";
"cd360206-b4f8-4168-8deb-1913e313c50b" [style=filled, fillcolor="#FFFFFF", label="com.android.org.conscrypt.OpenSSLSocketImpl$SSLInputStream.read\n Susp=0,0207"];
"b60ea936-4e83-421f-ae8c-c837f4fa93d2" -> "98554869-3317-4dd0-968b-b2a721b0d0f9";
"98554869-3317-4dd0-968b-b2a721b0d0f9" [style=filled, fillcolor="#FFFFFF", label="android.os.Binder.execTransact\n Susp=0,0039"];
}
