Position |MethodName|Relevancy
0.07142857142857142|com.github.ruleant.getback_gps.LocationService.updateLocationProvider|0.2983610013175231
0.14285714285714285|com.github.ruleant.getback_gps.LocationService.onDestroy|0.29399736495388673
0.21428571428571427|com.github.ruleant.getback_gps.NavigationView.onDraw|0.2475889328063241
0.2857142857142857|com.github.ruleant.getback_gps.AbstractGetBackGpsActivity$5.onServiceConnected|0.1908247694334651
0.35714285714285715|com.github.ruleant.getback_gps.MainActivity.refreshDisplay|0.15544137022397891
0.42857142857142855|com.github.ruleant.getback_gps.LocationService.onCreate|0.1391725955204216
0.5|com.github.ruleant.getback_gps.lib.AriadneLocation.isRecent|0.1266034255599473
0.5714285714285714|com.github.ruleant.getback_gps.lib.Navigator.isLocationAccurate|0.12442160737812913
0.6428571428571429|com.github.ruleant.getback_gps.lib.StoredLocation.save|0.12413702239789197
0.7142857142857143|com.github.ruleant.getback_gps.AbstractGetBackGpsActivity.refreshCrouton|0.12223978919631094
0.7857142857142857|com.github.ruleant.getback_gps.AbstractGetBackGpsActivity.refreshDisplay|0.12005797101449275
0.8571428571428571|com.github.ruleant.getback_gps.LocationService$1.onLocationChanged|0.05094071146245059
0.9285714285714286|com.github.ruleant.getback_gps.AbstractGetBackGpsActivity.onStop|0.037138339920948615
1.0|com.github.ruleant.getback_gps.LocationService.onUnbind|0.024332015810276678
