Position |MethodName|Relevancy
0.07142857142857142|com.devpaul.filepickerlibrary.adapter.FileListAdapter.getCount|0.7184807607253427
0.14285714285714285|com.devpaul.filepickerlibrary.FilePickerActivity$UpdateFilesTask.onPostExecute|0.17651702786377707
0.21428571428571427|com.devpaul.filepickerlibrary.FilePickerActivity.onCreate|0.08510983340704703
0.2857142857142857|com.devpaul.filepicker.MainActivity$PlaceholderFragment.onCreateView|0.06542606516290728
0.35714285714285715|com.devpaul.materiallibrary.views.MaterialFlatButton.onLayout|0.06122733303847855
0.42857142857142855|com.devpaul.materiallibrary.views.MaterialFlatButton.init|0.05797877045555064
0.5|com.devpaul.materiallibrary.views.MaterialFlatButton.onMeasure|0.05649049093321539
0.5714285714285714|com.devpaul.materiallibrary.abstracts.BaseViewGroup.<init>|0.053066489753796256
0.6428571428571429|com.devpaul.materiallibrary.views.MaterialFlatButton.<init>|0.0514875423853752
0.7142857142857143|com.devpaul.materiallibrary.views.MaterialFlatButton.createMainTextView|0.026314315199764113
0.7857142857142857|com.devpaul.materiallibrary.views.MaterialFloatingActionButton.onMeasure|0.02469261388766033
0.8571428571428571|com.devpaul.materiallibrary.views.MaterialFloatingActionButton.init|0.022937490785788002
0.9285714285714286|com.devpaul.materiallibrary.views.MaterialFloatingActionButton.<init>|0.022148017101577468
1.0|com.devpaul.filepicker.MainActivity.onCreate|0.016840630989237798
