BEFORE android.os.Binder.attachInterface(com.github.ruleant.getback_gps.AbstractGetBackGpsActivity$6,com.github.ruleant.getback_gps.ILocationServiceCallback)
AFTER android.os.Binder.attachInterface
BEFORE com.github.ruleant.getback_gps.MainActivity.onCreate()
BEFORE android.app.Activity.onCreate()
AFTER android.app.Activity.onCreate
BEFORE de.keyboardsurfer.android.widget.crouton.Configuration$Builder.setDuration(-1)
AFTER de.keyboardsurfer.android.widget.crouton.Configuration$Builder.setDuration, returnValue: de.keyboardsurfer.android.widget.crouton.Configuration$Builder
BEFORE de.keyboardsurfer.android.widget.crouton.Configuration$Builder.build()
AFTER de.keyboardsurfer.android.widget.crouton.Configuration$Builder.build, returnValue: Configuration{durationInMilliseconds=3000, inAnimationResId=0, outAnimationResId=0}
BEFORE de.keyboardsurfer.android.widget.crouton.Crouton.makeText(com.github.ruleant.getback_gps.MainActivity,2131165213,de.keyboardsurfer.android.widget.crouton.Style)
BEFORE de.keyboardsurfer.android.widget.crouton.Crouton.makeText(com.github.ruleant.getback_gps.MainActivity,2131165213,de.keyboardsurfer.android.widget.crouton.Style)
AFTER de.keyboardsurfer.android.widget.crouton.Crouton.makeText, returnValue: de.keyboardsurfer.android.widget.crouton.Crouton
AFTER de.keyboardsurfer.android.widget.crouton.Crouton.makeText, returnValue: de.keyboardsurfer.android.widget.crouton.Crouton
BEFORE de.keyboardsurfer.android.widget.crouton.Crouton.setConfiguration(de.keyboardsurfer.android.widget.crouton.Configuration)
AFTER de.keyboardsurfer.android.widget.crouton.Crouton.setConfiguration, returnValue: de.keyboardsurfer.android.widget.crouton.Crouton
BEFORE de.keyboardsurfer.android.widget.crouton.Crouton.makeText(com.github.ruleant.getback_gps.MainActivity,2131165212,de.keyboardsurfer.android.widget.crouton.Style)
BEFORE de.keyboardsurfer.android.widget.crouton.Crouton.makeText(com.github.ruleant.getback_gps.MainActivity,2131165212,de.keyboardsurfer.android.widget.crouton.Style)
AFTER de.keyboardsurfer.android.widget.crouton.Crouton.makeText, returnValue: de.keyboardsurfer.android.widget.crouton.Crouton
AFTER de.keyboardsurfer.android.widget.crouton.Crouton.makeText, returnValue: de.keyboardsurfer.android.widget.crouton.Crouton
BEFORE de.keyboardsurfer.android.widget.crouton.Crouton.setConfiguration(de.keyboardsurfer.android.widget.crouton.Configuration)
AFTER de.keyboardsurfer.android.widget.crouton.Crouton.setConfiguration, returnValue: de.keyboardsurfer.android.widget.crouton.Crouton
BEFORE de.keyboardsurfer.android.widget.crouton.Crouton.makeText(com.github.ruleant.getback_gps.MainActivity,2131165239,de.keyboardsurfer.android.widget.crouton.Style)
BEFORE de.keyboardsurfer.android.widget.crouton.Crouton.makeText(com.github.ruleant.getback_gps.MainActivity,2131165239,de.keyboardsurfer.android.widget.crouton.Style)
AFTER de.keyboardsurfer.android.widget.crouton.Crouton.makeText, returnValue: de.keyboardsurfer.android.widget.crouton.Crouton
AFTER de.keyboardsurfer.android.widget.crouton.Crouton.makeText, returnValue: de.keyboardsurfer.android.widget.crouton.Crouton
BEFORE de.keyboardsurfer.android.widget.crouton.Crouton.setConfiguration(de.keyboardsurfer.android.widget.crouton.Configuration)
AFTER de.keyboardsurfer.android.widget.crouton.Crouton.setConfiguration, returnValue: de.keyboardsurfer.android.widget.crouton.Crouton
BEFORE de.keyboardsurfer.android.widget.crouton.Crouton.makeText(com.github.ruleant.getback_gps.MainActivity,2131165238,de.keyboardsurfer.android.widget.crouton.Style)
BEFORE de.keyboardsurfer.android.widget.crouton.Crouton.makeText(com.github.ruleant.getback_gps.MainActivity,2131165238,de.keyboardsurfer.android.widget.crouton.Style)
AFTER de.keyboardsurfer.android.widget.crouton.Crouton.makeText, returnValue: de.keyboardsurfer.android.widget.crouton.Crouton
AFTER de.keyboardsurfer.android.widget.crouton.Crouton.makeText, returnValue: de.keyboardsurfer.android.widget.crouton.Crouton
BEFORE de.keyboardsurfer.android.widget.crouton.Crouton.setConfiguration(de.keyboardsurfer.android.widget.crouton.Configuration)
AFTER de.keyboardsurfer.android.widget.crouton.Crouton.setConfiguration, returnValue: de.keyboardsurfer.android.widget.crouton.Crouton
BEFORE android.app.Activity.setContentView(2130968578)
BEFORE android.view.ContextThemeWrapper.getTheme()
AFTER android.view.ContextThemeWrapper.getTheme, returnValue: android.content.res.Resources$Theme
BEFORE android.content.res.Resources$Theme.obtainStyledAttributes(android.content.res.XmlBlock$Parser,[I,0,0)
AFTER android.content.res.Resources$Theme.obtainStyledAttributes, returnValue: [16, -2, -1, 0, 0, 0, 0, 0, 1, 0, 0, 0, 0, 0, 1, 0, 0, 0, 0, 0, 1, 0, 0, 0, 0, 0, 1, 0, 0, 0, 0, 0, 1, 0, 0, 0, 0, 0, 1, 0, 0, 0, 0, 0, 1, 0, 0, 0, 0, 0, 1, 0, 0, 0, 0, 0, 1, 0, 0, 0, 0, 0, 1, 0, 0, 0, 0, 0, 2, 0, 0, 0, 0, 0, 2, 0, 0, 0, 0, 0, 2, 0, 0, 0, 0, 0, 2, 0, 0, 0, 0, 0, 2, 0, 0, 0, 5, 12801, -1, 0, 0, 0, 0, 0, -1, 0, 0, 0, 0, 0, -1, 0, 0, 0, 0, 0, -1, 0, 0, 0, 0, 0, -1, 0, 0, 0, 0, 0, -1, 0, 0, 0, 0, 0, -1, 0, 0, 0, 0, 0, -1, 0, 0, 0, 0, 0, -1, 0, 0, 0, 0, 0, -1, 0, 0, 0, 0, 0, -1, 0, 0, 0, 0, 0, -1, 0, 0, 0, 0, 0, -1, 0, 0, 0, 0, 0, -1, 0, 0, 0, 0, 0, -1, 0, 0, 0, 0, 0, -1, 0, 0, 0, 0, 0, -1, 0, 0, 0, 0, 0, -1, 0, 0, 0, 0, 0, -1, 0, 0, 0, 0, 0, -1, 0, 0, 0, 0, 0, -1, 0, 0, 0, 0, 0, -1, 0, 0, 0, 0, 0, -1, 0, 0, 0, 0, 0, -1, 0, 0, 0, 0, 0, -1, 0, 0, 0, 0, 0, -1, 0, 0, 0, 0, 0, -1, 0, 0, 0, 16, 250, -1, 0, 1073746944, 0, 16, 300, -1, 0, 1073746944, 0, 0, 0, -1, 0, 0, 0, 0, 0, -1, 0, 0, 0, 0, 0, -1, 0, 0, 0, 0, 0, -1, 0, 0, 0, 0, 0, -1, 0, 0, 0, 0, 0, -1, 0, 0, 0, 0, 0, -1, 0, 0, 0, 0, 0, -1, 0, 0, 0, 0, 0, -1, 0, 0, 0, 0, 0, -1, 0, 0, 0, 0, 0, -1, 0, 0, 0, 0, 0, -1, 0, 0, 0, 0, 0, -1, 0, 0, 0, 0, 0, -1, 0, 0, 0, 0, 0, -1, 0, 0, 0, 0, 0, -1, 0, 0, 0, 0, 0, -1, 0, 0, 0, 0, 0, -1, 0, 0, 0, 0, 0, -1, 0, 0, 0, 0, 0, -1, 0, 0, 0, 0, 0, -1, 0, 0, 0, 0, 0, -1, 0, 0, 0, 0, 0, -1, 0, 0, 0, 0, 0, -1, 0, 0, 0, 0, 0, -1, 0, 0, 0, 0, 0, -1, 0, 0, 0, 0, 0, -1, 0, 0, 0, 0, 0, -1, 0, 0, 0, 0, 0, -1, 0, 0, 0, 0, 0, -1, 0, 0, 0, 0, 0, -1, 0, 0, 0, 0, 0, -1, 0, 0, 0, 0, 0, -1, 0, 0, 0, 0, 0, -1, 0, 0, 0, 0, 0, -1, 0, 0, 0]
BEFORE android.content.res.TypedArray.recycle()
AFTER android.content.res.TypedArray.recycle
BEFORE android.content.res.Resources.getDisplayMetrics()
AFTER android.content.res.Resources.getDisplayMetrics, returnValue: DisplayMetrics{density=3.0, width=1080, height=1776, scaledDensity=3.0, xdpi=480.0, ydpi=480.0}
AFTER android.app.Activity.setContentView
BEFORE android.app.Activity.findViewById(2130903062)
AFTER android.app.Activity.findViewById, returnValue: android.widget.TextView{a14eec7 V.ED.... ......ID 0,0-0,0 #7f030016 app:id/textView_toDestName}
AFTER com.github.ruleant.getback_gps.MainActivity.onCreate
BEFORE com.github.ruleant.getback_gps.AbstractGetBackGpsActivity.onStart()
BEFORE android.app.Activity.onStart()
AFTER android.app.Activity.onStart
BEFORE android.content.ContextWrapper.bindService(android.content.Intent,com.github.ruleant.getback_gps.AbstractGetBackGpsActivity$5,1)
AFTER android.content.ContextWrapper.bindService, returnValue: true
AFTER com.github.ruleant.getback_gps.AbstractGetBackGpsActivity.onStart
BEFORE com.github.ruleant.getback_gps.LocationService.onCreate()
BEFORE android.preference.PreferenceManager.getDefaultSharedPreferences(com.github.ruleant.getback_gps.LocationService)
AFTER android.preference.PreferenceManager.getDefaultSharedPreferences, returnValue: android.app.SharedPreferencesImpl
BEFORE android.app.SharedPreferencesImpl.getString(debug_level,0)
AFTER android.app.SharedPreferencesImpl.getString, returnValue: 0, isEmpty: false
BEFORE android.content.ContextWrapper.getSystemService(location)
AFTER android.content.ContextWrapper.getSystemService, returnValue: android.location.LocationManager
BEFORE android.content.ContextWrapper.getSystemService(sensor)
AFTER android.content.ContextWrapper.getSystemService, returnValue: android.hardware.SystemSensorManager
BEFORE android.hardware.SensorManager.getSensorList(2)
AFTER android.hardware.SensorManager.getSensorList, returnValue: [], isEmpty: true
BEFORE android.hardware.SensorManager.getSensorList(3)
AFTER android.hardware.SensorManager.getSensorList, returnValue: [], isEmpty: true
BEFORE android.content.ContextWrapper.getApplicationContext()
AFTER android.content.ContextWrapper.getApplicationContext, returnValue: android.app.Application
BEFORE android.content.ContextWrapper.getSharedPreferences(last_location,0)
AFTER android.content.ContextWrapper.getSharedPreferences, returnValue: android.app.SharedPreferencesImpl
BEFORE android.app.SharedPreferencesImpl.getString(saved,false)
AFTER android.app.SharedPreferencesImpl.getString, returnValue: false, isEmpty: false
BEFORE android.content.ContextWrapper.getSharedPreferences(prev_location,0)
AFTER android.content.ContextWrapper.getSharedPreferences, returnValue: android.app.SharedPreferencesImpl
BEFORE android.app.SharedPreferencesImpl.getString(saved,false)
AFTER android.app.SharedPreferencesImpl.getString, returnValue: false, isEmpty: false
BEFORE android.content.ContextWrapper.getSharedPreferences(stored_destination,0)
AFTER android.content.ContextWrapper.getSharedPreferences, returnValue: android.app.SharedPreferencesImpl
BEFORE android.app.SharedPreferencesImpl.getString(saved,false)
AFTER android.app.SharedPreferencesImpl.getString, returnValue: false, isEmpty: false
BEFORE android.location.Criteria.setAccuracy(1)
AFTER android.location.Criteria.setAccuracy
BEFORE android.location.Criteria.setCostAllowed(false)
AFTER android.location.Criteria.setCostAllowed
BEFORE android.location.Criteria.setPowerRequirement(1)
AFTER android.location.Criteria.setPowerRequirement
BEFORE android.location.LocationManager.getBestProvider(android.location.Criteria,true)
AFTER android.location.LocationManager.getBestProvider, returnValue: gps, isEmpty: false
BEFORE android.location.LocationManager.isProviderEnabled(gps)
AFTER android.location.LocationManager.isProviderEnabled, returnValue: true
BEFORE android.preference.PreferenceManager.getDefaultSharedPreferences(com.github.ruleant.getback_gps.LocationService)
AFTER android.preference.PreferenceManager.getDefaultSharedPreferences, returnValue: android.app.SharedPreferencesImpl
BEFORE android.app.SharedPreferencesImpl.getString(loc_update_dist,10)
AFTER android.app.SharedPreferencesImpl.getString, returnValue: 10, isEmpty: false
BEFORE android.app.SharedPreferencesImpl.getString(loc_update_time,10000)
AFTER android.app.SharedPreferencesImpl.getString, returnValue: 10000, isEmpty: false
BEFORE android.location.LocationManager.requestLocationUpdates(gps,java.lang.Long,10.0,com.github.ruleant.getback_gps.LocationService$1)
BEFORE android.location.LocationManager.requestLocationUpdates(gps,java.lang.Long,10.0,com.github.ruleant.getback_gps.LocationService$1)
AFTER android.location.LocationManager.requestLocationUpdates
AFTER android.location.LocationManager.requestLocationUpdates
BEFORE android.location.LocationManager.getLastKnownLocation(gps)
AFTER android.location.LocationManager.getLastKnownLocation, returnValue: Location[gps 0.000000,0.000000 acc=0 et=+15m34s13ms alt=0.0 bear=0.0 {Bundle[mParcelledData.dataSize=40]}]
BEFORE android.preference.PreferenceManager.getDefaultSharedPreferences(com.github.ruleant.getback_gps.LocationService)
AFTER android.preference.PreferenceManager.getDefaultSharedPreferences, returnValue: android.app.SharedPreferencesImpl
BEFORE android.app.SharedPreferencesImpl.getBoolean(enable_sensors,true)
AFTER android.app.SharedPreferencesImpl.getBoolean, returnValue: true
BEFORE android.hardware.SensorManager.getSensorList(2)
AFTER android.hardware.SensorManager.getSensorList, returnValue: [], isEmpty: true
BEFORE android.hardware.SensorManager.getSensorList(3)
AFTER android.hardware.SensorManager.getSensorList, returnValue: [], isEmpty: true
AFTER com.github.ruleant.getback_gps.LocationService.onCreate
BEFORE com.github.ruleant.getback_gps.LocationService.onBind(android.content.Intent)
BEFORE android.preference.PreferenceManager.getDefaultSharedPreferences(com.github.ruleant.getback_gps.LocationService)
AFTER android.preference.PreferenceManager.getDefaultSharedPreferences, returnValue: android.app.SharedPreferencesImpl
BEFORE android.app.SharedPreferencesImpl.getString(debug_level,0)
AFTER android.app.SharedPreferencesImpl.getString, returnValue: 0, isEmpty: false
AFTER com.github.ruleant.getback_gps.LocationService.onBind, returnValue: com.github.ruleant.getback_gps.LocationService$LocationBinder
BEFORE com.github.ruleant.getback_gps.LocationService$1.onLocationChanged(android.location.Location)
BEFORE android.location.Location.getTime()
AFTER android.location.Location.getTime, returnValue: 1610818799000
BEFORE android.location.Location.getTime()
AFTER android.location.Location.getTime, returnValue: 1610818799000
BEFORE android.location.Location.getProvider()
AFTER android.location.Location.getProvider, returnValue: gps, isEmpty: false
BEFORE android.location.Location.getProvider()
AFTER android.location.Location.getProvider, returnValue: gps, isEmpty: false
BEFORE android.preference.PreferenceManager.getDefaultSharedPreferences(com.github.ruleant.getback_gps.LocationService)
AFTER android.preference.PreferenceManager.getDefaultSharedPreferences, returnValue: android.app.SharedPreferencesImpl
BEFORE android.app.SharedPreferencesImpl.getString(debug_level,0)
AFTER android.app.SharedPreferencesImpl.getString, returnValue: 0, isEmpty: false
BEFORE android.os.RemoteCallbackList.beginBroadcast()
AFTER android.os.RemoteCallbackList.beginBroadcast, returnValue: 0
BEFORE android.os.RemoteCallbackList.finishBroadcast()
AFTER android.os.RemoteCallbackList.finishBroadcast
AFTER com.github.ruleant.getback_gps.LocationService$1.onLocationChanged
BEFORE com.github.ruleant.getback_gps.LocationService$1.onStatusChanged(gps,1,android.os.Bundle)
AFTER com.github.ruleant.getback_gps.LocationService$1.onStatusChanged
BEFORE com.github.ruleant.getback_gps.AbstractGetBackGpsActivity$5.onServiceConnected(android.content.ComponentName,com.github.ruleant.getback_gps.LocationService$LocationBinder)
BEFORE android.os.RemoteCallbackList.register(com.github.ruleant.getback_gps.AbstractGetBackGpsActivity$6)
BEFORE android.os.RemoteCallbackList.register(com.github.ruleant.getback_gps.AbstractGetBackGpsActivity$6)
BEFORE com.github.ruleant.getback_gps.ILocationServiceCallback$Stub.asBinder()
AFTER com.github.ruleant.getback_gps.ILocationServiceCallback$Stub.asBinder, returnValue: com.github.ruleant.getback_gps.AbstractGetBackGpsActivity$6
AFTER android.os.RemoteCallbackList.register, returnValue: true
AFTER android.os.RemoteCallbackList.register, returnValue: true
BEFORE android.location.Location.getElapsedRealtimeNanos()
AFTER android.location.Location.getElapsedRealtimeNanos, returnValue: 934013564836
BEFORE android.location.Location.getAccuracy()
AFTER android.location.Location.getAccuracy, returnValue: 0.0
BEFORE de.keyboardsurfer.android.widget.crouton.Crouton.cancel()
AFTER de.keyboardsurfer.android.widget.crouton.Crouton.cancel
BEFORE de.keyboardsurfer.android.widget.crouton.Crouton.show()
AFTER de.keyboardsurfer.android.widget.crouton.Crouton.show
BEFORE android.view.ContextThemeWrapper.getResources()
AFTER android.view.ContextThemeWrapper.getResources, returnValue: android.content.res.XResources
BEFORE android.app.Activity.findViewById(2130903058)
AFTER android.app.Activity.findViewById, returnValue: android.widget.TextView{2f557853 V.ED.... ......ID 3,0-229,73 #7f030012 app:id/textView_currSpeed}
BEFORE android.app.Activity.findViewById(2130903057)
AFTER android.app.Activity.findViewById, returnValue: android.widget.TextView{23562e8e V.ED.... ......ID 35,6-261,79 #7f030011 app:id/textView_currBearing}
BEFORE android.content.res.Resources.getString(2131165211)
AFTER android.content.res.Resources.getString, returnValue: Inaccurate, isEmpty: false
BEFORE android.content.res.Resources.getString(2131165211)
AFTER android.content.res.Resources.getString, returnValue: Inaccurate, isEmpty: false
BEFORE android.location.Location.getElapsedRealtimeNanos()
AFTER android.location.Location.getElapsedRealtimeNanos, returnValue: 934013564836
BEFORE android.location.Location.getAccuracy()
AFTER android.location.Location.getAccuracy, returnValue: 0.0
BEFORE android.location.Location.hasSpeed()
AFTER android.location.Location.hasSpeed, returnValue: false
BEFORE android.view.ContextThemeWrapper.getResources()
AFTER android.view.ContextThemeWrapper.getResources, returnValue: android.content.res.XResources
BEFORE android.content.res.Resources.getString(2131165262)
AFTER android.content.res.Resources.getString, returnValue: km/h, isEmpty: false
BEFORE android.preference.PreferenceManager.getDefaultSharedPreferences(com.github.ruleant.getback_gps.LocationService)
AFTER android.preference.PreferenceManager.getDefaultSharedPreferences, returnValue: android.app.SharedPreferencesImpl
BEFORE android.app.SharedPreferencesImpl.getBoolean(enable_sensors,true)
AFTER android.app.SharedPreferencesImpl.getBoolean, returnValue: true
BEFORE android.location.Location.getElapsedRealtimeNanos()
AFTER android.location.Location.getElapsedRealtimeNanos, returnValue: 934013564836
BEFORE android.location.Location.getAccuracy()
AFTER android.location.Location.getAccuracy, returnValue: 0.0
BEFORE android.view.ContextThemeWrapper.getResources()
AFTER android.view.ContextThemeWrapper.getResources, returnValue: android.content.res.XResources
BEFORE android.app.Activity.findViewById(2130903048)
AFTER android.app.Activity.findViewById, returnValue: com.github.ruleant.getback_gps.NavigationView{20d117b7 V.ED.... ......ID 15,150-1065,300 #7f030008 app:id/navigationView_ToDest}
BEFORE android.app.Activity.findViewById(2130903062)
AFTER android.app.Activity.findViewById, returnValue: android.widget.TextView{a14eec7 V.ED..C. ......ID 0,0-175,73 #7f030016 app:id/textView_toDestName}
BEFORE android.app.Activity.findViewById(2130903061)
AFTER android.app.Activity.findViewById, returnValue: android.widget.TextView{10215ca7 V.ED.... ......ID 0,0-226,73 #7f030015 app:id/textView_toDestDist}
BEFORE android.app.Activity.findViewById(2130903060)
AFTER android.app.Activity.findViewById, returnValue: android.widget.TextView{c304df2 V.ED.... ......ID 15,0-241,73 #7f030014 app:id/textView_toDestDir}
BEFORE android.app.Activity.findViewById(2130903059)
AFTER android.app.Activity.findViewById, returnValue: android.widget.TextView{d92fbf9 V.ED.... ......ID 15,0-172,136 #7f030013 app:id/textView_heightDifference}
BEFORE android.app.Activity.findViewById(2130903050)
AFTER android.app.Activity.findViewById, returnValue: android.widget.LinearLayout{b8aa59a V.E..... ......ID 30,0-699,367 #7f03000a app:id/section_toDestination}
BEFORE android.app.Activity.findViewById(2130903063)
AFTER android.app.Activity.findViewById, returnValue: android.widget.TextView{28795a45 V.ED.... ......ID 30,0-30,73 #7f030017 app:id/textView_toDest_Message}
BEFORE android.content.res.Resources.getString(2131165240)
AFTER android.content.res.Resources.getString, returnValue: Not set, isEmpty: false
BEFORE android.content.res.Resources.getString(2131165271)
AFTER android.content.res.Resources.getString, returnValue: Unknown, isEmpty: false
BEFORE android.content.res.Resources.getString(2131165271)
AFTER android.content.res.Resources.getString, returnValue: Unknown, isEmpty: false
BEFORE android.content.res.Resources.getString(2131165271)
AFTER android.content.res.Resources.getString, returnValue: Unknown, isEmpty: false
BEFORE android.content.res.Resources.getString(2131165271)
AFTER android.content.res.Resources.getString, returnValue: Unknown, isEmpty: false
BEFORE android.content.res.Resources.getString(2131165233)
AFTER android.content.res.Resources.getString, returnValue: No destination set, isEmpty: false
BEFORE android.preference.PreferenceManager.getDefaultSharedPreferences(com.github.ruleant.getback_gps.LocationService)
AFTER android.preference.PreferenceManager.getDefaultSharedPreferences, returnValue: android.app.SharedPreferencesImpl
BEFORE android.app.SharedPreferencesImpl.getBoolean(enable_sensors,true)
AFTER android.app.SharedPreferencesImpl.getBoolean, returnValue: true
BEFORE android.location.Location.getElapsedRealtimeNanos()
AFTER android.location.Location.getElapsedRealtimeNanos, returnValue: 934013564836
BEFORE android.location.Location.getAccuracy()
AFTER android.location.Location.getAccuracy, returnValue: 0.0
AFTER com.github.ruleant.getback_gps.AbstractGetBackGpsActivity$5.onServiceConnected
BEFORE com.github.ruleant.getback_gps.MainActivity.onCreateOptionsMenu(com.android.internal.view.menu.MenuBuilder)
BEFORE android.app.Activity.getMenuInflater()
AFTER android.app.Activity.getMenuInflater, returnValue: android.view.MenuInflater
BEFORE android.view.MenuInflater.inflate(2131034112,com.android.internal.view.menu.MenuBuilder)
AFTER android.view.MenuInflater.inflate
BEFORE android.preference.PreferenceManager.getDefaultSharedPreferences(com.github.ruleant.getback_gps.MainActivity)
AFTER android.preference.PreferenceManager.getDefaultSharedPreferences, returnValue: android.app.SharedPreferencesImpl
BEFORE android.app.SharedPreferencesImpl.getString(debug_level,0)
AFTER android.app.SharedPreferencesImpl.getString, returnValue: 0, isEmpty: false
AFTER com.github.ruleant.getback_gps.MainActivity.onCreateOptionsMenu, returnValue: true
BEFORE com.github.ruleant.getback_gps.MainActivity.onPrepareOptionsMenu(com.android.internal.view.menu.MenuBuilder)
BEFORE com.android.internal.view.menu.MenuBuilder.findItem(2130903043)
AFTER com.android.internal.view.menu.MenuBuilder.findItem
BEFORE com.android.internal.view.menu.MenuBuilder.findItem(2130903047)
AFTER com.android.internal.view.menu.MenuBuilder.findItem, returnValue: Store Location
BEFORE com.android.internal.view.menu.MenuBuilder.findItem(2130903045)
AFTER com.android.internal.view.menu.MenuBuilder.findItem, returnValue: Rename destination
BEFORE com.android.internal.view.menu.MenuItemImpl.setEnabled(true)
AFTER com.android.internal.view.menu.MenuItemImpl.setEnabled, returnValue: Store Location
BEFORE com.android.internal.view.menu.MenuItemImpl.setEnabled(false)
AFTER com.android.internal.view.menu.MenuItemImpl.setEnabled, returnValue: Rename destination
BEFORE android.app.Activity.onPrepareOptionsMenu(com.android.internal.view.menu.MenuBuilder)
AFTER android.app.Activity.onPrepareOptionsMenu, returnValue: true
AFTER com.github.ruleant.getback_gps.MainActivity.onPrepareOptionsMenu, returnValue: true
BEFORE com.github.ruleant.getback_gps.NavigationView.onDraw(android.view.GLES20RecordingCanvas)
BEFORE android.view.GLES20Canvas.drawCircle(525.0,75.0,71.25,android.graphics.Paint)
AFTER android.view.GLES20Canvas.drawCircle
BEFORE android.view.GLES20Canvas.drawPath(android.graphics.Path,android.graphics.Paint)
AFTER android.view.GLES20Canvas.drawPath
BEFORE android.view.GLES20Canvas.drawPath(android.graphics.Path,android.graphics.Paint)
AFTER android.view.GLES20Canvas.drawPath
BEFORE android.view.GLES20Canvas.drawLines([F,android.graphics.Paint)
BEFORE android.view.GLES20Canvas.drawLines([F,android.graphics.Paint)
AFTER android.view.GLES20Canvas.drawLines
AFTER android.view.GLES20Canvas.drawLines
AFTER com.github.ruleant.getback_gps.NavigationView.onDraw
BEFORE com.github.ruleant.getback_gps.NavigationView.onDraw(android.view.GLES20RecordingCanvas)
BEFORE android.view.GLES20Canvas.drawCircle(525.0,525.0,498.75,android.graphics.Paint)
AFTER android.view.GLES20Canvas.drawCircle
BEFORE android.view.GLES20Canvas.drawPath(android.graphics.Path,android.graphics.Paint)
AFTER android.view.GLES20Canvas.drawPath
BEFORE android.view.GLES20Canvas.drawPath(android.graphics.Path,android.graphics.Paint)
AFTER android.view.GLES20Canvas.drawPath
BEFORE android.view.GLES20Canvas.drawLines([F,android.graphics.Paint)
BEFORE android.view.GLES20Canvas.drawLines([F,android.graphics.Paint)
AFTER android.view.GLES20Canvas.drawLines
AFTER android.view.GLES20Canvas.drawLines
AFTER com.github.ruleant.getback_gps.NavigationView.onDraw
BEFORE android.preference.PreferenceManager.getDefaultSharedPreferences(com.github.ruleant.getback_gps.LocationService)
AFTER android.preference.PreferenceManager.getDefaultSharedPreferences, returnValue: android.app.SharedPreferencesImpl
BEFORE android.app.SharedPreferencesImpl.getString(debug_level,0)
AFTER android.app.SharedPreferencesImpl.getString, returnValue: 0, isEmpty: false
BEFORE com.github.ruleant.getback_gps.ILocationServiceCallback$Stub.asBinder()
AFTER com.github.ruleant.getback_gps.ILocationServiceCallback$Stub.asBinder, returnValue: com.github.ruleant.getback_gps.AbstractGetBackGpsActivity$6
BEFORE android.location.Location.hasSpeed()
AFTER android.location.Location.hasSpeed, returnValue: false
BEFORE android.location.Location.hasSpeed()
AFTER android.location.Location.hasSpeed, returnValue: false
BEFORE android.location.Location.getAccuracy()
AFTER android.location.Location.getAccuracy, returnValue: 0.0
BEFORE android.location.Location.getTime()
AFTER android.location.Location.getTime, returnValue: 1610818799000
BEFORE android.location.Location.getProvider()
AFTER android.location.Location.getProvider, returnValue: gps, isEmpty: false
BEFORE android.preference.PreferenceManager.getDefaultSharedPreferences(com.github.ruleant.getback_gps.LocationService)
AFTER android.preference.PreferenceManager.getDefaultSharedPreferences, returnValue: android.app.SharedPreferencesImpl
BEFORE android.app.SharedPreferencesImpl.getString(debug_level,0)
AFTER android.app.SharedPreferencesImpl.getString, returnValue: 0, isEmpty: false
