BEFORE de.hu_berlin.eduroam.WiFiEduroam.onCreate()
BEFORE android.app.Activity.onCreate()
AFTER android.app.Activity.onCreate
BEFORE android.app.Activity.setContentView(2130903040)
AFTER android.app.Activity.setContentView
BEFORE android.app.Activity.getSystemService(wifi)
AFTER android.app.Activity.getSystemService, returnValue: android.net.wifi.WifiManager
BEFORE android.net.wifi.WifiManager.getConfiguredNetworks()
AFTER android.net.wifi.WifiManager.getConfiguredNetworks, returnValue: [* ID: 0 SSID: "WiredSSID" BSSID: any FQDN: null REALM: null PRIO: 1  numAssociation 39  KeyMgmt: NONE Protocols: WPA RSN  AuthAlgorithms:  PairwiseCiphers: TKIP CCMP  GroupCiphers: WEP40 WEP104 TKIP CCMP  PSK:  Enterprise config: password NULL subject_match NULL engine 0 client_cert NULL ca_cert NULL anonymous_identity NULL identity NULL key_id NULL engine_id NULL phase2 NULL eap NULL IP config: IP assignment: DHCP Proxy settings: NONE  autoJoinBSSID=any triggeredLow: 0 triggeredBad: 0 triggeredNotHigh: 0 ticksLow: 0 ticksBad: 0 ticksNotHigh: 0 triggeredJoin: 0 autoJoinBailedDueToLowRssi: false autoJoinUseAggressiveJoinAttemptThreshold: 0 ], isEmpty: false
BEFORE android.app.Activity.findViewById(2130837515)
AFTER android.app.Activity.findViewById, returnValue: android.widget.EditText{2ea1d5eb VFED..CL .F....ID 0,0-0,0 #7f02000b app:id/username}
BEFORE android.app.Activity.findViewById(2130837509)
AFTER android.app.Activity.findViewById, returnValue: android.widget.EditText{8d7df48 VFED..CL ......ID 0,0-0,0 #7f020005 app:id/password}
BEFORE android.app.Activity.findViewById(2130837505)
AFTER android.app.Activity.findViewById, returnValue: android.widget.Button{3a231e1 VFED..C. ......I. 0,0-0,0 #7f020001 app:id/button1}
AFTER de.hu_berlin.eduroam.WiFiEduroam.onCreate
BEFORE de.hu_berlin.eduroam.WiFiEduroam.onCreateOptionsMenu(com.android.internal.view.menu.MenuBuilder)
BEFORE android.app.Activity.getMenuInflater()
AFTER android.app.Activity.getMenuInflater, returnValue: android.view.MenuInflater
BEFORE android.view.MenuInflater.inflate(2130968576,com.android.internal.view.menu.MenuBuilder)
AFTER android.view.MenuInflater.inflate
AFTER de.hu_berlin.eduroam.WiFiEduroam.onCreateOptionsMenu, returnValue: true
