Application|#SIB|Pos Ranking
QuotoGraph|1|1
KanjiFix|6|1
MapDemo|35|8
onInflate|18|3
SearchView|80|12
PoGoIV|109|14
FakeGPS|55|5
PrivacyPolice|50|1
GoodWeather|98|1
BossTransfer|8|
FilePicker|135|6
Average|4.7272727272727275
