BEFORE com.bytestemplar.tonedef.MainActivity.onCreate()
BEFORE android.app.Activity.onCreate()
AFTER android.app.Activity.onCreate
BEFORE android.app.Activity.setContentView(2131296287)
AFTER android.app.Activity.setContentView
BEFORE android.content.ContextWrapper.getAssets()
AFTER android.content.ContextWrapper.getAssets, returnValue: android.content.res.AssetManager
BEFORE android.app.Activity.findViewById(16908290)
AFTER android.app.Activity.findViewById, returnValue: android.widget.FrameLayout{3d1d2517 V.E..... ......I. 0,0-0,0 #1020002 android:id/content}
BEFORE android.content.Context.getString(2131427362)
AFTER android.content.Context.getString, returnValue: Germany, isEmpty: false
BEFORE android.media.AudioTrack.getMinBufferSize(44100,4,2)
AFTER android.media.AudioTrack.getMinBufferSize, returnValue: 10240
BEFORE android.content.Context.getString(2131427368)
AFTER android.content.Context.getString, returnValue: A dial tone is a telephony signal used to indicate that the telephone exchange is working, has recognized an off-hook, and is ready to accept a call., isEmpty: false
BEFORE android.content.Context.getString(2131427376)
AFTER android.content.Context.getString, returnValue: Dialtone, isEmpty: false
BEFORE android.media.AudioTrack.getMinBufferSize(44100,4,2)
AFTER android.media.AudioTrack.getMinBufferSize, returnValue: 10240
BEFORE android.content.Context.getString(2131427370)
AFTER android.content.Context.getString, returnValue: A ringback tone is an audible indication that is heard on the telephone line by the caller while the phone they are calling is being rung. It is normally a repeated tone, designed to assure the calling party that the called party's line is ringing, although the ring-back tone may be out of sync with the ringing signal., isEmpty: false
BEFORE android.content.Context.getString(2131427409)
AFTER android.content.Context.getString, returnValue: Ringback, isEmpty: false
BEFORE android.media.AudioTrack.getMinBufferSize(44100,4,2)
AFTER android.media.AudioTrack.getMinBufferSize, returnValue: 10240
BEFORE android.content.Context.getString(2131427355)
AFTER android.content.Context.getString, returnValue: Busy, isEmpty: false
BEFORE android.content.Context.getString(2131427363)
AFTER android.content.Context.getString, returnValue: Italy, isEmpty: false
BEFORE android.media.AudioTrack.getMinBufferSize(44100,4,2)
AFTER android.media.AudioTrack.getMinBufferSize, returnValue: 10240
BEFORE android.content.Context.getString(2131427370)
AFTER android.content.Context.getString, returnValue: A ringback tone is an audible indication that is heard on the telephone line by the caller while the phone they are calling is being rung. It is normally a repeated tone, designed to assure the calling party that the called party's line is ringing, although the ring-back tone may be out of sync with the ringing signal., isEmpty: false
BEFORE android.content.Context.getString(2131427409)
AFTER android.content.Context.getString, returnValue: Ringback, isEmpty: false
BEFORE android.media.AudioTrack.getMinBufferSize(44100,4,2)
AFTER android.media.AudioTrack.getMinBufferSize, returnValue: 10240
BEFORE android.content.Context.getString(2131427368)
AFTER android.content.Context.getString, returnValue: A dial tone is a telephony signal used to indicate that the telephone exchange is working, has recognized an off-hook, and is ready to accept a call., isEmpty: false
BEFORE android.content.Context.getString(2131427376)
AFTER android.content.Context.getString, returnValue: Dialtone, isEmpty: false
BEFORE android.media.AudioTrack.getMinBufferSize(44100,4,2)
AFTER android.media.AudioTrack.getMinBufferSize, returnValue: 10240
BEFORE android.content.Context.getString(2131427355)
AFTER android.content.Context.getString, returnValue: Busy, isEmpty: false
BEFORE android.content.Context.getString(2131427364)
AFTER android.content.Context.getString, returnValue: Japan, isEmpty: false
BEFORE android.media.AudioTrack.getMinBufferSize(44100,4,2)
AFTER android.media.AudioTrack.getMinBufferSize, returnValue: 10240
BEFORE android.content.Context.getString(2131427368)
AFTER android.content.Context.getString, returnValue: A dial tone is a telephony signal used to indicate that the telephone exchange is working, has recognized an off-hook, and is ready to accept a call., isEmpty: false
BEFORE android.content.Context.getString(2131427376)
AFTER android.content.Context.getString, returnValue: Dialtone, isEmpty: false
BEFORE android.media.AudioTrack.getMinBufferSize(44100,4,2)
AFTER android.media.AudioTrack.getMinBufferSize, returnValue: 10240
BEFORE android.content.Context.getString(2131427370)
AFTER android.content.Context.getString, returnValue: A ringback tone is an audible indication that is heard on the telephone line by the caller while the phone they are calling is being rung. It is normally a repeated tone, designed to assure the calling party that the called party's line is ringing, although the ring-back tone may be out of sync with the ringing signal., isEmpty: false
BEFORE android.content.Context.getString(2131427409)
AFTER android.content.Context.getString, returnValue: Ringback, isEmpty: false
BEFORE android.media.AudioTrack.getMinBufferSize(44100,4,2)
AFTER android.media.AudioTrack.getMinBufferSize, returnValue: 10240
BEFORE android.content.Context.getString(2131427355)
AFTER android.content.Context.getString, returnValue: Busy, isEmpty: false
BEFORE android.content.Context.getString(2131427365)
AFTER android.content.Context.getString, returnValue: UK, isEmpty: false
BEFORE android.media.AudioTrack.getMinBufferSize(44100,4,2)
AFTER android.media.AudioTrack.getMinBufferSize, returnValue: 10240
BEFORE android.content.Context.getString(2131427368)
AFTER android.content.Context.getString, returnValue: A dial tone is a telephony signal used to indicate that the telephone exchange is working, has recognized an off-hook, and is ready to accept a call., isEmpty: false
BEFORE android.content.Context.getString(2131427376)
AFTER android.content.Context.getString, returnValue: Dialtone, isEmpty: false
BEFORE android.media.AudioTrack.getMinBufferSize(44100,4,2)
AFTER android.media.AudioTrack.getMinBufferSize, returnValue: 10240
BEFORE android.content.Context.getString(2131427409)
AFTER android.content.Context.getString, returnValue: Ringback, isEmpty: false
BEFORE android.media.AudioTrack.getMinBufferSize(44100,4,2)
AFTER android.media.AudioTrack.getMinBufferSize, returnValue: 10240
BEFORE android.content.Context.getString(2131427355)
AFTER android.content.Context.getString, returnValue: Busy, isEmpty: false
BEFORE android.media.AudioTrack.getMinBufferSize(44100,4,2)
AFTER android.media.AudioTrack.getMinBufferSize, returnValue: 10240
BEFORE android.content.Context.getString(2131427417)
AFTER android.content.Context.getString, returnValue: Special Information, isEmpty: false
BEFORE android.media.AudioTrack.getMinBufferSize(44100,4,2)
AFTER android.media.AudioTrack.getMinBufferSize, returnValue: 10240
BEFORE android.content.Context.getString(2131427416)
AFTER android.content.Context.getString, returnValue: Special Dial Tone, isEmpty: false
BEFORE android.media.AudioTrack.getMinBufferSize(44100,4,2)
AFTER android.media.AudioTrack.getMinBufferSize, returnValue: 10240
BEFORE android.content.Context.getString(2131427358)
AFTER android.content.Context.getString, returnValue: Confirmation, isEmpty: false
BEFORE android.media.AudioTrack.getMinBufferSize(44100,4,2)
AFTER android.media.AudioTrack.getMinBufferSize, returnValue: 10240
BEFORE android.content.Context.getString(2131427356)
AFTER android.content.Context.getString, returnValue: Call Waiting, isEmpty: false
BEFORE android.media.AudioTrack.getMinBufferSize(44100,4,2)
AFTER android.media.AudioTrack.getMinBufferSize, returnValue: 10240
BEFORE android.content.Context.getString(2131427359)
AFTER android.content.Context.getString, returnValue: Congestion, isEmpty: false
BEFORE android.media.AudioTrack.getMinBufferSize(44100,4,2)
AFTER android.media.AudioTrack.getMinBufferSize, returnValue: 10240
BEFORE android.content.Context.getString(2131427377)
AFTER android.content.Context.getString, returnValue: Disconnect, isEmpty: false
BEFORE android.media.AudioTrack.getMinBufferSize(44100,4,2)
AFTER android.media.AudioTrack.getMinBufferSize, returnValue: 10240
BEFORE android.content.Context.getString(2131427408)
AFTER android.content.Context.getString, returnValue: Refusal/Switching, isEmpty: false
BEFORE android.media.AudioTrack.getMinBufferSize(44100,4,2)
AFTER android.media.AudioTrack.getMinBufferSize, returnValue: 10240
BEFORE android.content.Context.getString(2131427390)
AFTER android.content.Context.getString, returnValue: Number Unobtainable, isEmpty: false
BEFORE android.media.AudioTrack.getMinBufferSize(44100,4,2)
AFTER android.media.AudioTrack.getMinBufferSize, returnValue: 10240
BEFORE android.content.Context.getString(2131427397)
AFTER android.content.Context.getString, returnValue: Pay Tone, isEmpty: false
BEFORE android.media.AudioTrack.getMinBufferSize(44100,4,2)
AFTER android.media.AudioTrack.getMinBufferSize, returnValue: 10240
BEFORE android.content.Context.getString(2131427398)
AFTER android.content.Context.getString, returnValue: Payphone Recognition, isEmpty: false
BEFORE android.media.AudioTrack.getMinBufferSize(44100,4,2)
AFTER android.media.AudioTrack.getMinBufferSize, returnValue: 10240
BEFORE android.content.Context.getString(2131427399)
AFTER android.content.Context.getString, returnValue: Positive/Accepted, isEmpty: false
BEFORE android.content.Context.getString(2131427366)
AFTER android.content.Context.getString, returnValue: USA, isEmpty: false
BEFORE android.media.AudioTrack.getMinBufferSize(44100,4,2)
AFTER android.media.AudioTrack.getMinBufferSize, returnValue: 10240
BEFORE android.content.Context.getString(2131427368)
AFTER android.content.Context.getString, returnValue: A dial tone is a telephony signal used to indicate that the telephone exchange is working, has recognized an off-hook, and is ready to accept a call., isEmpty: false
BEFORE android.content.Context.getString(2131427376)
AFTER android.content.Context.getString, returnValue: Dialtone, isEmpty: false
BEFORE android.media.AudioTrack.getMinBufferSize(44100,4,2)
AFTER android.media.AudioTrack.getMinBufferSize, returnValue: 10240
BEFORE android.content.Context.getString(2131427409)
AFTER android.content.Context.getString, returnValue: Ringback, isEmpty: false
BEFORE android.media.AudioTrack.getMinBufferSize(44100,4,2)
AFTER android.media.AudioTrack.getMinBufferSize, returnValue: 10240
BEFORE android.content.Context.getString(2131427355)
AFTER android.content.Context.getString, returnValue: Busy, isEmpty: false
BEFORE android.media.AudioTrack.getMinBufferSize(44100,4,2)
AFTER android.media.AudioTrack.getMinBufferSize, returnValue: 10240
BEFORE android.content.Context.getString(2131427360)
AFTER android.content.Context.getString, returnValue: Congestion/Fast Busy/Disconnect, isEmpty: false
BEFORE android.media.AudioTrack.getMinBufferSize(44100,4,2)
AFTER android.media.AudioTrack.getMinBufferSize, returnValue: 10240
BEFORE android.content.Context.getString(2131427412)
AFTER android.content.Context.getString, returnValue: SIS - Ineffective, isEmpty: false
BEFORE android.media.AudioTrack.getMinBufferSize(44100,4,2)
AFTER android.media.AudioTrack.getMinBufferSize, returnValue: 10240
BEFORE android.content.Context.getString(2131427413)
AFTER android.content.Context.getString, returnValue: SIS - Intercept, isEmpty: false
BEFORE android.media.AudioTrack.getMinBufferSize(44100,4,2)
AFTER android.media.AudioTrack.getMinBufferSize, returnValue: 10240
BEFORE android.content.Context.getString(2131427414)
AFTER android.content.Context.getString, returnValue: SIS - No Circuit, isEmpty: false
BEFORE android.media.AudioTrack.getMinBufferSize(44100,4,2)
AFTER android.media.AudioTrack.getMinBufferSize, returnValue: 10240
BEFORE android.content.Context.getString(2131427391)
AFTER android.content.Context.getString, returnValue: Off Hook, isEmpty: false
BEFORE android.media.AudioTrack.getMinBufferSize(44100,4,2)
AFTER android.media.AudioTrack.getMinBufferSize, returnValue: 10240
BEFORE android.content.Context.getString(2131427400)
AFTER android.content.Context.getString, returnValue: Recall Tone, isEmpty: false
BEFORE android.media.AudioTrack.getMinBufferSize(44100,4,2)
AFTER android.media.AudioTrack.getMinBufferSize, returnValue: 10240
BEFORE android.content.Context.getString(2131427356)
AFTER android.content.Context.getString, returnValue: Call Waiting, isEmpty: false
BEFORE android.media.AudioTrack.getMinBufferSize(44100,4,2)
AFTER android.media.AudioTrack.getMinBufferSize, returnValue: 10240
BEFORE android.content.Context.getString(2131427399)
AFTER android.content.Context.getString, returnValue: Positive/Accepted, isEmpty: false
BEFORE android.media.AudioTrack.getMinBufferSize(44100,4,2)
AFTER android.media.AudioTrack.getMinBufferSize, returnValue: 10240
BEFORE android.content.Context.getString(2131427390)
AFTER android.content.Context.getString, returnValue: Number Unobtainable, isEmpty: false
BEFORE android.media.AudioTrack.getMinBufferSize(44100,4,2)
AFTER android.media.AudioTrack.getMinBufferSize, returnValue: 10240
BEFORE android.content.Context.getString(2131427401)
AFTER android.content.Context.getString, returnValue: Record, isEmpty: false
BEFORE android.media.AudioTrack.getMinBufferSize(44100,4,2)
AFTER android.media.AudioTrack.getMinBufferSize, returnValue: 10240
BEFORE android.content.Context.getString(2131427421)
AFTER android.content.Context.getString, returnValue: Warning, isEmpty: false
BEFORE android.preference.PreferenceManager.getDefaultSharedPreferences(com.bytestemplar.tonedef.MainActivity)
AFTER android.preference.PreferenceManager.getDefaultSharedPreferences, returnValue: android.app.SharedPreferencesImpl
BEFORE android.app.SharedPreferencesImpl.contains(lastver)
AFTER android.app.SharedPreferencesImpl.contains, returnValue: false
BEFORE android.content.Context.getString(2131427420)
AFTER android.content.Context.getString, returnValue: Release 16, isEmpty: false
BEFORE android.app.Activity.startActivity(android.content.Intent)
BEFORE android.app.Activity.startActivity(android.content.Intent)
AFTER android.app.Activity.startActivity
AFTER android.app.Activity.startActivity
AFTER com.bytestemplar.tonedef.MainActivity.onCreate
BEFORE android.app.Activity.onCreate()
AFTER android.app.Activity.onCreate
BEFORE android.app.Activity.setContentView(2131296281)
AFTER android.app.Activity.setContentView
BEFORE android.app.Activity.findViewById(16908290)
AFTER android.app.Activity.findViewById, returnValue: android.widget.FrameLayout{18225987 V.E..... ......I. 0,0-0,0 #1020002 android:id/content}
BEFORE com.bytestemplar.tonedef.MainActivity.clickDTMF(android.widget.ImageButton)
BEFORE android.app.Activity.startActivity(android.content.Intent)
BEFORE android.app.Activity.startActivity(android.content.Intent)
AFTER android.app.Activity.startActivity
AFTER android.app.Activity.startActivity
AFTER com.bytestemplar.tonedef.MainActivity.clickDTMF
BEFORE com.bytestemplar.tonedef.DTMFActivity.onCreate()
BEFORE android.app.Activity.onCreate()
AFTER android.app.Activity.onCreate
BEFORE android.app.Activity.setContentView(2131296303)
AFTER android.app.Activity.setContentView
BEFORE android.app.Activity.setVolumeControlStream(3)
AFTER android.app.Activity.setVolumeControlStream
BEFORE android.preference.PreferenceManager.getDefaultSharedPreferences(com.bytestemplar.tonedef.DTMFActivity)
AFTER android.preference.PreferenceManager.getDefaultSharedPreferences, returnValue: android.app.SharedPreferencesImpl
BEFORE android.app.Activity.findViewById(2131165283)
AFTER android.app.Activity.findViewById, returnValue: android.widget.EditText{1e1ed616 VFED..CL ......I. 0,0-0,0 #7f070063 app:id/etDialingString}
BEFORE android.media.AudioTrack.getMinBufferSize(44100,4,2)
AFTER android.media.AudioTrack.getMinBufferSize, returnValue: 10240
BEFORE android.media.AudioTrack.getMinBufferSize(44100,4,2)
AFTER android.media.AudioTrack.getMinBufferSize, returnValue: 10240
BEFORE android.media.AudioTrack.getMinBufferSize(44100,4,2)
AFTER android.media.AudioTrack.getMinBufferSize, returnValue: 10240
BEFORE android.media.AudioTrack.getMinBufferSize(44100,4,2)
AFTER android.media.AudioTrack.getMinBufferSize, returnValue: 10240
BEFORE android.media.AudioTrack.getMinBufferSize(44100,4,2)
AFTER android.media.AudioTrack.getMinBufferSize, returnValue: 10240
BEFORE android.media.AudioTrack.getMinBufferSize(44100,4,2)
AFTER android.media.AudioTrack.getMinBufferSize, returnValue: 10240
BEFORE android.media.AudioTrack.getMinBufferSize(44100,4,2)
AFTER android.media.AudioTrack.getMinBufferSize, returnValue: 10240
BEFORE android.media.AudioTrack.getMinBufferSize(44100,4,2)
AFTER android.media.AudioTrack.getMinBufferSize, returnValue: 10240
BEFORE android.media.AudioTrack.getMinBufferSize(44100,4,2)
AFTER android.media.AudioTrack.getMinBufferSize, returnValue: 10240
BEFORE android.media.AudioTrack.getMinBufferSize(44100,4,2)
AFTER android.media.AudioTrack.getMinBufferSize, returnValue: 10240
BEFORE android.media.AudioTrack.getMinBufferSize(44100,4,2)
AFTER android.media.AudioTrack.getMinBufferSize, returnValue: 10240
BEFORE android.media.AudioTrack.getMinBufferSize(44100,4,2)
AFTER android.media.AudioTrack.getMinBufferSize, returnValue: 10240
BEFORE android.media.AudioTrack.getMinBufferSize(44100,4,2)
AFTER android.media.AudioTrack.getMinBufferSize, returnValue: 10240
BEFORE android.media.AudioTrack.getMinBufferSize(44100,4,2)
AFTER android.media.AudioTrack.getMinBufferSize, returnValue: 10240
BEFORE android.media.AudioTrack.getMinBufferSize(44100,4,2)
AFTER android.media.AudioTrack.getMinBufferSize, returnValue: 10240
BEFORE android.media.AudioTrack.getMinBufferSize(44100,4,2)
AFTER android.media.AudioTrack.getMinBufferSize, returnValue: 10240
BEFORE android.app.SharedPreferencesImpl.getString(dtmf_digitdur,250)
AFTER android.app.SharedPreferencesImpl.getString, returnValue: 250, isEmpty: false
BEFORE android.app.SharedPreferencesImpl.getString(dtmf_dialdelay,100)
AFTER android.app.SharedPreferencesImpl.getString, returnValue: 100, isEmpty: false
BEFORE android.app.SharedPreferencesImpl.getString(dtmf_sdelay,1000)
AFTER android.app.SharedPreferencesImpl.getString, returnValue: 1000, isEmpty: false
BEFORE android.app.Activity.findViewById(2131165353)
AFTER android.app.Activity.findViewById, returnValue: android.widget.LinearLayout{23600b97 V.E..... ......I. 0,0-0,0 #7f0700a9 app:id/touchpad_content}
BEFORE android.app.Activity.getSystemService(layout_inflater)
AFTER android.app.Activity.getSystemService, returnValue: com.android.internal.policy.impl.PhoneLayoutInflater
BEFORE android.view.LayoutInflater.inflate(2131296304,android.widget.LinearLayout,true)
BEFORE android.view.LayoutInflater.inflate(2131296304,android.widget.LinearLayout,true)
AFTER android.view.LayoutInflater.inflate, returnValue: android.widget.LinearLayout{23600b97 V.E..... ......I. 0,0-0,0 #7f0700a9 app:id/touchpad_content}
AFTER android.view.LayoutInflater.inflate, returnValue: android.widget.LinearLayout{23600b97 V.E..... ......I. 0,0-0,0 #7f0700a9 app:id/touchpad_content}
BEFORE android.app.Activity.findViewById(2131165265)
AFTER android.app.Activity.findViewById, returnValue: android.widget.ImageButton{24b2054c VFED..C. ......I. 0,0-0,0 #7f070051 app:id/dtmf1}
BEFORE android.app.Activity.findViewById(2131165266)
AFTER android.app.Activity.findViewById, returnValue: android.widget.ImageButton{2319995 VFED..C. ......I. 0,0-0,0 #7f070052 app:id/dtmf2}
BEFORE android.app.Activity.findViewById(2131165267)
AFTER android.app.Activity.findViewById, returnValue: android.widget.ImageButton{2a27faaa VFED..C. ......I. 0,0-0,0 #7f070053 app:id/dtmf3}
BEFORE android.app.Activity.findViewById(2131165276)
AFTER android.app.Activity.findViewById, returnValue: android.widget.ImageButton{2ae1b69b VFED..C. ......I. 0,0-0,0 #7f07005c app:id/dtmfa}
BEFORE android.app.Activity.findViewById(2131165268)
AFTER android.app.Activity.findViewById, returnValue: android.widget.ImageButton{1ea02a38 VFED..C. ......I. 0,0-0,0 #7f070054 app:id/dtmf4}
BEFORE android.app.Activity.findViewById(2131165269)
AFTER android.app.Activity.findViewById, returnValue: android.widget.ImageButton{365f3a11 VFED..C. ......I. 0,0-0,0 #7f070055 app:id/dtmf5}
BEFORE android.app.Activity.findViewById(2131165270)
AFTER android.app.Activity.findViewById, returnValue: android.widget.ImageButton{24631776 VFED..C. ......I. 0,0-0,0 #7f070056 app:id/dtmf6}
BEFORE android.app.Activity.findViewById(2131165277)
AFTER android.app.Activity.findViewById, returnValue: android.widget.ImageButton{a9b2177 VFED..C. ......I. 0,0-0,0 #7f07005d app:id/dtmfb}
BEFORE android.app.Activity.findViewById(2131165271)
AFTER android.app.Activity.findViewById, returnValue: android.widget.ImageButton{2149b1e4 VFED..C. ......I. 0,0-0,0 #7f070057 app:id/dtmf7}
BEFORE android.app.Activity.findViewById(2131165272)
AFTER android.app.Activity.findViewById, returnValue: android.widget.ImageButton{1aec664d VFED..C. ......I. 0,0-0,0 #7f070058 app:id/dtmf8}
BEFORE android.app.Activity.findViewById(2131165273)
AFTER android.app.Activity.findViewById, returnValue: android.widget.ImageButton{2a613502 VFED..C. ......I. 0,0-0,0 #7f070059 app:id/dtmf9}
BEFORE android.app.Activity.findViewById(2131165278)
AFTER android.app.Activity.findViewById, returnValue: android.widget.ImageButton{2b165e13 VFED..C. ......I. 0,0-0,0 #7f07005e app:id/dtmfc}
BEFORE android.app.Activity.findViewById(2131165275)
AFTER android.app.Activity.findViewById, returnValue: android.widget.ImageButton{3ee20850 VFED..C. ......I. 0,0-0,0 #7f07005b app:id/dtmf_star}
BEFORE android.app.Activity.findViewById(2131165264)
AFTER android.app.Activity.findViewById, returnValue: android.widget.ImageButton{22a61a49 VFED..C. ......I. 0,0-0,0 #7f070050 app:id/dtmf0}
BEFORE android.app.Activity.findViewById(2131165274)
AFTER android.app.Activity.findViewById, returnValue: android.widget.ImageButton{3a319f4e VFED..C. ......I. 0,0-0,0 #7f07005a app:id/dtmf_pound}
BEFORE android.app.Activity.findViewById(2131165279)
AFTER android.app.Activity.findViewById, returnValue: android.widget.ImageButton{29fec86f VFED..C. ......I. 0,0-0,0 #7f07005f app:id/dtmfd}
BEFORE android.app.SharedPreferencesImpl.getBoolean(invert_text_color,false)
AFTER android.app.SharedPreferencesImpl.getBoolean, returnValue: false
BEFORE android.widget.ImageView.getDrawable()
AFTER android.widget.ImageView.getDrawable, returnValue: android.graphics.drawable.BitmapDrawable
BEFORE android.widget.ImageView.getDrawable()
AFTER android.widget.ImageView.getDrawable, returnValue: android.graphics.drawable.BitmapDrawable
BEFORE android.widget.ImageView.getDrawable()
AFTER android.widget.ImageView.getDrawable, returnValue: android.graphics.drawable.BitmapDrawable
BEFORE android.widget.ImageView.getDrawable()
AFTER android.widget.ImageView.getDrawable, returnValue: android.graphics.drawable.BitmapDrawable
BEFORE android.widget.ImageView.getDrawable()
AFTER android.widget.ImageView.getDrawable, returnValue: android.graphics.drawable.BitmapDrawable
BEFORE android.widget.ImageView.getDrawable()
AFTER android.widget.ImageView.getDrawable, returnValue: android.graphics.drawable.BitmapDrawable
BEFORE android.widget.ImageView.getDrawable()
AFTER android.widget.ImageView.getDrawable, returnValue: android.graphics.drawable.BitmapDrawable
BEFORE android.widget.ImageView.getDrawable()
AFTER android.widget.ImageView.getDrawable, returnValue: android.graphics.drawable.BitmapDrawable
BEFORE android.widget.ImageView.getDrawable()
AFTER android.widget.ImageView.getDrawable, returnValue: android.graphics.drawable.BitmapDrawable
BEFORE android.widget.ImageView.getDrawable()
AFTER android.widget.ImageView.getDrawable, returnValue: android.graphics.drawable.BitmapDrawable
BEFORE android.widget.ImageView.getDrawable()
AFTER android.widget.ImageView.getDrawable, returnValue: android.graphics.drawable.BitmapDrawable
BEFORE android.widget.ImageView.getDrawable()
AFTER android.widget.ImageView.getDrawable, returnValue: android.graphics.drawable.BitmapDrawable
BEFORE android.widget.ImageView.getDrawable()
AFTER android.widget.ImageView.getDrawable, returnValue: android.graphics.drawable.BitmapDrawable
BEFORE android.widget.ImageView.getDrawable()
AFTER android.widget.ImageView.getDrawable, returnValue: android.graphics.drawable.BitmapDrawable
BEFORE android.widget.ImageView.getDrawable()
AFTER android.widget.ImageView.getDrawable, returnValue: android.graphics.drawable.BitmapDrawable
BEFORE android.widget.ImageView.getDrawable()
AFTER android.widget.ImageView.getDrawable, returnValue: android.graphics.drawable.BitmapDrawable
BEFORE android.app.Activity.findViewById(16908290)
AFTER android.app.Activity.findViewById, returnValue: android.widget.FrameLayout{28d8ae93 V.E..... ......I. 0,0-0,0 #1020002 android:id/content}
BEFORE android.app.SharedPreferencesImpl.getBoolean(ext_dtmf,false)
AFTER android.app.SharedPreferencesImpl.getBoolean, returnValue: false
BEFORE android.app.Activity.findViewById(2131165276)
AFTER android.app.Activity.findViewById, returnValue: android.widget.ImageButton{2ae1b69b VFED..C. ......I. 0,0-0,0 #7f07005c app:id/dtmfa}
BEFORE android.widget.ImageView.setVisibility(8)
AFTER android.widget.ImageView.setVisibility
BEFORE android.app.Activity.findViewById(2131165277)
AFTER android.app.Activity.findViewById, returnValue: android.widget.ImageButton{a9b2177 VFED..C. ......I. 0,0-0,0 #7f07005d app:id/dtmfb}
BEFORE android.widget.ImageView.setVisibility(8)
AFTER android.widget.ImageView.setVisibility
BEFORE android.app.Activity.findViewById(2131165278)
AFTER android.app.Activity.findViewById, returnValue: android.widget.ImageButton{2b165e13 VFED..C. ......I. 0,0-0,0 #7f07005e app:id/dtmfc}
BEFORE android.widget.ImageView.setVisibility(8)
AFTER android.widget.ImageView.setVisibility
BEFORE android.app.Activity.findViewById(2131165279)
AFTER android.app.Activity.findViewById, returnValue: android.widget.ImageButton{29fec86f VFED..C. ......I. 0,0-0,0 #7f07005f app:id/dtmfd}
BEFORE android.widget.ImageView.setVisibility(8)
AFTER android.widget.ImageView.setVisibility
BEFORE android.app.Activity.getIntent()
AFTER android.app.Activity.getIntent, returnValue: Intent { cmp=com.bytestemplar.tonedef/.DTMFActivity }
BEFORE android.content.Intent.getAction()
AFTER android.content.Intent.getAction
BEFORE android.app.Activity.getIntent()
AFTER android.app.Activity.getIntent, returnValue: Intent { cmp=com.bytestemplar.tonedef/.DTMFActivity }
BEFORE android.content.Intent.getType()
AFTER android.content.Intent.getType
AFTER com.bytestemplar.tonedef.DTMFActivity.onCreate
BEFORE com.bytestemplar.tonedef.DTMFActivity.onResume()
BEFORE android.app.Activity.onResume()
AFTER android.app.Activity.onResume
BEFORE android.app.SharedPreferencesImpl.getBoolean(invert_text_color,false)
AFTER android.app.SharedPreferencesImpl.getBoolean, returnValue: false
BEFORE android.widget.ImageView.getDrawable()
AFTER android.widget.ImageView.getDrawable, returnValue: android.graphics.drawable.BitmapDrawable
BEFORE android.widget.ImageView.getDrawable()
AFTER android.widget.ImageView.getDrawable, returnValue: android.graphics.drawable.BitmapDrawable
BEFORE android.widget.ImageView.getDrawable()
AFTER android.widget.ImageView.getDrawable, returnValue: android.graphics.drawable.BitmapDrawable
BEFORE android.widget.ImageView.getDrawable()
AFTER android.widget.ImageView.getDrawable, returnValue: android.graphics.drawable.BitmapDrawable
BEFORE android.widget.ImageView.getDrawable()
AFTER android.widget.ImageView.getDrawable, returnValue: android.graphics.drawable.BitmapDrawable
BEFORE android.widget.ImageView.getDrawable()
AFTER android.widget.ImageView.getDrawable, returnValue: android.graphics.drawable.BitmapDrawable
BEFORE android.widget.ImageView.getDrawable()
AFTER android.widget.ImageView.getDrawable, returnValue: android.graphics.drawable.BitmapDrawable
BEFORE android.widget.ImageView.getDrawable()
AFTER android.widget.ImageView.getDrawable, returnValue: android.graphics.drawable.BitmapDrawable
BEFORE android.widget.ImageView.getDrawable()
AFTER android.widget.ImageView.getDrawable, returnValue: android.graphics.drawable.BitmapDrawable
BEFORE android.widget.ImageView.getDrawable()
AFTER android.widget.ImageView.getDrawable, returnValue: android.graphics.drawable.BitmapDrawable
BEFORE android.widget.ImageView.getDrawable()
AFTER android.widget.ImageView.getDrawable, returnValue: android.graphics.drawable.BitmapDrawable
BEFORE android.widget.ImageView.getDrawable()
AFTER android.widget.ImageView.getDrawable, returnValue: android.graphics.drawable.BitmapDrawable
BEFORE android.widget.ImageView.getDrawable()
AFTER android.widget.ImageView.getDrawable, returnValue: android.graphics.drawable.BitmapDrawable
BEFORE android.widget.ImageView.getDrawable()
AFTER android.widget.ImageView.getDrawable, returnValue: android.graphics.drawable.BitmapDrawable
BEFORE android.widget.ImageView.getDrawable()
AFTER android.widget.ImageView.getDrawable, returnValue: android.graphics.drawable.BitmapDrawable
BEFORE android.widget.ImageView.getDrawable()
AFTER android.widget.ImageView.getDrawable, returnValue: android.graphics.drawable.BitmapDrawable
BEFORE android.app.SharedPreferencesImpl.getBoolean(ext_dtmf,false)
AFTER android.app.SharedPreferencesImpl.getBoolean, returnValue: false
BEFORE android.app.Activity.findViewById(2131165276)
AFTER android.app.Activity.findViewById, returnValue: android.widget.ImageButton{2ae1b69b GFED..C. ......I. 0,0-0,0 #7f07005c app:id/dtmfa}
BEFORE android.widget.ImageView.setVisibility(8)
AFTER android.widget.ImageView.setVisibility
BEFORE android.app.Activity.findViewById(2131165277)
AFTER android.app.Activity.findViewById, returnValue: android.widget.ImageButton{a9b2177 GFED..C. ......I. 0,0-0,0 #7f07005d app:id/dtmfb}
BEFORE android.widget.ImageView.setVisibility(8)
AFTER android.widget.ImageView.setVisibility
BEFORE android.app.Activity.findViewById(2131165278)
AFTER android.app.Activity.findViewById, returnValue: android.widget.ImageButton{2b165e13 GFED..C. ......I. 0,0-0,0 #7f07005e app:id/dtmfc}
BEFORE android.widget.ImageView.setVisibility(8)
AFTER android.widget.ImageView.setVisibility
BEFORE android.app.Activity.findViewById(2131165279)
AFTER android.app.Activity.findViewById, returnValue: android.widget.ImageButton{29fec86f GFED..C. ......I. 0,0-0,0 #7f07005f app:id/dtmfd}
BEFORE android.widget.ImageView.setVisibility(8)
AFTER android.widget.ImageView.setVisibility
AFTER com.bytestemplar.tonedef.DTMFActivity.onResume
BEFORE com.bytestemplar.tonedef.touchpad.TouchPadActivity.onCreateOptionsMenu(com.android.internal.view.menu.MenuBuilder)
BEFORE android.app.Activity.getMenuInflater()
AFTER android.app.Activity.getMenuInflater, returnValue: android.view.MenuInflater
BEFORE android.view.MenuInflater.inflate(2131361792,com.android.internal.view.menu.MenuBuilder)
AFTER android.view.MenuInflater.inflate
AFTER com.bytestemplar.tonedef.touchpad.TouchPadActivity.onCreateOptionsMenu, returnValue: true
BEFORE com.bytestemplar.tonedef.touchpad.TouchPadActivity.onMenuItemSelected(0,com.android.internal.view.menu.MenuItemImpl)
BEFORE com.android.internal.view.menu.MenuItemImpl.getItemId()
AFTER com.android.internal.view.menu.MenuItemImpl.getItemId, returnValue: 2131165302
BEFORE android.app.Activity.startActivityForResult(android.content.Intent,1000)
BEFORE android.app.Activity.startActivityForResult(android.content.Intent,1000)
AFTER android.app.Activity.startActivityForResult
AFTER android.app.Activity.startActivityForResult
AFTER com.bytestemplar.tonedef.touchpad.TouchPadActivity.onMenuItemSelected, returnValue: true
BEFORE com.bytestemplar.tonedef.DTMFActivity.onActivityResult(1000,-1,android.content.Intent)
BEFORE android.content.Intent.getData()
AFTER android.content.Intent.getData, returnValue: content://com.android.contacts/contacts/lookup/0r1-4955314B4F5951394547/1
BEFORE android.app.Activity.managedQuery(android.net.Uri$HierarchicalUri)
AFTER android.app.Activity.managedQuery, returnValue: android.content.ContentResolver$CursorWrapperInner
BEFORE android.database.CursorWrapper.moveToFirst()
AFTER android.database.CursorWrapper.moveToFirst, returnValue: true
BEFORE android.database.CursorWrapper.getColumnIndex(_id)
AFTER android.database.CursorWrapper.getColumnIndex, returnValue: 13
BEFORE android.database.CursorWrapper.getString(13)
AFTER android.database.CursorWrapper.getString, returnValue: 1, isEmpty: false
BEFORE android.database.CursorWrapper.getColumnIndexOrThrow(has_phone_number)
AFTER android.database.CursorWrapper.getColumnIndexOrThrow, returnValue: 21
BEFORE android.database.CursorWrapper.getInt(21)
AFTER android.database.CursorWrapper.getInt, returnValue: 1
BEFORE android.content.ContextWrapper.getContentResolver()
AFTER android.content.ContextWrapper.getContentResolver, returnValue: android.app.ContextImpl$ApplicationContentResolver
BEFORE android.content.ContentResolver.query(android.net.Uri$HierarchicalUri,contact_id = 1)
BEFORE android.content.ContentResolver.query(android.net.Uri$HierarchicalUri,contact_id = 1)
AFTER android.content.ContentResolver.query, returnValue: android.content.ContentResolver$CursorWrapperInner
AFTER android.content.ContentResolver.query, returnValue: android.content.ContentResolver$CursorWrapperInner
BEFORE android.database.CursorWrapper.moveToNext()
AFTER android.database.CursorWrapper.moveToNext, returnValue: true
BEFORE android.database.CursorWrapper.getColumnIndex(data1)
AFTER android.database.CursorWrapper.getColumnIndex, returnValue: 51
BEFORE android.database.CursorWrapper.getString(51)
AFTER android.database.CursorWrapper.getString, returnValue: 1 234-567-890, isEmpty: false
BEFORE android.database.CursorWrapper.moveToNext()
AFTER android.database.CursorWrapper.moveToNext, returnValue: false
BEFORE android.content.ContentResolver$CursorWrapperInner.close()
AFTER android.content.ContentResolver$CursorWrapperInner.close
BEFORE android.app.Activity.onActivityResult(1000,-1,android.content.Intent)
AFTER android.app.Activity.onActivityResult
AFTER com.bytestemplar.tonedef.DTMFActivity.onActivityResult
BEFORE com.bytestemplar.tonedef.DTMFActivity.onResume()
BEFORE android.app.Activity.onResume()
AFTER android.app.Activity.onResume
BEFORE android.app.SharedPreferencesImpl.getBoolean(invert_text_color,false)
AFTER android.app.SharedPreferencesImpl.getBoolean, returnValue: false
BEFORE android.widget.ImageView.getDrawable()
AFTER android.widget.ImageView.getDrawable, returnValue: android.graphics.drawable.BitmapDrawable
BEFORE android.widget.ImageView.getDrawable()
AFTER android.widget.ImageView.getDrawable, returnValue: android.graphics.drawable.BitmapDrawable
BEFORE android.widget.ImageView.getDrawable()
AFTER android.widget.ImageView.getDrawable, returnValue: android.graphics.drawable.BitmapDrawable
BEFORE android.widget.ImageView.getDrawable()
AFTER android.widget.ImageView.getDrawable, returnValue: android.graphics.drawable.BitmapDrawable
BEFORE android.widget.ImageView.getDrawable()
AFTER android.widget.ImageView.getDrawable, returnValue: android.graphics.drawable.BitmapDrawable
BEFORE android.widget.ImageView.getDrawable()
AFTER android.widget.ImageView.getDrawable, returnValue: android.graphics.drawable.BitmapDrawable
BEFORE android.widget.ImageView.getDrawable()
AFTER android.widget.ImageView.getDrawable, returnValue: android.graphics.drawable.BitmapDrawable
BEFORE android.widget.ImageView.getDrawable()
AFTER android.widget.ImageView.getDrawable, returnValue: android.graphics.drawable.BitmapDrawable
BEFORE android.widget.ImageView.getDrawable()
AFTER android.widget.ImageView.getDrawable, returnValue: android.graphics.drawable.BitmapDrawable
BEFORE android.widget.ImageView.getDrawable()
AFTER android.widget.ImageView.getDrawable, returnValue: android.graphics.drawable.BitmapDrawable
BEFORE android.widget.ImageView.getDrawable()
AFTER android.widget.ImageView.getDrawable, returnValue: android.graphics.drawable.BitmapDrawable
BEFORE android.widget.ImageView.getDrawable()
AFTER android.widget.ImageView.getDrawable, returnValue: android.graphics.drawable.BitmapDrawable
BEFORE android.widget.ImageView.getDrawable()
AFTER android.widget.ImageView.getDrawable, returnValue: android.graphics.drawable.BitmapDrawable
BEFORE android.widget.ImageView.getDrawable()
AFTER android.widget.ImageView.getDrawable, returnValue: android.graphics.drawable.BitmapDrawable
BEFORE android.widget.ImageView.getDrawable()
AFTER android.widget.ImageView.getDrawable, returnValue: android.graphics.drawable.BitmapDrawable
BEFORE android.widget.ImageView.getDrawable()
AFTER android.widget.ImageView.getDrawable, returnValue: android.graphics.drawable.BitmapDrawable
BEFORE android.app.SharedPreferencesImpl.getBoolean(ext_dtmf,false)
AFTER android.app.SharedPreferencesImpl.getBoolean, returnValue: false
BEFORE android.app.Activity.findViewById(2131165276)
AFTER android.app.Activity.findViewById, returnValue: android.widget.ImageButton{2ae1b69b GFED..C. ......I. 0,0-0,0 #7f07005c app:id/dtmfa}
BEFORE android.widget.ImageView.setVisibility(8)
AFTER android.widget.ImageView.setVisibility
BEFORE android.app.Activity.findViewById(2131165277)
AFTER android.app.Activity.findViewById, returnValue: android.widget.ImageButton{a9b2177 GFED..C. ......I. 0,0-0,0 #7f07005d app:id/dtmfb}
BEFORE android.widget.ImageView.setVisibility(8)
AFTER android.widget.ImageView.setVisibility
BEFORE android.app.Activity.findViewById(2131165278)
AFTER android.app.Activity.findViewById, returnValue: android.widget.ImageButton{2b165e13 GFED..C. ......I. 0,0-0,0 #7f07005e app:id/dtmfc}
BEFORE android.widget.ImageView.setVisibility(8)
AFTER android.widget.ImageView.setVisibility
BEFORE android.app.Activity.findViewById(2131165279)
AFTER android.app.Activity.findViewById, returnValue: android.widget.ImageButton{29fec86f GFED..C. ......I. 0,0-0,0 #7f07005f app:id/dtmfd}
BEFORE android.widget.ImageView.setVisibility(8)
AFTER android.widget.ImageView.setVisibility
AFTER com.bytestemplar.tonedef.DTMFActivity.onResume
