Position |MethodName|Relevancy
0.034482758620689655|com.kamron.pogoiv.widgets.PlayerTeamAdapter.getView|0.622126375446215
0.06896551724137931|okhttp3.internal.http.RealInterceptorChain.proceed|0.6188952268796232
0.10344827586206896|okhttp3.internal.connection.RealConnection.establishProtocol|0.43522135943767715
0.13793103448275862|okhttp3.internal.connection.RealConnection.connectTls|0.3057535053177787
0.1724137931034483|okhttp3.internal.http.RetryAndFollowUpInterceptor.intercept|0.2811621830493505
0.20689655172413793|okhttp3.internal.NamedRunnable.run|0.2809546240753689
0.2413793103448276|com.kamron.pogoiv.widgets.PlayerTeamAdapter.getCount|0.17401832701578773
0.27586206896551724|okhttp3.internal.connection.RealConnection.buildConnection|0.17315239392043574
0.3103448275862069|okhttp3.internal.connection.RealConnection.connect|0.17108342840319435
0.3448275862068966|okhttp3.internal.connection.StreamAllocation.findConnection|0.16901446288595295
0.3793103448275862|okhttp3.internal.connection.StreamAllocation.findHealthyConnection|0.1669454973687116
0.41379310344827586|okhttp3.internal.connection.StreamAllocation.newStream|0.16487653185147022
0.4482758620689655|okhttp3.internal.connection.ConnectInterceptor.intercept|0.16280756633422883
0.4827586206896552|okhttp3.internal.cache.CacheInterceptor.intercept|0.15866963529974606
0.5172413793103449|com.kamron.pogoiv.SettingsActivity.onCreate|0.15843337136127775
0.5517241379310345|okhttp3.internal.http.BridgeInterceptor.intercept|0.1545317042652633
0.5862068965517241|okhttp3.internal.connection.RouteSelector.resetNextProxy|0.15352703050822508
0.6206896551724138|okhttp3.internal.connection.RouteSelector.<init>|0.1514580649909837
0.6551724137931034|okhttp3.internal.connection.StreamAllocation.<init>|0.14938909947374232
0.6896551724137931|com.kamron.pogoiv.updater.AppUpdateUtil$3.onClick|0.14808854377507086
0.7241379310344828|okhttp3.RealCall.getResponseWithInterceptorChain|0.1470242520148677
0.7586206896551724|okio.Okio$2.read|0.1456353733485445
0.7931034482758621|okhttp3.RealCall.access$100|0.14495528649762632
0.8275862068965517|okio.AsyncTimeout$2.read|0.14356640783130314
0.8620689655172413|okhttp3.RealCall$AsyncCall.execute|0.14288632098038495
0.896551724137931|okio.RealBufferedSource.request|0.14149744231406175
0.9310344827586207|okio.RealBufferedSource.require|0.13942847679682038
0.9655172413793104|okhttp3.internal.framed.Http2$Reader.nextFrame|0.137359511279579
1.0|okhttp3.internal.framed.FramedConnection$Reader.execute|0.13529054576233762
