digraph QuotoGraph_CallGraph {
"869902ba-a28d-463c-bef7-8815d94e3bdb" [label="com.android.internal.os.ZygoteInit.main\n Susp=0.78"];
"869902ba-a28d-463c-bef7-8815d94e3bdb" -> "a439f0ae-2cc8-4399-849a-4e13ce17bc94";
"a439f0ae-2cc8-4399-849a-4e13ce17bc94" [label="com.android.internal.os.ZygoteInit$MethodAndArgsCaller.run\n Susp=0.7929"];
"a439f0ae-2cc8-4399-849a-4e13ce17bc94" -> "1187f9d6-39b7-4335-89f5-768b0d955f21";
"1187f9d6-39b7-4335-89f5-768b0d955f21" [label="java.lang.reflect.Method.invoke\n Susp=0.8059"];
"1187f9d6-39b7-4335-89f5-768b0d955f21" -> "967d1576-1a13-4468-8c52-29d96f93ae21";
"967d1576-1a13-4468-8c52-29d96f93ae21" [label="android.app.ActivityThread.main\n Susp=0.8188"];
"967d1576-1a13-4468-8c52-29d96f93ae21" -> "e9dd6022-6bcf-4ae5-a50d-1d50ed4e287e";
"e9dd6022-6bcf-4ae5-a50d-1d50ed4e287e" [label="android.os.Looper.loop\n Susp=0.8318"];
"e9dd6022-6bcf-4ae5-a50d-1d50ed4e287e" -> "cd0cd6b4-13af-480d-b318-21acbc7dca41";
"cd0cd6b4-13af-480d-b318-21acbc7dca41" [label="android.os.Handler.dispatchMessage\n Susp=0.8447"];
"cd0cd6b4-13af-480d-b318-21acbc7dca41" -> "9fb00ab3-b418-493f-aaa4-34b82a2c6608";
"9fb00ab3-b418-493f-aaa4-34b82a2c6608" [label="android.app.ActivityThread$H.handleMessage\n Susp=0.8576"];
"9fb00ab3-b418-493f-aaa4-34b82a2c6608" -> "06f55fa3-73e5-4a00-b801-3f787ec3c44b";
"06f55fa3-73e5-4a00-b801-3f787ec3c44b" [label="android.app.ActivityThread.-wrap1\n Susp=0.8706"];
"06f55fa3-73e5-4a00-b801-3f787ec3c44b" -> "4596097f-04f9-4667-9975-85ed9b973b4d";
"4596097f-04f9-4667-9975-85ed9b973b4d" [label="android.app.ActivityThread.handleBindApplication\n Susp=0.8835"];
"4596097f-04f9-4667-9975-85ed9b973b4d" -> "26f5f38d-8d4b-41ea-a0b7-79606597b169";
"26f5f38d-8d4b-41ea-a0b7-79606597b169" [label="android.app.Instrumentation.callApplicationOnCreate\n Susp=0.8231"];
"26f5f38d-8d4b-41ea-a0b7-79606597b169" -> "b44e6eab-0f44-4a64-957a-b5c4d1a43285";
"b44e6eab-0f44-4a64-957a-b5c4d1a43285" [label="com.stanleyidesis.quotograph.LWQApplication.onCreate\n Susp=0.8361"];
"b44e6eab-0f44-4a64-957a-b5c4d1a43285" -> "6ce0ed05-fd39-4073-b99f-b0bbb35e2fd2";
"6ce0ed05-fd39-4073-b99f-b0bbb35e2fd2" [label="com.orm.SugarApp.onCreate\n Susp=0.849"];
"6ce0ed05-fd39-4073-b99f-b0bbb35e2fd2" -> "0572c5fb-13d0-4ddf-bb9a-ea72ba2428dc";
"0572c5fb-13d0-4ddf-bb9a-ea72ba2428dc" [label="com.orm.SugarContext.init\n Susp=0.862"];
"0572c5fb-13d0-4ddf-bb9a-ea72ba2428dc" -> "8ab88479-cba5-4903-b67b-7ef00ca62508";
"8ab88479-cba5-4903-b67b-7ef00ca62508" [label="com.orm.SugarContext.<init>\n Susp=0.8016"];
"8ab88479-cba5-4903-b67b-7ef00ca62508" -> "891a92a2-6a45-432c-811c-60a13fa63908";
"891a92a2-6a45-432c-811c-60a13fa63908" [label="com.orm.SugarDb.<init>\n Susp=0.8145"];
"891a92a2-6a45-432c-811c-60a13fa63908" -> "e1018bf4-e3c6-403c-afad-8dbec6cb32e2";
"e1018bf4-e3c6-403c-afad-8dbec6cb32e2" [label="com.orm.util.ManifestHelper.getDatabaseName\n Susp=0.8275"];
"e1018bf4-e3c6-403c-afad-8dbec6cb32e2" -> "619f2893-1f69-4285-8000-60e0c41a3cf8";
"619f2893-1f69-4285-8000-60e0c41a3cf8" [label="com.orm.util.ManifestHelper.getMetaDataString\n Susp=0.8404"];
"619f2893-1f69-4285-8000-60e0c41a3cf8" -> "7734b468-bbd0-4d87-9507-eb0603fe4f80";
"7734b468-bbd0-4d87-9507-eb0603fe4f80" [label="android.content.ContextWrapper.getPackageManager\n Susp=0.2933"];
}
