digraph QuotoGraphFULL {
"3b379c6b-3a7f-49f6-9cfd-50a34f2de610" [label="de.robv.android.xposed.XposedBridge.main\n Susp=1"];
"3b379c6b-3a7f-49f6-9cfd-50a34f2de610" -> "70c03922-9364-4515-8541-4fbc1f9be4ac";
"70c03922-9364-4515-8541-4fbc1f9be4ac" [label="com.android.internal.os.ZygoteInit.main\n Susp=1"];
"70c03922-9364-4515-8541-4fbc1f9be4ac" -> "ba237422-cf6d-436a-b7f4-c17a5f710fb8";
"ba237422-cf6d-436a-b7f4-c17a5f710fb8" [label="com.android.internal.os.ZygoteInit$MethodAndArgsCaller.run\n Susp=1"];
"ba237422-cf6d-436a-b7f4-c17a5f710fb8" -> "d72c344a-c6a5-4fba-9d25-24e2ae1699b1";
"d72c344a-c6a5-4fba-9d25-24e2ae1699b1" [label="java.lang.reflect.Method.invoke\n Susp=1"];
"d72c344a-c6a5-4fba-9d25-24e2ae1699b1" -> "598b10ae-83d9-45e9-8661-8d56505284ba";
"598b10ae-83d9-45e9-8661-8d56505284ba" [label="android.app.ActivityThread.main\n Susp=1"];
"598b10ae-83d9-45e9-8661-8d56505284ba" -> "d0dbd4a2-658b-47cf-b51d-e724e7edbc2f";
"d0dbd4a2-658b-47cf-b51d-e724e7edbc2f" [label="android.os.Looper.loop\n Susp=1"];
"d0dbd4a2-658b-47cf-b51d-e724e7edbc2f" -> "3899c750-7a6c-4d8f-a175-e9225dd566d6";
"3899c750-7a6c-4d8f-a175-e9225dd566d6" [label="android.os.Handler.dispatchMessage\n Susp=1"];
"3899c750-7a6c-4d8f-a175-e9225dd566d6" -> "727c3566-d53e-432f-830e-7365fd1c08bc";
"727c3566-d53e-432f-830e-7365fd1c08bc" [label="android.app.ActivityThread$H.handleMessage\n Susp=1"];
"727c3566-d53e-432f-830e-7365fd1c08bc" -> "824784eb-971a-44ee-a493-34fb3b175d15";
"824784eb-971a-44ee-a493-34fb3b175d15" [label="android.app.ActivityThread.-wrap1\n Susp=1"];
"824784eb-971a-44ee-a493-34fb3b175d15" -> "71773086-9700-4bc9-81cd-c78e7028b462";
"71773086-9700-4bc9-81cd-c78e7028b462" [label="android.app.ActivityThread.handleBindApplication\n Susp=1"];
"71773086-9700-4bc9-81cd-c78e7028b462" -> "e39f1c87-ec54-4d1c-8f5a-db6f18bb989f";
"e39f1c87-ec54-4d1c-8f5a-db6f18bb989f" [label="de.robv.android.xposed.XposedBridge.handleHookedMethod\n Susp=1"];
"e39f1c87-ec54-4d1c-8f5a-db6f18bb989f" -> "e286b91d-d860-4fcb-b9d5-835f1df257fb";
"e286b91d-d860-4fcb-b9d5-835f1df257fb" [label="de.robv.android.xposed.XposedBridge.invokeOriginalMethodNative\n Susp=1"];
"e286b91d-d860-4fcb-b9d5-835f1df257fb" -> "0630bf87-2657-4d99-a71c-474ecc9196f0";
"0630bf87-2657-4d99-a71c-474ecc9196f0" [label="android.app.ActivityThread.handleBindApplication\n Susp=1"];
"0630bf87-2657-4d99-a71c-474ecc9196f0" -> "87a53b59-9df7-4eb0-a963-4a5a74367428";
"87a53b59-9df7-4eb0-a963-4a5a74367428" [label="android.app.Instrumentation.callApplicationOnCreate\n Susp=1"];
"87a53b59-9df7-4eb0-a963-4a5a74367428" -> "05d9ba6a-5c02-4055-aba6-f6e4da25dd04";
"05d9ba6a-5c02-4055-aba6-f6e4da25dd04" [label="com.stanleyidesis.quotograph.LWQApplication.onCreate\n Susp=1"];
"05d9ba6a-5c02-4055-aba6-f6e4da25dd04" -> "e0cfb067-24a7-43ba-a355-a4c71ce25cef";
"e0cfb067-24a7-43ba-a355-a4c71ce25cef" [label="com.orm.SugarApp.onCreate\n Susp=1"];
"e0cfb067-24a7-43ba-a355-a4c71ce25cef" -> "3c278ac5-8271-49e9-83f7-bb766a7ca3ad";
"3c278ac5-8271-49e9-83f7-bb766a7ca3ad" [label="com.orm.SugarContext.init\n Susp=1"];
"3c278ac5-8271-49e9-83f7-bb766a7ca3ad" -> "0addff10-5942-4d61-b83e-7981591ed887";
"0addff10-5942-4d61-b83e-7981591ed887" [label="de.robv.android.xposed.XposedBridge.handleHookedMethod\n Susp=1"];
"0addff10-5942-4d61-b83e-7981591ed887" -> "f3372929-0907-4008-88f1-0725871d5477";
"f3372929-0907-4008-88f1-0725871d5477" [label="de.robv.android.xposed.XposedBridge.invokeOriginalMethodNative\n Susp=1"];
"f3372929-0907-4008-88f1-0725871d5477" -> "32b1457c-d3c5-45ab-a397-a559b95acdd8";
"32b1457c-d3c5-45ab-a397-a559b95acdd8" [label="com.orm.SugarContext.init\n Susp=1"];
"32b1457c-d3c5-45ab-a397-a559b95acdd8" -> "f45485eb-6a13-4c2e-a652-2243030165e7";
"f45485eb-6a13-4c2e-a652-2243030165e7" [label="com.orm.SugarContext.<init>\n Susp=1"];
"f45485eb-6a13-4c2e-a652-2243030165e7" -> "0fbf84b4-3b61-43a7-ab7c-7702d18731af";
"0fbf84b4-3b61-43a7-ab7c-7702d18731af" [label="com.orm.SugarDb.<init>\n Susp=1"];
"0fbf84b4-3b61-43a7-ab7c-7702d18731af" -> "b16d11db-90ed-4968-9e58-a7531654328f";
"b16d11db-90ed-4968-9e58-a7531654328f" [label="com.orm.util.ManifestHelper.getDatabaseName\n Susp=1"];
"b16d11db-90ed-4968-9e58-a7531654328f" -> "c4d77813-a308-4d51-b07c-e43ee77f7ca7";
"c4d77813-a308-4d51-b07c-e43ee77f7ca7" [label="com.orm.util.ManifestHelper.getMetaDataString\n Susp=1"];
"c4d77813-a308-4d51-b07c-e43ee77f7ca7" -> "1a3158c0-4aef-45d3-a45a-89ed15becb7a";
"1a3158c0-4aef-45d3-a45a-89ed15becb7a" [label="android.content.ContextWrapper.getPackageManager\n Susp=1"];
"1a3158c0-4aef-45d3-a45a-89ed15becb7a" -> "1f9df65c-582c-4399-aed4-952a4cdac20d";
"1f9df65c-582c-4399-aed4-952a4cdac20d" [label="de.robv.android.xposed.XposedBridge.handleHookedMethod\n Susp=1"];
"1f9df65c-582c-4399-aed4-952a4cdac20d" -> "3459f21d-a69f-42d8-84fe-e80b9a82bee0";
"3459f21d-a69f-42d8-84fe-e80b9a82bee0" [label="it.unimib.disco.lta.unimiblogger.MyMethodHook.beforeHookedMethod\n Susp=1"];
"3459f21d-a69f-42d8-84fe-e80b9a82bee0" -> "208c2e87-15df-4018-993f-4965f480c155";
"208c2e87-15df-4018-993f-4965f480c155" [label="java.lang.Thread.getStackTrace\n Susp=1"];
"208c2e87-15df-4018-993f-4965f480c155" -> "1641bba1-7f12-447c-a8dc-3996d70163cf";
"1641bba1-7f12-447c-a8dc-3996d70163cf" [label="dalvik.system.VMStack.getThreadStackTrace\n Susp=0.2"];
}
