digraph FULL {
"5a39edfd-5ced-49b0-aa91-577144f11120" [label="de.robv.android.xposed.XposedBridge.main\n Susp=0,4"];
"5a39edfd-5ced-49b0-aa91-577144f11120" -> "200c9f86-a023-4df1-9445-0c99c0d96564";
"200c9f86-a023-4df1-9445-0c99c0d96564" [label="com.android.internal.os.ZygoteInit.main\n Susp=0,4"];
"200c9f86-a023-4df1-9445-0c99c0d96564" -> "119223d8-993c-4e8e-bbfb-fde4280e5193";
"119223d8-993c-4e8e-bbfb-fde4280e5193" [label="com.android.internal.os.ZygoteInit$MethodAndArgsCaller.run\n Susp=0,4"];
"119223d8-993c-4e8e-bbfb-fde4280e5193" -> "bcd174a4-1ace-4828-a8d9-47b109e9ca56";
"bcd174a4-1ace-4828-a8d9-47b109e9ca56" [label="java.lang.reflect.Method.invoke\n Susp=0,4"];
"bcd174a4-1ace-4828-a8d9-47b109e9ca56" -> "ac5bc73f-7fda-4471-9100-9585b797ea11";
"ac5bc73f-7fda-4471-9100-9585b797ea11" [label="android.app.ActivityThread.main\n Susp=0,4"];
"ac5bc73f-7fda-4471-9100-9585b797ea11" -> "f9748ed0-a40d-426b-acae-bb36dbf81011";
"f9748ed0-a40d-426b-acae-bb36dbf81011" [label="android.os.Looper.loop\n Susp=0,4"];
"f9748ed0-a40d-426b-acae-bb36dbf81011" -> "3a38b0c5-8910-4673-b3df-ed53d5cefac5";
"3a38b0c5-8910-4673-b3df-ed53d5cefac5" [label="android.os.Handler.dispatchMessage\n Susp=0,6"];
"3a38b0c5-8910-4673-b3df-ed53d5cefac5" -> "f16dbb38-7e0e-462d-8875-d43942068024";
"f16dbb38-7e0e-462d-8875-d43942068024" [label="android.os.Handler.handleCallback\n Susp=0,6442"];
"f16dbb38-7e0e-462d-8875-d43942068024" -> "3662a080-cbc2-4a7f-994b-24d14fc580a1";
"3662a080-cbc2-4a7f-994b-24d14fc580a1" [label="de.robv.android.xposed.XposedBridge.handleHookedMethod\n Susp=0,2074"];
"3662a080-cbc2-4a7f-994b-24d14fc580a1" -> "e98e0134-f798-4ad8-bf6e-7393555794ed";
"e98e0134-f798-4ad8-bf6e-7393555794ed" [label="de.robv.android.xposed.XposedBridge.invokeOriginalMethodNative\n Susp=0,2074"];
"e98e0134-f798-4ad8-bf6e-7393555794ed" -> "b78c941c-8b36-4d08-9faf-0e4eb21075d0";
"b78c941c-8b36-4d08-9faf-0e4eb21075d0" [label="android.os.Handler.handleCallback\n Susp=0,2074"];
"b78c941c-8b36-4d08-9faf-0e4eb21075d0" -> "e2afc397-6c6e-450a-8673-974804add378";
"e2afc397-6c6e-450a-8673-974804add378" [label="android.view.View$PerformClick.run\n Susp=0,2074"];
"e2afc397-6c6e-450a-8673-974804add378" -> "a1619174-8a6a-4643-9562-44cf9199cce1";
"a1619174-8a6a-4643-9562-44cf9199cce1" [label="android.view.View.performClick\n Susp=0,2074"];
"a1619174-8a6a-4643-9562-44cf9199cce1" -> "06ebe427-d8de-44e0-a796-44017b9c83d2";
"06ebe427-d8de-44e0-a796-44017b9c83d2" [label="com.github.fakegps.ui.MainActivity.onClick\n Susp=0,2074"];
"06ebe427-d8de-44e0-a796-44017b9c83d2" -> "255303b6-dbb1-4c68-8268-262478a058ec";
"255303b6-dbb1-4c68-8268-262478a058ec" [label="de.robv.android.xposed.XposedBridge.handleHookedMethod\n Susp=0,2074"];
"255303b6-dbb1-4c68-8268-262478a058ec" -> "0b102d8a-f83c-44a0-9bc2-74986d7beb08";
"0b102d8a-f83c-44a0-9bc2-74986d7beb08" [label="de.robv.android.xposed.XposedBridge.invokeOriginalMethodNative\n Susp=0,2074"];
"0b102d8a-f83c-44a0-9bc2-74986d7beb08" -> "3193876e-fe1c-48ce-84fc-50a33d2a1467";
"3193876e-fe1c-48ce-84fc-50a33d2a1467" [label="com.github.fakegps.ui.MainActivity.onClick\n Susp=0,2074"];
"3193876e-fe1c-48ce-84fc-50a33d2a1467" -> "d7ced0c8-3072-4580-9236-354a3a8798f2";
"d7ced0c8-3072-4580-9236-354a3a8798f2" [label="com.github.fakegps.JoyStickManager.start\n Susp=0,2074"];
"d7ced0c8-3072-4580-9236-354a3a8798f2" -> "83a88d16-b6f8-42d8-ad60-e662633be795";
"83a88d16-b6f8-42d8-ad60-e662633be795" [label="com.github.fakegps.JoyStickManager.showJoyStick\n Susp=0,2074"];
"83a88d16-b6f8-42d8-ad60-e662633be795" -> "8a0bf6f1-411a-4b1d-a3c6-b5c2bb6377dc";
"8a0bf6f1-411a-4b1d-a3c6-b5c2bb6377dc" [label="com.github.fakegps.ui.JoyStickView.<init>\n Susp=0,2074"];
"8a0bf6f1-411a-4b1d-a3c6-b5c2bb6377dc" -> "aa932002-e632-42cf-9710-8cc0ffd86db1";
"aa932002-e632-42cf-9710-8cc0ffd86db1" [label="android.content.ContextWrapper.getSystemService\n Susp=0,2074"];
"aa932002-e632-42cf-9710-8cc0ffd86db1" -> "6ed4505d-46f0-44df-a386-c91711451a16";
"6ed4505d-46f0-44df-a386-c91711451a16" [label="de.robv.android.xposed.XposedBridge.handleHookedMethod\n Susp=0,2074"];
"6ed4505d-46f0-44df-a386-c91711451a16" -> "e7c74409-a243-479d-a583-6dbbf3386eff";
"e7c74409-a243-479d-a583-6dbbf3386eff" [label="it.unimib.disco.lta.unimiblogger.MyMethodHook.beforeHookedMethod\n Susp=0,2074"];
"e7c74409-a243-479d-a583-6dbbf3386eff" -> "6d7c3db4-ec71-4a12-bb59-4e4bd80c3b3b";
"6d7c3db4-ec71-4a12-bb59-4e4bd80c3b3b" [label="java.lang.Thread.getStackTrace\n Susp=0,2074"];
"6d7c3db4-ec71-4a12-bb59-4e4bd80c3b3b" -> "d37bfb0c-bd99-43b6-967a-4382741ef7a0";
"d37bfb0c-bd99-43b6-967a-4382741ef7a0" [label="dalvik.system.VMStack.getThreadStackTrace\n Susp=0,0074"];
"f16dbb38-7e0e-462d-8875-d43942068024" -> "e70c724c-4576-498a-87e0-b50d0766585c";
"e70c724c-4576-498a-87e0-b50d0766585c" [label="android.view.View$PerformClick.run\n Susp=0,2295"];
"e70c724c-4576-498a-87e0-b50d0766585c" -> "cb98ce46-4c99-4136-9f08-b843b0c94313";
"cb98ce46-4c99-4136-9f08-b843b0c94313" [label="android.view.View.performClick\n Susp=0,2295"];
"cb98ce46-4c99-4136-9f08-b843b0c94313" -> "6ba8ea7f-c923-49f6-b3eb-4c6cdc70383c";
"6ba8ea7f-c923-49f6-b3eb-4c6cdc70383c" [label="com.github.fakegps.ui.MainActivity.onClick\n Susp=0,2295"];
"6ba8ea7f-c923-49f6-b3eb-4c6cdc70383c" -> "52be76ea-fda0-4034-961b-159460d41a18";
"52be76ea-fda0-4034-961b-159460d41a18" [label="de.robv.android.xposed.XposedBridge.handleHookedMethod\n Susp=0,2295"];
"52be76ea-fda0-4034-961b-159460d41a18" -> "6f8af3a4-b854-4bdf-93e6-dcda9f55282e";
"6f8af3a4-b854-4bdf-93e6-dcda9f55282e" [label="de.robv.android.xposed.XposedBridge.invokeOriginalMethodNative\n Susp=0,2295"];
"6f8af3a4-b854-4bdf-93e6-dcda9f55282e" -> "19668fdf-5dd8-437a-bd5c-eaf8503a8f13";
"19668fdf-5dd8-437a-bd5c-eaf8503a8f13" [label="com.github.fakegps.ui.MainActivity.onClick\n Susp=0,6295"];
"19668fdf-5dd8-437a-bd5c-eaf8503a8f13" -> "d821ba80-5395-4150-a152-0b228cee5d36";
"d821ba80-5395-4150-a152-0b228cee5d36" [label="com.github.fakegps.JoyStickManager.start\n Susp=0,2074"];
"d821ba80-5395-4150-a152-0b228cee5d36" -> "4503d61f-f1ba-4848-a1fd-7d2c07f800db";
"4503d61f-f1ba-4848-a1fd-7d2c07f800db" [label="com.github.fakegps.JoyStickManager.showJoyStick\n Susp=0,2074"];
"4503d61f-f1ba-4848-a1fd-7d2c07f800db" -> "4ed09e6c-29cb-463d-b441-d5b18793df85";
"4ed09e6c-29cb-463d-b441-d5b18793df85" [label="com.github.fakegps.ui.JoyStickView.<init>\n Susp=0,4074"];
"4ed09e6c-29cb-463d-b441-d5b18793df85" -> "f080ed5e-8528-4eb8-9d6c-9ece450ded29";
"f080ed5e-8528-4eb8-9d6c-9ece450ded29" [label="android.content.ContextWrapper.getSystemService\n Susp=0,2055"];
"f080ed5e-8528-4eb8-9d6c-9ece450ded29" -> "c5c1f3e1-bb87-42ad-8ae7-4e5920b0ec62";
"c5c1f3e1-bb87-42ad-8ae7-4e5920b0ec62" [label="de.robv.android.xposed.XposedBridge.handleHookedMethod\n Susp=0,2055"];
"c5c1f3e1-bb87-42ad-8ae7-4e5920b0ec62" -> "cee144ff-cf72-4502-a0d1-fb4f70cf6129";
"cee144ff-cf72-4502-a0d1-fb4f70cf6129" [label="it.unimib.disco.lta.unimiblogger.MyMethodHook.beforeHookedMethod\n Susp=0,2055"];
"cee144ff-cf72-4502-a0d1-fb4f70cf6129" -> "c67fb47e-fb95-4b02-8f89-7cf8c038d458";
"c67fb47e-fb95-4b02-8f89-7cf8c038d458" [label="java.lang.Thread.getStackTrace\n Susp=0,2055"];
"c67fb47e-fb95-4b02-8f89-7cf8c038d458" -> "0baf7725-2406-4e8b-9a50-7e6854331792";
"0baf7725-2406-4e8b-9a50-7e6854331792" [label="dalvik.system.VMStack.getThreadStackTrace\n Susp=0,0055"];
"4ed09e6c-29cb-463d-b441-d5b18793df85" -> "ff665927-b169-4b89-bbe8-3e7d3aac15be";
"ff665927-b169-4b89-bbe8-3e7d3aac15be" [label="android.view.LayoutInflater.inflate\n Susp=0,2018"];
"ff665927-b169-4b89-bbe8-3e7d3aac15be" -> "ff30fb32-8d17-441b-b49e-50c33cc170e4";
"ff30fb32-8d17-441b-b49e-50c33cc170e4" [label="de.robv.android.xposed.XposedBridge.handleHookedMethod\n Susp=0,2018"];
"ff30fb32-8d17-441b-b49e-50c33cc170e4" -> "2e2d2acc-de3f-4398-b18b-189e1ce8ff5f";
"2e2d2acc-de3f-4398-b18b-189e1ce8ff5f" [label="de.robv.android.xposed.XposedBridge.invokeOriginalMethodNative\n Susp=0,2018"];
"2e2d2acc-de3f-4398-b18b-189e1ce8ff5f" -> "bc07a90b-dc40-448d-b640-ee2106945ec8";
"bc07a90b-dc40-448d-b640-ee2106945ec8" [label="android.view.LayoutInflater.inflate\n Susp=0,2018"];
"bc07a90b-dc40-448d-b640-ee2106945ec8" -> "8322058f-fa42-4049-88bb-38074beacbb2";
"8322058f-fa42-4049-88bb-38074beacbb2" [label="de.robv.android.xposed.XposedBridge.handleHookedMethod\n Susp=0,2018"];
"8322058f-fa42-4049-88bb-38074beacbb2" -> "3e475cc1-d112-4c4c-87d8-ec75541f0881";
"3e475cc1-d112-4c4c-87d8-ec75541f0881" [label="de.robv.android.xposed.XposedBridge.invokeOriginalMethodNative\n Susp=0,2018"];
"3e475cc1-d112-4c4c-87d8-ec75541f0881" -> "065d5989-c9fe-4843-b21c-31c7a1080bf6";
"065d5989-c9fe-4843-b21c-31c7a1080bf6" [label="android.view.LayoutInflater.inflate\n Susp=0,2018"];
"065d5989-c9fe-4843-b21c-31c7a1080bf6" -> "08b7b80d-e16c-426f-baa1-3e7a614eadc2";
"08b7b80d-e16c-426f-baa1-3e7a614eadc2" [label="de.robv.android.xposed.XposedBridge.handleHookedMethod\n Susp=0,2018"];
"08b7b80d-e16c-426f-baa1-3e7a614eadc2" -> "6fa187a5-a1dc-472b-b0b5-a9793d362970";
"6fa187a5-a1dc-472b-b0b5-a9793d362970" [label="it.unimib.disco.lta.unimiblogger.MyMethodHook.beforeHookedMethod\n Susp=0,2018"];
"6fa187a5-a1dc-472b-b0b5-a9793d362970" -> "c6354bff-c32d-40e0-9d1e-577667931863";
"c6354bff-c32d-40e0-9d1e-577667931863" [label="java.lang.Thread.getStackTrace\n Susp=0,2018"];
"c6354bff-c32d-40e0-9d1e-577667931863" -> "fccddef3-0944-4b67-9fde-fc8e1b2cde75";
"fccddef3-0944-4b67-9fde-fc8e1b2cde75" [label="dalvik.system.VMStack.getThreadStackTrace\n Susp=0,0018"];
"19668fdf-5dd8-437a-bd5c-eaf8503a8f13" -> "a96b59bf-e02b-48ae-8118-edb5fea7086f";
"a96b59bf-e02b-48ae-8118-edb5fea7086f" [label="android.app.Activity.finish\n Susp=0,2074"];
"a96b59bf-e02b-48ae-8118-edb5fea7086f" -> "42732fca-98dd-4d47-8461-e3064d10d5a0";
"42732fca-98dd-4d47-8461-e3064d10d5a0" [label="de.robv.android.xposed.XposedBridge.handleHookedMethod\n Susp=0,2074"];
"42732fca-98dd-4d47-8461-e3064d10d5a0" -> "f47a8e6c-68eb-428f-b45d-e73979bcae95";
"f47a8e6c-68eb-428f-b45d-e73979bcae95" [label="it.unimib.disco.lta.unimiblogger.MyMethodHook.beforeHookedMethod\n Susp=0,2074"];
"f47a8e6c-68eb-428f-b45d-e73979bcae95" -> "f34aa1f7-3413-45b9-86bf-ed3d20e4bf69";
"f34aa1f7-3413-45b9-86bf-ed3d20e4bf69" [label="java.lang.Thread.getStackTrace\n Susp=0,2074"];
"f34aa1f7-3413-45b9-86bf-ed3d20e4bf69" -> "477ce532-dd5c-4178-aea9-febca81f2b17";
"477ce532-dd5c-4178-aea9-febca81f2b17" [label="dalvik.system.VMStack.getThreadStackTrace\n Susp=0,0074"];
"19668fdf-5dd8-437a-bd5c-eaf8503a8f13" -> "a09bd66d-de96-41eb-9610-e14e2a24807a";
"a09bd66d-de96-41eb-9610-e14e2a24807a" [label="com.github.fakegps.DbUtils.saveLastLocPoint\n Susp=0,2147"];
"a09bd66d-de96-41eb-9610-e14e2a24807a" -> "2c644575-eaab-4295-8851-a152200714d4";
"2c644575-eaab-4295-8851-a152200714d4" [label="android.app.SharedPreferencesImpl.edit\n Susp=0,2147"];
"2c644575-eaab-4295-8851-a152200714d4" -> "468825b1-6528-4738-9c93-fa5efad26d73";
"468825b1-6528-4738-9c93-fa5efad26d73" [label="de.robv.android.xposed.XposedBridge.handleHookedMethod\n Susp=0,2147"];
"468825b1-6528-4738-9c93-fa5efad26d73" -> "ab887eef-b2a0-4db7-abb0-c3ac9e262200";
"ab887eef-b2a0-4db7-abb0-c3ac9e262200" [label="it.unimib.disco.lta.unimiblogger.MyMethodHook.beforeHookedMethod\n Susp=0,2147"];
"ab887eef-b2a0-4db7-abb0-c3ac9e262200" -> "6312a73e-0b21-4386-854f-95d9d7babc59";
"6312a73e-0b21-4386-854f-95d9d7babc59" [label="java.lang.Thread.getStackTrace\n Susp=0,2147"];
"6312a73e-0b21-4386-854f-95d9d7babc59" -> "207c4b8f-5460-4f6d-a6bd-14961c1802ac";
"207c4b8f-5460-4f6d-a6bd-14961c1802ac" [label="dalvik.system.VMStack.getThreadStackTrace\n Susp=0,0147"];
"f16dbb38-7e0e-462d-8875-d43942068024" -> "75275ef8-be92-41d5-b400-7660385c2841";
"75275ef8-be92-41d5-b400-7660385c2841" [label="android.view.Choreographer$FrameDisplayEventReceiver.run\n Susp=0,2074"];
"75275ef8-be92-41d5-b400-7660385c2841" -> "d178b313-8eda-4fc2-91d4-b76d663cc304";
"d178b313-8eda-4fc2-91d4-b76d663cc304" [label="android.view.Choreographer.doFrame\n Susp=0,2074"];
"d178b313-8eda-4fc2-91d4-b76d663cc304" -> "b95ec378-dc20-4785-9aec-31876650d62f";
"b95ec378-dc20-4785-9aec-31876650d62f" [label="android.view.Choreographer.doCallbacks\n Susp=0,2074"];
"b95ec378-dc20-4785-9aec-31876650d62f" -> "206f4b7e-53e5-4986-9e5e-023437f08030";
"206f4b7e-53e5-4986-9e5e-023437f08030" [label="android.view.Choreographer$CallbackRecord.run\n Susp=0,2074"];
"206f4b7e-53e5-4986-9e5e-023437f08030" -> "ea30a976-2123-4133-b815-1d3243a12d7e";
"ea30a976-2123-4133-b815-1d3243a12d7e" [label="android.view.ViewRootImpl$TraversalRunnable.run\n Susp=0,2074"];
"ea30a976-2123-4133-b815-1d3243a12d7e" -> "4f7fd44d-6d67-4f31-b942-d9877b792116";
"4f7fd44d-6d67-4f31-b942-d9877b792116" [label="android.view.ViewRootImpl.doTraversal\n Susp=0,2074"];
"4f7fd44d-6d67-4f31-b942-d9877b792116" -> "39f47f0a-6591-4be7-9cfa-e3ac781996e4";
"39f47f0a-6591-4be7-9cfa-e3ac781996e4" [label="android.view.ViewRootImpl.performTraversals\n Susp=0,2074"];
"39f47f0a-6591-4be7-9cfa-e3ac781996e4" -> "3c795285-fcc8-4417-9adb-11bfdad9560d";
"3c795285-fcc8-4417-9adb-11bfdad9560d" [label="android.view.ViewRootImpl.measureHierarchy\n Susp=0,2074"];
"3c795285-fcc8-4417-9adb-11bfdad9560d" -> "c9431747-722a-43f1-a09b-b3037dddfd00";
"c9431747-722a-43f1-a09b-b3037dddfd00" [label="android.view.ViewRootImpl.performMeasure\n Susp=0,2074"];
"c9431747-722a-43f1-a09b-b3037dddfd00" -> "c3809e93-7373-46bb-901f-3c467634ed1e";
"c3809e93-7373-46bb-901f-3c467634ed1e" [label="android.view.View.measure\n Susp=0,2074"];
"c3809e93-7373-46bb-901f-3c467634ed1e" -> "ec52c164-9b2c-4d8b-9cd2-4a94599a1508";
"ec52c164-9b2c-4d8b-9cd2-4a94599a1508" [label="com.github.fakegps.ui.JoyStickView.onMeasure\n Susp=0,2074"];
"ec52c164-9b2c-4d8b-9cd2-4a94599a1508" -> "950e20b6-1c62-441b-ad4f-965c11ec2031";
"950e20b6-1c62-441b-ad4f-965c11ec2031" [label="de.robv.android.xposed.XposedBridge.handleHookedMethod\n Susp=0,2074"];
"950e20b6-1c62-441b-ad4f-965c11ec2031" -> "6633f839-00b5-4124-8278-60b2a7459554";
"6633f839-00b5-4124-8278-60b2a7459554" [label="it.unimib.disco.lta.unimiblogger.MyMethodHook.beforeHookedMethod\n Susp=0,2074"];
"6633f839-00b5-4124-8278-60b2a7459554" -> "d7cb3025-a237-48a7-814b-65d97e3ba2ae";
"d7cb3025-a237-48a7-814b-65d97e3ba2ae" [label="java.lang.Thread.getStackTrace\n Susp=0,2074"];
"d7cb3025-a237-48a7-814b-65d97e3ba2ae" -> "2abd1ffc-5baf-42c0-9615-7a489fdd993a";
"2abd1ffc-5baf-42c0-9615-7a489fdd993a" [label="dalvik.system.VMStack.getThreadStackTrace\n Susp=0,0074"];
"3a38b0c5-8910-4673-b3df-ed53d5cefac5" -> "aec947b0-f4b0-4b76-b7db-71bdbfa8845c";
"aec947b0-f4b0-4b76-b7db-71bdbfa8845c" [label="android.app.ActivityThread$H.handleMessage\n Susp=0,9558"];
"aec947b0-f4b0-4b76-b7db-71bdbfa8845c" -> "9b8412e7-6690-489e-a075-30c4b6e0f567";
"9b8412e7-6690-489e-a075-30c4b6e0f567" [label="android.app.ActivityThread.-wrap1\n Susp=0,2083"];
"9b8412e7-6690-489e-a075-30c4b6e0f567" -> "e21d1288-58a4-4532-8de1-5c390d07234f";
"e21d1288-58a4-4532-8de1-5c390d07234f" [label="android.app.ActivityThread.handleBindApplication\n Susp=0,2083"];
"e21d1288-58a4-4532-8de1-5c390d07234f" -> "ad894641-97eb-4cd2-ac4b-df0d733bd288";
"ad894641-97eb-4cd2-ac4b-df0d733bd288" [label="de.robv.android.xposed.XposedBridge.handleHookedMethod\n Susp=0,2083"];
"ad894641-97eb-4cd2-ac4b-df0d733bd288" -> "bb26e2b5-83f2-429c-9d96-76b2359a0c35";
"bb26e2b5-83f2-429c-9d96-76b2359a0c35" [label="de.robv.android.xposed.XposedBridge.invokeOriginalMethodNative\n Susp=0,2083"];
"bb26e2b5-83f2-429c-9d96-76b2359a0c35" -> "38b18a6f-021e-488d-86ab-fed17036fa2c";
"38b18a6f-021e-488d-86ab-fed17036fa2c" [label="android.app.ActivityThread.handleBindApplication\n Susp=0,2083"];
"38b18a6f-021e-488d-86ab-fed17036fa2c" -> "d81e8038-cd05-475c-aa38-aa534debae9b";
"d81e8038-cd05-475c-aa38-aa534debae9b" [label="android.app.Instrumentation.callApplicationOnCreate\n Susp=0,2083"];
"d81e8038-cd05-475c-aa38-aa534debae9b" -> "7d8c90f1-261e-42fb-95d4-c4cfeea3e1ad";
"7d8c90f1-261e-42fb-95d4-c4cfeea3e1ad" [label="com.github.fakegps.FakeGpsApp.onCreate\n Susp=0,2083"];
"7d8c90f1-261e-42fb-95d4-c4cfeea3e1ad" -> "70176280-c09c-461e-905d-8300c5c441ff";
"70176280-c09c-461e-905d-8300c5c441ff" [label="com.github.fakegps.FakeGpsApp.initLogger\n Susp=0,2083"];
"70176280-c09c-461e-905d-8300c5c441ff" -> "4bf606df-00cc-4788-ac89-105a4da640f9";
"4bf606df-00cc-4788-ac89-105a4da640f9" [label="de.robv.android.xposed.XposedBridge.handleHookedMethod\n Susp=0,2083"];
"4bf606df-00cc-4788-ac89-105a4da640f9" -> "ad6af3bc-fc79-49c1-a541-f32897a5c197";
"ad6af3bc-fc79-49c1-a541-f32897a5c197" [label="de.robv.android.xposed.XposedBridge.invokeOriginalMethodNative\n Susp=0,2083"];
"ad6af3bc-fc79-49c1-a541-f32897a5c197" -> "21935106-d9b8-4208-93c5-dd98d359b39e";
"21935106-d9b8-4208-93c5-dd98d359b39e" [label="com.github.fakegps.FakeGpsApp.initLogger\n Susp=0,2083"];
"21935106-d9b8-4208-93c5-dd98d359b39e" -> "51f88a25-f0ae-4488-a0a3-8012cfd0f000";
"51f88a25-f0ae-4488-a0a3-8012cfd0f000" [label="android.os.Environment.getExternalStorageDirectory\n Susp=0,2083"];
"51f88a25-f0ae-4488-a0a3-8012cfd0f000" -> "961a56fd-b1a1-4543-bf41-d03790ea7564";
"961a56fd-b1a1-4543-bf41-d03790ea7564" [label="de.robv.android.xposed.XposedBridge.handleHookedMethod\n Susp=0,2083"];
"961a56fd-b1a1-4543-bf41-d03790ea7564" -> "743e32a8-f760-4172-a58f-8d623dd5c686";
"743e32a8-f760-4172-a58f-8d623dd5c686" [label="it.unimib.disco.lta.unimiblogger.MyMethodHook.beforeHookedMethod\n Susp=0,2083"];
"743e32a8-f760-4172-a58f-8d623dd5c686" -> "ebefad84-3528-4031-b985-5b5970b9575c";
"ebefad84-3528-4031-b985-5b5970b9575c" [label="java.lang.Thread.getStackTrace\n Susp=0,2083"];
"ebefad84-3528-4031-b985-5b5970b9575c" -> "3376e058-df9b-451c-a213-03203f0f05ca";
"3376e058-df9b-451c-a213-03203f0f05ca" [label="dalvik.system.VMStack.getThreadStackTrace\n Susp=0,0083"];
"aec947b0-f4b0-4b76-b7db-71bdbfa8845c" -> "bafeb53e-3a0f-4ac9-99b0-66862ff148b3";
"bafeb53e-3a0f-4ac9-99b0-66862ff148b3" [label="android.app.ActivityThread.-wrap11\n Susp=0,306"];
"bafeb53e-3a0f-4ac9-99b0-66862ff148b3" -> "8246e14d-8412-40db-bf28-bab2d0e33843";
"8246e14d-8412-40db-bf28-bab2d0e33843" [label="android.app.ActivityThread.handleLaunchActivity\n Susp=0,306"];
"8246e14d-8412-40db-bf28-bab2d0e33843" -> "8870d515-953c-452b-9c48-077f102e5012";
"8870d515-953c-452b-9c48-077f102e5012" [label="android.app.ActivityThread.performLaunchActivity\n Susp=0,306"];
"8870d515-953c-452b-9c48-077f102e5012" -> "35968507-41a9-4f51-a05f-93d790322b34";
"35968507-41a9-4f51-a05f-93d790322b34" [label="android.app.Instrumentation.callActivityOnCreate\n Susp=0,306"];
"35968507-41a9-4f51-a05f-93d790322b34" -> "eb5ec354-bc7e-440c-84b8-208096b8c2e7";
"eb5ec354-bc7e-440c-84b8-208096b8c2e7" [label="android.app.Activity.performCreate\n Susp=0,306"];
"eb5ec354-bc7e-440c-84b8-208096b8c2e7" -> "4433d03b-f970-4725-be34-3e45d71ae12c";
"4433d03b-f970-4725-be34-3e45d71ae12c" [label="com.github.fakegps.ui.MainActivity.onCreate\n Susp=0,306"];
"4433d03b-f970-4725-be34-3e45d71ae12c" -> "0befaa2e-13d0-4638-a1c4-483d1a0ce6ee";
"0befaa2e-13d0-4638-a1c4-483d1a0ce6ee" [label="de.robv.android.xposed.XposedBridge.handleHookedMethod\n Susp=0,306"];
"0befaa2e-13d0-4638-a1c4-483d1a0ce6ee" -> "c12df970-ce42-4598-80f2-3b181127f76d";
"c12df970-ce42-4598-80f2-3b181127f76d" [label="de.robv.android.xposed.XposedBridge.invokeOriginalMethodNative\n Susp=0,306"];
"c12df970-ce42-4598-80f2-3b181127f76d" -> "ff899720-76c3-42f8-899c-8a45c00a8c60";
"ff899720-76c3-42f8-899c-8a45c00a8c60" [label="com.github.fakegps.ui.MainActivity.onCreate\n Susp=0,506"];
"ff899720-76c3-42f8-899c-8a45c00a8c60" -> "235dd20b-4d88-40f0-ad09-cf25a6df2f8c";
"235dd20b-4d88-40f0-ad09-cf25a6df2f8c" [label="com.github.fakegps.DbUtils.getLastLocPoint\n Susp=0,3032"];
"235dd20b-4d88-40f0-ad09-cf25a6df2f8c" -> "50c09f9e-2f81-445c-991a-7e9491d3729c";
"50c09f9e-2f81-445c-991a-7e9491d3729c" [label="android.app.SharedPreferencesImpl.getString\n Susp=0,3032"];
"50c09f9e-2f81-445c-991a-7e9491d3729c" -> "73f27c00-f831-4281-a691-d42a58bda508";
"73f27c00-f831-4281-a691-d42a58bda508" [label="de.robv.android.xposed.XposedBridge.handleHookedMethod\n Susp=0,3032"];
"73f27c00-f831-4281-a691-d42a58bda508" -> "66bdee98-ca67-4b91-93dc-50c174986180";
"66bdee98-ca67-4b91-93dc-50c174986180" [label="it.unimib.disco.lta.unimiblogger.MyMethodHook.beforeHookedMethod\n Susp=0,3032"];
"66bdee98-ca67-4b91-93dc-50c174986180" -> "f5217ed7-7b2a-40f8-87b1-4d9f70d76a43";
"f5217ed7-7b2a-40f8-87b1-4d9f70d76a43" [label="java.lang.Thread.getStackTrace\n Susp=0,3032"];
"f5217ed7-7b2a-40f8-87b1-4d9f70d76a43" -> "21ae72ad-5ec7-4221-9a3a-7daa3b2c7629";
"21ae72ad-5ec7-4221-9a3a-7daa3b2c7629" [label="dalvik.system.VMStack.getThreadStackTrace\n Susp=0,1032"];
"ff899720-76c3-42f8-899c-8a45c00a8c60" -> "e5aebe64-c407-442c-9222-f0d35f01151c";
"e5aebe64-c407-442c-9222-f0d35f01151c" [label="com.github.fakegps.ui.MainActivity.registerBroadcastReceiver\n Susp=0,2028"];
"e5aebe64-c407-442c-9222-f0d35f01151c" -> "09dcc907-2c87-44f9-9f5f-4d6c0166752b";
"09dcc907-2c87-44f9-9f5f-4d6c0166752b" [label="android.support.v4.content.LocalBroadcastManager.registerReceiver\n Susp=0,2028"];
"09dcc907-2c87-44f9-9f5f-4d6c0166752b" -> "e85befbe-4951-44ea-b9ad-ff87ce35a4ad";
"e85befbe-4951-44ea-b9ad-ff87ce35a4ad" [label="de.robv.android.xposed.XposedBridge.handleHookedMethod\n Susp=0,2028"];
"e85befbe-4951-44ea-b9ad-ff87ce35a4ad" -> "daa48af3-b8e9-44cf-893b-b529bda19049";
"daa48af3-b8e9-44cf-893b-b529bda19049" [label="it.unimib.disco.lta.unimiblogger.MyMethodHook.beforeHookedMethod\n Susp=0,2028"];
"daa48af3-b8e9-44cf-893b-b529bda19049" -> "2673e9a3-d0b9-486f-a9bd-c979b3a5d884";
"2673e9a3-d0b9-486f-a9bd-c979b3a5d884" [label="java.lang.Thread.getStackTrace\n Susp=0,2028"];
"2673e9a3-d0b9-486f-a9bd-c979b3a5d884" -> "7e15b9a5-de62-41bc-a918-055bfcbc79f6";
"7e15b9a5-de62-41bc-a918-055bfcbc79f6" [label="dalvik.system.VMStack.getThreadStackTrace\n Susp=0,0028"];
"aec947b0-f4b0-4b76-b7db-71bdbfa8845c" -> "c4bc2254-ab75-4999-9900-071cebf2a750";
"c4bc2254-ab75-4999-9900-071cebf2a750" [label="android.app.ActivityThread.access$800\n Susp=0,2295"];
"c4bc2254-ab75-4999-9900-071cebf2a750" -> "fcb03032-8b18-46dd-838d-cbdf7f4eb51f";
"fcb03032-8b18-46dd-838d-cbdf7f4eb51f" [label="android.app.ActivityThread.handleLaunchActivity\n Susp=0,2295"];
"fcb03032-8b18-46dd-838d-cbdf7f4eb51f" -> "2ba894ea-0e67-493c-b10e-f1c9195d569f";
"2ba894ea-0e67-493c-b10e-f1c9195d569f" [label="android.app.ActivityThread.performLaunchActivity\n Susp=0,2295"];
"2ba894ea-0e67-493c-b10e-f1c9195d569f" -> "0728a705-7b25-461f-a8ba-bc905f0e8c7a";
"0728a705-7b25-461f-a8ba-bc905f0e8c7a" [label="android.app.Instrumentation.callActivityOnCreate\n Susp=0,2295"];
"0728a705-7b25-461f-a8ba-bc905f0e8c7a" -> "823762aa-a704-4f3f-9718-0f862bb9806f";
"823762aa-a704-4f3f-9718-0f862bb9806f" [label="android.app.Activity.performCreate\n Susp=0,2295"];
"823762aa-a704-4f3f-9718-0f862bb9806f" -> "df061894-c369-4ecd-b86d-57592b465ad2";
"df061894-c369-4ecd-b86d-57592b465ad2" [label="com.github.fakegps.ui.MainActivity.onCreate\n Susp=0,2295"];
"df061894-c369-4ecd-b86d-57592b465ad2" -> "ea0aec61-0d27-40aa-9ba8-64b68237b9d0";
"ea0aec61-0d27-40aa-9ba8-64b68237b9d0" [label="de.robv.android.xposed.XposedBridge.handleHookedMethod\n Susp=0,2295"];
"ea0aec61-0d27-40aa-9ba8-64b68237b9d0" -> "41aa7faa-c163-462b-8d38-8b56049b9084";
"41aa7faa-c163-462b-8d38-8b56049b9084" [label="de.robv.android.xposed.XposedBridge.invokeOriginalMethodNative\n Susp=0,2295"];
"41aa7faa-c163-462b-8d38-8b56049b9084" -> "096ce72d-55a8-4ec4-890c-5e86a8e306a4";
"096ce72d-55a8-4ec4-890c-5e86a8e306a4" [label="com.github.fakegps.ui.MainActivity.onCreate\n Susp=0,2295"];
"096ce72d-55a8-4ec4-890c-5e86a8e306a4" -> "2b1bd64a-2a5e-48e2-802b-ceba2c7efae0";
"2b1bd64a-2a5e-48e2-802b-ceba2c7efae0" [label="android.support.v7.app.AppCompatActivity.setContentView\n Susp=0,2295"];
"2b1bd64a-2a5e-48e2-802b-ceba2c7efae0" -> "5532d0cd-c3ab-4d7f-b184-8862beaf95d1";
"5532d0cd-c3ab-4d7f-b184-8862beaf95d1" [label="de.robv.android.xposed.XposedBridge.handleHookedMethod\n Susp=0,2295"];
"5532d0cd-c3ab-4d7f-b184-8862beaf95d1" -> "339bcde2-5025-47dd-b97e-c8b09599f62a";
"339bcde2-5025-47dd-b97e-c8b09599f62a" [label="it.unimib.disco.lta.unimiblogger.MyMethodHook.beforeHookedMethod\n Susp=0,2295"];
"339bcde2-5025-47dd-b97e-c8b09599f62a" -> "0f159d5f-1fd6-4c27-a742-951573a64233";
"0f159d5f-1fd6-4c27-a742-951573a64233" [label="java.lang.Thread.getStackTrace\n Susp=0,2295"];
"0f159d5f-1fd6-4c27-a742-951573a64233" -> "f2a350ce-af7f-4d24-8758-555ee6d8295e";
"f2a350ce-af7f-4d24-8758-555ee6d8295e" [label="dalvik.system.VMStack.getThreadStackTrace\n Susp=0,0295"];
"aec947b0-f4b0-4b76-b7db-71bdbfa8845c" -> "dde666fb-105c-4760-88d9-db19c262b8fa";
"dde666fb-105c-4760-88d9-db19c262b8fa" [label="android.app.ActivityThread.access$1400\n Susp=0,212"];
"dde666fb-105c-4760-88d9-db19c262b8fa" -> "debc4983-766e-4e19-81db-f4b4b4fd451a";
"debc4983-766e-4e19-81db-f4b4b4fd451a" [label="android.app.ActivityThread.handleDestroyActivity\n Susp=0,212"];
"debc4983-766e-4e19-81db-f4b4b4fd451a" -> "0101eb59-742a-4b14-a0ef-532e0fd265fe";
"0101eb59-742a-4b14-a0ef-532e0fd265fe" [label="android.app.ActivityThread.performDestroyActivity\n Susp=0,212"];
"0101eb59-742a-4b14-a0ef-532e0fd265fe" -> "96e2ef1a-1b6b-4599-9660-fecf838c6a68";
"96e2ef1a-1b6b-4599-9660-fecf838c6a68" [label="android.app.Instrumentation.callActivityOnDestroy\n Susp=0,212"];
"96e2ef1a-1b6b-4599-9660-fecf838c6a68" -> "1e7c0dfc-b9ba-4916-8729-7a6d61ceab9b";
"1e7c0dfc-b9ba-4916-8729-7a6d61ceab9b" [label="android.app.Activity.performDestroy\n Susp=0,212"];
"1e7c0dfc-b9ba-4916-8729-7a6d61ceab9b" -> "d306afc2-503a-48a0-98a4-71bacaeaf57a";
"d306afc2-503a-48a0-98a4-71bacaeaf57a" [label="com.github.fakegps.ui.MainActivity.onDestroy\n Susp=0,212"];
"d306afc2-503a-48a0-98a4-71bacaeaf57a" -> "b34a195b-e6c0-417d-ba17-94f77b3db296";
"b34a195b-e6c0-417d-ba17-94f77b3db296" [label="de.robv.android.xposed.XposedBridge.handleHookedMethod\n Susp=0,412"];
"b34a195b-e6c0-417d-ba17-94f77b3db296" -> "3ee9fba1-ccd9-41cc-b579-4cbfb296f892";
"3ee9fba1-ccd9-41cc-b579-4cbfb296f892" [label="it.unimib.disco.lta.unimiblogger.MyMethodHook.beforeHookedMethod\n Susp=0,2074"];
"3ee9fba1-ccd9-41cc-b579-4cbfb296f892" -> "bbd32571-f68c-4d94-b78f-6b0fa64a2f8d";
"bbd32571-f68c-4d94-b78f-6b0fa64a2f8d" [label="java.lang.Thread.getStackTrace\n Susp=0,2074"];
"bbd32571-f68c-4d94-b78f-6b0fa64a2f8d" -> "42d23880-e28e-437b-b05c-2c42ef504cf4";
"42d23880-e28e-437b-b05c-2c42ef504cf4" [label="dalvik.system.VMStack.getThreadStackTrace\n Susp=0,0074"];
"b34a195b-e6c0-417d-ba17-94f77b3db296" -> "791ce541-931a-424a-afc1-b82aaef926d9";
"791ce541-931a-424a-afc1-b82aaef926d9" [label="de.robv.android.xposed.XposedBridge.invokeOriginalMethodNative\n Susp=0,2046"];
"791ce541-931a-424a-afc1-b82aaef926d9" -> "54dfc235-3b0b-4fd8-be3d-d32a2ffcd3da";
"54dfc235-3b0b-4fd8-be3d-d32a2ffcd3da" [label="com.github.fakegps.ui.MainActivity.onDestroy\n Susp=0,2046"];
"54dfc235-3b0b-4fd8-be3d-d32a2ffcd3da" -> "f0e42244-3f3b-44d9-80a8-17564a471b11";
"f0e42244-3f3b-44d9-80a8-17564a471b11" [label="com.github.fakegps.ui.MainActivity.unregisterBroadcastReceiver\n Susp=0,2046"];
"f0e42244-3f3b-44d9-80a8-17564a471b11" -> "ff57a739-b210-4a0a-9fcd-d54292ff9234";
"ff57a739-b210-4a0a-9fcd-d54292ff9234" [label="android.support.v4.content.LocalBroadcastManager.unregisterReceiver\n Susp=0,2046"];
"ff57a739-b210-4a0a-9fcd-d54292ff9234" -> "e0d143b6-6586-418b-be4c-af3488dfec13";
"e0d143b6-6586-418b-be4c-af3488dfec13" [label="de.robv.android.xposed.XposedBridge.handleHookedMethod\n Susp=0,2046"];
"e0d143b6-6586-418b-be4c-af3488dfec13" -> "8cad4bcf-2a42-4989-886c-ce67c9cfc258";
"8cad4bcf-2a42-4989-886c-ce67c9cfc258" [label="it.unimib.disco.lta.unimiblogger.MyMethodHook.beforeHookedMethod\n Susp=0,2046"];
"8cad4bcf-2a42-4989-886c-ce67c9cfc258" -> "d4ff1ac8-9d71-4bca-947d-b857795806f1";
"d4ff1ac8-9d71-4bca-947d-b857795806f1" [label="java.lang.Thread.getStackTrace\n Susp=0,2046"];
"d4ff1ac8-9d71-4bca-947d-b857795806f1" -> "78d8f932-b03a-455e-8b4e-e024323ca4ba";
"78d8f932-b03a-455e-8b4e-e024323ca4ba" [label="dalvik.system.VMStack.getThreadStackTrace\n Susp=0,0046"];
}
