Position |MethodName|Relevancy
0.125|com.devpaul.materiallibrary.views.MaterialFlatButton.init|0.5037983132638795
0.25|com.devpaul.materiallibrary.abstracts.BaseViewGroup.<init>|0.49748252379019525
0.375|com.devpaul.filepickerlibrary.FilePickerActivity.onCreate|0.47798313263879494
0.5|com.devpaul.filepicker.MainActivity$PlaceholderFragment.onCreateView|0.4704739999098002
0.625|com.devpaul.filepickerlibrary.adapter.FileListAdapter.getCount|0.31821675010147477
0.75|com.devpaul.materiallibrary.views.MaterialFloatingActionButton.init|0.24242547242141343
0.875|com.devpaul.materiallibrary.views.MaterialFloatingActionButton.<init>|0.2392675776845713
1.0|com.devpaul.filepickerlibrary.FilePickerActivity$UpdateFilesTask.onPostExecute|0.15613313489378972
