digraph SIB_treshold_2 {
"f90d003d-c034-43d4-a863-a3af1bb49795" [style=filled, fillcolor="#919191", label="com.android.internal.os.ZygoteInit.main\n Susp=0,49"];
"f90d003d-c034-43d4-a863-a3af1bb49795" -> "cc8bfd5a-2c53-4c11-8116-dbbceb2ab4cd";
"cc8bfd5a-2c53-4c11-8116-dbbceb2ab4cd" [style=filled, fillcolor="#919191", label="com.android.internal.os.ZygoteInit$MethodAndArgsCaller.run\n Susp=0,4986"];
"cc8bfd5a-2c53-4c11-8116-dbbceb2ab4cd" -> "afd221ec-26de-4350-8a35-f19ab3c34c9f";
"afd221ec-26de-4350-8a35-f19ab3c34c9f" [style=filled, fillcolor="#5E5E5E",fontcolor=white, label="java.lang.reflect.Method.invoke\n Susp=0,5071"];
"afd221ec-26de-4350-8a35-f19ab3c34c9f" -> "528f1825-7e35-4acb-a74a-4a72dae9688c";
"528f1825-7e35-4acb-a74a-4a72dae9688c" [style=filled, fillcolor="#5E5E5E",fontcolor=white, label="android.app.ActivityThread.main\n Susp=0,5157"];
"528f1825-7e35-4acb-a74a-4a72dae9688c" -> "79891db7-29b9-48bb-8ca5-bd632ddba000";
"79891db7-29b9-48bb-8ca5-bd632ddba000" [style=filled, fillcolor="#5E5E5E",fontcolor=white, label="android.os.Looper.loop\n Susp=0,5243"];
"79891db7-29b9-48bb-8ca5-bd632ddba000" -> "fa729431-39a3-4a45-bbcb-78a5ab1857f0";
"fa729431-39a3-4a45-bbcb-78a5ab1857f0" [style=filled, fillcolor="#5E5E5E",fontcolor=white, label="android.os.Handler.dispatchMessage\n Susp=0,5329"];
"fa729431-39a3-4a45-bbcb-78a5ab1857f0" -> "f9ecc3dd-9c27-48a8-a621-16fcd0ab2c28";
"f9ecc3dd-9c27-48a8-a621-16fcd0ab2c28" [style=filled, fillcolor="#5E5E5E",fontcolor=white, label="android.app.ActivityThread$H.handleMessage\n Susp=0,9314"];
"f9ecc3dd-9c27-48a8-a621-16fcd0ab2c28" -> "82761f15-296e-4ff3-9553-b3d9166e036e";
"82761f15-296e-4ff3-9553-b3d9166e036e" [style=filled, fillcolor="#FFFFFF", label="android.app.ActivityThread.-wrap11\n Susp=0,1946"];
"82761f15-296e-4ff3-9553-b3d9166e036e" -> "fdd08a53-acf9-40da-bea2-2e43141c38ba";
"fdd08a53-acf9-40da-bea2-2e43141c38ba" [style=filled, fillcolor="#EBEBEB", label="android.app.ActivityThread.handleLaunchActivity\n Susp=0,2031"];
"fdd08a53-acf9-40da-bea2-2e43141c38ba" -> "fe881479-0e3d-4d10-aae7-d543ec219c92";
"fe881479-0e3d-4d10-aae7-d543ec219c92" [style=filled, fillcolor="#EBEBEB", label="android.app.ActivityThread.performLaunchActivity\n Susp=0,2117"];
"fe881479-0e3d-4d10-aae7-d543ec219c92" -> "2da934a9-0022-4122-a4d2-e2e3cf6929d4";
"2da934a9-0022-4122-a4d2-e2e3cf6929d4" [style=filled, fillcolor="#EBEBEB", label="android.app.Instrumentation.callActivityOnCreate\n Susp=0,2203"];
"2da934a9-0022-4122-a4d2-e2e3cf6929d4" -> "40b319a4-3faf-4f2c-94da-5c480221d6c1";
"40b319a4-3faf-4f2c-94da-5c480221d6c1" [style=filled, fillcolor="#EBEBEB", label="android.app.Activity.performCreate\n Susp=0,2289"];
"40b319a4-3faf-4f2c-94da-5c480221d6c1" -> "62bab068-517d-4c7f-8740-09dc15faaacc";
"62bab068-517d-4c7f-8740-09dc15faaacc" [style=filled, fillcolor="#EBEBEB", label="be.uhasselt.privacypolice.PreferencesActivity.onCreate\n Susp=0,2374"];
"62bab068-517d-4c7f-8740-09dc15faaacc" -> "ed51bd00-fbb5-4f66-ada6-53815e7ca3b3";
"ed51bd00-fbb5-4f66-ada6-53815e7ca3b3" [style=filled, fillcolor="#FFFFFF", label="android.app.BackStackRecord.replace\n Susp=0,1137"];
"f9ecc3dd-9c27-48a8-a621-16fcd0ab2c28" -> "904aad62-b102-4011-949f-955d052ad791";
"904aad62-b102-4011-949f-955d052ad791" [style=filled, fillcolor="#5E5E5E",fontcolor=white, label="android.app.ActivityThread.-wrap14\n Susp=0,5066"];
"904aad62-b102-4011-949f-955d052ad791" -> "5c667d02-6c67-49ed-8ae9-ce40dc341064";
"5c667d02-6c67-49ed-8ae9-ce40dc341064" [style=filled, fillcolor="#5E5E5E",fontcolor=white, label="android.app.ActivityThread.handleReceiver\n Susp=0,5151"];
"5c667d02-6c67-49ed-8ae9-ce40dc341064" -> "0406b33a-5ded-4000-868d-da5a04364617";
"0406b33a-5ded-4000-868d-da5a04364617" [style=filled, fillcolor="#5E5E5E",fontcolor=white, label="be.uhasselt.privacypolice.ScanResultsChecker.onReceive\n Susp=0,5237"];
"0406b33a-5ded-4000-868d-da5a04364617" -> "54209d75-4ce3-44ce-81c8-8942e4af16bb";
"54209d75-4ce3-44ce-81c8-8942e4af16bb" [style=filled, fillcolor="#919191", label="be.uhasselt.privacypolice.ScanResultsChecker.checkResults\n Susp=0,426"];
"54209d75-4ce3-44ce-81c8-8942e4af16bb" -> "5c62b664-5fa2-4359-ac87-2157ef86bd64";
"5c62b664-5fa2-4359-ac87-2157ef86bd64" [style=filled, fillcolor="#A9A9A9", label="be.uhasselt.privacypolice.ScanResultsChecker.getNetworkSafety\n Susp=0,3283"];
"5c62b664-5fa2-4359-ac87-2157ef86bd64" -> "c8dad311-df18-42c6-a83f-d4cfe35d7767";
"c8dad311-df18-42c6-a83f-d4cfe35d7767" [style=filled, fillcolor="#A9A9A9", label="be.uhasselt.privacypolice.NotificationHandler.askNetworkPermission\n Susp=0,3369"];
"c8dad311-df18-42c6-a83f-d4cfe35d7767" -> "cdb8a65e-bb4a-4255-960f-9f392210ed16";
"cdb8a65e-bb4a-4255-960f-9f392210ed16" [style=filled, fillcolor="#EBEBEB", label="android.support.v4.app.NotificationCompat$Builder.build\n Susp=0,2154"];
"f9ecc3dd-9c27-48a8-a621-16fcd0ab2c28" -> "b97e1cbe-dcd3-4a6c-9e52-5d80aaebb80b";
"b97e1cbe-dcd3-4a6c-9e52-5d80aaebb80b" [style=filled, fillcolor="#FFFFFF", label="android.app.ActivityThread.access$800\n Susp=0,1946"];
"b97e1cbe-dcd3-4a6c-9e52-5d80aaebb80b" -> "0576e809-f003-400d-b906-d21feaad517f";
"0576e809-f003-400d-b906-d21feaad517f" [style=filled, fillcolor="#EBEBEB", label="android.app.ActivityThread.handleLaunchActivity\n Susp=0,2031"];
"0576e809-f003-400d-b906-d21feaad517f" -> "0844472c-236d-4bd6-8f6e-65e46749b64e";
"0844472c-236d-4bd6-8f6e-65e46749b64e" [style=filled, fillcolor="#EBEBEB", label="android.app.ActivityThread.performLaunchActivity\n Susp=0,2117"];
"0844472c-236d-4bd6-8f6e-65e46749b64e" -> "c5f8fb6b-f8c4-4348-8e73-7d8d0dbb4432";
"c5f8fb6b-f8c4-4348-8e73-7d8d0dbb4432" [style=filled, fillcolor="#EBEBEB", label="android.app.Instrumentation.callActivityOnCreate\n Susp=0,2203"];
"c5f8fb6b-f8c4-4348-8e73-7d8d0dbb4432" -> "8f9f3325-b9ed-4378-87cf-80afaa66d8ea";
"8f9f3325-b9ed-4378-87cf-80afaa66d8ea" [style=filled, fillcolor="#EBEBEB", label="android.app.Activity.performCreate\n Susp=0,2289"];
"8f9f3325-b9ed-4378-87cf-80afaa66d8ea" -> "071cf41e-d52c-427d-a60e-79fb70b7b146";
"071cf41e-d52c-427d-a60e-79fb70b7b146" [style=filled, fillcolor="#EBEBEB", label="be.uhasselt.privacypolice.PreferencesActivity.onCreate\n Susp=0,2374"];
"071cf41e-d52c-427d-a60e-79fb70b7b146" -> "d7bd63b1-b93d-4e91-8228-eff9e97e59f9";
"d7bd63b1-b93d-4e91-8228-eff9e97e59f9" [style=filled, fillcolor="#FFFFFF", label="android.app.BackStackRecord.replace\n Susp=0,1137"];
"f9ecc3dd-9c27-48a8-a621-16fcd0ab2c28" -> "0c982c96-e75a-4994-adde-93b67bd88d84";
"0c982c96-e75a-4994-adde-93b67bd88d84" [style=filled, fillcolor="#EBEBEB", label="android.app.ActivityThread.access$1700\n Susp=0,2243"];
"0c982c96-e75a-4994-adde-93b67bd88d84" -> "58d0faad-a83f-4961-a8c2-790d4c8358f8";
"58d0faad-a83f-4961-a8c2-790d4c8358f8" [style=filled, fillcolor="#EBEBEB", label="android.app.ActivityThread.handleReceiver\n Susp=0,2329"];
"58d0faad-a83f-4961-a8c2-790d4c8358f8" -> "7b371e88-8803-4162-80e5-492b1a857a13";
"7b371e88-8803-4162-80e5-492b1a857a13" [style=filled, fillcolor="#EBEBEB", label="be.uhasselt.privacypolice.ScanResultsChecker.onReceive\n Susp=0,2414"];
"7b371e88-8803-4162-80e5-492b1a857a13" -> "a0064f76-df63-47b8-be72-589800f8e6e9";
"a0064f76-df63-47b8-be72-589800f8e6e9" [style=filled, fillcolor="#EBEBEB", label="be.uhasselt.privacypolice.ScanResultsChecker.checkResults\n Susp=0,2386"];
"a0064f76-df63-47b8-be72-589800f8e6e9" -> "5c5ca9ce-d021-43a8-bfda-beb33a10542f";
"5c5ca9ce-d021-43a8-bfda-beb33a10542f" [style=filled, fillcolor="#EBEBEB", label="be.uhasselt.privacypolice.ScanResultsChecker.getNetworkSafety\n Susp=0,2357"];
"5c5ca9ce-d021-43a8-bfda-beb33a10542f" -> "36cbe501-6bdb-4cd8-b143-7684acf090f9";
"36cbe501-6bdb-4cd8-b143-7684acf090f9" [style=filled, fillcolor="#EBEBEB", label="be.uhasselt.privacypolice.PreferencesStorage.getAllowedBSSIDs\n Susp=0,2443"];
"36cbe501-6bdb-4cd8-b143-7684acf090f9" -> "f5880708-a73f-40f1-a6e8-52691f64ceaa";
"f5880708-a73f-40f1-a6e8-52691f64ceaa" [style=filled, fillcolor="#C0C0C0", label="be.uhasselt.privacypolice.PreferencesStorage.getBSSIDs\n Susp=0,2529"];
"f5880708-a73f-40f1-a6e8-52691f64ceaa" -> "e8d4891a-ec92-4974-8fce-316953a82355";
"e8d4891a-ec92-4974-8fce-316953a82355" [style=filled, fillcolor="#FFFFFF", label="android.app.SharedPreferencesImpl.getStringSet\n Susp=0,1314"];
}
