9c9
< AFTER android.support.v7.app.AppCompatActivity.findViewById, returnValue: android.support.v7.widget.Toolbar{31e0b42a V.E..... ......I. 0,0-0,0 #7f0e0072 app:id/toolbar}
---
> AFTER android.support.v7.app.AppCompatActivity.findViewById, returnValue: android.support.v7.widget.Toolbar{f11357f V.E...... ......I. 0,0-0,0 #7f0e0072 app:id/toolbar}
51c51
< AFTER android.support.v7.app.AppCompatActivity.findViewById, returnValue: android.support.v7.widget.AppCompatTextView{3f4b54f7 V.ED.... ......ID 0,0-0,0 #7f0e00b8 app:id/main.weather_icon}
---
> AFTER android.support.v7.app.AppCompatActivity.findViewById, returnValue: android.support.v7.widget.AppCompatTextView{7b3eaa V.ED..... ......ID 0,0-0,0 #7f0e00b8 app:id/main.weather_icon}
53c53
< AFTER android.support.v7.app.AppCompatActivity.findViewById, returnValue: android.support.v7.widget.AppCompatTextView{15009f64 V.ED.... ......ID 0,0-0,0 #7f0e00b9 app:id/main.temperature}
---
> AFTER android.support.v7.app.AppCompatActivity.findViewById, returnValue: android.support.v7.widget.AppCompatTextView{30daa9b V.ED..... ......ID 0,0-0,0 #7f0e00b9 app:id/main.temperature}
55c55
< AFTER android.support.v7.app.AppCompatActivity.findViewById, returnValue: android.support.v7.widget.AppCompatTextView{d2c85cd V.ED.... ......ID 0,0-0,0 #7f0e00ba app:id/main.description}
---
> AFTER android.support.v7.app.AppCompatActivity.findViewById, returnValue: android.support.v7.widget.AppCompatTextView{5af0e38 V.ED..... ......ID 0,0-0,0 #7f0e00ba app:id/main.description}
57c57
< AFTER android.support.v7.app.AppCompatActivity.findViewById, returnValue: android.support.v7.widget.AppCompatTextView{36479e82 V.ED.... ......ID 0,0-0,0 #7f0e00c3 app:id/main.pressure}
---
> AFTER android.support.v7.app.AppCompatActivity.findViewById, returnValue: android.support.v7.widget.AppCompatTextView{92e4e11 V.ED..... ......ID 0,0-0,0 #7f0e00c3 app:id/main.pressure}
59c59
< AFTER android.support.v7.app.AppCompatActivity.findViewById, returnValue: android.support.v7.widget.AppCompatTextView{9564993 V.ED.... ......ID 0,0-0,0 #7f0e00c1 app:id/main.humidity}
---
> AFTER android.support.v7.app.AppCompatActivity.findViewById, returnValue: android.support.v7.widget.AppCompatTextView{6a69b76 V.ED..... ......ID 0,0-0,0 #7f0e00c1 app:id/main.humidity}
61c61
< AFTER android.support.v7.app.AppCompatActivity.findViewById, returnValue: android.support.v7.widget.AppCompatTextView{3eda4dd0 V.ED.... ......ID 0,0-0,0 #7f0e00bf app:id/main.wind_speed}
---
> AFTER android.support.v7.app.AppCompatActivity.findViewById, returnValue: android.support.v7.widget.AppCompatTextView{b925577 V.ED..... ......ID 0,0-0,0 #7f0e00bf app:id/main.wind_speed}
63c63
< AFTER android.support.v7.app.AppCompatActivity.findViewById, returnValue: android.support.v7.widget.AppCompatTextView{588b1c9 V.ED.... ......ID 0,0-0,0 #7f0e00c5 app:id/main.cloudiness}
---
> AFTER android.support.v7.app.AppCompatActivity.findViewById, returnValue: android.support.v7.widget.AppCompatTextView{462d5e4 V.ED..... ......ID 0,0-0,0 #7f0e00c5 app:id/main.cloudiness}
65c65
< AFTER android.support.v7.app.AppCompatActivity.findViewById, returnValue: android.support.v7.widget.AppCompatTextView{bd520ce V.ED.... ......ID 0,0-0,0 #7f0e00bb app:id/main.last_update}
---
> AFTER android.support.v7.app.AppCompatActivity.findViewById, returnValue: android.support.v7.widget.AppCompatTextView{d98ba4d V.ED..... ......ID 0,0-0,0 #7f0e00bb app:id/main.last_update}
67c67
< AFTER android.support.v7.app.AppCompatActivity.findViewById, returnValue: android.support.v7.widget.AppCompatTextView{2711ebef V.ED.... ......ID 0,0-0,0 #7f0e00c7 app:id/main.sunrise}
---
> AFTER android.support.v7.app.AppCompatActivity.findViewById, returnValue: android.support.v7.widget.AppCompatTextView{758f902 V.ED..... ......ID 0,0-0,0 #7f0e00c7 app:id/main.sunrise}
69c69
< AFTER android.support.v7.app.AppCompatActivity.findViewById, returnValue: android.support.v7.widget.AppCompatTextView{25e76fc V.ED.... ......ID 0,0-0,0 #7f0e00c9 app:id/main.sunset}
---
> AFTER android.support.v7.app.AppCompatActivity.findViewById, returnValue: android.support.v7.widget.AppCompatTextView{64cd213 V.ED..... ......ID 0,0-0,0 #7f0e00c9 app:id/main.sunset}
71c71
< AFTER android.support.v7.app.AppCompatActivity.findViewById, returnValue: android.support.design.widget.AppBarLayout{d61a185 V.E..... ......ID 0,0-0,0 #7f0e00b6 app:id/main.app_bar}
---
> AFTER android.support.v7.app.AppCompatActivity.findViewById, returnValue: android.support.design.widget.AppBarLayout{4696c50 V.E...... ......ID 0,0-0,0 #7f0e00b6 app:id/main.app_bar}
73c73
< AFTER android.support.v7.app.AppCompatActivity.findViewById, returnValue: android.support.v7.widget.AppCompatTextView{23a67bda V.ED.... ......ID 0,0-0,0 #7f0e00be app:id/main.wind_icon}
---
> AFTER android.support.v7.app.AppCompatActivity.findViewById, returnValue: android.support.v7.widget.AppCompatTextView{5c3ae49 V.ED..... ......ID 0,0-0,0 #7f0e00be app:id/main.wind_icon}
77c77
< AFTER android.support.v7.app.AppCompatActivity.findViewById, returnValue: android.support.v7.widget.AppCompatTextView{c3b580b V.ED.... ......ID 0,0-0,0 #7f0e00c0 app:id/main.humidity_icon}
---
> AFTER android.support.v7.app.AppCompatActivity.findViewById, returnValue: android.support.v7.widget.AppCompatTextView{8e1a34e V.ED..... ......ID 0,0-0,0 #7f0e00c0 app:id/main.humidity_icon}
81c81
< AFTER android.support.v7.app.AppCompatActivity.findViewById, returnValue: android.support.v7.widget.AppCompatTextView{2d9a06e8 V.ED.... ......ID 0,0-0,0 #7f0e00c2 app:id/main.pressure_icon}
---
> AFTER android.support.v7.app.AppCompatActivity.findViewById, returnValue: android.support.v7.widget.AppCompatTextView{4287c6f V.ED..... ......ID 0,0-0,0 #7f0e00c2 app:id/main.pressure_icon}
85c85
< AFTER android.support.v7.app.AppCompatActivity.findViewById, returnValue: android.support.v7.widget.AppCompatTextView{181fd101 V.ED.... ......ID 0,0-0,0 #7f0e00c4 app:id/main.cloudiness_icon}
---
> AFTER android.support.v7.app.AppCompatActivity.findViewById, returnValue: android.support.v7.widget.AppCompatTextView{800fd7c V.ED..... ......ID 0,0-0,0 #7f0e00c4 app:id/main.cloudiness_icon}
89c89
< AFTER android.support.v7.app.AppCompatActivity.findViewById, returnValue: android.support.v7.widget.AppCompatTextView{1f007ba6 V.ED.... ......ID 0,0-0,0 #7f0e00c6 app:id/main.sunrise_icon}
---
> AFTER android.support.v7.app.AppCompatActivity.findViewById, returnValue: android.support.v7.widget.AppCompatTextView{f8fe605 V.ED..... ......ID 0,0-0,0 #7f0e00c6 app:id/main.sunrise_icon}
93c93
< AFTER android.support.v7.app.AppCompatActivity.findViewById, returnValue: android.support.v7.widget.AppCompatTextView{214569e7 V.ED.... ......ID 0,0-0,0 #7f0e00c8 app:id/main.sunset_icon}
---
> AFTER android.support.v7.app.AppCompatActivity.findViewById, returnValue: android.support.v7.widget.AppCompatTextView{538a65a V.ED..... ......ID 0,0-0,0 #7f0e00c8 app:id/main.sunset_icon}
115c115
< AFTER android.support.v7.app.AppCompatActivity.findViewById, returnValue: android.support.v4.widget.SwipeRefreshLayout{1d249f39 V.ED.... ......I. 0,0-0,0 #7f0e00b5 app:id/main.swipe_refresh}
---
> AFTER android.support.v7.app.AppCompatActivity.findViewById, returnValue: android.support.v4.widget.SwipeRefreshLayout{a198014 V.ED..... ......I. 0,0-0,0 #7f0e00b5 app:id/main.swipe_refresh}
123c123
< AFTER android.support.v7.app.AppCompatActivity.findViewById, returnValue: android.support.design.widget.FloatingActionButton{3031597e VFED.... ......ID 0,0-0,0 #7f0e00bd app:id/fab}
---
> AFTER android.support.v7.app.AppCompatActivity.findViewById, returnValue: android.support.design.widget.FloatingActionButton{559d0bd VFED..... ......ID 0,0-0,0 #7f0e00bd app:id/fab}
129c129
< AFTER android.support.v7.app.AppCompatActivity.findViewById, returnValue: android.support.v4.widget.DrawerLayout{3bbaedf VFE..... ......I. 0,0-0,0 #7f0e0071 app:id/drawer_layout}
---
> AFTER android.support.v7.app.AppCompatActivity.findViewById, returnValue: android.support.v4.widget.DrawerLayout{405a6b2 VFE...... ......I. 0,0-0,0 #7f0e0071 app:id/drawer_layout}
137c137
< AFTER android.support.v7.app.AppCompatActivity.findViewById, returnValue: android.support.design.widget.NavigationView{25ab972c V.E..... ......ID 0,0-0,0 #7f0e007c app:id/navigation_view}
---
> AFTER android.support.v7.app.AppCompatActivity.findViewById, returnValue: android.support.design.widget.NavigationView{ede6603 V.E...... ......ID 0,0-0,0 #7f0e007c app:id/navigation_view}
147c147
< AFTER android.support.design.widget.NavigationView.getHeaderView, returnValue: android.widget.FrameLayout{2a26f5f5 V.E..... ......I. 0,0-0,0 #7f0e00ca app:id/nav_header.root}
---
> AFTER android.support.design.widget.NavigationView.getHeaderView, returnValue: android.widget.FrameLayout{1188980 V.E...... ......I. 0,0-0,0 #7f0e00ca app:id/nav_header.root}
270,271c270,273
< BEFORE android.location.LocationManager.requestLocationUpdates(gps,java.lang.Long,0.0,org.asdtm.goodweather.MainActivity$1)
< AFTER android.location.LocationManager.requestLocationUpdates
---
> BEFORE android.support.v4.content.ContextCompat.checkSelfPermission(org.asdtm.goodweather.MainActivity,android.permission.ACCESS_FINE_LOCATION)
> AFTER android.support.v4.content.ContextCompat.checkSelfPermission, returnValue: -1
> BEFORE android.support.v4.content.ContextCompat.checkSelfPermission(org.asdtm.goodweather.MainActivity,android.permission.ACCESS_COARSE_LOCATION)
> AFTER android.support.v4.content.ContextCompat.checkSelfPermission, returnValue: -1
275,615d276
< BEFORE org.asdtm.goodweather.MainActivity$1.onLocationChanged(android.location.Location)
< BEFORE android.app.Dialog.cancel()
< AFTER android.app.Dialog.cancel
< BEFORE android.location.Location.getLatitude()
< AFTER android.location.Location.getLatitude, returnValue: 0.0
< BEFORE android.location.Location.getLongitude()
< AFTER android.location.Location.getLongitude, returnValue: 0.0
< BEFORE android.location.LocationManager.removeUpdates(org.asdtm.goodweather.MainActivity$1)
< AFTER android.location.LocationManager.removeUpdates
< BEFORE android.app.Activity.getSystemService(connectivity)
< AFTER android.app.Activity.getSystemService, returnValue: android.net.ConnectivityManager
< BEFORE android.net.ConnectivityManager.getActiveNetworkInfo()
< AFTER android.net.ConnectivityManager.getActiveNetworkInfo, returnValue: [type: WIFI[], state: CONNECTED/CONNECTED, reason: (unspecified), extra: "WiredSSID", roaming: false, failover: false, isAvailable: true, isConnectedToProvisioningNetwork: false]
< BEFORE android.net.NetworkInfo.isConnected()
< AFTER android.net.NetworkInfo.isConnected, returnValue: true
< BEFORE android.content.ContextWrapper.getSharedPreferences(config,0)
< AFTER android.content.ContextWrapper.getSharedPreferences, returnValue: android.app.SharedPreferencesImpl
< BEFORE android.app.SharedPreferencesImpl.edit()
< AFTER android.app.SharedPreferencesImpl.edit, returnValue: android.app.SharedPreferencesImpl$EditorImpl
< BEFORE android.app.SharedPreferencesImpl$EditorImpl.putString(latitude,0.00)
< AFTER android.app.SharedPreferencesImpl$EditorImpl.putString, returnValue: android.app.SharedPreferencesImpl$EditorImpl
< BEFORE android.app.SharedPreferencesImpl$EditorImpl.putString(longitude,0.00)
< AFTER android.app.SharedPreferencesImpl$EditorImpl.putString, returnValue: android.app.SharedPreferencesImpl$EditorImpl
< BEFORE android.app.SharedPreferencesImpl$EditorImpl.apply()
< AFTER android.app.SharedPreferencesImpl$EditorImpl.apply
< BEFORE android.content.ContextWrapper.startService(android.content.Intent)
< AFTER android.content.ContextWrapper.startService, returnValue: ComponentInfo{org.asdtm.goodweatherbug/org.asdtm.goodweather.service.CurrentWeatherService}
< BEFORE android.content.ContextWrapper.sendBroadcast(android.content.Intent)
< AFTER android.content.ContextWrapper.sendBroadcast
< AFTER org.asdtm.goodweather.MainActivity$1.onLocationChanged
< BEFORE org.asdtm.goodweather.MainActivity$1.onStatusChanged(gps,1,android.os.Bundle)
< AFTER org.asdtm.goodweather.MainActivity$1.onStatusChanged
< BEFORE org.asdtm.goodweather.service.CurrentWeatherService.onHandleIntent(android.content.Intent)
< BEFORE android.content.ContextWrapper.getSystemService(connectivity)
< AFTER android.content.ContextWrapper.getSystemService, returnValue: android.net.ConnectivityManager
< BEFORE org.asdtm.goodweather.widget.LessWidgetProvider.onReceive(android.app.ReceiverRestrictedContext,android.content.Intent)
< BEFORE android.content.Intent.getAction()
< AFTER android.content.Intent.getAction, returnValue: org.asdtm.goodweather.action.FORCED_APPWIDGET_UPDATE, isEmpty: false
< BEFORE android.net.ConnectivityManager.getActiveNetworkInfo()
< AFTER android.net.ConnectivityManager.getActiveNetworkInfo, returnValue: [type: WIFI[], state: CONNECTED/CONNECTED, reason: (unspecified), extra: "WiredSSID", roaming: false, failover: false, isAvailable: true, isConnectedToProvisioningNetwork: false]
< BEFORE android.net.NetworkInfo.isConnected()
< AFTER android.net.NetworkInfo.isConnected, returnValue: true
< BEFORE android.content.ContextWrapper.getSharedPreferences(config,0)
< BEFORE android.content.ContextWrapper.startService(android.content.Intent)
< BEFORE android.app.SharedPreferencesImpl.getString(latitude,51.51)
< AFTER android.app.SharedPreferencesImpl.getString, returnValue: 0.00, isEmpty: false
< BEFORE android.app.SharedPreferencesImpl.getString(longitude,-0.13)
< AFTER android.app.SharedPreferencesImpl.getString, returnValue: 0.00, isEmpty: false
< AFTER android.content.ContextWrapper.startService, returnValue: ComponentInfo{org.asdtm.goodweatherbug/org.asdtm.goodweather.widget.LessWidgetService}
< BEFORE android.content.ContextWrapper.getSharedPreferences(config,0)
< AFTER android.content.ContextWrapper.getSharedPreferences, returnValue: android.app.SharedPreferencesImpl
< BEFORE android.app.SharedPreferencesImpl.getString(locale,en)
< AFTER android.app.SharedPreferencesImpl.getString, returnValue: en, isEmpty: false
< BEFORE android.preference.PreferenceManager.getDefaultSharedPreferences(org.asdtm.goodweather.service.CurrentWeatherService)
< AFTER android.preference.PreferenceManager.getDefaultSharedPreferences, returnValue: android.app.SharedPreferencesImpl
< BEFORE android.app.SharedPreferencesImpl.getString(temperature_pref_key,metric)
< AFTER android.app.SharedPreferencesImpl.getString, returnValue: metric, isEmpty: false
< BEFORE android.net.Uri.parse(http://api.openweathermap.org/data/2.5/weather)
< AFTER android.net.Uri.parse, returnValue: http://api.openweathermap.org/data/2.5/weather
< BEFORE android.net.Uri$StringUri.buildUpon()
< AFTER android.net.Uri$StringUri.buildUpon, returnValue: http://api.openweathermap.org/data/2.5/weather
< BEFORE android.net.Uri$Builder.appendQueryParameter(lat,0.00)
< AFTER android.net.Uri$Builder.appendQueryParameter, returnValue: http://api.openweathermap.org/data/2.5/weather?lat=0.00
< BEFORE android.net.Uri$Builder.appendQueryParameter(lon,0.00)
< AFTER android.net.Uri$Builder.appendQueryParameter, returnValue: http://api.openweathermap.org/data/2.5/weather?lat=0.00&lon=0.00
< BEFORE android.net.Uri$Builder.appendQueryParameter(APPID,1487dd8a93bfd85d278d9ac8dcfee94c)
< AFTER android.net.Uri$Builder.appendQueryParameter, returnValue: http://api.openweathermap.org/data/2.5/weather?lat=0.00&lon=0.00&APPID=1487dd8a93bfd85d278d9ac8dcfee94c
< BEFORE android.net.Uri$Builder.appendQueryParameter(units,metric)
< AFTER android.net.Uri$Builder.appendQueryParameter, returnValue: http://api.openweathermap.org/data/2.5/weather?lat=0.00&lon=0.00&APPID=1487dd8a93bfd85d278d9ac8dcfee94c&units=metric
< BEFORE android.net.Uri$Builder.appendQueryParameter(lang,en)
< AFTER android.net.Uri$Builder.appendQueryParameter, returnValue: http://api.openweathermap.org/data/2.5/weather?lat=0.00&lon=0.00&APPID=1487dd8a93bfd85d278d9ac8dcfee94c&units=metric&lang=en
< BEFORE android.net.Uri$Builder.build()
< AFTER android.net.Uri$Builder.build, returnValue: http://api.openweathermap.org/data/2.5/weather?lat=0.00&lon=0.00&APPID=1487dd8a93bfd85d278d9ac8dcfee94c&units=metric&lang=en
< BEFORE android.net.Uri$HierarchicalUri.toString()
< AFTER android.net.Uri$HierarchicalUri.toString, returnValue: http://api.openweathermap.org/data/2.5/weather?lat=0.00&lon=0.00&APPID=1487dd8a93bfd85d278d9ac8dcfee94c&units=metric&lang=en, isEmpty: false
< BEFORE com.android.okhttp.internal.http.HttpURLConnectionImpl.getResponseCode()
< AFTER com.android.okhttp.internal.http.HttpURLConnectionImpl.getResponseCode, returnValue: 200
< BEFORE com.android.okhttp.internal.http.HttpURLConnectionImpl.getInputStream()
< AFTER com.android.okhttp.internal.http.HttpURLConnectionImpl.getInputStream, returnValue: com.android.okio.RealBufferedSource$1
< BEFORE android.content.ContextWrapper.getSharedPreferences(config,0)
< AFTER android.content.ContextWrapper.getSharedPreferences, returnValue: android.app.SharedPreferencesImpl
< BEFORE android.app.SharedPreferencesImpl.edit()
< AFTER android.app.SharedPreferencesImpl.edit, returnValue: android.app.SharedPreferencesImpl$EditorImpl
< BEFORE android.app.SharedPreferencesImpl$EditorImpl.putLong(last_update,java.lang.Long)
< AFTER android.app.SharedPreferencesImpl$EditorImpl.putLong, returnValue: android.app.SharedPreferencesImpl$EditorImpl
< BEFORE android.app.SharedPreferencesImpl$EditorImpl.apply()
< AFTER android.app.SharedPreferencesImpl$EditorImpl.apply
< BEFORE com.android.okhttp.internal.http.HttpURLConnectionImpl.disconnect()
< AFTER com.android.okhttp.internal.http.HttpURLConnectionImpl.disconnect
< BEFORE android.content.Intent.putExtra(org.asdtm.goodweather.action.WEATHER_UPDATE_RESULT,org.asdtm.goodweather.action.WEATHER_UPDATE_OK)
< AFTER android.content.Intent.putExtra, returnValue: Intent { act=org.asdtm.goodweather.action.WEATHER_UPDATE_RESULT (has extras) }
< BEFORE android.support.v4.content.LocalBroadcastManager.getInstance(org.asdtm.goodweather.service.CurrentWeatherService)
< AFTER android.support.v4.content.LocalBroadcastManager.getInstance, returnValue: android.support.v4.content.LocalBroadcastManager
< BEFORE android.support.v4.content.LocalBroadcastManager.sendBroadcast(android.content.Intent)
< AFTER android.support.v4.content.LocalBroadcastManager.sendBroadcast, returnValue: true
< BEFORE org.asdtm.goodweather.widget.LessWidgetService.onHandleIntent(android.content.Intent)
< BEFORE android.content.ContextWrapper.getSystemService(connectivity)
< AFTER android.content.ContextWrapper.getSystemService, returnValue: android.net.ConnectivityManager
< BEFORE android.net.ConnectivityManager.getActiveNetworkInfo()
< AFTER android.net.ConnectivityManager.getActiveNetworkInfo, returnValue: [type: WIFI[], state: CONNECTED/CONNECTED, reason: (unspecified), extra: "WiredSSID", roaming: false, failover: false, isAvailable: true, isConnectedToProvisioningNetwork: false]
< BEFORE android.net.NetworkInfo.isConnected()
< BEFORE org.asdtm.goodweather.widget.MoreWidgetProvider.onReceive(android.app.ReceiverRestrictedContext,android.content.Intent)
< BEFORE android.content.ContextWrapper.getSharedPreferences(config,0)
< BEFORE android.content.Intent.getAction()
< BEFORE android.app.SharedPreferencesImpl.getString(latitude,51.51)
< AFTER android.app.SharedPreferencesImpl.getString, returnValue: 0.00, isEmpty: false
< BEFORE android.app.SharedPreferencesImpl.getString(longitude,-0.13)
< AFTER android.app.SharedPreferencesImpl.getString, returnValue: 0.00, isEmpty: false
< BEFORE android.content.ContextWrapper.getSharedPreferences(config,0)
< AFTER android.content.ContextWrapper.getSharedPreferences, returnValue: android.app.SharedPreferencesImpl
< BEFORE android.app.SharedPreferencesImpl.getString(locale,en)
< AFTER android.app.SharedPreferencesImpl.getString, returnValue: en, isEmpty: false
< BEFORE android.preference.PreferenceManager.getDefaultSharedPreferences(org.asdtm.goodweather.widget.LessWidgetService)
< BEFORE android.content.ContextWrapper.startService(android.content.Intent)
< BEFORE android.app.SharedPreferencesImpl.getString(temperature_pref_key,metric)
< AFTER android.app.SharedPreferencesImpl.getString, returnValue: metric, isEmpty: false
< BEFORE android.net.Uri.parse(http://api.openweathermap.org/data/2.5/weather)
< AFTER android.net.Uri.parse, returnValue: http://api.openweathermap.org/data/2.5/weather
< AFTER android.content.ContextWrapper.startService, returnValue: ComponentInfo{org.asdtm.goodweatherbug/org.asdtm.goodweather.widget.MoreWidgetService}
< BEFORE android.net.Uri$StringUri.buildUpon()
< AFTER android.net.Uri$StringUri.buildUpon, returnValue: http://api.openweathermap.org/data/2.5/weather
< BEFORE android.net.Uri$Builder.appendQueryParameter(lat,0.00)
< BEFORE org.asdtm.goodweather.MainActivity$5.onReceive(android.app.Application,android.content.Intent)
< BEFORE android.content.Intent.getStringExtra(org.asdtm.goodweather.action.WEATHER_UPDATE_RESULT)
< AFTER android.content.Intent.getStringExtra, returnValue: org.asdtm.goodweather.action.WEATHER_UPDATE_OK, isEmpty: false
< BEFORE android.net.Uri$Builder.appendQueryParameter(lon,0.00)
< BEFORE android.support.v4.widget.SwipeRefreshLayout.setRefreshing(false)
< BEFORE android.net.Uri$Builder.appendQueryParameter(APPID,1487dd8a93bfd85d278d9ac8dcfee94c)
< BEFORE android.support.v4.widget.SwipeRefreshLayout.setRefreshing(false)
< BEFORE android.net.Uri$Builder.appendQueryParameter(units,metric)
< AFTER android.net.Uri$Builder.appendQueryParameter, returnValue: http://api.openweathermap.org/data/2.5/weather?lat=0.00&lon=0.00&APPID=1487dd8a93bfd85d278d9ac8dcfee94c&units=metric
< AFTER android.support.v4.widget.SwipeRefreshLayout.setRefreshing
< BEFORE android.net.Uri$Builder.appendQueryParameter(lang,en)
< AFTER android.net.Uri$Builder.appendQueryParameter, returnValue: http://api.openweathermap.org/data/2.5/weather?lat=0.00&lon=0.00&APPID=1487dd8a93bfd85d278d9ac8dcfee94c&units=metric&lang=en
< BEFORE android.net.Uri$Builder.build()
< BEFORE android.support.v7.view.menu.MenuBuilder.findItem(2131624167)
< BEFORE android.net.Uri$HierarchicalUri.toString()
< AFTER android.net.Uri$HierarchicalUri.toString, returnValue: http://api.openweathermap.org/data/2.5/weather?lat=0.00&lon=0.00&APPID=1487dd8a93bfd85d278d9ac8dcfee94c&units=metric&lang=en, isEmpty: false
< AFTER android.support.v7.view.menu.MenuBuilder.findItem, returnValue: Update
< BEFORE android.support.v7.app.AppCompatActivity.findViewById(2131624124)
< BEFORE com.android.okhttp.internal.http.HttpURLConnectionImpl.getInputStream()
< BEFORE android.widget.ProgressBar.setVisibility(8)
< AFTER android.widget.ProgressBar.setVisibility
< BEFORE android.support.v7.view.menu.MenuItemImpl.setVisible(true)
< AFTER android.support.v7.view.menu.MenuItemImpl.setVisible, returnValue: Update
< BEFORE android.content.ContextWrapper.getSharedPreferences(weather_pref,0)
< AFTER android.content.ContextWrapper.getSharedPreferences, returnValue: android.app.SharedPreferencesImpl
< BEFORE android.app.SharedPreferencesImpl.edit()
< AFTER android.app.SharedPreferencesImpl.edit, returnValue: android.app.SharedPreferencesImpl$EditorImpl
< BEFORE android.app.SharedPreferencesImpl$EditorImpl.putFloat(temperature,26.15)
< AFTER android.app.SharedPreferencesImpl$EditorImpl.putFloat, returnValue: android.app.SharedPreferencesImpl$EditorImpl
< BEFORE android.app.SharedPreferencesImpl$EditorImpl.putString(description,Broken clouds)
< AFTER android.app.SharedPreferencesImpl$EditorImpl.putString, returnValue: android.app.SharedPreferencesImpl$EditorImpl
< BEFORE android.app.SharedPreferencesImpl$EditorImpl.putFloat(pressure,1010.0)
< AFTER android.app.SharedPreferencesImpl$EditorImpl.putFloat, returnValue: android.app.SharedPreferencesImpl$EditorImpl
< BEFORE android.app.SharedPreferencesImpl$EditorImpl.putInt(humidity,83)
< AFTER android.app.SharedPreferencesImpl$EditorImpl.putInt, returnValue: android.app.SharedPreferencesImpl$EditorImpl
< BEFORE android.app.SharedPreferencesImpl$EditorImpl.putFloat(wind_speed,4.85)
< AFTER android.app.SharedPreferencesImpl$EditorImpl.putFloat, returnValue: android.app.SharedPreferencesImpl$EditorImpl
< BEFORE android.app.SharedPreferencesImpl$EditorImpl.putInt(clouds,73)
< AFTER android.app.SharedPreferencesImpl$EditorImpl.putInt, returnValue: android.app.SharedPreferencesImpl$EditorImpl
< BEFORE android.app.SharedPreferencesImpl$EditorImpl.putString(icon,04n)
< AFTER android.app.SharedPreferencesImpl$EditorImpl.putString, returnValue: android.app.SharedPreferencesImpl$EditorImpl
< BEFORE android.app.SharedPreferencesImpl$EditorImpl.putLong(sunrise,java.lang.Long)
< AFTER android.app.SharedPreferencesImpl$EditorImpl.putLong, returnValue: android.app.SharedPreferencesImpl$EditorImpl
< BEFORE android.app.SharedPreferencesImpl$EditorImpl.putLong(sunset,java.lang.Long)
< AFTER android.app.SharedPreferencesImpl$EditorImpl.putLong, returnValue: android.app.SharedPreferencesImpl$EditorImpl
< BEFORE android.app.SharedPreferencesImpl$EditorImpl.apply()
< AFTER android.app.SharedPreferencesImpl$EditorImpl.apply
< BEFORE android.content.ContextWrapper.getSharedPreferences(config,0)
< AFTER android.content.ContextWrapper.getSharedPreferences, returnValue: android.app.SharedPreferencesImpl
< BEFORE android.app.SharedPreferencesImpl.edit()
< AFTER android.app.SharedPreferencesImpl.edit, returnValue: android.app.SharedPreferencesImpl$EditorImpl
< BEFORE android.preference.PreferenceManager.getDefaultSharedPreferences(org.asdtm.goodweather.MainActivity)
< AFTER android.preference.PreferenceManager.getDefaultSharedPreferences, returnValue: android.app.SharedPreferencesImpl
< BEFORE android.app.SharedPreferencesImpl.getString(temperature_pref_key,metric)
< AFTER android.app.SharedPreferencesImpl.getString, returnValue: metric, isEmpty: false
< BEFORE android.content.Context.getString(2131165287)
< BEFORE android.content.Context.getString(2131165287)
< AFTER android.content.Context.getString, returnValue: m/s, isEmpty: false
< AFTER android.content.Context.getString, returnValue: m/s, isEmpty: false
< BEFORE android.content.ContextWrapper.getSharedPreferences(config,0)
< AFTER android.content.ContextWrapper.getSharedPreferences, returnValue: android.app.SharedPreferencesImpl
< BEFORE android.app.SharedPreferencesImpl.edit()
< AFTER android.app.SharedPreferencesImpl.edit, returnValue: android.app.SharedPreferencesImpl$EditorImpl
< BEFORE android.app.SharedPreferencesImpl$EditorImpl.putLong(last_update,java.lang.Long)
< AFTER android.app.SharedPreferencesImpl$EditorImpl.putLong, returnValue: android.app.SharedPreferencesImpl$EditorImpl
< BEFORE android.app.SharedPreferencesImpl$EditorImpl.apply()
< AFTER android.app.SharedPreferencesImpl$EditorImpl.apply
< BEFORE android.content.Context.getString(2131165296)
< BEFORE android.content.Context.getString(2131165296)
< AFTER android.content.Context.getString, returnValue: , isEmpty: false
< AFTER android.content.Context.getString, returnValue: , isEmpty: false
< AFTER com.android.okhttp.internal.http.HttpURLConnectionImpl.getInputStream, returnValue: com.android.okio.RealBufferedSource$1
< BEFORE com.android.okhttp.internal.http.HttpURLConnectionImpl.getResponseCode()
< AFTER com.android.okhttp.internal.http.HttpURLConnectionImpl.getResponseCode, returnValue: 200
< BEFORE com.android.okhttp.internal.http.HttpURLConnectionImpl.disconnect()
< AFTER com.android.okhttp.internal.http.HttpURLConnectionImpl.disconnect
< BEFORE android.content.ContextWrapper.getSharedPreferences(weather_pref,0)
< AFTER android.content.ContextWrapper.getSharedPreferences, returnValue: android.app.SharedPreferencesImpl
< BEFORE android.app.SharedPreferencesImpl.edit()
< AFTER android.app.SharedPreferencesImpl.edit, returnValue: android.app.SharedPreferencesImpl$EditorImpl
< BEFORE android.app.SharedPreferencesImpl$EditorImpl.putFloat(temperature,26.15)
< AFTER android.app.SharedPreferencesImpl$EditorImpl.putFloat, returnValue: android.app.SharedPreferencesImpl$EditorImpl
< BEFORE android.app.SharedPreferencesImpl$EditorImpl.putString(description,Broken clouds)
< AFTER android.app.SharedPreferencesImpl$EditorImpl.putString, returnValue: android.app.SharedPreferencesImpl$EditorImpl
< BEFORE android.app.SharedPreferencesImpl$EditorImpl.putFloat(pressure,1010.0)
< AFTER android.app.SharedPreferencesImpl$EditorImpl.putFloat, returnValue: android.app.SharedPreferencesImpl$EditorImpl
< BEFORE android.app.SharedPreferencesImpl$EditorImpl.putInt(humidity,83)
< AFTER android.app.SharedPreferencesImpl$EditorImpl.putInt, returnValue: android.app.SharedPreferencesImpl$EditorImpl
< BEFORE android.app.SharedPreferencesImpl$EditorImpl.putFloat(wind_speed,4.85)
< AFTER android.app.SharedPreferencesImpl$EditorImpl.putFloat, returnValue: android.app.SharedPreferencesImpl$EditorImpl
< BEFORE android.app.SharedPreferencesImpl$EditorImpl.putInt(clouds,73)
< BEFORE android.content.Context.getString(2131165318,[Ljava.lang.Object;)
< BEFORE android.content.Context.getString(2131165318,[Ljava.lang.Object;)
< BEFORE android.app.SharedPreferencesImpl$EditorImpl.putString(icon,04n)
< AFTER android.app.SharedPreferencesImpl$EditorImpl.putString, returnValue: android.app.SharedPreferencesImpl$EditorImpl
< BEFORE android.app.SharedPreferencesImpl$EditorImpl.putLong(sunrise,java.lang.Long)
< AFTER android.app.SharedPreferencesImpl$EditorImpl.putLong, returnValue: android.app.SharedPreferencesImpl$EditorImpl
< BEFORE android.app.SharedPreferencesImpl$EditorImpl.putLong(sunset,java.lang.Long)
< AFTER android.app.SharedPreferencesImpl$EditorImpl.putLong, returnValue: android.app.SharedPreferencesImpl$EditorImpl
< BEFORE android.app.SharedPreferencesImpl$EditorImpl.apply()
< AFTER android.app.SharedPreferencesImpl$EditorImpl.apply
< BEFORE android.appwidget.AppWidgetManager.getInstance(org.asdtm.goodweather.widget.LessWidgetService)
< AFTER android.appwidget.AppWidgetManager.getInstance, returnValue: android.appwidget.AppWidgetManager
< BEFORE android.appwidget.AppWidgetManager.getAppWidgetIds(android.content.ComponentName)
< AFTER android.appwidget.AppWidgetManager.getAppWidgetIds, returnValue: [I
< BEFORE android.content.Context.getString(2131165220,[Ljava.lang.Object;)
< BEFORE android.content.Context.getString(2131165220,[Ljava.lang.Object;)
< AFTER android.content.Context.getString, returnValue: Humidity: 83%, isEmpty: false
< AFTER android.content.Context.getString, returnValue: Humidity: 83%, isEmpty: false
< BEFORE android.content.Context.getString(2131165251,[Ljava.lang.Object;)
< BEFORE android.content.Context.getString(2131165251,[Ljava.lang.Object;)
< AFTER android.content.Context.getString, returnValue: Pressure: 1010.0 hPa, isEmpty: false
< AFTER android.content.Context.getString, returnValue: Pressure: 1010.0 hPa, isEmpty: false
< BEFORE android.content.Context.getString(2131165286,[Ljava.lang.Object;)
< BEFORE android.content.Context.getString(2131165286,[Ljava.lang.Object;)
< AFTER android.content.Context.getString, returnValue: Wind: 4.8 m/s, isEmpty: false
< AFTER android.content.Context.getString, returnValue: Wind: 4.8 m/s, isEmpty: false
< BEFORE android.content.Context.getString(2131165212,[Ljava.lang.Object;)
< BEFORE android.content.Context.getString(2131165212,[Ljava.lang.Object;)
< AFTER android.content.Context.getString, returnValue: Cloudiness: 73%, isEmpty: false
< AFTER android.content.Context.getString, returnValue: Cloudiness: 73%, isEmpty: false
< BEFORE android.content.Context.getString(2131165230,[Ljava.lang.Object;)
< BEFORE android.content.Context.getString(2131165230,[Ljava.lang.Object;)
< AFTER android.content.Context.getString, returnValue: Last update: 01:17, isEmpty: false
< AFTER android.content.Context.getString, returnValue: Last update: 01:17, isEmpty: false
< BEFORE android.content.Context.getString(2131165256,[Ljava.lang.Object;)
< BEFORE android.content.Context.getString(2131165256,[Ljava.lang.Object;)
< AFTER android.content.Context.getString, returnValue: Sunrise: 07:06, isEmpty: false
< AFTER android.content.Context.getString, returnValue: Sunrise: 07:06, isEmpty: false
< BEFORE android.content.Context.getString(2131165257,[Ljava.lang.Object;)
< BEFORE android.content.Context.getString(2131165257,[Ljava.lang.Object;)
< AFTER android.content.Context.getString, returnValue: Sunset: 19:13, isEmpty: false
< AFTER android.content.Context.getString, returnValue: Sunset: 19:13, isEmpty: false
< BEFORE android.app.Activity.setTitle(Globe)
< AFTER android.app.Activity.setTitle
< BEFORE android.app.SharedPreferencesImpl$EditorImpl.putString(city,Globe)
< AFTER android.app.SharedPreferencesImpl$EditorImpl.putString, returnValue: android.app.SharedPreferencesImpl$EditorImpl
< BEFORE android.app.SharedPreferencesImpl$EditorImpl.putString(country_code)
< AFTER android.app.SharedPreferencesImpl$EditorImpl.putString, returnValue: android.app.SharedPreferencesImpl$EditorImpl
< BEFORE android.app.SharedPreferencesImpl$EditorImpl.apply()
< AFTER android.app.SharedPreferencesImpl$EditorImpl.apply
< BEFORE org.asdtm.goodweather.MainActivity.onOffsetChanged(android.support.design.widget.AppBarLayout,0)
< BEFORE android.support.v4.widget.SwipeRefreshLayout.setEnabled(true)
< AFTER android.support.v4.widget.SwipeRefreshLayout.setEnabled
< AFTER org.asdtm.goodweather.MainActivity.onOffsetChanged
< BEFORE org.asdtm.goodweather.widget.MoreWidgetService.onHandleIntent(android.content.Intent)
< BEFORE android.content.ContextWrapper.getSystemService(connectivity)
< AFTER android.content.ContextWrapper.getSystemService, returnValue: android.net.ConnectivityManager
< BEFORE android.net.ConnectivityManager.getActiveNetworkInfo()
< AFTER android.net.ConnectivityManager.getActiveNetworkInfo, returnValue: [type: WIFI[], state: CONNECTED/CONNECTED, reason: (unspecified), extra: "WiredSSID", roaming: false, failover: false, isAvailable: true, isConnectedToProvisioningNetwork: false]
< BEFORE android.net.NetworkInfo.isConnected()
< AFTER android.net.NetworkInfo.isConnected, returnValue: true
< BEFORE android.content.ContextWrapper.getSharedPreferences(config,0)
< AFTER android.content.ContextWrapper.getSharedPreferences, returnValue: android.app.SharedPreferencesImpl
< BEFORE android.app.SharedPreferencesImpl.getString(latitude,51.51)
< AFTER android.app.SharedPreferencesImpl.getString, returnValue: 0.00, isEmpty: false
< BEFORE android.app.SharedPreferencesImpl.getString(longitude,-0.13)
< AFTER android.app.SharedPreferencesImpl.getString, returnValue: 0.00, isEmpty: false
< BEFORE android.content.ContextWrapper.getSharedPreferences(config,0)
< AFTER android.content.ContextWrapper.getSharedPreferences, returnValue: android.app.SharedPreferencesImpl
< BEFORE android.app.SharedPreferencesImpl.getString(locale,en)
< AFTER android.app.SharedPreferencesImpl.getString, returnValue: en, isEmpty: false
< BEFORE android.preference.PreferenceManager.getDefaultSharedPreferences(org.asdtm.goodweather.widget.MoreWidgetService)
< AFTER android.preference.PreferenceManager.getDefaultSharedPreferences, returnValue: android.app.SharedPreferencesImpl
< BEFORE android.app.SharedPreferencesImpl.getString(temperature_pref_key,metric)
< AFTER android.app.SharedPreferencesImpl.getString, returnValue: metric, isEmpty: false
< BEFORE android.net.Uri.parse(http://api.openweathermap.org/data/2.5/weather)
< AFTER android.net.Uri.parse, returnValue: http://api.openweathermap.org/data/2.5/weather
< BEFORE android.net.Uri$StringUri.buildUpon()
< AFTER android.net.Uri$StringUri.buildUpon, returnValue: http://api.openweathermap.org/data/2.5/weather
< BEFORE android.net.Uri$Builder.appendQueryParameter(lat,0.00)
< AFTER android.net.Uri$Builder.appendQueryParameter, returnValue: http://api.openweathermap.org/data/2.5/weather?lat=0.00
< BEFORE android.net.Uri$Builder.appendQueryParameter(lon,0.00)
< AFTER android.net.Uri$Builder.appendQueryParameter, returnValue: http://api.openweathermap.org/data/2.5/weather?lat=0.00&lon=0.00
< BEFORE android.net.Uri$Builder.appendQueryParameter(APPID,1487dd8a93bfd85d278d9ac8dcfee94c)
< AFTER android.net.Uri$Builder.appendQueryParameter, returnValue: http://api.openweathermap.org/data/2.5/weather?lat=0.00&lon=0.00&APPID=1487dd8a93bfd85d278d9ac8dcfee94c
< BEFORE android.net.Uri$Builder.appendQueryParameter(units,metric)
< AFTER android.net.Uri$Builder.appendQueryParameter, returnValue: http://api.openweathermap.org/data/2.5/weather?lat=0.00&lon=0.00&APPID=1487dd8a93bfd85d278d9ac8dcfee94c&units=metric
< BEFORE android.net.Uri$Builder.appendQueryParameter(lang,en)
< AFTER android.net.Uri$Builder.appendQueryParameter, returnValue: http://api.openweathermap.org/data/2.5/weather?lat=0.00&lon=0.00&APPID=1487dd8a93bfd85d278d9ac8dcfee94c&units=metric&lang=en
< BEFORE android.net.Uri$Builder.build()
< AFTER android.net.Uri$Builder.build, returnValue: http://api.openweathermap.org/data/2.5/weather?lat=0.00&lon=0.00&APPID=1487dd8a93bfd85d278d9ac8dcfee94c&units=metric&lang=en
< BEFORE android.net.Uri$HierarchicalUri.toString()
< AFTER android.net.Uri$HierarchicalUri.toString, returnValue: http://api.openweathermap.org/data/2.5/weather?lat=0.00&lon=0.00&APPID=1487dd8a93bfd85d278d9ac8dcfee94c&units=metric&lang=en, isEmpty: false
< BEFORE com.android.okhttp.internal.http.HttpURLConnectionImpl.getInputStream()
< AFTER com.android.okhttp.internal.http.HttpURLConnectionImpl.getInputStream, returnValue: com.android.okio.RealBufferedSource$1
< BEFORE com.android.okhttp.internal.http.HttpURLConnectionImpl.getResponseCode()
< AFTER com.android.okhttp.internal.http.HttpURLConnectionImpl.getResponseCode, returnValue: 200
< BEFORE com.android.okhttp.internal.http.HttpURLConnectionImpl.disconnect()
< AFTER com.android.okhttp.internal.http.HttpURLConnectionImpl.disconnect
< BEFORE android.content.ContextWrapper.getSharedPreferences(weather_pref,0)
< AFTER android.content.ContextWrapper.getSharedPreferences, returnValue: android.app.SharedPreferencesImpl
< BEFORE android.app.SharedPreferencesImpl.edit()
< AFTER android.app.SharedPreferencesImpl.edit, returnValue: android.app.SharedPreferencesImpl$EditorImpl
< BEFORE android.app.SharedPreferencesImpl$EditorImpl.putFloat(temperature,26.15)
< AFTER android.app.SharedPreferencesImpl$EditorImpl.putFloat, returnValue: android.app.SharedPreferencesImpl$EditorImpl
< BEFORE android.app.SharedPreferencesImpl$EditorImpl.putString(description,Broken clouds)
< AFTER android.app.SharedPreferencesImpl$EditorImpl.putString, returnValue: android.app.SharedPreferencesImpl$EditorImpl
< BEFORE android.app.SharedPreferencesImpl$EditorImpl.putFloat(pressure,1010.0)
< AFTER android.app.SharedPreferencesImpl$EditorImpl.putFloat, returnValue: android.app.SharedPreferencesImpl$EditorImpl
< BEFORE android.app.SharedPreferencesImpl$EditorImpl.putInt(humidity,83)
< AFTER android.app.SharedPreferencesImpl$EditorImpl.putInt, returnValue: android.app.SharedPreferencesImpl$EditorImpl
< BEFORE android.app.SharedPreferencesImpl$EditorImpl.putFloat(wind_speed,4.85)
< AFTER android.app.SharedPreferencesImpl$EditorImpl.putFloat, returnValue: android.app.SharedPreferencesImpl$EditorImpl
< BEFORE android.app.SharedPreferencesImpl$EditorImpl.putInt(clouds,73)
< AFTER android.app.SharedPreferencesImpl$EditorImpl.putInt, returnValue: android.app.SharedPreferencesImpl$EditorImpl
< BEFORE android.app.SharedPreferencesImpl$EditorImpl.putString(icon,04n)
< AFTER android.app.SharedPreferencesImpl$EditorImpl.putString, returnValue: android.app.SharedPreferencesImpl$EditorImpl
< BEFORE android.app.SharedPreferencesImpl$EditorImpl.putLong(sunrise,java.lang.Long)
< AFTER android.app.SharedPreferencesImpl$EditorImpl.putLong, returnValue: android.app.SharedPreferencesImpl$EditorImpl
< BEFORE android.app.SharedPreferencesImpl$EditorImpl.putLong(sunset,java.lang.Long)
< AFTER android.app.SharedPreferencesImpl$EditorImpl.putLong, returnValue: android.app.SharedPreferencesImpl$EditorImpl
< BEFORE android.app.SharedPreferencesImpl$EditorImpl.apply()
< AFTER android.app.SharedPreferencesImpl$EditorImpl.apply
< BEFORE android.appwidget.AppWidgetManager.getInstance(org.asdtm.goodweather.widget.MoreWidgetService)
< AFTER android.appwidget.AppWidgetManager.getInstance, returnValue: android.appwidget.AppWidgetManager
< BEFORE android.appwidget.AppWidgetManager.getAppWidgetIds(android.content.ComponentName)
< AFTER android.appwidget.AppWidgetManager.getAppWidgetIds, returnValue: [I
< AFTER org.asdtm.goodweather.widget.MoreWidgetService.onHandleIntent
