BEFORE com.ascendtv.kanjifix.MainActivity.onCreate(), invoked by: dalvik.system.VMStack.getThreadStackTrace, java.lang.Thread.getStackTrace, it.unimib.disco.lta.unimiblogger.MyMethodHook.beforeHookedMethod, de.robv.android.xposed.XposedBridge.handleHookedMethod, com.ascendtv.kanjifix.MainActivity.onCreate, android.app.Activity.performCreate, android.app.Instrumentation.callActivityOnCreate, android.app.ActivityThread.performLaunchActivity, android.app.ActivityThread.handleLaunchActivity, android.app.ActivityThread.access$800, android.app.ActivityThread$H.handleMessage, android.os.Handler.dispatchMessage, android.os.Looper.loop, android.app.ActivityThread.main, java.lang.reflect.Method.invoke, java.lang.reflect.Method.invoke, com.android.internal.os.ZygoteInit$MethodAndArgsCaller.run, com.android.internal.os.ZygoteInit.main, de.robv.android.xposed.XposedBridge.main
BEFORE android.app.Activity.onCreate(), invoked by: dalvik.system.VMStack.getThreadStackTrace, java.lang.Thread.getStackTrace, it.unimib.disco.lta.unimiblogger.MyMethodHook.beforeHookedMethod, de.robv.android.xposed.XposedBridge.handleHookedMethod, android.app.Activity.onCreate, com.ascendtv.kanjifix.MainActivity.onCreate, de.robv.android.xposed.XposedBridge.invokeOriginalMethodNative, de.robv.android.xposed.XposedBridge.handleHookedMethod, com.ascendtv.kanjifix.MainActivity.onCreate, android.app.Activity.performCreate, android.app.Instrumentation.callActivityOnCreate, android.app.ActivityThread.performLaunchActivity, android.app.ActivityThread.handleLaunchActivity, android.app.ActivityThread.access$800, android.app.ActivityThread$H.handleMessage, android.os.Handler.dispatchMessage, android.os.Looper.loop, android.app.ActivityThread.main, java.lang.reflect.Method.invoke, java.lang.reflect.Method.invoke, com.android.internal.os.ZygoteInit$MethodAndArgsCaller.run, com.android.internal.os.ZygoteInit.main, de.robv.android.xposed.XposedBridge.main
AFTER android.app.Activity.onCreate, invoked by: dalvik.system.VMStack.getThreadStackTrace, java.lang.Thread.getStackTrace, it.unimib.disco.lta.unimiblogger.MyMethodHook.beforeHookedMethod, de.robv.android.xposed.XposedBridge.handleHookedMethod, android.app.Activity.onCreate, com.ascendtv.kanjifix.MainActivity.onCreate, de.robv.android.xposed.XposedBridge.invokeOriginalMethodNative, de.robv.android.xposed.XposedBridge.handleHookedMethod, com.ascendtv.kanjifix.MainActivity.onCreate, android.app.Activity.performCreate, android.app.Instrumentation.callActivityOnCreate, android.app.ActivityThread.performLaunchActivity, android.app.ActivityThread.handleLaunchActivity, android.app.ActivityThread.access$800, android.app.ActivityThread$H.handleMessage, android.os.Handler.dispatchMessage, android.os.Looper.loop, android.app.ActivityThread.main, java.lang.reflect.Method.invoke, java.lang.reflect.Method.invoke, com.android.internal.os.ZygoteInit$MethodAndArgsCaller.run, com.android.internal.os.ZygoteInit.main, de.robv.android.xposed.XposedBridge.main
BEFORE android.app.Activity.setContentView(2131296279), invoked by: dalvik.system.VMStack.getThreadStackTrace, java.lang.Thread.getStackTrace, it.unimib.disco.lta.unimiblogger.MyMethodHook.beforeHookedMethod, de.robv.android.xposed.XposedBridge.handleHookedMethod, android.app.Activity.setContentView, com.ascendtv.kanjifix.MainActivity.onCreate, de.robv.android.xposed.XposedBridge.invokeOriginalMethodNative, de.robv.android.xposed.XposedBridge.handleHookedMethod, com.ascendtv.kanjifix.MainActivity.onCreate, android.app.Activity.performCreate, android.app.Instrumentation.callActivityOnCreate, android.app.ActivityThread.performLaunchActivity, android.app.ActivityThread.handleLaunchActivity, android.app.ActivityThread.access$800, android.app.ActivityThread$H.handleMessage, android.os.Handler.dispatchMessage, android.os.Looper.loop, android.app.ActivityThread.main, java.lang.reflect.Method.invoke, java.lang.reflect.Method.invoke, com.android.internal.os.ZygoteInit$MethodAndArgsCaller.run, com.android.internal.os.ZygoteInit.main, de.robv.android.xposed.XposedBridge.main
AFTER android.app.Activity.setContentView, invoked by: dalvik.system.VMStack.getThreadStackTrace, java.lang.Thread.getStackTrace, it.unimib.disco.lta.unimiblogger.MyMethodHook.beforeHookedMethod, de.robv.android.xposed.XposedBridge.handleHookedMethod, android.app.Activity.setContentView, com.ascendtv.kanjifix.MainActivity.onCreate, de.robv.android.xposed.XposedBridge.invokeOriginalMethodNative, de.robv.android.xposed.XposedBridge.handleHookedMethod, com.ascendtv.kanjifix.MainActivity.onCreate, android.app.Activity.performCreate, android.app.Instrumentation.callActivityOnCreate, android.app.ActivityThread.performLaunchActivity, android.app.ActivityThread.handleLaunchActivity, android.app.ActivityThread.access$800, android.app.ActivityThread$H.handleMessage, android.os.Handler.dispatchMessage, android.os.Looper.loop, android.app.ActivityThread.main, java.lang.reflect.Method.invoke, java.lang.reflect.Method.invoke, com.android.internal.os.ZygoteInit$MethodAndArgsCaller.run, com.android.internal.os.ZygoteInit.main, de.robv.android.xposed.XposedBridge.main
BEFORE android.app.Activity.findViewById(2131165200), invoked by: dalvik.system.VMStack.getThreadStackTrace, java.lang.Thread.getStackTrace, it.unimib.disco.lta.unimiblogger.MyMethodHook.beforeHookedMethod, de.robv.android.xposed.XposedBridge.handleHookedMethod, android.app.Activity.findViewById, com.ascendtv.kanjifix.MainActivity.onCreate, de.robv.android.xposed.XposedBridge.invokeOriginalMethodNative, de.robv.android.xposed.XposedBridge.handleHookedMethod, com.ascendtv.kanjifix.MainActivity.onCreate, android.app.Activity.performCreate, android.app.Instrumentation.callActivityOnCreate, android.app.ActivityThread.performLaunchActivity, android.app.ActivityThread.handleLaunchActivity, android.app.ActivityThread.access$800, android.app.ActivityThread$H.handleMessage, android.os.Handler.dispatchMessage, android.os.Looper.loop, android.app.ActivityThread.main, java.lang.reflect.Method.invoke, java.lang.reflect.Method.invoke, com.android.internal.os.ZygoteInit$MethodAndArgsCaller.run, com.android.internal.os.ZygoteInit.main, de.robv.android.xposed.XposedBridge.main
AFTER android.app.Activity.findViewById, returnValue: android.widget.Button{2b2a430f VFED..C. ......I. 0,0-0,0 #7f070010 app:id/apply_fix_btn}, invoked by: dalvik.system.VMStack.getThreadStackTrace, java.lang.Thread.getStackTrace, it.unimib.disco.lta.unimiblogger.MyMethodHook.beforeHookedMethod, de.robv.android.xposed.XposedBridge.handleHookedMethod, android.app.Activity.findViewById, com.ascendtv.kanjifix.MainActivity.onCreate, de.robv.android.xposed.XposedBridge.invokeOriginalMethodNative, de.robv.android.xposed.XposedBridge.handleHookedMethod, com.ascendtv.kanjifix.MainActivity.onCreate, android.app.Activity.performCreate, android.app.Instrumentation.callActivityOnCreate, android.app.ActivityThread.performLaunchActivity, android.app.ActivityThread.handleLaunchActivity, android.app.ActivityThread.access$800, android.app.ActivityThread$H.handleMessage, android.os.Handler.dispatchMessage, android.os.Looper.loop, android.app.ActivityThread.main, java.lang.reflect.Method.invoke, java.lang.reflect.Method.invoke, com.android.internal.os.ZygoteInit$MethodAndArgsCaller.run, com.android.internal.os.ZygoteInit.main, de.robv.android.xposed.XposedBridge.main
BEFORE android.app.Activity.findViewById(2131165230), invoked by: dalvik.system.VMStack.getThreadStackTrace, java.lang.Thread.getStackTrace, it.unimib.disco.lta.unimiblogger.MyMethodHook.beforeHookedMethod, de.robv.android.xposed.XposedBridge.handleHookedMethod, android.app.Activity.findViewById, com.ascendtv.kanjifix.MainActivity.onCreate, de.robv.android.xposed.XposedBridge.invokeOriginalMethodNative, de.robv.android.xposed.XposedBridge.handleHookedMethod, com.ascendtv.kanjifix.MainActivity.onCreate, android.app.Activity.performCreate, android.app.Instrumentation.callActivityOnCreate, android.app.ActivityThread.performLaunchActivity, android.app.ActivityThread.handleLaunchActivity, android.app.ActivityThread.access$800, android.app.ActivityThread$H.handleMessage, android.os.Handler.dispatchMessage, android.os.Looper.loop, android.app.ActivityThread.main, java.lang.reflect.Method.invoke, java.lang.reflect.Method.invoke, com.android.internal.os.ZygoteInit$MethodAndArgsCaller.run, com.android.internal.os.ZygoteInit.main, de.robv.android.xposed.XposedBridge.main
AFTER android.app.Activity.findViewById, returnValue: android.widget.Button{2e074f9c VFED..C. ......I. 0,0-0,0 #7f07002e app:id/revert_btn}, invoked by: dalvik.system.VMStack.getThreadStackTrace, java.lang.Thread.getStackTrace, it.unimib.disco.lta.unimiblogger.MyMethodHook.beforeHookedMethod, de.robv.android.xposed.XposedBridge.handleHookedMethod, android.app.Activity.findViewById, com.ascendtv.kanjifix.MainActivity.onCreate, de.robv.android.xposed.XposedBridge.invokeOriginalMethodNative, de.robv.android.xposed.XposedBridge.handleHookedMethod, com.ascendtv.kanjifix.MainActivity.onCreate, android.app.Activity.performCreate, android.app.Instrumentation.callActivityOnCreate, android.app.ActivityThread.performLaunchActivity, android.app.ActivityThread.handleLaunchActivity, android.app.ActivityThread.access$800, android.app.ActivityThread$H.handleMessage, android.os.Handler.dispatchMessage, android.os.Looper.loop, android.app.ActivityThread.main, java.lang.reflect.Method.invoke, java.lang.reflect.Method.invoke, com.android.internal.os.ZygoteInit$MethodAndArgsCaller.run, com.android.internal.os.ZygoteInit.main, de.robv.android.xposed.XposedBridge.main
BEFORE android.app.Activity.findViewById(2131165249), invoked by: dalvik.system.VMStack.getThreadStackTrace, java.lang.Thread.getStackTrace, it.unimib.disco.lta.unimiblogger.MyMethodHook.beforeHookedMethod, de.robv.android.xposed.XposedBridge.handleHookedMethod, android.app.Activity.findViewById, com.ascendtv.kanjifix.MainActivity.onCreate, de.robv.android.xposed.XposedBridge.invokeOriginalMethodNative, de.robv.android.xposed.XposedBridge.handleHookedMethod, com.ascendtv.kanjifix.MainActivity.onCreate, android.app.Activity.performCreate, android.app.Instrumentation.callActivityOnCreate, android.app.ActivityThread.performLaunchActivity, android.app.ActivityThread.handleLaunchActivity, android.app.ActivityThread.access$800, android.app.ActivityThread$H.handleMessage, android.os.Handler.dispatchMessage, android.os.Looper.loop, android.app.ActivityThread.main, java.lang.reflect.Method.invoke, java.lang.reflect.Method.invoke, com.android.internal.os.ZygoteInit$MethodAndArgsCaller.run, com.android.internal.os.ZygoteInit.main, de.robv.android.xposed.XposedBridge.main
AFTER android.app.Activity.findViewById, returnValue: android.widget.TextView{2069da5 V.ED.... ......ID 0,0-0,0 #7f070041 app:id/textField}, invoked by: dalvik.system.VMStack.getThreadStackTrace, java.lang.Thread.getStackTrace, it.unimib.disco.lta.unimiblogger.MyMethodHook.beforeHookedMethod, de.robv.android.xposed.XposedBridge.handleHookedMethod, android.app.Activity.findViewById, com.ascendtv.kanjifix.MainActivity.onCreate, de.robv.android.xposed.XposedBridge.invokeOriginalMethodNative, de.robv.android.xposed.XposedBridge.handleHookedMethod, com.ascendtv.kanjifix.MainActivity.onCreate, android.app.Activity.performCreate, android.app.Instrumentation.callActivityOnCreate, android.app.ActivityThread.performLaunchActivity, android.app.ActivityThread.handleLaunchActivity, android.app.ActivityThread.access$800, android.app.ActivityThread$H.handleMessage, android.os.Handler.dispatchMessage, android.os.Looper.loop, android.app.ActivityThread.main, java.lang.reflect.Method.invoke, java.lang.reflect.Method.invoke, com.android.internal.os.ZygoteInit$MethodAndArgsCaller.run, com.android.internal.os.ZygoteInit.main, de.robv.android.xposed.XposedBridge.main
BEFORE android.content.ContextWrapper.getFilesDir(), invoked by: dalvik.system.VMStack.getThreadStackTrace, java.lang.Thread.getStackTrace, it.unimib.disco.lta.unimiblogger.MyMethodHook.beforeHookedMethod, de.robv.android.xposed.XposedBridge.handleHookedMethod, android.content.ContextWrapper.getFilesDir, com.ascendtv.kanjifix.MainActivity.onCreate, de.robv.android.xposed.XposedBridge.invokeOriginalMethodNative, de.robv.android.xposed.XposedBridge.handleHookedMethod, com.ascendtv.kanjifix.MainActivity.onCreate, android.app.Activity.performCreate, android.app.Instrumentation.callActivityOnCreate, android.app.ActivityThread.performLaunchActivity, android.app.ActivityThread.handleLaunchActivity, android.app.ActivityThread.access$800, android.app.ActivityThread$H.handleMessage, android.os.Handler.dispatchMessage, android.os.Looper.loop, android.app.ActivityThread.main, java.lang.reflect.Method.invoke, java.lang.reflect.Method.invoke, com.android.internal.os.ZygoteInit$MethodAndArgsCaller.run, com.android.internal.os.ZygoteInit.main, de.robv.android.xposed.XposedBridge.main
AFTER android.content.ContextWrapper.getFilesDir, returnValue: /data/data/com.ascendtv.kanjifix/files, invoked by: dalvik.system.VMStack.getThreadStackTrace, java.lang.Thread.getStackTrace, it.unimib.disco.lta.unimiblogger.MyMethodHook.beforeHookedMethod, de.robv.android.xposed.XposedBridge.handleHookedMethod, android.content.ContextWrapper.getFilesDir, com.ascendtv.kanjifix.MainActivity.onCreate, de.robv.android.xposed.XposedBridge.invokeOriginalMethodNative, de.robv.android.xposed.XposedBridge.handleHookedMethod, com.ascendtv.kanjifix.MainActivity.onCreate, android.app.Activity.performCreate, android.app.Instrumentation.callActivityOnCreate, android.app.ActivityThread.performLaunchActivity, android.app.ActivityThread.handleLaunchActivity, android.app.ActivityThread.access$800, android.app.ActivityThread$H.handleMessage, android.os.Handler.dispatchMessage, android.os.Looper.loop, android.app.ActivityThread.main, java.lang.reflect.Method.invoke, java.lang.reflect.Method.invoke, com.android.internal.os.ZygoteInit$MethodAndArgsCaller.run, com.android.internal.os.ZygoteInit.main, de.robv.android.xposed.XposedBridge.main
BEFORE android.content.ContextWrapper.getFilesDir(), invoked by: dalvik.system.VMStack.getThreadStackTrace, java.lang.Thread.getStackTrace, it.unimib.disco.lta.unimiblogger.MyMethodHook.beforeHookedMethod, de.robv.android.xposed.XposedBridge.handleHookedMethod, android.content.ContextWrapper.getFilesDir, com.ascendtv.kanjifix.MainActivity.onCreate, de.robv.android.xposed.XposedBridge.invokeOriginalMethodNative, de.robv.android.xposed.XposedBridge.handleHookedMethod, com.ascendtv.kanjifix.MainActivity.onCreate, android.app.Activity.performCreate, android.app.Instrumentation.callActivityOnCreate, android.app.ActivityThread.performLaunchActivity, android.app.ActivityThread.handleLaunchActivity, android.app.ActivityThread.access$800, android.app.ActivityThread$H.handleMessage, android.os.Handler.dispatchMessage, android.os.Looper.loop, android.app.ActivityThread.main, java.lang.reflect.Method.invoke, java.lang.reflect.Method.invoke, com.android.internal.os.ZygoteInit$MethodAndArgsCaller.run, com.android.internal.os.ZygoteInit.main, de.robv.android.xposed.XposedBridge.main
AFTER android.content.ContextWrapper.getFilesDir, returnValue: /data/data/com.ascendtv.kanjifix/files, invoked by: dalvik.system.VMStack.getThreadStackTrace, java.lang.Thread.getStackTrace, it.unimib.disco.lta.unimiblogger.MyMethodHook.beforeHookedMethod, de.robv.android.xposed.XposedBridge.handleHookedMethod, android.content.ContextWrapper.getFilesDir, com.ascendtv.kanjifix.MainActivity.onCreate, de.robv.android.xposed.XposedBridge.invokeOriginalMethodNative, de.robv.android.xposed.XposedBridge.handleHookedMethod, com.ascendtv.kanjifix.MainActivity.onCreate, android.app.Activity.performCreate, android.app.Instrumentation.callActivityOnCreate, android.app.ActivityThread.performLaunchActivity, android.app.ActivityThread.handleLaunchActivity, android.app.ActivityThread.access$800, android.app.ActivityThread$H.handleMessage, android.os.Handler.dispatchMessage, android.os.Looper.loop, android.app.ActivityThread.main, java.lang.reflect.Method.invoke, java.lang.reflect.Method.invoke, com.android.internal.os.ZygoteInit$MethodAndArgsCaller.run, com.android.internal.os.ZygoteInit.main, de.robv.android.xposed.XposedBridge.main
BEFORE android.content.ContextWrapper.getFilesDir(), invoked by: dalvik.system.VMStack.getThreadStackTrace, java.lang.Thread.getStackTrace, it.unimib.disco.lta.unimiblogger.MyMethodHook.beforeHookedMethod, de.robv.android.xposed.XposedBridge.handleHookedMethod, android.content.ContextWrapper.getFilesDir, com.ascendtv.kanjifix.MainActivity.onCreate, de.robv.android.xposed.XposedBridge.invokeOriginalMethodNative, de.robv.android.xposed.XposedBridge.handleHookedMethod, com.ascendtv.kanjifix.MainActivity.onCreate, android.app.Activity.performCreate, android.app.Instrumentation.callActivityOnCreate, android.app.ActivityThread.performLaunchActivity, android.app.ActivityThread.handleLaunchActivity, android.app.ActivityThread.access$800, android.app.ActivityThread$H.handleMessage, android.os.Handler.dispatchMessage, android.os.Looper.loop, android.app.ActivityThread.main, java.lang.reflect.Method.invoke, java.lang.reflect.Method.invoke, com.android.internal.os.ZygoteInit$MethodAndArgsCaller.run, com.android.internal.os.ZygoteInit.main, de.robv.android.xposed.XposedBridge.main
AFTER android.content.ContextWrapper.getFilesDir, returnValue: /data/data/com.ascendtv.kanjifix/files, invoked by: dalvik.system.VMStack.getThreadStackTrace, java.lang.Thread.getStackTrace, it.unimib.disco.lta.unimiblogger.MyMethodHook.beforeHookedMethod, de.robv.android.xposed.XposedBridge.handleHookedMethod, android.content.ContextWrapper.getFilesDir, com.ascendtv.kanjifix.MainActivity.onCreate, de.robv.android.xposed.XposedBridge.invokeOriginalMethodNative, de.robv.android.xposed.XposedBridge.handleHookedMethod, com.ascendtv.kanjifix.MainActivity.onCreate, android.app.Activity.performCreate, android.app.Instrumentation.callActivityOnCreate, android.app.ActivityThread.performLaunchActivity, android.app.ActivityThread.handleLaunchActivity, android.app.ActivityThread.access$800, android.app.ActivityThread$H.handleMessage, android.os.Handler.dispatchMessage, android.os.Looper.loop, android.app.ActivityThread.main, java.lang.reflect.Method.invoke, java.lang.reflect.Method.invoke, com.android.internal.os.ZygoteInit$MethodAndArgsCaller.run, com.android.internal.os.ZygoteInit.main, de.robv.android.xposed.XposedBridge.main
AFTER com.ascendtv.kanjifix.MainActivity.onCreate, invoked by: dalvik.system.VMStack.getThreadStackTrace, java.lang.Thread.getStackTrace, it.unimib.disco.lta.unimiblogger.MyMethodHook.beforeHookedMethod, de.robv.android.xposed.XposedBridge.handleHookedMethod, com.ascendtv.kanjifix.MainActivity.onCreate, android.app.Activity.performCreate, android.app.Instrumentation.callActivityOnCreate, android.app.ActivityThread.performLaunchActivity, android.app.ActivityThread.handleLaunchActivity, android.app.ActivityThread.access$800, android.app.ActivityThread$H.handleMessage, android.os.Handler.dispatchMessage, android.os.Looper.loop, android.app.ActivityThread.main, java.lang.reflect.Method.invoke, java.lang.reflect.Method.invoke, com.android.internal.os.ZygoteInit$MethodAndArgsCaller.run, com.android.internal.os.ZygoteInit.main, de.robv.android.xposed.XposedBridge.main
BEFORE com.ascendtv.kanjifix.MainActivity.onCreateOptionsMenu(com.android.internal.view.menu.MenuBuilder), invoked by: dalvik.system.VMStack.getThreadStackTrace, java.lang.Thread.getStackTrace, it.unimib.disco.lta.unimiblogger.MyMethodHook.beforeHookedMethod, de.robv.android.xposed.XposedBridge.handleHookedMethod, com.ascendtv.kanjifix.MainActivity.onCreateOptionsMenu, android.app.Activity.onCreatePanelMenu, com.android.internal.policy.impl.PhoneWindow.preparePanel, com.android.internal.policy.impl.PhoneWindow.doInvalidatePanelMenu, com.android.internal.policy.impl.PhoneWindow$1.run, android.os.Handler.handleCallback, android.os.Handler.dispatchMessage, android.os.Looper.loop, android.app.ActivityThread.main, java.lang.reflect.Method.invoke, java.lang.reflect.Method.invoke, com.android.internal.os.ZygoteInit$MethodAndArgsCaller.run, com.android.internal.os.ZygoteInit.main, de.robv.android.xposed.XposedBridge.main
BEFORE android.app.Activity.getMenuInflater(), invoked by: dalvik.system.VMStack.getThreadStackTrace, java.lang.Thread.getStackTrace, it.unimib.disco.lta.unimiblogger.MyMethodHook.beforeHookedMethod, de.robv.android.xposed.XposedBridge.handleHookedMethod, android.app.Activity.getMenuInflater, com.ascendtv.kanjifix.MainActivity.onCreateOptionsMenu, de.robv.android.xposed.XposedBridge.invokeOriginalMethodNative, de.robv.android.xposed.XposedBridge.handleHookedMethod, com.ascendtv.kanjifix.MainActivity.onCreateOptionsMenu, android.app.Activity.onCreatePanelMenu, com.android.internal.policy.impl.PhoneWindow.preparePanel, com.android.internal.policy.impl.PhoneWindow.doInvalidatePanelMenu, com.android.internal.policy.impl.PhoneWindow$1.run, android.os.Handler.handleCallback, android.os.Handler.dispatchMessage, android.os.Looper.loop, android.app.ActivityThread.main, java.lang.reflect.Method.invoke, java.lang.reflect.Method.invoke, com.android.internal.os.ZygoteInit$MethodAndArgsCaller.run, com.android.internal.os.ZygoteInit.main, de.robv.android.xposed.XposedBridge.main
AFTER android.app.Activity.getMenuInflater, returnValue: android.view.MenuInflater, invoked by: dalvik.system.VMStack.getThreadStackTrace, java.lang.Thread.getStackTrace, it.unimib.disco.lta.unimiblogger.MyMethodHook.beforeHookedMethod, de.robv.android.xposed.XposedBridge.handleHookedMethod, android.app.Activity.getMenuInflater, com.ascendtv.kanjifix.MainActivity.onCreateOptionsMenu, de.robv.android.xposed.XposedBridge.invokeOriginalMethodNative, de.robv.android.xposed.XposedBridge.handleHookedMethod, com.ascendtv.kanjifix.MainActivity.onCreateOptionsMenu, android.app.Activity.onCreatePanelMenu, com.android.internal.policy.impl.PhoneWindow.preparePanel, com.android.internal.policy.impl.PhoneWindow.doInvalidatePanelMenu, com.android.internal.policy.impl.PhoneWindow$1.run, android.os.Handler.handleCallback, android.os.Handler.dispatchMessage, android.os.Looper.loop, android.app.ActivityThread.main, java.lang.reflect.Method.invoke, java.lang.reflect.Method.invoke, com.android.internal.os.ZygoteInit$MethodAndArgsCaller.run, com.android.internal.os.ZygoteInit.main, de.robv.android.xposed.XposedBridge.main
BEFORE android.view.MenuInflater.inflate(2131361792,com.android.internal.view.menu.MenuBuilder), invoked by: dalvik.system.VMStack.getThreadStackTrace, java.lang.Thread.getStackTrace, it.unimib.disco.lta.unimiblogger.MyMethodHook.beforeHookedMethod, de.robv.android.xposed.XposedBridge.handleHookedMethod, android.view.MenuInflater.inflate, com.ascendtv.kanjifix.MainActivity.onCreateOptionsMenu, de.robv.android.xposed.XposedBridge.invokeOriginalMethodNative, de.robv.android.xposed.XposedBridge.handleHookedMethod, com.ascendtv.kanjifix.MainActivity.onCreateOptionsMenu, android.app.Activity.onCreatePanelMenu, com.android.internal.policy.impl.PhoneWindow.preparePanel, com.android.internal.policy.impl.PhoneWindow.doInvalidatePanelMenu, com.android.internal.policy.impl.PhoneWindow$1.run, android.os.Handler.handleCallback, android.os.Handler.dispatchMessage, android.os.Looper.loop, android.app.ActivityThread.main, java.lang.reflect.Method.invoke, java.lang.reflect.Method.invoke, com.android.internal.os.ZygoteInit$MethodAndArgsCaller.run, com.android.internal.os.ZygoteInit.main, de.robv.android.xposed.XposedBridge.main
AFTER android.view.MenuInflater.inflate, invoked by: dalvik.system.VMStack.getThreadStackTrace, java.lang.Thread.getStackTrace, it.unimib.disco.lta.unimiblogger.MyMethodHook.beforeHookedMethod, de.robv.android.xposed.XposedBridge.handleHookedMethod, android.view.MenuInflater.inflate, com.ascendtv.kanjifix.MainActivity.onCreateOptionsMenu, de.robv.android.xposed.XposedBridge.invokeOriginalMethodNative, de.robv.android.xposed.XposedBridge.handleHookedMethod, com.ascendtv.kanjifix.MainActivity.onCreateOptionsMenu, android.app.Activity.onCreatePanelMenu, com.android.internal.policy.impl.PhoneWindow.preparePanel, com.android.internal.policy.impl.PhoneWindow.doInvalidatePanelMenu, com.android.internal.policy.impl.PhoneWindow$1.run, android.os.Handler.handleCallback, android.os.Handler.dispatchMessage, android.os.Looper.loop, android.app.ActivityThread.main, java.lang.reflect.Method.invoke, java.lang.reflect.Method.invoke, com.android.internal.os.ZygoteInit$MethodAndArgsCaller.run, com.android.internal.os.ZygoteInit.main, de.robv.android.xposed.XposedBridge.main
AFTER com.ascendtv.kanjifix.MainActivity.onCreateOptionsMenu, returnValue: true, invoked by: dalvik.system.VMStack.getThreadStackTrace, java.lang.Thread.getStackTrace, it.unimib.disco.lta.unimiblogger.MyMethodHook.beforeHookedMethod, de.robv.android.xposed.XposedBridge.handleHookedMethod, com.ascendtv.kanjifix.MainActivity.onCreateOptionsMenu, android.app.Activity.onCreatePanelMenu, com.android.internal.policy.impl.PhoneWindow.preparePanel, com.android.internal.policy.impl.PhoneWindow.doInvalidatePanelMenu, com.android.internal.policy.impl.PhoneWindow$1.run, android.os.Handler.handleCallback, android.os.Handler.dispatchMessage, android.os.Looper.loop, android.app.ActivityThread.main, java.lang.reflect.Method.invoke, java.lang.reflect.Method.invoke, com.android.internal.os.ZygoteInit$MethodAndArgsCaller.run, com.android.internal.os.ZygoteInit.main, de.robv.android.xposed.XposedBridge.main
