BEFORE de.hu_berlin.eduroam.WiFiEduroam.onCreate()
BEFORE android.app.Activity.onCreate()
AFTER android.app.Activity.onCreate
BEFORE android.app.Activity.setContentView(2130903040)
AFTER android.app.Activity.setContentView
BEFORE android.app.Activity.getSystemService(wifi)
AFTER android.app.Activity.getSystemService, returnValue: android.net.wifi.WifiManager
BEFORE android.net.wifi.WifiManager.getConfiguredNetworks()
AFTER android.net.wifi.WifiManager.getConfiguredNetworks, returnValue: [], isEmpty: true
BEFORE android.app.Activity.findViewById(2130837515)
AFTER android.app.Activity.findViewById, returnValue: android.widget.EditText{5f9c119 VFED..CL .F....ID 0,0-0,0 #7f02000b app:id/username}
BEFORE android.app.Activity.findViewById(2130837509)
AFTER android.app.Activity.findViewById, returnValue: android.widget.EditText{168305de VFED..CL ......ID 0,0-0,0 #7f020005 app:id/password}
BEFORE android.app.Activity.findViewById(2130837505)
AFTER android.app.Activity.findViewById, returnValue: android.widget.Button{294753bf VFED..C. ......I. 0,0-0,0 #7f020001 app:id/button1}
AFTER de.hu_berlin.eduroam.WiFiEduroam.onCreate
BEFORE de.hu_berlin.eduroam.WiFiEduroam.onCreateOptionsMenu(com.android.internal.view.menu.MenuBuilder)
BEFORE android.app.Activity.getMenuInflater()
AFTER android.app.Activity.getMenuInflater, returnValue: android.view.MenuInflater
BEFORE android.view.MenuInflater.inflate(2130968576,com.android.internal.view.menu.MenuBuilder)
AFTER android.view.MenuInflater.inflate
AFTER de.hu_berlin.eduroam.WiFiEduroam.onCreateOptionsMenu, returnValue: true
