Position |MethodName|Relevancy
0.03225806451612903|android.app.ActivityThread$H.handleMessage|0.9314285714285714
0.06451612903225806|android.os.Handler.dispatchMessage|0.5328571428571428
0.0967741935483871|android.os.Looper.loop|0.5242857142857142
0.12903225806451613|android.app.ActivityThread.main|0.5157142857142857
0.16129032258064516|java.lang.reflect.Method.invoke|0.5071428571428571
0.1935483870967742|com.android.internal.os.ZygoteInit$MethodAndArgsCaller.run|0.49857142857142855
0.22580645161290322|com.android.internal.os.ZygoteInit.main|0.49
0.25806451612903225|be.uhasselt.privacypolice.ScanResultsChecker.onReceive|0.4864705882352941
0.2903225806451613|android.app.ActivityThread.handleReceiver|0.47789915966386554
0.3225806451612903|android.app.ActivityThread.-wrap14|0.469327731092437
0.3548387096774194|be.uhasselt.privacypolice.ScanResultsChecker.checkResults|0.4012605042016807
0.3870967741935484|be.uhasselt.privacypolice.ScanResultsChecker.getNetworkSafety|0.3784873949579832
0.41935483870967744|be.uhasselt.privacypolice.NotificationHandler.askNetworkPermission|0.32462184873949573
0.45161290322580644|be.uhasselt.privacypolice.ScanResultsChecker.getNetworkSafety|0.31605042016806717
0.4838709677419355|be.uhasselt.privacypolice.ScanResultsChecker.onReceive|0.2797478991596639
0.5161290322580645|android.app.ActivityThread.handleReceiver|0.2711764705882353
0.5483870967741935|be.uhasselt.privacypolice.ScanResultsChecker.checkResults|0.26411764705882357
0.5806451612903226|android.app.ActivityThread.access$1700|0.26260504201680673
0.6129032258064516|be.uhasselt.privacypolice.PreferencesStorage.getBSSIDs|0.2515126050420168
0.6451612903225806|be.uhasselt.privacypolice.PreferencesStorage.getOnlyConnectToKnownAccessPoints|0.2469747899159664
0.6774193548387096|be.uhasselt.privacypolice.PreferencesStorage.getAllowedBSSIDs|0.24294117647058822
0.7096774193548387|be.uhasselt.privacypolice.PreferencesActivity.onCreate|0.236890756302521
0.7419354838709677|android.app.Activity.performCreate|0.22831932773109243
0.7741935483870968|android.app.Instrumentation.callActivityOnCreate|0.21974789915966386
0.8064516129032258|android.app.ActivityThread.performLaunchActivity|0.2111764705882353
0.8387096774193549|android.support.v4.app.NotificationCompat$Builder.build|0.20319327731092435
0.8709677419354839|android.app.ActivityThread.handleLaunchActivity|0.2026050420168067
0.9032258064516129|android.app.ActivityThread.access$800|0.19403361344537814
0.9354838709677419|android.app.SharedPreferencesImpl.getStringSet|0.13008403361344537
0.967741935483871|android.app.SharedPreferencesImpl.getBoolean|0.12554621848739497
1.0|android.app.BackStackRecord.replace|0.1134453781512605
