digraph FULL {
"35458550-5ac6-46cb-8a0f-07b7d2bc21e6" [label="de.robv.android.xposed.XposedBridge.main\n Susp=1"];
"35458550-5ac6-46cb-8a0f-07b7d2bc21e6" -> "2b4a9e36-63f1-42fa-97cd-f6a880a1d3d0";
"2b4a9e36-63f1-42fa-97cd-f6a880a1d3d0" [label="com.android.internal.os.ZygoteInit.main\n Susp=1"];
"2b4a9e36-63f1-42fa-97cd-f6a880a1d3d0" -> "cd7dc0c2-86b8-4dd1-8c90-b5cfd2d040ec";
"cd7dc0c2-86b8-4dd1-8c90-b5cfd2d040ec" [label="com.android.internal.os.ZygoteInit$MethodAndArgsCaller.run\n Susp=1"];
"cd7dc0c2-86b8-4dd1-8c90-b5cfd2d040ec" -> "e19a12c8-07c1-4a1f-ba45-22025598155a";
"e19a12c8-07c1-4a1f-ba45-22025598155a" [label="java.lang.reflect.Method.invoke\n Susp=1"];
"e19a12c8-07c1-4a1f-ba45-22025598155a" -> "bdf9393e-ba81-4349-a151-15ff17823228";
"bdf9393e-ba81-4349-a151-15ff17823228" [label="android.app.ActivityThread.main\n Susp=1"];
"bdf9393e-ba81-4349-a151-15ff17823228" -> "c7f63929-fa7d-4f5c-b406-5b4f3a2b4578";
"c7f63929-fa7d-4f5c-b406-5b4f3a2b4578" [label="android.os.Looper.loop\n Susp=1"];
"c7f63929-fa7d-4f5c-b406-5b4f3a2b4578" -> "4fb9168e-4702-48a5-a20c-8217ac0afcfe";
"4fb9168e-4702-48a5-a20c-8217ac0afcfe" [label="android.os.Handler.dispatchMessage\n Susp=1"];
"4fb9168e-4702-48a5-a20c-8217ac0afcfe" -> "e7f3fda2-8414-4fc9-8c93-768daa0ade8b";
"e7f3fda2-8414-4fc9-8c93-768daa0ade8b" [label="android.app.ActivityThread$H.handleMessage\n Susp=1"];
"e7f3fda2-8414-4fc9-8c93-768daa0ade8b" -> "c81ff7f7-45bf-44d7-9eda-a174d374340a";
"c81ff7f7-45bf-44d7-9eda-a174d374340a" [label="android.app.ActivityThread.access$800\n Susp=1"];
"c81ff7f7-45bf-44d7-9eda-a174d374340a" -> "53e60e5a-ef6d-445f-b805-9a2b297ec392";
"53e60e5a-ef6d-445f-b805-9a2b297ec392" [label="android.app.ActivityThread.handleLaunchActivity\n Susp=1"];
"53e60e5a-ef6d-445f-b805-9a2b297ec392" -> "53b64d53-9678-41b2-8113-1b5d0d032bba";
"53b64d53-9678-41b2-8113-1b5d0d032bba" [label="android.app.ActivityThread.performLaunchActivity\n Susp=1"];
"53b64d53-9678-41b2-8113-1b5d0d032bba" -> "c950ec7d-66a7-4f49-96a0-c808d203e704";
"c950ec7d-66a7-4f49-96a0-c808d203e704" [label="android.app.Instrumentation.callActivityOnCreate\n Susp=1"];
"c950ec7d-66a7-4f49-96a0-c808d203e704" -> "b752b03c-d548-4a99-9462-bb1e5e3b86db";
"b752b03c-d548-4a99-9462-bb1e5e3b86db" [label="android.app.Activity.performCreate\n Susp=1"];
"b752b03c-d548-4a99-9462-bb1e5e3b86db" -> "a6311022-e9d7-4cf0-b194-d382b25c93c1";
"a6311022-e9d7-4cf0-b194-d382b25c93c1" [label="anupam.acrylic.Splash.onCreate\n Susp=1"];
"a6311022-e9d7-4cf0-b194-d382b25c93c1" -> "ad7600c7-622f-4b07-b444-07e68d181c9b";
"ad7600c7-622f-4b07-b444-07e68d181c9b" [label="de.robv.android.xposed.XposedBridge.handleHookedMethod\n Susp=1"];
"ad7600c7-622f-4b07-b444-07e68d181c9b" -> "37ff70a4-c977-4e90-ad4e-aff6eeea029e";
"37ff70a4-c977-4e90-ad4e-aff6eeea029e" [label="it.unimib.disco.lta.unimiblogger.MyMethodHook.beforeHookedMethod\n Susp=1"];
"37ff70a4-c977-4e90-ad4e-aff6eeea029e" -> "1dbe949a-5fb7-4123-a066-eddde0dc7bfb";
"1dbe949a-5fb7-4123-a066-eddde0dc7bfb" [label="java.lang.Thread.getStackTrace\n Susp=1"];
"1dbe949a-5fb7-4123-a066-eddde0dc7bfb" -> "93c9a7d0-0e69-4371-a61f-7a350b4c1273";
"93c9a7d0-0e69-4371-a61f-7a350b4c1273" [label="dalvik.system.VMStack.getThreadStackTrace\n Susp=0,2"];
}
