digraph PoGoIV {
"049dad44-8221-48a3-881c-52b20371514e" [style=filled, fillcolor="#5E5E5E",fontcolor=white, label="de.robv.android.xposed.XposedBridge.main\n Susp=0.965"];
"049dad44-8221-48a3-881c-52b20371514e" -> "7b3bc712-11aa-4aec-b507-3fd525388f15";
"7b3bc712-11aa-4aec-b507-3fd525388f15" [style=filled, fillcolor="#5E5E5E",fontcolor=white, label="com.android.internal.os.ZygoteInit.main\n Susp=0.9045"];
"7b3bc712-11aa-4aec-b507-3fd525388f15" -> "31f9bb97-309f-49c3-ac07-480cf62514ba";
"31f9bb97-309f-49c3-ac07-480cf62514ba" [style=filled, fillcolor="#5E5E5E",fontcolor=white, label="com.android.internal.os.ZygoteInit$MethodAndArgsCaller.run\n Susp=0.905"];
"31f9bb97-309f-49c3-ac07-480cf62514ba" -> "a0ca94a2-38f8-4a9e-b455-06212dfe5f5d";
"a0ca94a2-38f8-4a9e-b455-06212dfe5f5d" [style=filled, fillcolor="#5E5E5E",fontcolor=white, label="java.lang.reflect.Method.invoke\n Susp=0.9056"];
"a0ca94a2-38f8-4a9e-b455-06212dfe5f5d" -> "1a8eb0e3-3cbb-4e72-b813-0864a5fe0e99";
"1a8eb0e3-3cbb-4e72-b813-0864a5fe0e99" [style=filled, fillcolor="#5E5E5E",fontcolor=white, label="android.app.ActivityThread.main\n Susp=0.9061"];
"1a8eb0e3-3cbb-4e72-b813-0864a5fe0e99" -> "68a7e83c-7eed-4dc2-80c2-a11127774384";
"68a7e83c-7eed-4dc2-80c2-a11127774384" [style=filled, fillcolor="#5E5E5E",fontcolor=white, label="android.os.Looper.loop\n Susp=0.9066"];
"68a7e83c-7eed-4dc2-80c2-a11127774384" -> "45911710-f7a2-4aab-b799-f70651530321";
"45911710-f7a2-4aab-b799-f70651530321" [style=filled, fillcolor="#5E5E5E",fontcolor=white, label="android.os.Handler.dispatchMessage\n Susp=0.9121"];
"45911710-f7a2-4aab-b799-f70651530321" -> "f23e4995-8a34-4317-b7b6-527ed1ef6fe4";
"f23e4995-8a34-4317-b7b6-527ed1ef6fe4" [style=filled, fillcolor="#A9A9A9", label="android.app.ActivityThread$H.handleMessage\n Susp=0.374"];
"f23e4995-8a34-4317-b7b6-527ed1ef6fe4" -> "495082da-af24-4f5d-b8e7-c2d9cb73a403";
"495082da-af24-4f5d-b8e7-c2d9cb73a403" [style=filled, fillcolor="#FFFFFF", label="android.app.ActivityThread.-wrap12\n Susp=0.135"];
"495082da-af24-4f5d-b8e7-c2d9cb73a403" -> "75f6565f-4f4b-4d46-b644-a67bcb16d0a4";
"75f6565f-4f4b-4d46-b644-a67bcb16d0a4" [style=filled, fillcolor="#FFFFFF", label="android.app.ActivityThread.handleLaunchActivity\n Susp=0.1356"];
"75f6565f-4f4b-4d46-b644-a67bcb16d0a4" -> "da1dd516-e9c9-4327-bbca-ecc75c09ea15";
"da1dd516-e9c9-4327-bbca-ecc75c09ea15" [style=filled, fillcolor="#FFFFFF", label="android.app.ActivityThread.performLaunchActivity\n Susp=0.1361"];
"da1dd516-e9c9-4327-bbca-ecc75c09ea15" -> "43542cc7-48a2-440d-b046-528f86ac5c13";
"43542cc7-48a2-440d-b046-528f86ac5c13" [style=filled, fillcolor="#FFFFFF", label="android.app.Instrumentation.callActivityOnCreate\n Susp=0.1366"];
"43542cc7-48a2-440d-b046-528f86ac5c13" -> "52f4532c-9a6d-43ec-bf5d-5cdffb7340b4";
"52f4532c-9a6d-43ec-bf5d-5cdffb7340b4" [style=filled, fillcolor="#FFFFFF", label="android.app.Activity.performCreate\n Susp=0.1371"];
"52f4532c-9a6d-43ec-bf5d-5cdffb7340b4" -> "8d866d92-fed9-49c8-8efd-ccd5c63aef84";
"8d866d92-fed9-49c8-8efd-ccd5c63aef84" [style=filled, fillcolor="#FFFFFF", label="com.kamron.pogoiv.MainActivity.onCreate\n Susp=0.1377"];
"8d866d92-fed9-49c8-8efd-ccd5c63aef84" -> "a0d6e914-114e-4b86-8180-6a2d59816b42";
"a0d6e914-114e-4b86-8180-6a2d59816b42" [style=filled, fillcolor="#FFFFFF", label="com.kamron.pogoiv.MainActivity.initiateAndLoadSettings\n Susp=0.0222"];
"a0d6e914-114e-4b86-8180-6a2d59816b42" -> "3e5a1ca4-d5de-4612-8eff-d0534335f486";
"3e5a1ca4-d5de-4612-8eff-d0534335f486" [style=filled, fillcolor="#FFFFFF", label="android.preference.PreferenceManager.setDefaultValues\n Susp=0.0228"];
"3e5a1ca4-d5de-4612-8eff-d0534335f486" -> "3c15d5a4-c5c5-4d7b-a3b4-d6ddd5289c00";
"3c15d5a4-c5c5-4d7b-a3b4-d6ddd5289c00" [style=filled, fillcolor="#FFFFFF", label="android.preference.PreferenceManager.inflateFromResource\n Susp=0.0168"];
"3c15d5a4-c5c5-4d7b-a3b4-d6ddd5289c00" -> "9e01f321-b233-425c-8a4f-f61a1d02f103";
"9e01f321-b233-425c-8a4f-f61a1d02f103" [style=filled, fillcolor="#FFFFFF", label="android.preference.GenericInflater.inflate\n Susp=0.0174"];
"9e01f321-b233-425c-8a4f-f61a1d02f103" -> "f0493348-b07e-48e2-a3d1-cfeff0fb96ca";
"f0493348-b07e-48e2-a3d1-cfeff0fb96ca" [style=filled, fillcolor="#FFFFFF", label="android.preference.GenericInflater.rInflate\n Susp=0.0179"];
"f0493348-b07e-48e2-a3d1-cfeff0fb96ca" -> "82b53c30-2f9a-4401-a651-650da3026381";
"82b53c30-2f9a-4401-a651-650da3026381" [style=filled, fillcolor="#FFFFFF", label="android.preference.GenericInflater.createItemFromTag\n Susp=0.0184"];
"82b53c30-2f9a-4401-a651-650da3026381" -> "f97f77a7-cb4a-4591-ab3d-74c4d7409a25";
"f97f77a7-cb4a-4591-ab3d-74c4d7409a25" [style=filled, fillcolor="#FFFFFF", label="android.preference.GenericInflater.createItem\n Susp=0.0189"];
"f97f77a7-cb4a-4591-ab3d-74c4d7409a25" -> "e4ff7dbf-ff05-43f1-a76c-648c87073068";
"e4ff7dbf-ff05-43f1-a76c-648c87073068" [style=filled, fillcolor="#FFFFFF", label="java.lang.reflect.Constructor.newInstance\n Susp=0.0195"];
"e4ff7dbf-ff05-43f1-a76c-648c87073068" -> "8149ab8c-4be4-473a-86a4-fa291e5ad6c7";
"8149ab8c-4be4-473a-86a4-fa291e5ad6c7" [style=filled, fillcolor="#FFFFFF", label="java.lang.reflect.Constructor.newInstance0\n Susp=0.02"];
"8149ab8c-4be4-473a-86a4-fa291e5ad6c7" -> "ee46e0b9-2b36-4e05-bd8c-8cc0df269906";
"ee46e0b9-2b36-4e05-bd8c-8cc0df269906" [style=filled, fillcolor="#FFFFFF", label="com.pavelsikun.seekbarpreference.SeekBarPreference.<init>\n Susp=0.0205"];
"ee46e0b9-2b36-4e05-bd8c-8cc0df269906" -> "f61555ce-bf55-4285-a1c1-dd53273cd9dc";
"f61555ce-bf55-4285-a1c1-dd53273cd9dc" [style=filled, fillcolor="#FFFFFF", label="com.pavelsikun.seekbarpreference.SeekBarPreference.init\n Susp=0.021"];
"f61555ce-bf55-4285-a1c1-dd53273cd9dc" -> "fbc8957c-b758-408e-ae1b-55f74e1e7c3e";
"fbc8957c-b758-408e-ae1b-55f74e1e7c3e" [style=filled, fillcolor="#FFFFFF", label="com.pavelsikun.seekbarpreference.PreferenceControllerDelegate.loadValuesFromXml\n Susp=0.0216"];
"fbc8957c-b758-408e-ae1b-55f74e1e7c3e" -> "c5573533-c048-4f52-a0d8-2f320e73404d";
"c5573533-c048-4f52-a0d8-2f320e73404d" [style=filled, fillcolor="#FFFFFF", label="android.content.Context.obtainStyledAttributes\n Susp=0.0196"];
"f23e4995-8a34-4317-b7b6-527ed1ef6fe4" -> "33a0dcc1-8685-4538-82ba-60171ec89b4d";
"33a0dcc1-8685-4538-82ba-60171ec89b4d" [style=filled, fillcolor="#FFFFFF", label="android.app.ActivityThread.-wrap21\n Susp=0.0577"];
"33a0dcc1-8685-4538-82ba-60171ec89b4d" -> "1e8eb642-5179-416f-8541-221986f56195";
"1e8eb642-5179-416f-8541-221986f56195" [style=filled, fillcolor="#FFFFFF", label="android.app.ActivityThread.handleServiceArgs\n Susp=0.0608"];
"1e8eb642-5179-416f-8541-221986f56195" -> "05dd9869-f02d-41da-a736-b15e5020ef19";
"05dd9869-f02d-41da-a736-b15e5020ef19" [style=filled, fillcolor="#FFFFFF", label="com.kamron.pogoiv.updater.DownloadUpdateService.onStartCommand\n Susp=0.0201"];
"05dd9869-f02d-41da-a736-b15e5020ef19" -> "f074e223-e6f8-4215-af80-f347ea82fa6f";
"f074e223-e6f8-4215-af80-f347ea82fa6f" [style=filled, fillcolor="#FFFFFF", label="android.app.DownloadManager.enqueue\n Susp=0.0117"];
"1e8eb642-5179-416f-8541-221986f56195" -> "43602d6b-4655-4546-b124-8e4c336672bb";
"43602d6b-4655-4546-b124-8e4c336672bb" [style=filled, fillcolor="#FFFFFF", label="com.kamron.pogoiv.Pokefly.onStartCommand\n Susp=0.0509"];
"43602d6b-4655-4546-b124-8e4c336672bb" -> "f2853416-6f14-450e-9d0e-5b1db8fadc37";
"f2853416-6f14-450e-9d0e-5b1db8fadc37" [style=filled, fillcolor="#FFFFFF", label="com.kamron.pogoiv.Pokefly.createFlyingComponents\n Susp=0.0335"];
"f2853416-6f14-450e-9d0e-5b1db8fadc37" -> "435b8bed-84ae-49ce-acee-72cdd6b8bb52";
"435b8bed-84ae-49ce-acee-72cdd6b8bb52" [style=filled, fillcolor="#FFFFFF", label="com.kamron.pogoiv.Pokefly.createInfoLayout\n Susp=0.0341"];
"435b8bed-84ae-49ce-acee-72cdd6b8bb52" -> "08eaa9d7-590d-4be5-a3de-b3b203ca7d7f";
"08eaa9d7-590d-4be5-a3de-b3b203ca7d7f" [style=filled, fillcolor="#FFFFFF", label="android.view.LayoutInflater.inflate\n Susp=0.0321"];
"43602d6b-4655-4546-b124-8e4c336672bb" -> "3b1419f6-1ebd-48b0-ab5e-407afe4ea52d";
"3b1419f6-1ebd-48b0-ab5e-407afe4ea52d" [style=filled, fillcolor="#FFFFFF", label="com.kamron.pogoiv.AutoAppraisal.<init>\n Susp=0.0142"];
"3b1419f6-1ebd-48b0-ab5e-407afe4ea52d" -> "9af937b5-2739-4a05-bc8d-8776d25827f1";
"9af937b5-2739-4a05-bc8d-8776d25827f1" [style=filled, fillcolor="#FFFFFF", label="com.kamron.pogoiv.AutoAppraisal.getAppraisalPhrases\n Susp=0.0147"];
"9af937b5-2739-4a05-bc8d-8776d25827f1" -> "c90a9a38-c246-407f-b51b-1fca4720a9bd";
"c90a9a38-c246-407f-b51b-1fca4720a9bd" [style=filled, fillcolor="#FFFFFF", label="android.content.Context.getString\n Susp=0.0128"];
"43602d6b-4655-4546-b124-8e4c336672bb" -> "d5790abf-e53a-4ca6-9c6a-701d231fbe60";
"d5790abf-e53a-4ca6-9c6a-701d231fbe60" [style=filled, fillcolor="#FFFFFF", label="com.kamron.pogoiv.Pokefly.makeNotification\n Susp=0.0142"];
"d5790abf-e53a-4ca6-9c6a-701d231fbe60" -> "55fa2d48-c958-4dc0-80cf-239484975f47";
"55fa2d48-c958-4dc0-80cf-239484975f47" [style=filled, fillcolor="#FFFFFF", label="android.content.Context.getString\n Susp=0.0122"];
"f23e4995-8a34-4317-b7b6-527ed1ef6fe4" -> "704419f1-cd12-4d17-bbba-71b1730ca236";
"704419f1-cd12-4d17-bbba-71b1730ca236" [style=filled, fillcolor="#FFFFFF", label="android.app.ActivityThread.-wrap11\n Susp=0.135"];
"704419f1-cd12-4d17-bbba-71b1730ca236" -> "e9823fb5-4efe-4f30-b943-5851f7e6a8d8";
"e9823fb5-4efe-4f30-b943-5851f7e6a8d8" [style=filled, fillcolor="#FFFFFF", label="android.app.ActivityThread.handleLaunchActivity\n Susp=0.1356"];
"e9823fb5-4efe-4f30-b943-5851f7e6a8d8" -> "2af8ec10-5730-4174-97b2-8e1d14394bc9";
"2af8ec10-5730-4174-97b2-8e1d14394bc9" [style=filled, fillcolor="#FFFFFF", label="android.app.ActivityThread.performLaunchActivity\n Susp=0.1361"];
"2af8ec10-5730-4174-97b2-8e1d14394bc9" -> "8164586d-7474-4884-8e78-8ae4d2d5d412";
"8164586d-7474-4884-8e78-8ae4d2d5d412" [style=filled, fillcolor="#FFFFFF", label="android.app.Instrumentation.callActivityOnCreate\n Susp=0.1366"];
"8164586d-7474-4884-8e78-8ae4d2d5d412" -> "72530e86-e696-4aa5-915e-02d4a4caba1a";
"72530e86-e696-4aa5-915e-02d4a4caba1a" [style=filled, fillcolor="#FFFFFF", label="android.app.Activity.performCreate\n Susp=0.1371"];
"72530e86-e696-4aa5-915e-02d4a4caba1a" -> "9e783ec7-23f0-4c0e-adb2-d5665034346d";
"9e783ec7-23f0-4c0e-adb2-d5665034346d" [style=filled, fillcolor="#FFFFFF", label="com.kamron.pogoiv.MainActivity.onCreate\n Susp=0.1377"];
"9e783ec7-23f0-4c0e-adb2-d5665034346d" -> "8af94fab-5899-425a-82b2-94a2298f6476";
"8af94fab-5899-425a-82b2-94a2298f6476" [style=filled, fillcolor="#FFFFFF", label="com.kamron.pogoiv.MainActivity.initiateAndLoadSettings\n Susp=0.0222"];
"8af94fab-5899-425a-82b2-94a2298f6476" -> "6f935b36-b037-4110-ac0b-c0d789edff8a";
"6f935b36-b037-4110-ac0b-c0d789edff8a" [style=filled, fillcolor="#FFFFFF", label="android.preference.PreferenceManager.setDefaultValues\n Susp=0.0228"];
"6f935b36-b037-4110-ac0b-c0d789edff8a" -> "acbd194b-2d94-4397-bd1c-1d3d4e66d375";
"acbd194b-2d94-4397-bd1c-1d3d4e66d375" [style=filled, fillcolor="#FFFFFF", label="android.preference.PreferenceManager.inflateFromResource\n Susp=0.0168"];
"acbd194b-2d94-4397-bd1c-1d3d4e66d375" -> "fe875950-b34d-4b0d-85f1-2409c3a2497b";
"fe875950-b34d-4b0d-85f1-2409c3a2497b" [style=filled, fillcolor="#FFFFFF", label="android.preference.GenericInflater.inflate\n Susp=0.0174"];
"fe875950-b34d-4b0d-85f1-2409c3a2497b" -> "d649125b-6d5d-4ba0-af2f-57777e20d236";
"d649125b-6d5d-4ba0-af2f-57777e20d236" [style=filled, fillcolor="#FFFFFF", label="android.preference.GenericInflater.rInflate\n Susp=0.0179"];
"d649125b-6d5d-4ba0-af2f-57777e20d236" -> "0fd97408-dfbe-41ea-a7fe-65500621fb9b";
"0fd97408-dfbe-41ea-a7fe-65500621fb9b" [style=filled, fillcolor="#FFFFFF", label="android.preference.GenericInflater.createItemFromTag\n Susp=0.0184"];
"0fd97408-dfbe-41ea-a7fe-65500621fb9b" -> "c1b41f78-6f5f-4398-99e9-027169200df5";
"c1b41f78-6f5f-4398-99e9-027169200df5" [style=filled, fillcolor="#FFFFFF", label="android.preference.GenericInflater.createItem\n Susp=0.0189"];
"c1b41f78-6f5f-4398-99e9-027169200df5" -> "136d4274-c6b0-4512-901f-df2faa84927d";
"136d4274-c6b0-4512-901f-df2faa84927d" [style=filled, fillcolor="#FFFFFF", label="java.lang.reflect.Constructor.newInstance\n Susp=0.0195"];
"136d4274-c6b0-4512-901f-df2faa84927d" -> "2d25a017-76c4-41a9-8685-7c361b4bb326";
"2d25a017-76c4-41a9-8685-7c361b4bb326" [style=filled, fillcolor="#FFFFFF", label="com.pavelsikun.seekbarpreference.SeekBarPreference.<init>\n Susp=0.02"];
"2d25a017-76c4-41a9-8685-7c361b4bb326" -> "69e77e0a-d008-42e6-9af7-f0fb0a41f74c";
"69e77e0a-d008-42e6-9af7-f0fb0a41f74c" [style=filled, fillcolor="#FFFFFF", label="com.pavelsikun.seekbarpreference.SeekBarPreference.init\n Susp=0.0205"];
"69e77e0a-d008-42e6-9af7-f0fb0a41f74c" -> "d9443a0c-30fa-4040-a710-fbee484fb8f5";
"d9443a0c-30fa-4040-a710-fbee484fb8f5" [style=filled, fillcolor="#FFFFFF", label="com.pavelsikun.seekbarpreference.PreferenceControllerDelegate.loadValuesFromXml\n Susp=0.021"];
"d9443a0c-30fa-4040-a710-fbee484fb8f5" -> "05350a97-32e7-4a03-853e-473fa1012517";
"05350a97-32e7-4a03-853e-473fa1012517" [style=filled, fillcolor="#FFFFFF", label="android.content.Context.obtainStyledAttributes\n Susp=0.0191"];
"f23e4995-8a34-4317-b7b6-527ed1ef6fe4" -> "039777a8-823d-49b9-9a9d-b764b160bdb0";
"039777a8-823d-49b9-9a9d-b764b160bdb0" [style=filled, fillcolor="#FFFFFF", label="android.app.ActivityThread.-wrap17\n Susp=0.0577"];
"039777a8-823d-49b9-9a9d-b764b160bdb0" -> "70e8e86d-8056-448a-9001-bb61775f8d49";
"70e8e86d-8056-448a-9001-bb61775f8d49" [style=filled, fillcolor="#FFFFFF", label="android.app.ActivityThread.handleServiceArgs\n Susp=0.0608"];
"70e8e86d-8056-448a-9001-bb61775f8d49" -> "0cd5f0c2-018d-4063-a36e-baf8664d2af7";
"0cd5f0c2-018d-4063-a36e-baf8664d2af7" [style=filled, fillcolor="#FFFFFF", label="com.kamron.pogoiv.updater.DownloadUpdateService.onStartCommand\n Susp=0.0201"];
"0cd5f0c2-018d-4063-a36e-baf8664d2af7" -> "8b5210e8-0a88-4cb1-8a89-cb47c936e164";
"8b5210e8-0a88-4cb1-8a89-cb47c936e164" [style=filled, fillcolor="#FFFFFF", label="android.app.DownloadManager.enqueue\n Susp=0.0117"];
"70e8e86d-8056-448a-9001-bb61775f8d49" -> "26b1dc1b-2a71-4e8e-b796-aeec4c427ead";
"26b1dc1b-2a71-4e8e-b796-aeec4c427ead" [style=filled, fillcolor="#FFFFFF", label="com.kamron.pogoiv.Pokefly.onStartCommand\n Susp=0.0509"];
"26b1dc1b-2a71-4e8e-b796-aeec4c427ead" -> "2606face-b9ef-403c-be8e-883a21f440f7";
"2606face-b9ef-403c-be8e-883a21f440f7" [style=filled, fillcolor="#FFFFFF", label="com.kamron.pogoiv.Pokefly.createFlyingComponents\n Susp=0.0335"];
"2606face-b9ef-403c-be8e-883a21f440f7" -> "71675ac3-b3a4-4593-b8f3-4a42a0d56afa";
"71675ac3-b3a4-4593-b8f3-4a42a0d56afa" [style=filled, fillcolor="#FFFFFF", label="com.kamron.pogoiv.Pokefly.createInfoLayout\n Susp=0.0341"];
"71675ac3-b3a4-4593-b8f3-4a42a0d56afa" -> "049a52c2-ac07-498e-a449-0dc149e99cee";
"049a52c2-ac07-498e-a449-0dc149e99cee" [style=filled, fillcolor="#FFFFFF", label="android.view.LayoutInflater.inflate\n Susp=0.0321"];
"26b1dc1b-2a71-4e8e-b796-aeec4c427ead" -> "42450e36-f86c-4155-a3d5-dc5329ff34e0";
"42450e36-f86c-4155-a3d5-dc5329ff34e0" [style=filled, fillcolor="#FFFFFF", label="com.kamron.pogoiv.AutoAppraisal.<init>\n Susp=0.0142"];
"42450e36-f86c-4155-a3d5-dc5329ff34e0" -> "fb177541-a782-4dbb-a887-872127c4d759";
"fb177541-a782-4dbb-a887-872127c4d759" [style=filled, fillcolor="#FFFFFF", label="com.kamron.pogoiv.AutoAppraisal.getAppraisalPhrases\n Susp=0.0147"];
"fb177541-a782-4dbb-a887-872127c4d759" -> "de082b58-e336-43be-a728-ecdf3527c42c";
"de082b58-e336-43be-a728-ecdf3527c42c" [style=filled, fillcolor="#FFFFFF", label="android.content.Context.getString\n Susp=0.0128"];
"26b1dc1b-2a71-4e8e-b796-aeec4c427ead" -> "b4cc5571-527f-43e9-bdd8-f679ea101670";
"b4cc5571-527f-43e9-bdd8-f679ea101670" [style=filled, fillcolor="#FFFFFF", label="com.kamron.pogoiv.Pokefly.makeNotification\n Susp=0.0142"];
"b4cc5571-527f-43e9-bdd8-f679ea101670" -> "4fdb2084-7acc-42f4-98ff-1067d2233628";
"4fdb2084-7acc-42f4-98ff-1067d2233628" [style=filled, fillcolor="#FFFFFF", label="android.content.Context.getString\n Susp=0.0122"];
"45911710-f7a2-4aab-b799-f70651530321" -> "15d81568-05bf-4ef3-be86-6b1ef36c54db";
"15d81568-05bf-4ef3-be86-6b1ef36c54db" [style=filled, fillcolor="#5E5E5E",fontcolor=white, label="android.os.Handler.handleCallback\n Susp=0.5286"];
"15d81568-05bf-4ef3-be86-6b1ef36c54db" -> "793bf7e8-b446-40bd-8ee5-d43c03398523";
"793bf7e8-b446-40bd-8ee5-d43c03398523" [style=filled, fillcolor="#FFFFFF", label="android.view.Choreographer$FrameDisplayEventReceiver.run\n Susp=0.0835"];
"793bf7e8-b446-40bd-8ee5-d43c03398523" -> "7f803d18-5330-4d3e-927b-eeb195290621";
"7f803d18-5330-4d3e-927b-eeb195290621" [style=filled, fillcolor="#FFFFFF", label="android.view.Choreographer.doFrame\n Susp=0.084"];
"7f803d18-5330-4d3e-927b-eeb195290621" -> "86b7c657-3508-4861-abe6-059e1b8f6c4f";
"86b7c657-3508-4861-abe6-059e1b8f6c4f" [style=filled, fillcolor="#FFFFFF", label="android.view.Choreographer.doCallbacks\n Susp=0.0846"];
"86b7c657-3508-4861-abe6-059e1b8f6c4f" -> "76a2e6a7-d1d0-4315-958d-b1a1067be128";
"76a2e6a7-d1d0-4315-958d-b1a1067be128" [style=filled, fillcolor="#FFFFFF", label="android.view.Choreographer$CallbackRecord.run\n Susp=0.0851"];
"76a2e6a7-d1d0-4315-958d-b1a1067be128" -> "81715f37-6040-4b0e-8f55-8b5614a92359";
"81715f37-6040-4b0e-8f55-8b5614a92359" [style=filled, fillcolor="#FFFFFF", label="android.view.ViewRootImpl$TraversalRunnable.run\n Susp=0.0856"];
"81715f37-6040-4b0e-8f55-8b5614a92359" -> "de0433ad-8e94-4b9f-9d57-f93cf5e46a28";
"de0433ad-8e94-4b9f-9d57-f93cf5e46a28" [style=filled, fillcolor="#FFFFFF", label="android.view.ViewRootImpl.doTraversal\n Susp=0.0861"];
"de0433ad-8e94-4b9f-9d57-f93cf5e46a28" -> "71d8ff7d-4b17-4316-9117-6711c61c60cc";
"71d8ff7d-4b17-4316-9117-6711c61c60cc" [style=filled, fillcolor="#FFFFFF", label="android.view.ViewRootImpl.performTraversals\n Susp=0.0917"];
"71d8ff7d-4b17-4316-9117-6711c61c60cc" -> "eef4cde0-8fb7-455e-9c92-4e9a9aee02e8";
"eef4cde0-8fb7-455e-9c92-4e9a9aee02e8" [style=filled, fillcolor="#FFFFFF", label="android.view.ViewRootImpl.measureHierarchy\n Susp=0.0356"];
"eef4cde0-8fb7-455e-9c92-4e9a9aee02e8" -> "a9d9f95c-965f-40ba-ab20-e0a2cfaebe69";
"a9d9f95c-965f-40ba-ab20-e0a2cfaebe69" [style=filled, fillcolor="#FFFFFF", label="android.view.ViewRootImpl.performMeasure\n Susp=0.0362"];
"a9d9f95c-965f-40ba-ab20-e0a2cfaebe69" -> "81396584-8f56-4e70-a2b2-da233cb56cc9";
"81396584-8f56-4e70-a2b2-da233cb56cc9" [style=filled, fillcolor="#FFFFFF", label="android.view.View.measure\n Susp=0.0392"];
"81396584-8f56-4e70-a2b2-da233cb56cc9" -> "93a92f23-4f1a-454a-acee-e94fa70bd443";
"93a92f23-4f1a-454a-acee-e94fa70bd443" [style=filled, fillcolor="#FFFFFF", label="com.android.internal.policy.DecorView.onMeasure\n Susp=0.0243"];
"93a92f23-4f1a-454a-acee-e94fa70bd443" -> "e91fe911-8920-434e-9a95-388e6c6b801b";
"e91fe911-8920-434e-9a95-388e6c6b801b" [style=filled, fillcolor="#FFFFFF", label="android.widget.FrameLayout.onMeasure\n Susp=0.0249"];
"e91fe911-8920-434e-9a95-388e6c6b801b" -> "998f43ec-9609-49a6-afee-2887512a7484";
"998f43ec-9609-49a6-afee-2887512a7484" [style=filled, fillcolor="#FFFFFF", label="android.view.ViewGroup.measureChildWithMargins\n Susp=0.0254"];
"998f43ec-9609-49a6-afee-2887512a7484" -> "31bd0bde-0f70-4dfe-9976-69a2e4c2503a";
"31bd0bde-0f70-4dfe-9976-69a2e4c2503a" [style=filled, fillcolor="#FFFFFF", label="android.view.View.measure\n Susp=0.0259"];
"31bd0bde-0f70-4dfe-9976-69a2e4c2503a" -> "b7c57827-51e7-4da9-9c95-e6e17226a5e7";
"b7c57827-51e7-4da9-9c95-e6e17226a5e7" [style=filled, fillcolor="#FFFFFF", label="android.widget.LinearLayout.onMeasure\n Susp=0.0264"];
"b7c57827-51e7-4da9-9c95-e6e17226a5e7" -> "5ad4f819-6b62-469a-ad5a-bd3c62137550";
"5ad4f819-6b62-469a-ad5a-bd3c62137550" [style=filled, fillcolor="#FFFFFF", label="android.widget.LinearLayout.measureVertical\n Susp=0.027"];
"5ad4f819-6b62-469a-ad5a-bd3c62137550" -> "bc081600-af1c-4c0f-895e-f1b4f5dcfda8";
"bc081600-af1c-4c0f-895e-f1b4f5dcfda8" [style=filled, fillcolor="#FFFFFF", label="android.widget.LinearLayout.measureChildBeforeLayout\n Susp=0.0275"];
"bc081600-af1c-4c0f-895e-f1b4f5dcfda8" -> "cf688028-8c87-43b6-bf5a-1fe93b88601e";
"cf688028-8c87-43b6-bf5a-1fe93b88601e" [style=filled, fillcolor="#FFFFFF", label="android.view.ViewGroup.measureChildWithMargins\n Susp=0.028"];
"cf688028-8c87-43b6-bf5a-1fe93b88601e" -> "b1d0b9f0-9a24-4089-9c76-ab12c2deb369";
"b1d0b9f0-9a24-4089-9c76-ab12c2deb369" [style=filled, fillcolor="#FFFFFF", label="android.view.View.measure\n Susp=0.0285"];
"b1d0b9f0-9a24-4089-9c76-ab12c2deb369" -> "73444f17-4db5-421b-bc91-a6e4289c197c";
"73444f17-4db5-421b-bc91-a6e4289c197c" [style=filled, fillcolor="#FFFFFF", label="android.widget.FrameLayout.onMeasure\n Susp=0.0291"];
"73444f17-4db5-421b-bc91-a6e4289c197c" -> "ff16b241-6c8d-48c9-b995-3c4d5e17a452";
"ff16b241-6c8d-48c9-b995-3c4d5e17a452" [style=filled, fillcolor="#FFFFFF", label="android.view.ViewGroup.measureChildWithMargins\n Susp=0.0296"];
"ff16b241-6c8d-48c9-b995-3c4d5e17a452" -> "1e69b274-cce5-461a-8179-8ed0cb1abc3c";
"1e69b274-cce5-461a-8179-8ed0cb1abc3c" [style=filled, fillcolor="#FFFFFF", label="android.view.View.measure\n Susp=0.0301"];
"1e69b274-cce5-461a-8179-8ed0cb1abc3c" -> "660ae891-0eab-4dc4-a08c-49d437dc8186";
"660ae891-0eab-4dc4-a08c-49d437dc8186" [style=filled, fillcolor="#FFFFFF", label="android.support.v7.widget.ActionBarOverlayLayout.onMeasure\n Susp=0.0306"];
"660ae891-0eab-4dc4-a08c-49d437dc8186" -> "2f8eaa29-bddb-47a0-baf2-a5bd24f1b2db";
"2f8eaa29-bddb-47a0-baf2-a5bd24f1b2db" [style=filled, fillcolor="#FFFFFF", label="android.view.ViewGroup.measureChildWithMargins\n Susp=0.0312"];
"2f8eaa29-bddb-47a0-baf2-a5bd24f1b2db" -> "bbfb0851-54b6-4f32-a772-944885d67e83";
"bbfb0851-54b6-4f32-a772-944885d67e83" [style=filled, fillcolor="#FFFFFF", label="android.view.View.measure\n Susp=0.0317"];
"bbfb0851-54b6-4f32-a772-944885d67e83" -> "9350441d-1289-4265-a12e-4a427c63ace4";
"9350441d-1289-4265-a12e-4a427c63ace4" [style=filled, fillcolor="#FFFFFF", label="android.support.v7.widget.ContentFrameLayout.onMeasure\n Susp=0.0322"];
"9350441d-1289-4265-a12e-4a427c63ace4" -> "8c20d111-bbc6-4f17-9d1d-bdedcd134d95";
"8c20d111-bbc6-4f17-9d1d-bdedcd134d95" [style=filled, fillcolor="#FFFFFF", label="android.widget.FrameLayout.onMeasure\n Susp=0.0328"];
"8c20d111-bbc6-4f17-9d1d-bdedcd134d95" -> "58926a24-6c78-499f-8037-064936744413";
"58926a24-6c78-499f-8037-064936744413" [style=filled, fillcolor="#FFFFFF", label="android.view.ViewGroup.measureChildWithMargins\n Susp=0.0333"];
"58926a24-6c78-499f-8037-064936744413" -> "013ec341-353d-4b75-9617-31926bb35698";
"013ec341-353d-4b75-9617-31926bb35698" [style=filled, fillcolor="#FFFFFF", label="android.view.View.measure\n Susp=0.0338"];
"013ec341-353d-4b75-9617-31926bb35698" -> "b516e66e-8073-4f9a-bd42-151f05ae52db";
"b516e66e-8073-4f9a-bd42-151f05ae52db" [style=filled, fillcolor="#FFFFFF", label="android.widget.LinearLayout.onMeasure\n Susp=0.0343"];
"b516e66e-8073-4f9a-bd42-151f05ae52db" -> "6907b354-69b5-4cb9-818e-0e10720e050a";
"6907b354-69b5-4cb9-818e-0e10720e050a" [style=filled, fillcolor="#FFFFFF", label="android.widget.LinearLayout.measureVertical\n Susp=0.0349"];
"6907b354-69b5-4cb9-818e-0e10720e050a" -> "96de9f41-cd7e-414b-a9b9-2dcf7d70a144";
"96de9f41-cd7e-414b-a9b9-2dcf7d70a144" [style=filled, fillcolor="#FFFFFF", label="android.widget.LinearLayout.measureChildBeforeLayout\n Susp=0.0354"];
"96de9f41-cd7e-414b-a9b9-2dcf7d70a144" -> "529edd3e-808b-4927-96f1-1c02e7e8ea05";
"529edd3e-808b-4927-96f1-1c02e7e8ea05" [style=filled, fillcolor="#FFFFFF", label="android.view.ViewGroup.measureChildWithMargins\n Susp=0.0359"];
"529edd3e-808b-4927-96f1-1c02e7e8ea05" -> "a6145485-a246-4a76-83e1-a5c2ded39237";
"a6145485-a246-4a76-83e1-a5c2ded39237" [style=filled, fillcolor="#FFFFFF", label="android.view.View.measure\n Susp=0.0364"];
"a6145485-a246-4a76-83e1-a5c2ded39237" -> "ee4ad134-5c97-4c0c-b538-556b2682e70a";
"ee4ad134-5c97-4c0c-b538-556b2682e70a" [style=filled, fillcolor="#FFFFFF", label="android.widget.ScrollView.onMeasure\n Susp=0.037"];
"ee4ad134-5c97-4c0c-b538-556b2682e70a" -> "1c5c2d85-7fc1-4fbf-9e48-8856037dde4e";
"1c5c2d85-7fc1-4fbf-9e48-8856037dde4e" [style=filled, fillcolor="#FFFFFF", label="android.widget.FrameLayout.onMeasure\n Susp=0.0375"];
"1c5c2d85-7fc1-4fbf-9e48-8856037dde4e" -> "9d25a2ca-5bce-4367-bfd5-f77484aceeb2";
"9d25a2ca-5bce-4367-bfd5-f77484aceeb2" [style=filled, fillcolor="#FFFFFF", label="android.widget.ScrollView.measureChildWithMargins\n Susp=0.038"];
"9d25a2ca-5bce-4367-bfd5-f77484aceeb2" -> "1b04d95e-6d29-422a-b735-2548b40b5c87";
"1b04d95e-6d29-422a-b735-2548b40b5c87" [style=filled, fillcolor="#FFFFFF", label="android.view.View.measure\n Susp=0.0385"];
"1b04d95e-6d29-422a-b735-2548b40b5c87" -> "5bc5a58d-8428-428f-b923-83dbac61ce74";
"5bc5a58d-8428-428f-b923-83dbac61ce74" [style=filled, fillcolor="#FFFFFF", label="android.widget.LinearLayout.onMeasure\n Susp=0.0391"];
"5bc5a58d-8428-428f-b923-83dbac61ce74" -> "b22aaf09-cca0-4c60-ae6f-4abb06f4552c";
"b22aaf09-cca0-4c60-ae6f-4abb06f4552c" [style=filled, fillcolor="#FFFFFF", label="android.widget.LinearLayout.measureVertical\n Susp=0.0396"];
"b22aaf09-cca0-4c60-ae6f-4abb06f4552c" -> "0ad99bbc-2686-417f-b604-8ed8005bbe13";
"0ad99bbc-2686-417f-b604-8ed8005bbe13" [style=filled, fillcolor="#FFFFFF", label="android.widget.LinearLayout.measureChildBeforeLayout\n Susp=0.0401"];
"0ad99bbc-2686-417f-b604-8ed8005bbe13" -> "0366f4a6-36e0-4df9-b823-0660c50288ea";
"0366f4a6-36e0-4df9-b823-0660c50288ea" [style=filled, fillcolor="#FFFFFF", label="android.view.ViewGroup.measureChildWithMargins\n Susp=0.0406"];
"0366f4a6-36e0-4df9-b823-0660c50288ea" -> "29ac891d-4a2c-4878-a3aa-5cc0d9c29c7e";
"29ac891d-4a2c-4878-a3aa-5cc0d9c29c7e" [style=filled, fillcolor="#FFFFFF", label="android.view.View.measure\n Susp=0.0412"];
"29ac891d-4a2c-4878-a3aa-5cc0d9c29c7e" -> "04e6fb1e-fb2a-4bea-b885-54e96ee2a6e8";
"04e6fb1e-fb2a-4bea-b885-54e96ee2a6e8" [style=filled, fillcolor="#FFFFFF", label="android.support.v7.widget.AppCompatSpinner.onMeasure\n Susp=0.0417"];
"04e6fb1e-fb2a-4bea-b885-54e96ee2a6e8" -> "e2aed33f-9cfb-4720-ae69-56256aead13d";
"e2aed33f-9cfb-4720-ae69-56256aead13d" [style=filled, fillcolor="#FFFFFF", label="android.widget.Spinner.onMeasure\n Susp=0.0422"];
"e2aed33f-9cfb-4720-ae69-56256aead13d" -> "f7dc432e-7452-40d8-bd67-bbcf5e7fb642";
"f7dc432e-7452-40d8-bd67-bbcf5e7fb642" [style=filled, fillcolor="#FFFFFF", label="android.widget.Spinner.measureContentWidth\n Susp=0.0428"];
"f7dc432e-7452-40d8-bd67-bbcf5e7fb642" -> "d0d061da-df1a-4e27-a3af-b6098c9edbec";
"d0d061da-df1a-4e27-a3af-b6098c9edbec" [style=filled, fillcolor="#FFFFFF", label="com.kamron.pogoiv.widgets.PlayerTeamAdapter.getView\n Susp=0.0433"];
"d0d061da-df1a-4e27-a3af-b6098c9edbec" -> "0985f411-e6a1-465f-a9e7-9490d19d604f";
"0985f411-e6a1-465f-a9e7-9490d19d604f" [style=filled, fillcolor="#FFFFFF", label="android.view.LayoutInflater.inflate\n Susp=0.0349"];
"81396584-8f56-4e70-a2b2-da233cb56cc9" -> "93a43eeb-7ce2-4b76-94b5-690affb76318";
"93a43eeb-7ce2-4b76-94b5-690affb76318" [style=filled, fillcolor="#FFFFFF", label="com.android.internal.policy.PhoneWindow$DecorView.onMeasure\n Susp=0.0243"];
"93a43eeb-7ce2-4b76-94b5-690affb76318" -> "4f9e21de-e400-4384-b5a8-72c9605fef0e";
"4f9e21de-e400-4384-b5a8-72c9605fef0e" [style=filled, fillcolor="#FFFFFF", label="android.widget.FrameLayout.onMeasure\n Susp=0.0249"];
"4f9e21de-e400-4384-b5a8-72c9605fef0e" -> "7a6f95e6-7de6-4d72-ac2b-d6c8a9b1c1d4";
"7a6f95e6-7de6-4d72-ac2b-d6c8a9b1c1d4" [style=filled, fillcolor="#FFFFFF", label="android.view.ViewGroup.measureChildWithMargins\n Susp=0.0254"];
"7a6f95e6-7de6-4d72-ac2b-d6c8a9b1c1d4" -> "62013abf-7cf1-4eeb-bca3-61fb1f2ce186";
"62013abf-7cf1-4eeb-bca3-61fb1f2ce186" [style=filled, fillcolor="#FFFFFF", label="android.view.View.measure\n Susp=0.0259"];
"62013abf-7cf1-4eeb-bca3-61fb1f2ce186" -> "ab8e6e32-949f-4c93-ac6d-52ed2ee50a4e";
"ab8e6e32-949f-4c93-ac6d-52ed2ee50a4e" [style=filled, fillcolor="#FFFFFF", label="android.widget.LinearLayout.onMeasure\n Susp=0.0264"];
"ab8e6e32-949f-4c93-ac6d-52ed2ee50a4e" -> "22ab95ca-8ca7-41a1-a99d-54048b86a11c";
"22ab95ca-8ca7-41a1-a99d-54048b86a11c" [style=filled, fillcolor="#FFFFFF", label="android.widget.LinearLayout.measureVertical\n Susp=0.027"];
"22ab95ca-8ca7-41a1-a99d-54048b86a11c" -> "801886db-451a-4dd8-981d-6694807f72b1";
"801886db-451a-4dd8-981d-6694807f72b1" [style=filled, fillcolor="#FFFFFF", label="android.widget.LinearLayout.measureChildBeforeLayout\n Susp=0.0275"];
"801886db-451a-4dd8-981d-6694807f72b1" -> "a4c3cb92-3258-4660-a084-dc0d1797e7a7";
"a4c3cb92-3258-4660-a084-dc0d1797e7a7" [style=filled, fillcolor="#FFFFFF", label="android.view.ViewGroup.measureChildWithMargins\n Susp=0.028"];
"a4c3cb92-3258-4660-a084-dc0d1797e7a7" -> "85703464-c7ba-4b08-8c90-208ea0f7b3be";
"85703464-c7ba-4b08-8c90-208ea0f7b3be" [style=filled, fillcolor="#FFFFFF", label="android.view.View.measure\n Susp=0.0285"];
"85703464-c7ba-4b08-8c90-208ea0f7b3be" -> "b6ccddc4-ec6c-4850-a88b-95e29cc558a4";
"b6ccddc4-ec6c-4850-a88b-95e29cc558a4" [style=filled, fillcolor="#FFFFFF", label="android.widget.FrameLayout.onMeasure\n Susp=0.0291"];
"b6ccddc4-ec6c-4850-a88b-95e29cc558a4" -> "df78c916-bb3d-4668-a3e3-d86ca155a5ba";
"df78c916-bb3d-4668-a3e3-d86ca155a5ba" [style=filled, fillcolor="#FFFFFF", label="android.view.ViewGroup.measureChildWithMargins\n Susp=0.0296"];
"df78c916-bb3d-4668-a3e3-d86ca155a5ba" -> "57e1a698-4c5b-4345-9318-bdd3d7b16854";
"57e1a698-4c5b-4345-9318-bdd3d7b16854" [style=filled, fillcolor="#FFFFFF", label="android.view.View.measure\n Susp=0.0301"];
"57e1a698-4c5b-4345-9318-bdd3d7b16854" -> "b93bf3f9-acbf-4d0a-9483-594bd24afb30";
"b93bf3f9-acbf-4d0a-9483-594bd24afb30" [style=filled, fillcolor="#FFFFFF", label="android.support.v7.widget.ActionBarOverlayLayout.onMeasure\n Susp=0.0306"];
"b93bf3f9-acbf-4d0a-9483-594bd24afb30" -> "e2ac48e2-ba2d-481e-9a22-74c0427a5a98";
"e2ac48e2-ba2d-481e-9a22-74c0427a5a98" [style=filled, fillcolor="#FFFFFF", label="android.view.ViewGroup.measureChildWithMargins\n Susp=0.0312"];
"e2ac48e2-ba2d-481e-9a22-74c0427a5a98" -> "b5fa6cd8-135f-462d-a887-60dc1b897660";
"b5fa6cd8-135f-462d-a887-60dc1b897660" [style=filled, fillcolor="#FFFFFF", label="android.view.View.measure\n Susp=0.0317"];
"b5fa6cd8-135f-462d-a887-60dc1b897660" -> "391646fd-c36d-4794-9973-15552a25ec5c";
"391646fd-c36d-4794-9973-15552a25ec5c" [style=filled, fillcolor="#FFFFFF", label="android.support.v7.widget.ContentFrameLayout.onMeasure\n Susp=0.0322"];
"391646fd-c36d-4794-9973-15552a25ec5c" -> "f9367439-c279-4b60-b8e5-cf03ca1e9f74";
"f9367439-c279-4b60-b8e5-cf03ca1e9f74" [style=filled, fillcolor="#FFFFFF", label="android.widget.FrameLayout.onMeasure\n Susp=0.0328"];
"f9367439-c279-4b60-b8e5-cf03ca1e9f74" -> "6b6e4158-a57e-45f0-a656-58e70de11e1d";
"6b6e4158-a57e-45f0-a656-58e70de11e1d" [style=filled, fillcolor="#FFFFFF", label="android.view.ViewGroup.measureChildWithMargins\n Susp=0.0333"];
"6b6e4158-a57e-45f0-a656-58e70de11e1d" -> "f6c465a4-d12a-4307-a17a-b04b7db99dea";
"f6c465a4-d12a-4307-a17a-b04b7db99dea" [style=filled, fillcolor="#FFFFFF", label="android.view.View.measure\n Susp=0.0338"];
"f6c465a4-d12a-4307-a17a-b04b7db99dea" -> "fa8cc407-c3a0-4049-8606-8f5ab37cb7fb";
"fa8cc407-c3a0-4049-8606-8f5ab37cb7fb" [style=filled, fillcolor="#FFFFFF", label="android.widget.LinearLayout.onMeasure\n Susp=0.0343"];
"fa8cc407-c3a0-4049-8606-8f5ab37cb7fb" -> "74838849-3ab1-45d6-b402-78cbb5ccca3a";
"74838849-3ab1-45d6-b402-78cbb5ccca3a" [style=filled, fillcolor="#FFFFFF", label="android.widget.LinearLayout.measureVertical\n Susp=0.0349"];
"74838849-3ab1-45d6-b402-78cbb5ccca3a" -> "81079579-c9e3-4af4-bfdb-a4df2dcd9563";
"81079579-c9e3-4af4-bfdb-a4df2dcd9563" [style=filled, fillcolor="#FFFFFF", label="android.widget.LinearLayout.measureChildBeforeLayout\n Susp=0.0354"];
"81079579-c9e3-4af4-bfdb-a4df2dcd9563" -> "06be12ba-70b8-4518-9be0-b2a3f788a472";
"06be12ba-70b8-4518-9be0-b2a3f788a472" [style=filled, fillcolor="#FFFFFF", label="android.view.ViewGroup.measureChildWithMargins\n Susp=0.0359"];
"06be12ba-70b8-4518-9be0-b2a3f788a472" -> "f3f4b53f-5264-42db-aaaa-51dc415bf388";
"f3f4b53f-5264-42db-aaaa-51dc415bf388" [style=filled, fillcolor="#FFFFFF", label="android.view.View.measure\n Susp=0.0364"];
"f3f4b53f-5264-42db-aaaa-51dc415bf388" -> "b4f5d7ae-3808-490f-9421-eaa3255be036";
"b4f5d7ae-3808-490f-9421-eaa3255be036" [style=filled, fillcolor="#FFFFFF", label="android.widget.ScrollView.onMeasure\n Susp=0.037"];
"b4f5d7ae-3808-490f-9421-eaa3255be036" -> "0526bf6b-5b5d-48f7-a00d-bff633c0bb8d";
"0526bf6b-5b5d-48f7-a00d-bff633c0bb8d" [style=filled, fillcolor="#FFFFFF", label="android.widget.FrameLayout.onMeasure\n Susp=0.0375"];
"0526bf6b-5b5d-48f7-a00d-bff633c0bb8d" -> "ea0813d2-8740-4c66-a529-32397a2f19d1";
"ea0813d2-8740-4c66-a529-32397a2f19d1" [style=filled, fillcolor="#FFFFFF", label="android.widget.ScrollView.measureChildWithMargins\n Susp=0.038"];
"ea0813d2-8740-4c66-a529-32397a2f19d1" -> "b2701a59-56cf-40e1-a706-4a69d30ec3a0";
"b2701a59-56cf-40e1-a706-4a69d30ec3a0" [style=filled, fillcolor="#FFFFFF", label="android.view.View.measure\n Susp=0.0385"];
"b2701a59-56cf-40e1-a706-4a69d30ec3a0" -> "d0ffadbb-119b-48d8-b0e2-c3f109405377";
"d0ffadbb-119b-48d8-b0e2-c3f109405377" [style=filled, fillcolor="#FFFFFF", label="android.widget.LinearLayout.onMeasure\n Susp=0.0391"];
"d0ffadbb-119b-48d8-b0e2-c3f109405377" -> "f12152ef-e004-45af-b504-a9b46309138b";
"f12152ef-e004-45af-b504-a9b46309138b" [style=filled, fillcolor="#FFFFFF", label="android.widget.LinearLayout.measureVertical\n Susp=0.0396"];
"f12152ef-e004-45af-b504-a9b46309138b" -> "4eeb82a3-db82-418c-8fc3-77aff8304f43";
"4eeb82a3-db82-418c-8fc3-77aff8304f43" [style=filled, fillcolor="#FFFFFF", label="android.widget.LinearLayout.measureChildBeforeLayout\n Susp=0.0401"];
"4eeb82a3-db82-418c-8fc3-77aff8304f43" -> "8b494870-c26e-4a7a-b33b-2d2d84c6af1a";
"8b494870-c26e-4a7a-b33b-2d2d84c6af1a" [style=filled, fillcolor="#FFFFFF", label="android.view.ViewGroup.measureChildWithMargins\n Susp=0.0406"];
"8b494870-c26e-4a7a-b33b-2d2d84c6af1a" -> "674b04a0-8284-4477-9eba-8ae643b55452";
"674b04a0-8284-4477-9eba-8ae643b55452" [style=filled, fillcolor="#FFFFFF", label="android.view.View.measure\n Susp=0.0412"];
"674b04a0-8284-4477-9eba-8ae643b55452" -> "c7ff3537-ed83-4c14-8243-7e3955c73070";
"c7ff3537-ed83-4c14-8243-7e3955c73070" [style=filled, fillcolor="#FFFFFF", label="android.support.v7.widget.AppCompatSpinner.onMeasure\n Susp=0.0417"];
"c7ff3537-ed83-4c14-8243-7e3955c73070" -> "50dd5ecd-bdec-4fda-afc9-f6c4b2ad9471";
"50dd5ecd-bdec-4fda-afc9-f6c4b2ad9471" [style=filled, fillcolor="#FFFFFF", label="android.widget.Spinner.onMeasure\n Susp=0.0422"];
"50dd5ecd-bdec-4fda-afc9-f6c4b2ad9471" -> "5d2995f2-0285-4b96-9a9f-a89397d354cc";
"5d2995f2-0285-4b96-9a9f-a89397d354cc" [style=filled, fillcolor="#FFFFFF", label="android.widget.Spinner.measureContentWidth\n Susp=0.0428"];
"5d2995f2-0285-4b96-9a9f-a89397d354cc" -> "1ac8d061-8b79-43b1-974d-d508b13516be";
"1ac8d061-8b79-43b1-974d-d508b13516be" [style=filled, fillcolor="#FFFFFF", label="com.kamron.pogoiv.widgets.PlayerTeamAdapter.getView\n Susp=0.0433"];
"1ac8d061-8b79-43b1-974d-d508b13516be" -> "692b12e2-1e37-4f09-9f2c-6af634799b23";
"692b12e2-1e37-4f09-9f2c-6af634799b23" [style=filled, fillcolor="#FFFFFF", label="android.view.LayoutInflater.inflate\n Susp=0.0349"];
"71d8ff7d-4b17-4316-9117-6711c61c60cc" -> "20803d5a-2cce-47eb-92c8-bf19992d9b58";
"20803d5a-2cce-47eb-92c8-bf19992d9b58" [style=filled, fillcolor="#FFFFFF", label="android.view.ViewRootImpl.performMeasure\n Susp=0.0356"];
"20803d5a-2cce-47eb-92c8-bf19992d9b58" -> "31c9f124-067e-4627-89cc-44ad104708d4";
"31c9f124-067e-4627-89cc-44ad104708d4" [style=filled, fillcolor="#FFFFFF", label="android.view.View.measure\n Susp=0.0387"];
"31c9f124-067e-4627-89cc-44ad104708d4" -> "0caaaa53-c4ed-4e1b-8c1d-e4eb6de36c26";
"0caaaa53-c4ed-4e1b-8c1d-e4eb6de36c26" [style=filled, fillcolor="#FFFFFF", label="com.android.internal.policy.DecorView.onMeasure\n Susp=0.0238"];
"0caaaa53-c4ed-4e1b-8c1d-e4eb6de36c26" -> "3a65c417-594c-4c3c-a4bc-1a2179ce6fde";
"3a65c417-594c-4c3c-a4bc-1a2179ce6fde" [style=filled, fillcolor="#FFFFFF", label="android.widget.FrameLayout.onMeasure\n Susp=0.0243"];
"3a65c417-594c-4c3c-a4bc-1a2179ce6fde" -> "d3a698de-287f-4786-ba60-483ec8bc4fb5";
"d3a698de-287f-4786-ba60-483ec8bc4fb5" [style=filled, fillcolor="#FFFFFF", label="android.view.ViewGroup.measureChildWithMargins\n Susp=0.0249"];
"d3a698de-287f-4786-ba60-483ec8bc4fb5" -> "3f03bda9-ebf0-4c92-84c7-d581eba10016";
"3f03bda9-ebf0-4c92-84c7-d581eba10016" [style=filled, fillcolor="#FFFFFF", label="android.view.View.measure\n Susp=0.0254"];
"3f03bda9-ebf0-4c92-84c7-d581eba10016" -> "03381edb-ea27-4538-960c-f55f024a34c2";
"03381edb-ea27-4538-960c-f55f024a34c2" [style=filled, fillcolor="#FFFFFF", label="android.widget.LinearLayout.onMeasure\n Susp=0.0259"];
"03381edb-ea27-4538-960c-f55f024a34c2" -> "e2329435-d42e-479b-b767-0c0f7fda9933";
"e2329435-d42e-479b-b767-0c0f7fda9933" [style=filled, fillcolor="#FFFFFF", label="android.widget.LinearLayout.measureVertical\n Susp=0.0264"];
"e2329435-d42e-479b-b767-0c0f7fda9933" -> "7f031f4c-f5d3-451e-b268-ff3998d177a3";
"7f031f4c-f5d3-451e-b268-ff3998d177a3" [style=filled, fillcolor="#FFFFFF", label="android.widget.LinearLayout.measureChildBeforeLayout\n Susp=0.027"];
"7f031f4c-f5d3-451e-b268-ff3998d177a3" -> "0c7690ca-4ba2-4328-916f-64758a0d8888";
"0c7690ca-4ba2-4328-916f-64758a0d8888" [style=filled, fillcolor="#FFFFFF", label="android.view.ViewGroup.measureChildWithMargins\n Susp=0.0275"];
"0c7690ca-4ba2-4328-916f-64758a0d8888" -> "c1213ac0-da9b-495d-a4f8-54a454f927f2";
"c1213ac0-da9b-495d-a4f8-54a454f927f2" [style=filled, fillcolor="#FFFFFF", label="android.view.View.measure\n Susp=0.028"];
"c1213ac0-da9b-495d-a4f8-54a454f927f2" -> "805c85d1-693d-4688-ade6-61d08b808205";
"805c85d1-693d-4688-ade6-61d08b808205" [style=filled, fillcolor="#FFFFFF", label="android.widget.FrameLayout.onMeasure\n Susp=0.0285"];
"805c85d1-693d-4688-ade6-61d08b808205" -> "78e05b0b-6d30-497e-a93b-6b9d63bfd7b7";
"78e05b0b-6d30-497e-a93b-6b9d63bfd7b7" [style=filled, fillcolor="#FFFFFF", label="android.view.ViewGroup.measureChildWithMargins\n Susp=0.0291"];
"78e05b0b-6d30-497e-a93b-6b9d63bfd7b7" -> "eaa13f77-20fd-4c25-a281-0ec4fac1ebf1";
"eaa13f77-20fd-4c25-a281-0ec4fac1ebf1" [style=filled, fillcolor="#FFFFFF", label="android.view.View.measure\n Susp=0.0296"];
"eaa13f77-20fd-4c25-a281-0ec4fac1ebf1" -> "44199f4b-ca94-48e6-86ad-e1ddd04af729";
"44199f4b-ca94-48e6-86ad-e1ddd04af729" [style=filled, fillcolor="#FFFFFF", label="android.support.v7.widget.ActionBarOverlayLayout.onMeasure\n Susp=0.0301"];
"44199f4b-ca94-48e6-86ad-e1ddd04af729" -> "e1f0f87c-d033-49fd-9ed6-5f480d8536b5";
"e1f0f87c-d033-49fd-9ed6-5f480d8536b5" [style=filled, fillcolor="#FFFFFF", label="android.view.ViewGroup.measureChildWithMargins\n Susp=0.0306"];
"e1f0f87c-d033-49fd-9ed6-5f480d8536b5" -> "a4ebebf3-9241-47bc-b32f-cea055cda864";
"a4ebebf3-9241-47bc-b32f-cea055cda864" [style=filled, fillcolor="#FFFFFF", label="android.view.View.measure\n Susp=0.0312"];
"a4ebebf3-9241-47bc-b32f-cea055cda864" -> "65e1bb0b-3f1c-4ead-8f71-5b0cfd6c79fe";
"65e1bb0b-3f1c-4ead-8f71-5b0cfd6c79fe" [style=filled, fillcolor="#FFFFFF", label="android.support.v7.widget.ContentFrameLayout.onMeasure\n Susp=0.0317"];
"65e1bb0b-3f1c-4ead-8f71-5b0cfd6c79fe" -> "5ff2cb78-f2c6-4b41-83a7-22ff83a46e43";
"5ff2cb78-f2c6-4b41-83a7-22ff83a46e43" [style=filled, fillcolor="#FFFFFF", label="android.widget.FrameLayout.onMeasure\n Susp=0.0322"];
"5ff2cb78-f2c6-4b41-83a7-22ff83a46e43" -> "e31d2122-a579-4eea-b2a3-8590559eafa5";
"e31d2122-a579-4eea-b2a3-8590559eafa5" [style=filled, fillcolor="#FFFFFF", label="android.view.ViewGroup.measureChildWithMargins\n Susp=0.0328"];
"e31d2122-a579-4eea-b2a3-8590559eafa5" -> "3e4a18bd-b572-4070-b619-84e03203b911";
"3e4a18bd-b572-4070-b619-84e03203b911" [style=filled, fillcolor="#FFFFFF", label="android.view.View.measure\n Susp=0.0333"];
"3e4a18bd-b572-4070-b619-84e03203b911" -> "d8a35644-3e31-4828-b49e-bf860571da66";
"d8a35644-3e31-4828-b49e-bf860571da66" [style=filled, fillcolor="#FFFFFF", label="android.widget.LinearLayout.onMeasure\n Susp=0.0338"];
"d8a35644-3e31-4828-b49e-bf860571da66" -> "715e32cf-2c2a-4998-a476-012da64990e2";
"715e32cf-2c2a-4998-a476-012da64990e2" [style=filled, fillcolor="#FFFFFF", label="android.widget.LinearLayout.measureVertical\n Susp=0.0343"];
"715e32cf-2c2a-4998-a476-012da64990e2" -> "106ea3ad-e8f7-4142-94fa-3c36e2d15f82";
"106ea3ad-e8f7-4142-94fa-3c36e2d15f82" [style=filled, fillcolor="#FFFFFF", label="android.widget.LinearLayout.measureChildBeforeLayout\n Susp=0.0349"];
"106ea3ad-e8f7-4142-94fa-3c36e2d15f82" -> "0d6a3061-4417-4c5c-849c-e9cf42152aff";
"0d6a3061-4417-4c5c-849c-e9cf42152aff" [style=filled, fillcolor="#FFFFFF", label="android.view.ViewGroup.measureChildWithMargins\n Susp=0.0354"];
"0d6a3061-4417-4c5c-849c-e9cf42152aff" -> "e14d38d0-a61d-4341-b521-0cb1d0082051";
"e14d38d0-a61d-4341-b521-0cb1d0082051" [style=filled, fillcolor="#FFFFFF", label="android.view.View.measure\n Susp=0.0359"];
"e14d38d0-a61d-4341-b521-0cb1d0082051" -> "650bdde4-8cbe-4713-b0cf-9acb2515122d";
"650bdde4-8cbe-4713-b0cf-9acb2515122d" [style=filled, fillcolor="#FFFFFF", label="android.widget.ScrollView.onMeasure\n Susp=0.0364"];
"650bdde4-8cbe-4713-b0cf-9acb2515122d" -> "9f7a24e0-1dbb-456c-bd04-81ccce6b0d3c";
"9f7a24e0-1dbb-456c-bd04-81ccce6b0d3c" [style=filled, fillcolor="#FFFFFF", label="android.widget.FrameLayout.onMeasure\n Susp=0.037"];
"9f7a24e0-1dbb-456c-bd04-81ccce6b0d3c" -> "667d7df6-f835-4971-ad14-b0c7769a84d7";
"667d7df6-f835-4971-ad14-b0c7769a84d7" [style=filled, fillcolor="#FFFFFF", label="android.widget.ScrollView.measureChildWithMargins\n Susp=0.0375"];
"667d7df6-f835-4971-ad14-b0c7769a84d7" -> "2219e611-df3c-4d6b-8c86-4425b6301d4e";
"2219e611-df3c-4d6b-8c86-4425b6301d4e" [style=filled, fillcolor="#FFFFFF", label="android.view.View.measure\n Susp=0.038"];
"2219e611-df3c-4d6b-8c86-4425b6301d4e" -> "1dac0737-777f-4c67-bbee-150507d8b6aa";
"1dac0737-777f-4c67-bbee-150507d8b6aa" [style=filled, fillcolor="#FFFFFF", label="android.widget.LinearLayout.onMeasure\n Susp=0.0385"];
"1dac0737-777f-4c67-bbee-150507d8b6aa" -> "a4e2cced-c17f-4135-bf1d-e7a320c939dc";
"a4e2cced-c17f-4135-bf1d-e7a320c939dc" [style=filled, fillcolor="#FFFFFF", label="android.widget.LinearLayout.measureVertical\n Susp=0.0391"];
"a4e2cced-c17f-4135-bf1d-e7a320c939dc" -> "873ad1f6-38c9-46de-be13-00ced23a9011";
"873ad1f6-38c9-46de-be13-00ced23a9011" [style=filled, fillcolor="#FFFFFF", label="android.widget.LinearLayout.measureChildBeforeLayout\n Susp=0.0396"];
"873ad1f6-38c9-46de-be13-00ced23a9011" -> "642ceb1a-e030-4ef5-bef9-a57d5ec4fc1b";
"642ceb1a-e030-4ef5-bef9-a57d5ec4fc1b" [style=filled, fillcolor="#FFFFFF", label="android.view.ViewGroup.measureChildWithMargins\n Susp=0.0401"];
"642ceb1a-e030-4ef5-bef9-a57d5ec4fc1b" -> "c79b8fe0-d8d7-4d9f-a948-9deb879aae2d";
"c79b8fe0-d8d7-4d9f-a948-9deb879aae2d" [style=filled, fillcolor="#FFFFFF", label="android.view.View.measure\n Susp=0.0406"];
"c79b8fe0-d8d7-4d9f-a948-9deb879aae2d" -> "0d18f91b-827f-4096-96a1-84fc902347ec";
"0d18f91b-827f-4096-96a1-84fc902347ec" [style=filled, fillcolor="#FFFFFF", label="android.support.v7.widget.AppCompatSpinner.onMeasure\n Susp=0.0412"];
"0d18f91b-827f-4096-96a1-84fc902347ec" -> "8116ca11-3b59-4a66-8a76-4955747fc28a";
"8116ca11-3b59-4a66-8a76-4955747fc28a" [style=filled, fillcolor="#FFFFFF", label="android.widget.Spinner.onMeasure\n Susp=0.0417"];
"8116ca11-3b59-4a66-8a76-4955747fc28a" -> "3f0ecd0d-2e33-4dd1-a05e-353c0d78ba57";
"3f0ecd0d-2e33-4dd1-a05e-353c0d78ba57" [style=filled, fillcolor="#FFFFFF", label="android.widget.Spinner.measureContentWidth\n Susp=0.0422"];
"3f0ecd0d-2e33-4dd1-a05e-353c0d78ba57" -> "ff0ec3ae-2f40-4638-83ea-c367b6a67941";
"ff0ec3ae-2f40-4638-83ea-c367b6a67941" [style=filled, fillcolor="#FFFFFF", label="com.kamron.pogoiv.widgets.PlayerTeamAdapter.getView\n Susp=0.0428"];
"ff0ec3ae-2f40-4638-83ea-c367b6a67941" -> "8890243d-a35e-4cca-818d-a030b5360697";
"8890243d-a35e-4cca-818d-a030b5360697" [style=filled, fillcolor="#FFFFFF", label="android.view.LayoutInflater.inflate\n Susp=0.0343"];
"31c9f124-067e-4627-89cc-44ad104708d4" -> "c09e4e86-32cc-4af0-ac4a-1e70e39a4035";
"c09e4e86-32cc-4af0-ac4a-1e70e39a4035" [style=filled, fillcolor="#FFFFFF", label="com.android.internal.policy.PhoneWindow$DecorView.onMeasure\n Susp=0.0238"];
"c09e4e86-32cc-4af0-ac4a-1e70e39a4035" -> "7f71ab8e-bcef-404e-8bb1-beeaccccd2a5";
"7f71ab8e-bcef-404e-8bb1-beeaccccd2a5" [style=filled, fillcolor="#FFFFFF", label="android.widget.FrameLayout.onMeasure\n Susp=0.0243"];
"7f71ab8e-bcef-404e-8bb1-beeaccccd2a5" -> "16683a73-9ec3-4074-a0d2-289cb4332278";
"16683a73-9ec3-4074-a0d2-289cb4332278" [style=filled, fillcolor="#FFFFFF", label="android.view.ViewGroup.measureChildWithMargins\n Susp=0.0249"];
"16683a73-9ec3-4074-a0d2-289cb4332278" -> "c5c8bc69-cb96-477d-8a4b-0dc1d83d2c85";
"c5c8bc69-cb96-477d-8a4b-0dc1d83d2c85" [style=filled, fillcolor="#FFFFFF", label="android.view.View.measure\n Susp=0.0254"];
"c5c8bc69-cb96-477d-8a4b-0dc1d83d2c85" -> "e80bd45d-3492-46e4-b707-2222d7619055";
"e80bd45d-3492-46e4-b707-2222d7619055" [style=filled, fillcolor="#FFFFFF", label="android.widget.LinearLayout.onMeasure\n Susp=0.0259"];
"e80bd45d-3492-46e4-b707-2222d7619055" -> "c8915d1e-ee2e-4884-8463-afb085bf23ac";
"c8915d1e-ee2e-4884-8463-afb085bf23ac" [style=filled, fillcolor="#FFFFFF", label="android.widget.LinearLayout.measureVertical\n Susp=0.0264"];
"c8915d1e-ee2e-4884-8463-afb085bf23ac" -> "230f6b15-882f-46a5-920d-882ee09fa1dc";
"230f6b15-882f-46a5-920d-882ee09fa1dc" [style=filled, fillcolor="#FFFFFF", label="android.widget.LinearLayout.measureChildBeforeLayout\n Susp=0.027"];
"230f6b15-882f-46a5-920d-882ee09fa1dc" -> "a73f883a-29e6-453a-a583-9319748a2436";
"a73f883a-29e6-453a-a583-9319748a2436" [style=filled, fillcolor="#FFFFFF", label="android.view.ViewGroup.measureChildWithMargins\n Susp=0.0275"];
"a73f883a-29e6-453a-a583-9319748a2436" -> "d9cf5c48-a995-40bd-81a1-848dc2cd78d6";
"d9cf5c48-a995-40bd-81a1-848dc2cd78d6" [style=filled, fillcolor="#FFFFFF", label="android.view.View.measure\n Susp=0.028"];
"d9cf5c48-a995-40bd-81a1-848dc2cd78d6" -> "bcdeb695-d44c-4ffe-9871-37b3871bfd7d";
"bcdeb695-d44c-4ffe-9871-37b3871bfd7d" [style=filled, fillcolor="#FFFFFF", label="android.widget.FrameLayout.onMeasure\n Susp=0.0285"];
"bcdeb695-d44c-4ffe-9871-37b3871bfd7d" -> "75636dbd-fb92-4906-ae80-2ed0a4a3498b";
"75636dbd-fb92-4906-ae80-2ed0a4a3498b" [style=filled, fillcolor="#FFFFFF", label="android.view.ViewGroup.measureChildWithMargins\n Susp=0.0291"];
"75636dbd-fb92-4906-ae80-2ed0a4a3498b" -> "b4c29409-2385-40a9-a96e-314071a14f3d";
"b4c29409-2385-40a9-a96e-314071a14f3d" [style=filled, fillcolor="#FFFFFF", label="android.view.View.measure\n Susp=0.0296"];
"b4c29409-2385-40a9-a96e-314071a14f3d" -> "82143c95-4090-4e63-8d6e-3cb05d9de6cf";
"82143c95-4090-4e63-8d6e-3cb05d9de6cf" [style=filled, fillcolor="#FFFFFF", label="android.support.v7.widget.ActionBarOverlayLayout.onMeasure\n Susp=0.0301"];
"82143c95-4090-4e63-8d6e-3cb05d9de6cf" -> "fc6d67dc-329f-4b92-8a04-1a064a0f3370";
"fc6d67dc-329f-4b92-8a04-1a064a0f3370" [style=filled, fillcolor="#FFFFFF", label="android.view.ViewGroup.measureChildWithMargins\n Susp=0.0306"];
"fc6d67dc-329f-4b92-8a04-1a064a0f3370" -> "ebbfccef-384d-4cf8-a490-f3816db8597d";
"ebbfccef-384d-4cf8-a490-f3816db8597d" [style=filled, fillcolor="#FFFFFF", label="android.view.View.measure\n Susp=0.0312"];
"ebbfccef-384d-4cf8-a490-f3816db8597d" -> "933293c4-8574-44fe-a9e5-16f4e05182d8";
"933293c4-8574-44fe-a9e5-16f4e05182d8" [style=filled, fillcolor="#FFFFFF", label="android.support.v7.widget.ContentFrameLayout.onMeasure\n Susp=0.0317"];
"933293c4-8574-44fe-a9e5-16f4e05182d8" -> "928f8c5f-930c-4422-9666-936f873d249b";
"928f8c5f-930c-4422-9666-936f873d249b" [style=filled, fillcolor="#FFFFFF", label="android.widget.FrameLayout.onMeasure\n Susp=0.0322"];
"928f8c5f-930c-4422-9666-936f873d249b" -> "039cbf93-1304-4527-ba4b-1b81bbb39da2";
"039cbf93-1304-4527-ba4b-1b81bbb39da2" [style=filled, fillcolor="#FFFFFF", label="android.view.ViewGroup.measureChildWithMargins\n Susp=0.0328"];
"039cbf93-1304-4527-ba4b-1b81bbb39da2" -> "bf17f735-5ef6-4de5-84c5-9e5174b1000a";
"bf17f735-5ef6-4de5-84c5-9e5174b1000a" [style=filled, fillcolor="#FFFFFF", label="android.view.View.measure\n Susp=0.0333"];
"bf17f735-5ef6-4de5-84c5-9e5174b1000a" -> "1be8cdcc-aba8-4df7-872c-e94e7d4202e0";
"1be8cdcc-aba8-4df7-872c-e94e7d4202e0" [style=filled, fillcolor="#FFFFFF", label="android.widget.LinearLayout.onMeasure\n Susp=0.0338"];
"1be8cdcc-aba8-4df7-872c-e94e7d4202e0" -> "82b0a44b-3c88-4beb-8a23-588b9ce12e7d";
"82b0a44b-3c88-4beb-8a23-588b9ce12e7d" [style=filled, fillcolor="#FFFFFF", label="android.widget.LinearLayout.measureVertical\n Susp=0.0343"];
"82b0a44b-3c88-4beb-8a23-588b9ce12e7d" -> "ff00d287-7297-41f6-b5a3-9d2be4593793";
"ff00d287-7297-41f6-b5a3-9d2be4593793" [style=filled, fillcolor="#FFFFFF", label="android.widget.LinearLayout.measureChildBeforeLayout\n Susp=0.0349"];
"ff00d287-7297-41f6-b5a3-9d2be4593793" -> "589fe6da-30ca-4e55-a65a-aa96988854fe";
"589fe6da-30ca-4e55-a65a-aa96988854fe" [style=filled, fillcolor="#FFFFFF", label="android.view.ViewGroup.measureChildWithMargins\n Susp=0.0354"];
"589fe6da-30ca-4e55-a65a-aa96988854fe" -> "29384dbf-a106-49a2-a944-2ffe4529fadc";
"29384dbf-a106-49a2-a944-2ffe4529fadc" [style=filled, fillcolor="#FFFFFF", label="android.view.View.measure\n Susp=0.0359"];
"29384dbf-a106-49a2-a944-2ffe4529fadc" -> "8e18161e-19bf-4652-963d-59648a633083";
"8e18161e-19bf-4652-963d-59648a633083" [style=filled, fillcolor="#FFFFFF", label="android.widget.ScrollView.onMeasure\n Susp=0.0364"];
"8e18161e-19bf-4652-963d-59648a633083" -> "1a219db5-556d-45c3-a991-8d7cef207c64";
"1a219db5-556d-45c3-a991-8d7cef207c64" [style=filled, fillcolor="#FFFFFF", label="android.widget.FrameLayout.onMeasure\n Susp=0.037"];
"1a219db5-556d-45c3-a991-8d7cef207c64" -> "b99f54f7-8744-4277-9dea-0db9436d0411";
"b99f54f7-8744-4277-9dea-0db9436d0411" [style=filled, fillcolor="#FFFFFF", label="android.widget.ScrollView.measureChildWithMargins\n Susp=0.0375"];
"b99f54f7-8744-4277-9dea-0db9436d0411" -> "d747ff79-da5a-480b-ad3f-33ac7796ec96";
"d747ff79-da5a-480b-ad3f-33ac7796ec96" [style=filled, fillcolor="#FFFFFF", label="android.view.View.measure\n Susp=0.038"];
"d747ff79-da5a-480b-ad3f-33ac7796ec96" -> "6d4d9f7e-41d0-47b3-ad73-4b553f4ca056";
"6d4d9f7e-41d0-47b3-ad73-4b553f4ca056" [style=filled, fillcolor="#FFFFFF", label="android.widget.LinearLayout.onMeasure\n Susp=0.0385"];
"6d4d9f7e-41d0-47b3-ad73-4b553f4ca056" -> "78b8e232-9a85-4428-965c-d9370d72dcb0";
"78b8e232-9a85-4428-965c-d9370d72dcb0" [style=filled, fillcolor="#FFFFFF", label="android.widget.LinearLayout.measureVertical\n Susp=0.0391"];
"78b8e232-9a85-4428-965c-d9370d72dcb0" -> "dbc0070a-3df9-4bac-915f-49c06f8d0cfc";
"dbc0070a-3df9-4bac-915f-49c06f8d0cfc" [style=filled, fillcolor="#FFFFFF", label="android.widget.LinearLayout.measureChildBeforeLayout\n Susp=0.0396"];
"dbc0070a-3df9-4bac-915f-49c06f8d0cfc" -> "670d01ed-85c3-4a6b-9c98-ef5d7cd53579";
"670d01ed-85c3-4a6b-9c98-ef5d7cd53579" [style=filled, fillcolor="#FFFFFF", label="android.view.ViewGroup.measureChildWithMargins\n Susp=0.0401"];
"670d01ed-85c3-4a6b-9c98-ef5d7cd53579" -> "6fb66ac9-4ac9-48c7-8efc-577fef885ea3";
"6fb66ac9-4ac9-48c7-8efc-577fef885ea3" [style=filled, fillcolor="#FFFFFF", label="android.view.View.measure\n Susp=0.0406"];
"6fb66ac9-4ac9-48c7-8efc-577fef885ea3" -> "9b90357f-0ba5-4567-bb4a-0881184e5d28";
"9b90357f-0ba5-4567-bb4a-0881184e5d28" [style=filled, fillcolor="#FFFFFF", label="android.support.v7.widget.AppCompatSpinner.onMeasure\n Susp=0.0412"];
"9b90357f-0ba5-4567-bb4a-0881184e5d28" -> "51cab961-065e-4613-a942-87ceba36c95b";
"51cab961-065e-4613-a942-87ceba36c95b" [style=filled, fillcolor="#FFFFFF", label="android.widget.Spinner.onMeasure\n Susp=0.0417"];
"51cab961-065e-4613-a942-87ceba36c95b" -> "94d9af46-da53-4c22-b99c-6f27f287420d";
"94d9af46-da53-4c22-b99c-6f27f287420d" [style=filled, fillcolor="#FFFFFF", label="android.widget.Spinner.measureContentWidth\n Susp=0.0422"];
"94d9af46-da53-4c22-b99c-6f27f287420d" -> "3fc0a3b0-3423-46f0-9788-211ee8971da9";
"3fc0a3b0-3423-46f0-9788-211ee8971da9" [style=filled, fillcolor="#FFFFFF", label="com.kamron.pogoiv.widgets.PlayerTeamAdapter.getView\n Susp=0.0428"];
"3fc0a3b0-3423-46f0-9788-211ee8971da9" -> "c7eba9d5-1d06-4611-a3dc-252e5fecaccc";
"c7eba9d5-1d06-4611-a3dc-252e5fecaccc" [style=filled, fillcolor="#FFFFFF", label="android.view.LayoutInflater.inflate\n Susp=0.0343"];
"71d8ff7d-4b17-4316-9117-6711c61c60cc" -> "d8aad575-3c55-4785-8e40-7a9baed3b0b0";
"d8aad575-3c55-4785-8e40-7a9baed3b0b0" [style=filled, fillcolor="#FFFFFF", label="android.view.ViewRootImpl.performLayout\n Susp=0.0356"];
"d8aad575-3c55-4785-8e40-7a9baed3b0b0" -> "f1171102-7055-403e-9f97-c5b61cf07e16";
"f1171102-7055-403e-9f97-c5b61cf07e16" [style=filled, fillcolor="#FFFFFF", label="android.view.ViewGroup.layout\n Susp=0.0362"];
"f1171102-7055-403e-9f97-c5b61cf07e16" -> "5a8efce9-961b-4f8c-97f9-2bbbda19ca3e";
"5a8efce9-961b-4f8c-97f9-2bbbda19ca3e" [style=filled, fillcolor="#FFFFFF", label="android.view.View.layout\n Susp=0.0392"];
"5a8efce9-961b-4f8c-97f9-2bbbda19ca3e" -> "440d335a-d7d6-48b4-8b64-11f1f5621e18";
"440d335a-d7d6-48b4-8b64-11f1f5621e18" [style=filled, fillcolor="#FFFFFF", label="com.android.internal.policy.DecorView.onLayout\n Susp=0.0243"];
"440d335a-d7d6-48b4-8b64-11f1f5621e18" -> "e3da5bc4-3b1d-4f1a-b85c-daaddb89a3bf";
"e3da5bc4-3b1d-4f1a-b85c-daaddb89a3bf" [style=filled, fillcolor="#FFFFFF", label="android.widget.FrameLayout.onLayout\n Susp=0.0249"];
"e3da5bc4-3b1d-4f1a-b85c-daaddb89a3bf" -> "900963b0-4143-4a95-95a7-73d3e7bdb5d0";
"900963b0-4143-4a95-95a7-73d3e7bdb5d0" [style=filled, fillcolor="#FFFFFF", label="android.widget.FrameLayout.layoutChildren\n Susp=0.0254"];
"900963b0-4143-4a95-95a7-73d3e7bdb5d0" -> "90d119bc-6d63-45ae-ac9a-4316593ff56d";
"90d119bc-6d63-45ae-ac9a-4316593ff56d" [style=filled, fillcolor="#FFFFFF", label="android.view.ViewGroup.layout\n Susp=0.0259"];
"90d119bc-6d63-45ae-ac9a-4316593ff56d" -> "0d3e436b-53a9-415f-a981-74eb4fb024e4";
"0d3e436b-53a9-415f-a981-74eb4fb024e4" [style=filled, fillcolor="#FFFFFF", label="android.view.View.layout\n Susp=0.0264"];
"0d3e436b-53a9-415f-a981-74eb4fb024e4" -> "2abda7a3-e657-4e2c-a2f0-20489d380eb1";
"2abda7a3-e657-4e2c-a2f0-20489d380eb1" [style=filled, fillcolor="#FFFFFF", label="android.widget.LinearLayout.onLayout\n Susp=0.027"];
"2abda7a3-e657-4e2c-a2f0-20489d380eb1" -> "9accb241-1680-4434-b076-34e4967cc053";
"9accb241-1680-4434-b076-34e4967cc053" [style=filled, fillcolor="#FFFFFF", label="android.widget.LinearLayout.layoutVertical\n Susp=0.0275"];
"9accb241-1680-4434-b076-34e4967cc053" -> "e7c606e7-43ba-4dc1-9668-8e1f8d2d7873";
"e7c606e7-43ba-4dc1-9668-8e1f8d2d7873" [style=filled, fillcolor="#FFFFFF", label="android.widget.LinearLayout.setChildFrame\n Susp=0.028"];
"e7c606e7-43ba-4dc1-9668-8e1f8d2d7873" -> "dca33a10-ce28-43cf-84d6-d5d91fd0a252";
"dca33a10-ce28-43cf-84d6-d5d91fd0a252" [style=filled, fillcolor="#FFFFFF", label="android.view.ViewGroup.layout\n Susp=0.0285"];
"dca33a10-ce28-43cf-84d6-d5d91fd0a252" -> "544fb205-63e7-4439-b74f-a224818b68ad";
"544fb205-63e7-4439-b74f-a224818b68ad" [style=filled, fillcolor="#FFFFFF", label="android.view.View.layout\n Susp=0.0291"];
"544fb205-63e7-4439-b74f-a224818b68ad" -> "c6cd941f-d340-4e80-a2fc-70bd3b68724c";
"c6cd941f-d340-4e80-a2fc-70bd3b68724c" [style=filled, fillcolor="#FFFFFF", label="android.widget.FrameLayout.onLayout\n Susp=0.0296"];
"c6cd941f-d340-4e80-a2fc-70bd3b68724c" -> "ba177a0b-312a-483b-b89c-cf7273369039";
"ba177a0b-312a-483b-b89c-cf7273369039" [style=filled, fillcolor="#FFFFFF", label="android.widget.FrameLayout.layoutChildren\n Susp=0.0301"];
"ba177a0b-312a-483b-b89c-cf7273369039" -> "d70da638-4fb5-4381-b93e-83a75fe1be49";
"d70da638-4fb5-4381-b93e-83a75fe1be49" [style=filled, fillcolor="#FFFFFF", label="android.view.ViewGroup.layout\n Susp=0.0306"];
"d70da638-4fb5-4381-b93e-83a75fe1be49" -> "cc83f2f3-2cb8-4541-bd00-f24b91ff4447";
"cc83f2f3-2cb8-4541-bd00-f24b91ff4447" [style=filled, fillcolor="#FFFFFF", label="android.view.View.layout\n Susp=0.0312"];
"cc83f2f3-2cb8-4541-bd00-f24b91ff4447" -> "bb563d1a-6be2-4711-9394-91f9e80d160b";
"bb563d1a-6be2-4711-9394-91f9e80d160b" [style=filled, fillcolor="#FFFFFF", label="android.support.v7.widget.ActionBarOverlayLayout.onLayout\n Susp=0.0317"];
"bb563d1a-6be2-4711-9394-91f9e80d160b" -> "214cb959-403a-4cb4-9869-8a2ab7406811";
"214cb959-403a-4cb4-9869-8a2ab7406811" [style=filled, fillcolor="#FFFFFF", label="android.view.ViewGroup.layout\n Susp=0.0322"];
"214cb959-403a-4cb4-9869-8a2ab7406811" -> "ab42c606-c98d-468d-a5bf-d39ccfe4365d";
"ab42c606-c98d-468d-a5bf-d39ccfe4365d" [style=filled, fillcolor="#FFFFFF", label="android.view.View.layout\n Susp=0.0328"];
"ab42c606-c98d-468d-a5bf-d39ccfe4365d" -> "2394284d-f165-4411-a434-8c342bd9f9fa";
"2394284d-f165-4411-a434-8c342bd9f9fa" [style=filled, fillcolor="#FFFFFF", label="android.widget.FrameLayout.onLayout\n Susp=0.0333"];
"2394284d-f165-4411-a434-8c342bd9f9fa" -> "915c6005-3dc3-4bd1-bcb8-a34ac0a38e82";
"915c6005-3dc3-4bd1-bcb8-a34ac0a38e82" [style=filled, fillcolor="#FFFFFF", label="android.widget.FrameLayout.layoutChildren\n Susp=0.0338"];
"915c6005-3dc3-4bd1-bcb8-a34ac0a38e82" -> "6936f4d6-e9b4-4818-8e7e-a5b03e860ad2";
"6936f4d6-e9b4-4818-8e7e-a5b03e860ad2" [style=filled, fillcolor="#FFFFFF", label="android.view.ViewGroup.layout\n Susp=0.0343"];
"6936f4d6-e9b4-4818-8e7e-a5b03e860ad2" -> "31d80dd2-b99f-4fb2-bcc6-5df2e64fabf6";
"31d80dd2-b99f-4fb2-bcc6-5df2e64fabf6" [style=filled, fillcolor="#FFFFFF", label="android.view.View.layout\n Susp=0.0349"];
"31d80dd2-b99f-4fb2-bcc6-5df2e64fabf6" -> "6c2c35a0-3f9a-4f54-a3bd-aed360512a90";
"6c2c35a0-3f9a-4f54-a3bd-aed360512a90" [style=filled, fillcolor="#FFFFFF", label="android.widget.LinearLayout.onLayout\n Susp=0.0354"];
"6c2c35a0-3f9a-4f54-a3bd-aed360512a90" -> "a564f318-2ef3-4d40-9636-83ba3134bb8a";
"a564f318-2ef3-4d40-9636-83ba3134bb8a" [style=filled, fillcolor="#FFFFFF", label="android.widget.LinearLayout.layoutVertical\n Susp=0.0359"];
"a564f318-2ef3-4d40-9636-83ba3134bb8a" -> "2e53190d-b5f9-4e0b-951c-25c9e19f1288";
"2e53190d-b5f9-4e0b-951c-25c9e19f1288" [style=filled, fillcolor="#FFFFFF", label="android.widget.LinearLayout.setChildFrame\n Susp=0.0364"];
"2e53190d-b5f9-4e0b-951c-25c9e19f1288" -> "36f12323-ad86-468f-a923-23c6163f6d8b";
"36f12323-ad86-468f-a923-23c6163f6d8b" [style=filled, fillcolor="#FFFFFF", label="android.view.ViewGroup.layout\n Susp=0.037"];
"36f12323-ad86-468f-a923-23c6163f6d8b" -> "772d1f35-9d44-47f1-bd10-1df835ef3462";
"772d1f35-9d44-47f1-bd10-1df835ef3462" [style=filled, fillcolor="#FFFFFF", label="android.view.View.layout\n Susp=0.0375"];
"772d1f35-9d44-47f1-bd10-1df835ef3462" -> "216cb7fb-9962-4516-b687-48660aaed87e";
"216cb7fb-9962-4516-b687-48660aaed87e" [style=filled, fillcolor="#FFFFFF", label="android.widget.ScrollView.onLayout\n Susp=0.038"];
"216cb7fb-9962-4516-b687-48660aaed87e" -> "a970ae84-dba8-42ac-a5e3-dcb78b3aa170";
"a970ae84-dba8-42ac-a5e3-dcb78b3aa170" [style=filled, fillcolor="#FFFFFF", label="android.widget.FrameLayout.onLayout\n Susp=0.0385"];
"a970ae84-dba8-42ac-a5e3-dcb78b3aa170" -> "7ca4908e-9333-4324-90d3-623916f4c176";
"7ca4908e-9333-4324-90d3-623916f4c176" [style=filled, fillcolor="#FFFFFF", label="android.widget.FrameLayout.layoutChildren\n Susp=0.0391"];
"7ca4908e-9333-4324-90d3-623916f4c176" -> "5a7bd7eb-bcb2-484c-ac4f-063281aa993b";
"5a7bd7eb-bcb2-484c-ac4f-063281aa993b" [style=filled, fillcolor="#FFFFFF", label="android.view.ViewGroup.layout\n Susp=0.0396"];
"5a7bd7eb-bcb2-484c-ac4f-063281aa993b" -> "be8b692d-0c5d-41cc-bca9-7ebc2e93d238";
"be8b692d-0c5d-41cc-bca9-7ebc2e93d238" [style=filled, fillcolor="#FFFFFF", label="android.view.View.layout\n Susp=0.0401"];
"be8b692d-0c5d-41cc-bca9-7ebc2e93d238" -> "a299bbb0-f744-4fa0-bff7-b13378c6c714";
"a299bbb0-f744-4fa0-bff7-b13378c6c714" [style=filled, fillcolor="#FFFFFF", label="android.widget.LinearLayout.onLayout\n Susp=0.0406"];
"a299bbb0-f744-4fa0-bff7-b13378c6c714" -> "d810981d-8b1e-406f-bfe2-45edb6c25d13";
"d810981d-8b1e-406f-bfe2-45edb6c25d13" [style=filled, fillcolor="#FFFFFF", label="android.widget.LinearLayout.layoutVertical\n Susp=0.0412"];
"d810981d-8b1e-406f-bfe2-45edb6c25d13" -> "92878c6e-6240-410a-98eb-2a3d8062ac5f";
"92878c6e-6240-410a-98eb-2a3d8062ac5f" [style=filled, fillcolor="#FFFFFF", label="android.widget.LinearLayout.setChildFrame\n Susp=0.0417"];
"92878c6e-6240-410a-98eb-2a3d8062ac5f" -> "21a3ad86-5c7d-4062-9e6f-4b8bd2954188";
"21a3ad86-5c7d-4062-9e6f-4b8bd2954188" [style=filled, fillcolor="#FFFFFF", label="android.view.ViewGroup.layout\n Susp=0.0422"];
"21a3ad86-5c7d-4062-9e6f-4b8bd2954188" -> "0957859d-e8ee-4a1d-8e7d-29fd42c6913f";
"0957859d-e8ee-4a1d-8e7d-29fd42c6913f" [style=filled, fillcolor="#FFFFFF", label="android.view.View.layout\n Susp=0.0428"];
"0957859d-e8ee-4a1d-8e7d-29fd42c6913f" -> "0971b892-5977-4ee8-bbb5-d49ae02d59f0";
"0971b892-5977-4ee8-bbb5-d49ae02d59f0" [style=filled, fillcolor="#FFFFFF", label="android.widget.Spinner.onLayout\n Susp=0.0433"];
"0971b892-5977-4ee8-bbb5-d49ae02d59f0" -> "412a7898-abed-43aa-b2c2-16419f84b873";
"412a7898-abed-43aa-b2c2-16419f84b873" [style=filled, fillcolor="#FFFFFF", label="android.widget.Spinner.layout\n Susp=0.0438"];
"412a7898-abed-43aa-b2c2-16419f84b873" -> "8a40e567-891b-4972-981d-254e8024b07f";
"8a40e567-891b-4972-981d-254e8024b07f" [style=filled, fillcolor="#FFFFFF", label="android.widget.Spinner.makeView\n Susp=0.0443"];
"8a40e567-891b-4972-981d-254e8024b07f" -> "12d77224-e275-4844-87da-de62aed7113f";
"12d77224-e275-4844-87da-de62aed7113f" [style=filled, fillcolor="#FFFFFF", label="com.kamron.pogoiv.widgets.PlayerTeamAdapter.getView\n Susp=0.0449"];
"12d77224-e275-4844-87da-de62aed7113f" -> "74eb878d-c96e-4c9b-b0a1-94af2632932f";
"74eb878d-c96e-4c9b-b0a1-94af2632932f" [style=filled, fillcolor="#FFFFFF", label="android.view.LayoutInflater.inflate\n Susp=0.0364"];
"5a8efce9-961b-4f8c-97f9-2bbbda19ca3e" -> "5a0ea307-25b7-4ec5-a0e6-ca14d9a284f0";
"5a0ea307-25b7-4ec5-a0e6-ca14d9a284f0" [style=filled, fillcolor="#FFFFFF", label="com.android.internal.policy.PhoneWindow$DecorView.onLayout\n Susp=0.0243"];
"5a0ea307-25b7-4ec5-a0e6-ca14d9a284f0" -> "06394fc1-9ef3-420c-ad54-a94bbaea4034";
"06394fc1-9ef3-420c-ad54-a94bbaea4034" [style=filled, fillcolor="#FFFFFF", label="android.widget.FrameLayout.onLayout\n Susp=0.0249"];
"06394fc1-9ef3-420c-ad54-a94bbaea4034" -> "7214b95a-28e8-48c2-b998-6c63efedc2b1";
"7214b95a-28e8-48c2-b998-6c63efedc2b1" [style=filled, fillcolor="#FFFFFF", label="android.widget.FrameLayout.layoutChildren\n Susp=0.0254"];
"7214b95a-28e8-48c2-b998-6c63efedc2b1" -> "120787be-5124-4422-9395-b2b9aa60cfc5";
"120787be-5124-4422-9395-b2b9aa60cfc5" [style=filled, fillcolor="#FFFFFF", label="android.view.ViewGroup.layout\n Susp=0.0259"];
"120787be-5124-4422-9395-b2b9aa60cfc5" -> "04a0e124-40b3-4619-a61d-047692c4326c";
"04a0e124-40b3-4619-a61d-047692c4326c" [style=filled, fillcolor="#FFFFFF", label="android.view.View.layout\n Susp=0.0264"];
"04a0e124-40b3-4619-a61d-047692c4326c" -> "1a608ffd-8868-46f8-b7a5-640d04220e45";
"1a608ffd-8868-46f8-b7a5-640d04220e45" [style=filled, fillcolor="#FFFFFF", label="android.widget.LinearLayout.onLayout\n Susp=0.027"];
"1a608ffd-8868-46f8-b7a5-640d04220e45" -> "814be285-bf2e-4a43-8f18-afec39d6f153";
"814be285-bf2e-4a43-8f18-afec39d6f153" [style=filled, fillcolor="#FFFFFF", label="android.widget.LinearLayout.layoutVertical\n Susp=0.0275"];
"814be285-bf2e-4a43-8f18-afec39d6f153" -> "3fb60a63-fc7f-45ab-abdb-7ea445418b1a";
"3fb60a63-fc7f-45ab-abdb-7ea445418b1a" [style=filled, fillcolor="#FFFFFF", label="android.widget.LinearLayout.setChildFrame\n Susp=0.028"];
"3fb60a63-fc7f-45ab-abdb-7ea445418b1a" -> "1d48b191-eda4-430b-9cc9-d312e78b7cf4";
"1d48b191-eda4-430b-9cc9-d312e78b7cf4" [style=filled, fillcolor="#FFFFFF", label="android.view.ViewGroup.layout\n Susp=0.0285"];
"1d48b191-eda4-430b-9cc9-d312e78b7cf4" -> "fbb07326-75ac-4a72-8fb4-e83f1a8eb16e";
"fbb07326-75ac-4a72-8fb4-e83f1a8eb16e" [style=filled, fillcolor="#FFFFFF", label="android.view.View.layout\n Susp=0.0291"];
"fbb07326-75ac-4a72-8fb4-e83f1a8eb16e" -> "b043d1fb-d171-4613-8e1d-deca4cb5bf38";
"b043d1fb-d171-4613-8e1d-deca4cb5bf38" [style=filled, fillcolor="#FFFFFF", label="android.widget.FrameLayout.onLayout\n Susp=0.0296"];
"b043d1fb-d171-4613-8e1d-deca4cb5bf38" -> "f3052aae-6d01-4fa1-a5af-4f476f7ff51f";
"f3052aae-6d01-4fa1-a5af-4f476f7ff51f" [style=filled, fillcolor="#FFFFFF", label="android.widget.FrameLayout.layoutChildren\n Susp=0.0301"];
"f3052aae-6d01-4fa1-a5af-4f476f7ff51f" -> "a5fb83ec-5deb-422d-907c-a4c3ce9c11ff";
"a5fb83ec-5deb-422d-907c-a4c3ce9c11ff" [style=filled, fillcolor="#FFFFFF", label="android.view.ViewGroup.layout\n Susp=0.0306"];
"a5fb83ec-5deb-422d-907c-a4c3ce9c11ff" -> "6974378a-589f-475d-a458-422dc7bdf646";
"6974378a-589f-475d-a458-422dc7bdf646" [style=filled, fillcolor="#FFFFFF", label="android.view.View.layout\n Susp=0.0312"];
"6974378a-589f-475d-a458-422dc7bdf646" -> "0de99168-a1ab-4b31-9df5-cfc76f827f2f";
"0de99168-a1ab-4b31-9df5-cfc76f827f2f" [style=filled, fillcolor="#FFFFFF", label="android.support.v7.widget.ActionBarOverlayLayout.onLayout\n Susp=0.0317"];
"0de99168-a1ab-4b31-9df5-cfc76f827f2f" -> "bf212da0-849f-43c1-9c00-54898fa80e17";
"bf212da0-849f-43c1-9c00-54898fa80e17" [style=filled, fillcolor="#FFFFFF", label="android.view.ViewGroup.layout\n Susp=0.0322"];
"bf212da0-849f-43c1-9c00-54898fa80e17" -> "275e616a-bb66-461a-b84e-5730f7b6c5be";
"275e616a-bb66-461a-b84e-5730f7b6c5be" [style=filled, fillcolor="#FFFFFF", label="android.view.View.layout\n Susp=0.0328"];
"275e616a-bb66-461a-b84e-5730f7b6c5be" -> "a5e54a4f-293b-41fc-99d8-2af01df5a393";
"a5e54a4f-293b-41fc-99d8-2af01df5a393" [style=filled, fillcolor="#FFFFFF", label="android.widget.FrameLayout.onLayout\n Susp=0.0333"];
"a5e54a4f-293b-41fc-99d8-2af01df5a393" -> "c8c57b95-efec-4566-a63a-d0600348a1cd";
"c8c57b95-efec-4566-a63a-d0600348a1cd" [style=filled, fillcolor="#FFFFFF", label="android.widget.FrameLayout.layoutChildren\n Susp=0.0338"];
"c8c57b95-efec-4566-a63a-d0600348a1cd" -> "0998f1ba-6e1c-413b-8cbf-d4193551f7ce";
"0998f1ba-6e1c-413b-8cbf-d4193551f7ce" [style=filled, fillcolor="#FFFFFF", label="android.view.ViewGroup.layout\n Susp=0.0343"];
"0998f1ba-6e1c-413b-8cbf-d4193551f7ce" -> "d01f6214-1d84-4a07-aa9a-4a1def3f2c10";
"d01f6214-1d84-4a07-aa9a-4a1def3f2c10" [style=filled, fillcolor="#FFFFFF", label="android.view.View.layout\n Susp=0.0349"];
"d01f6214-1d84-4a07-aa9a-4a1def3f2c10" -> "948acf76-ee27-421b-9c16-2bf9b3f357e7";
"948acf76-ee27-421b-9c16-2bf9b3f357e7" [style=filled, fillcolor="#FFFFFF", label="android.widget.LinearLayout.onLayout\n Susp=0.0354"];
"948acf76-ee27-421b-9c16-2bf9b3f357e7" -> "b77f757d-ea1e-48a4-9e92-d13aed57b8cd";
"b77f757d-ea1e-48a4-9e92-d13aed57b8cd" [style=filled, fillcolor="#FFFFFF", label="android.widget.LinearLayout.layoutVertical\n Susp=0.0359"];
"b77f757d-ea1e-48a4-9e92-d13aed57b8cd" -> "6c75c6fc-c034-4ffd-b636-573f68e7adca";
"6c75c6fc-c034-4ffd-b636-573f68e7adca" [style=filled, fillcolor="#FFFFFF", label="android.widget.LinearLayout.setChildFrame\n Susp=0.0364"];
"6c75c6fc-c034-4ffd-b636-573f68e7adca" -> "bd71abaf-ba15-48ab-a5c5-be47d6ca113a";
"bd71abaf-ba15-48ab-a5c5-be47d6ca113a" [style=filled, fillcolor="#FFFFFF", label="android.view.ViewGroup.layout\n Susp=0.037"];
"bd71abaf-ba15-48ab-a5c5-be47d6ca113a" -> "135b05c6-4661-491f-8a85-d3f7b829eb79";
"135b05c6-4661-491f-8a85-d3f7b829eb79" [style=filled, fillcolor="#FFFFFF", label="android.view.View.layout\n Susp=0.0375"];
"135b05c6-4661-491f-8a85-d3f7b829eb79" -> "afcc2676-4b33-4a17-a490-fc0e1a96c7b9";
"afcc2676-4b33-4a17-a490-fc0e1a96c7b9" [style=filled, fillcolor="#FFFFFF", label="android.widget.ScrollView.onLayout\n Susp=0.038"];
"afcc2676-4b33-4a17-a490-fc0e1a96c7b9" -> "bc09ca54-84c0-4335-bf55-e2ef33a0f073";
"bc09ca54-84c0-4335-bf55-e2ef33a0f073" [style=filled, fillcolor="#FFFFFF", label="android.widget.FrameLayout.onLayout\n Susp=0.0385"];
"bc09ca54-84c0-4335-bf55-e2ef33a0f073" -> "37d661d4-11fd-45ed-9479-18cc0123960d";
"37d661d4-11fd-45ed-9479-18cc0123960d" [style=filled, fillcolor="#FFFFFF", label="android.widget.FrameLayout.layoutChildren\n Susp=0.0391"];
"37d661d4-11fd-45ed-9479-18cc0123960d" -> "e7c3440d-438f-4b01-a3c0-8b7bcf774cff";
"e7c3440d-438f-4b01-a3c0-8b7bcf774cff" [style=filled, fillcolor="#FFFFFF", label="android.view.ViewGroup.layout\n Susp=0.0396"];
"e7c3440d-438f-4b01-a3c0-8b7bcf774cff" -> "2b52967c-8eec-49de-8277-dbb68cdd0161";
"2b52967c-8eec-49de-8277-dbb68cdd0161" [style=filled, fillcolor="#FFFFFF", label="android.view.View.layout\n Susp=0.0401"];
"2b52967c-8eec-49de-8277-dbb68cdd0161" -> "e377d803-21f8-4a84-855c-2aea6c0618c4";
"e377d803-21f8-4a84-855c-2aea6c0618c4" [style=filled, fillcolor="#FFFFFF", label="android.widget.LinearLayout.onLayout\n Susp=0.0406"];
"e377d803-21f8-4a84-855c-2aea6c0618c4" -> "d9fbbda2-ee73-49e7-b967-e806e4902479";
"d9fbbda2-ee73-49e7-b967-e806e4902479" [style=filled, fillcolor="#FFFFFF", label="android.widget.LinearLayout.layoutVertical\n Susp=0.0412"];
"d9fbbda2-ee73-49e7-b967-e806e4902479" -> "ff6db5d0-3b60-4da5-82b4-f061f9f964db";
"ff6db5d0-3b60-4da5-82b4-f061f9f964db" [style=filled, fillcolor="#FFFFFF", label="android.widget.LinearLayout.setChildFrame\n Susp=0.0417"];
"ff6db5d0-3b60-4da5-82b4-f061f9f964db" -> "983720eb-74a0-4655-b803-f472cd6b6807";
"983720eb-74a0-4655-b803-f472cd6b6807" [style=filled, fillcolor="#FFFFFF", label="android.view.ViewGroup.layout\n Susp=0.0422"];
"983720eb-74a0-4655-b803-f472cd6b6807" -> "c0377786-636f-4300-987e-cae069244542";
"c0377786-636f-4300-987e-cae069244542" [style=filled, fillcolor="#FFFFFF", label="android.view.View.layout\n Susp=0.0428"];
"c0377786-636f-4300-987e-cae069244542" -> "38350818-91f6-47cf-9b7e-be18865a39cf";
"38350818-91f6-47cf-9b7e-be18865a39cf" [style=filled, fillcolor="#FFFFFF", label="android.widget.Spinner.onLayout\n Susp=0.0433"];
"38350818-91f6-47cf-9b7e-be18865a39cf" -> "706532a1-d568-4e19-8fb6-fa81fc228768";
"706532a1-d568-4e19-8fb6-fa81fc228768" [style=filled, fillcolor="#FFFFFF", label="android.widget.Spinner.layout\n Susp=0.0438"];
"706532a1-d568-4e19-8fb6-fa81fc228768" -> "71d861af-bf3d-4157-8704-3bca898ef319";
"71d861af-bf3d-4157-8704-3bca898ef319" [style=filled, fillcolor="#FFFFFF", label="android.widget.Spinner.makeView\n Susp=0.0443"];
"71d861af-bf3d-4157-8704-3bca898ef319" -> "25549865-ebc8-4e8c-9205-ceaceeba54a8";
"25549865-ebc8-4e8c-9205-ceaceeba54a8" [style=filled, fillcolor="#FFFFFF", label="com.kamron.pogoiv.widgets.PlayerTeamAdapter.getView\n Susp=0.0449"];
"25549865-ebc8-4e8c-9205-ceaceeba54a8" -> "bd09fe3b-1aa1-482f-9993-52f215edae87";
"bd09fe3b-1aa1-482f-9993-52f215edae87" [style=filled, fillcolor="#FFFFFF", label="android.view.LayoutInflater.inflate\n Susp=0.0364"];
"15d81568-05bf-4ef3-be86-6b1ef36c54db" -> "77545413-e290-4a31-8ebe-9308b51f01d7";
"77545413-e290-4a31-8ebe-9308b51f01d7" [style=filled, fillcolor="#FFFFFF", label="android.support.v7.app.AppCompatDelegateImplV9$1.run\n Susp=0.0191"];
"77545413-e290-4a31-8ebe-9308b51f01d7" -> "d08e5322-6a20-44df-b134-cbe30436f77e";
"d08e5322-6a20-44df-b134-cbe30436f77e" [style=filled, fillcolor="#FFFFFF", label="android.support.v7.app.AppCompatDelegateImplV9.doInvalidatePanelMenu\n Susp=0.0196"];
"d08e5322-6a20-44df-b134-cbe30436f77e" -> "3bec2448-ea77-4431-ac48-0b742abf4c29";
"3bec2448-ea77-4431-ac48-0b742abf4c29" [style=filled, fillcolor="#FFFFFF", label="android.support.v7.app.AppCompatDelegateImplV9.preparePanel\n Susp=0.0201"];
"3bec2448-ea77-4431-ac48-0b742abf4c29" -> "a0f8b34d-3844-439b-a26c-dfbcb92683cc";
"a0f8b34d-3844-439b-a26c-dfbcb92683cc" [style=filled, fillcolor="#FFFFFF", label="android.support.v7.app.AppCompatDelegateImplBase$AppCompatWindowCallbackBase.onCreatePanelMenu\n Susp=0.0206"];
"a0f8b34d-3844-439b-a26c-dfbcb92683cc" -> "d3b8396f-24c1-4fa0-9b9d-2ff0cafdd20e";
"d3b8396f-24c1-4fa0-9b9d-2ff0cafdd20e" [style=filled, fillcolor="#FFFFFF", label="android.support.v7.view.WindowCallbackWrapper.onCreatePanelMenu\n Susp=0.0212"];
"d3b8396f-24c1-4fa0-9b9d-2ff0cafdd20e" -> "57cf1f8b-7f65-4d81-8d48-152127be7d49";
"57cf1f8b-7f65-4d81-8d48-152127be7d49" [style=filled, fillcolor="#FFFFFF", label="android.support.v4.app.FragmentActivity.onCreatePanelMenu\n Susp=0.0217"];
"57cf1f8b-7f65-4d81-8d48-152127be7d49" -> "4b8afa7a-841b-4d2e-a762-13072ba2f618";
"4b8afa7a-841b-4d2e-a762-13072ba2f618" [style=filled, fillcolor="#FFFFFF", label="android.app.Activity.onCreatePanelMenu\n Susp=0.0222"];
"4b8afa7a-841b-4d2e-a762-13072ba2f618" -> "dbfd5ceb-e05a-4116-a38a-ce0a4f2c4536";
"dbfd5ceb-e05a-4116-a38a-ce0a4f2c4536" [style=filled, fillcolor="#FFFFFF", label="com.kamron.pogoiv.MainActivity.onCreateOptionsMenu\n Susp=0.0228"];
"dbfd5ceb-e05a-4116-a38a-ce0a4f2c4536" -> "a39ef6fb-74ed-48e5-bec8-152f06947be8";
"a39ef6fb-74ed-48e5-bec8-152f06947be8" [style=filled, fillcolor="#FFFFFF", label="android.support.v7.view.SupportMenuInflater.inflate\n Susp=0.0143"];
"15d81568-05bf-4ef3-be86-6b1ef36c54db" -> "db5a9990-1e15-4d40-9885-ac2099726aab";
"db5a9990-1e15-4d40-9885-ac2099726aab" [style=filled, fillcolor="#A9A9A9", label="android.widget.AdapterView$SelectionNotifier.run\n Susp=0.3799"];
"db5a9990-1e15-4d40-9885-ac2099726aab" -> "c534427c-3279-4a0b-8988-645283dc480d";
"c534427c-3279-4a0b-8988-645283dc480d" [style=filled, fillcolor="#A9A9A9", label="android.widget.AdapterView.-wrap1\n Susp=0.3804"];
"c534427c-3279-4a0b-8988-645283dc480d" -> "a8ae6124-8ceb-4316-855f-2c13ca24c06d";
"a8ae6124-8ceb-4316-855f-2c13ca24c06d" [style=filled, fillcolor="#A9A9A9", label="android.widget.AdapterView.dispatchOnItemSelected\n Susp=0.3809"];
"a8ae6124-8ceb-4316-855f-2c13ca24c06d" -> "e7e6c892-c07c-4494-8b3f-6da7f4fe74a4";
"e7e6c892-c07c-4494-8b3f-6da7f4fe74a4" [style=filled, fillcolor="#A9A9A9", label="android.widget.AdapterView.fireOnSelected\n Susp=0.3815"];
"e7e6c892-c07c-4494-8b3f-6da7f4fe74a4" -> "aacc9271-8178-4752-9506-f9d723386d7e";
"aacc9271-8178-4752-9506-f9d723386d7e" [style=filled, fillcolor="#A9A9A9", label="com.kamron.pogoiv.widgets.PlayerTeamAdapter.getItemId\n Susp=0.3795"];
"15d81568-05bf-4ef3-be86-6b1ef36c54db" -> "eb577d96-4a3c-4f42-9627-a27eac8537fb";
"eb577d96-4a3c-4f42-9627-a27eac8537fb" [style=filled, fillcolor="#FFFFFF", label="android.app.LoadedApk$ReceiverDispatcher$Args.run\n Susp=0.0577"];
"eb577d96-4a3c-4f42-9627-a27eac8537fb" -> "587cff57-b007-46cb-85c8-d542157f5375";
"587cff57-b007-46cb-85c8-d542157f5375" [style=filled, fillcolor="#FFFFFF", label="com.kamron.pogoiv.updater.DownloadUpdateService$1.onReceive\n Susp=0.0583"];
"587cff57-b007-46cb-85c8-d542157f5375" -> "678f77a1-4b0c-4ace-a596-414174a97f2f";
"678f77a1-4b0c-4ace-a596-414174a97f2f" [style=filled, fillcolor="#FFFFFF", label="android.content.Intent.getLongExtra\n Susp=0.0112"];
"45911710-f7a2-4aab-b799-f70651530321" -> "a39917e0-dcb4-4ca4-a6da-5effe82b7c22";
"a39917e0-dcb4-4ca4-a6da-5effe82b7c22" [style=filled, fillcolor="#FFFFFF", label="android.support.v4.content.LocalBroadcastManager$1.handleMessage\n Susp=0.0314"];
"a39917e0-dcb4-4ca4-a6da-5effe82b7c22" -> "dc76594f-8641-44cd-9f9c-78ebc6d8cfdf";
"dc76594f-8641-44cd-9f9c-78ebc6d8cfdf" [style=filled, fillcolor="#FFFFFF", label="android.support.v4.content.LocalBroadcastManager.access$000\n Susp=0.032"];
"dc76594f-8641-44cd-9f9c-78ebc6d8cfdf" -> "81557613-2905-444d-b605-7ca426c4db1d";
"81557613-2905-444d-b605-7ca426c4db1d" [style=filled, fillcolor="#FFFFFF", label="android.support.v4.content.LocalBroadcastManager.executePendingBroadcasts\n Susp=0.0325"];
"81557613-2905-444d-b605-7ca426c4db1d" -> "698fddb0-7cf2-49b4-90f3-9cc20d402003";
"698fddb0-7cf2-49b4-90f3-9cc20d402003" [style=filled, fillcolor="#FFFFFF", label="com.kamron.pogoiv.MainActivity$2.onReceive\n Susp=0.033"];
"698fddb0-7cf2-49b4-90f3-9cc20d402003" -> "5483b058-a856-4ad6-9fff-e86fc2b47507";
"5483b058-a856-4ad6-9fff-e86fc2b47507" [style=filled, fillcolor="#FFFFFF", label="com.kamron.pogoiv.updater.AppUpdateUtil.getAppUpdateDialog\n Susp=0.0231"];
"5483b058-a856-4ad6-9fff-e86fc2b47507" -> "19c5a082-21e1-4a7e-b45b-034ed5645044";
"19c5a082-21e1-4a7e-b45b-034ed5645044" [style=filled, fillcolor="#FFFFFF", label="android.content.Context.getString\n Susp=0.0122"];
"5483b058-a856-4ad6-9fff-e86fc2b47507" -> "f22876dc-27fa-40ad-bddd-910064d2c032";
"f22876dc-27fa-40ad-bddd-910064d2c032" [style=filled, fillcolor="#FFFFFF", label="android.support.v7.app.AlertDialog$Builder.setIcon\n Susp=0.0122"];
"049dad44-8221-48a3-881c-52b20371514e" -> "f944a3e8-8b48-41b9-8e2e-09aeaec23f2f";
"f944a3e8-8b48-41b9-8e2e-09aeaec23f2f" [style=filled, fillcolor="#FFFFFF", label="java.lang.Thread.run\n Susp=0.0605"];
"f944a3e8-8b48-41b9-8e2e-09aeaec23f2f" -> "a436abc4-b8fa-4b93-b378-50534962290b";
"a436abc4-b8fa-4b93-b378-50534962290b" [style=filled, fillcolor="#FFFFFF", label="java.util.concurrent.ThreadPoolExecutor$Worker.run\n Susp=0.061"];
"a436abc4-b8fa-4b93-b378-50534962290b" -> "e14b3752-9511-439b-bcfc-7636dd30ca51";
"e14b3752-9511-439b-bcfc-7636dd30ca51" [style=filled, fillcolor="#FFFFFF", label="java.util.concurrent.ThreadPoolExecutor.runWorker\n Susp=0.0615"];
"e14b3752-9511-439b-bcfc-7636dd30ca51" -> "8064c468-1ff0-4fab-bd9d-c71f5c316c4d";
"8064c468-1ff0-4fab-bd9d-c71f5c316c4d" [style=filled, fillcolor="#FFFFFF", label="okhttp3.internal.NamedRunnable.run\n Susp=0.0621"];
"8064c468-1ff0-4fab-bd9d-c71f5c316c4d" -> "586ee697-31b1-4370-aa55-8214abd21860";
"586ee697-31b1-4370-aa55-8214abd21860" [style=filled, fillcolor="#FFFFFF", label="okhttp3.RealCall$AsyncCall.execute\n Susp=0.0626"];
"586ee697-31b1-4370-aa55-8214abd21860" -> "690a17e3-b982-4386-a34d-d33778786862";
"690a17e3-b982-4386-a34d-d33778786862" [style=filled, fillcolor="#FFFFFF", label="com.kamron.pogoiv.updater.AppUpdateUtil$1.onResponse\n Susp=0.0631"];
"690a17e3-b982-4386-a34d-d33778786862" -> "289b840c-0e4d-4db6-9d43-9c10b4d8b4ef";
"289b840c-0e4d-4db6-9d43-9c10b4d8b4ef" [style=filled, fillcolor="#FFFFFF", label="com.kamron.pogoiv.MainActivity.createUpdateDialogIntent\n Susp=0.0636"];
"289b840c-0e4d-4db6-9d43-9c10b4d8b4ef" -> "1531c23a-30ce-4796-bfce-a201b3a90b85";
"1531c23a-30ce-4796-bfce-a201b3a90b85" [style=filled, fillcolor="#FFFFFF", label="android.content.Intent.putExtra\n Susp=0.0617"];
}
