Position |MethodName|Relevancy
0.07692307692307693|de.hu_berlin.eduroam.WiFiEduroam.onCreate|1.0
0.15384615384615385|android.app.Activity.performCreate|0.9375
0.23076923076923078|android.app.Instrumentation.callActivityOnCreate|0.875
0.3076923076923077|android.app.ActivityThread.performLaunchActivity|0.8125
0.38461538461538464|android.app.ActivityThread.handleLaunchActivity|0.75
0.46153846153846156|android.app.ActivityThread.access$800|0.6875
0.5384615384615384|android.app.ActivityThread$H.handleMessage|0.625
0.6153846153846154|android.os.Handler.dispatchMessage|0.5625
0.6923076923076923|android.os.Looper.loop|0.5
0.7692307692307693|android.app.ActivityThread.main|0.4375
0.8461538461538461|java.lang.reflect.Method.invoke|0.375
0.9230769230769231|com.android.internal.os.ZygoteInit$MethodAndArgsCaller.run|0.3125
1.0|com.android.internal.os.ZygoteInit.main|0.25
