Position |MethodName|Relevancy
0.07692307692307693|android.app.Activity.performCreate|0.99
0.15384615384615385|android.app.Instrumentation.callActivityOnCreate|0.98
0.23076923076923078|android.app.ActivityThread.performLaunchActivity|0.97
0.3076923076923077|android.app.ActivityThread.handleLaunchActivity|0.96
0.38461538461538464|android.app.ActivityThread.access$800|0.95
0.46153846153846156|android.app.ActivityThread$H.handleMessage|0.94
0.5384615384615384|android.os.Handler.dispatchMessage|0.93
0.6153846153846154|android.os.Looper.loop|0.92
0.6923076923076923|android.app.ActivityThread.main|0.91
0.7692307692307693|java.lang.reflect.Method.invoke|0.9
0.8461538461538461|com.android.internal.os.ZygoteInit$MethodAndArgsCaller.run|0.89
0.9230769230769231|com.android.internal.os.ZygoteInit.main|0.88
1.0|com.ascendtv.kanjifix.MainActivity.onCreate|0.48
