27c27
< AFTER android.view.WindowManagerImpl.getDefaultDisplay, returnValue: Display id 0: DisplayInfo{"Built-in Screen", app 768 x 1184, real 768 x 1280, largest app 1196 x 1134, smallest app 768 x 718, 60.000004 fps, rotation0, density 320 (320.0 x 320.0) dpi, layerStack 0, type BUILT_IN, FLAG_SECURE, FLAG_SUPPORTS_PROTECTED_BUFFERS}, DisplayMetrics{density=2.0, width=768, height=1184, scaledDensity=2.0, xdpi=320.0, ydpi=320.0}, isValid=true
---
> AFTER android.view.WindowManagerImpl.getDefaultDisplay, returnValue: Display id 0: DisplayInfo{"Built-in Screen", app 768 x 1184, real 768 x 1280, largest app 1196 x 1134, smallest app 768 x 718, 60.000004 fps, supportedRefreshRates [60.000004], rotation 0, density 320 (320.0 x 320.0) dpi, layerStack 0, appVsyncOff 0, presDeadline 17666666, type BUILT_IN, state ON, FLAG_SECURE, FLAG_SUPPORTS_PROTECTED_BUFFERS}, DisplayMetrics{density=2.0, width=768, height=1184, scaledDensity=2.0, xdpi=320.0, ydpi=320.0}, isValid=true
47c47
< BEFORE anupam.acrylic.EasyPaint$MyView.onSizeChanged(768,1088,0,0)
---
> BEFORE anupam.acrylic.EasyPaint$MyView.onSizeChanged(768,1072,0,0)
