BEFORE anupam.acrylic.Splash.onCreate()
BEFORE android.app.Activity.onCreate()
AFTER android.app.Activity.onCreate
BEFORE android.app.Activity.setRequestedOrientation(1)
AFTER android.app.Activity.setRequestedOrientation
BEFORE android.app.Activity.setContentView(2130903042)
BEFORE android.app.Activity.setContentView(2130903042)
AFTER android.app.Activity.setContentView
AFTER android.app.Activity.setContentView
AFTER anupam.acrylic.Splash.onCreate
BEFORE android.content.Intent.setClassName(anupam.acrylic,anupam.acrylic.EasyPaint)
AFTER android.content.Intent.setClassName, returnValue: Intent { cmp=anupam.acrylic/.EasyPaint }
BEFORE android.app.Activity.startActivity(android.content.Intent)
AFTER android.app.Activity.startActivity
BEFORE android.app.Activity.finish()
AFTER android.app.Activity.finish
BEFORE anupam.acrylic.EasyPaint.onCreate()
BEFORE android.app.Activity.onCreate()
AFTER android.app.Activity.onCreate
BEFORE android.app.Activity.setRequestedOrientation(1)
AFTER android.app.Activity.setRequestedOrientation
BEFORE android.app.Activity.setRequestedOrientation(1)
AFTER android.app.Activity.setRequestedOrientation
BEFORE android.app.Activity.getWindowManager()
AFTER android.app.Activity.getWindowManager, returnValue: android.view.WindowManagerImpl
BEFORE android.view.WindowManagerImpl.getDefaultDisplay()
AFTER android.view.WindowManagerImpl.getDefaultDisplay, returnValue: Display id 0: DisplayInfo{"Built-in Screen", app 768 x 1184, real 768 x 1280, largest app 1196 x 1134, smallest app 768 x 718, 60.000004 fps, rotation0, density 320 (320.0 x 320.0) dpi, layerStack 0, type BUILT_IN, FLAG_SECURE, FLAG_SUPPORTS_PROTECTED_BUFFERS}, DisplayMetrics{density=2.0, width=768, height=1184, scaledDensity=2.0, xdpi=320.0, ydpi=320.0}, isValid=true
BEFORE android.view.Display.getSize(android.graphics.Point)
AFTER android.view.Display.getSize
BEFORE android.app.Activity.setContentView(anupam.acrylic.EasyPaint$MyView)
BEFORE android.app.Activity.setContentView(anupam.acrylic.EasyPaint$MyView)
AFTER android.app.Activity.setContentView
AFTER android.app.Activity.setContentView
BEFORE android.app.Activity.getPreferences(0)
AFTER android.app.Activity.getPreferences, returnValue: android.app.SharedPreferencesImpl
BEFORE android.app.SharedPreferencesImpl.getBoolean(RanBefore,false)
AFTER android.app.SharedPreferencesImpl.getBoolean, returnValue: true
BEFORE android.content.ContextWrapper.getApplicationContext()
AFTER android.content.ContextWrapper.getApplicationContext, returnValue: android.app.Application
BEFORE android.widget.Toast.makeText(android.app.Application,2130968587,0)
BEFORE android.widget.Toast.makeText(android.app.Application,2130968587,0)
AFTER android.widget.Toast.makeText, returnValue: android.widget.Toast
AFTER android.widget.Toast.makeText, returnValue: android.widget.Toast
BEFORE android.widget.Toast.show()
AFTER android.widget.Toast.show
AFTER anupam.acrylic.EasyPaint.onCreate
BEFORE anupam.acrylic.EasyPaint$MyView.onSizeChanged(768,1088,0,0)
AFTER anupam.acrylic.EasyPaint$MyView.onSizeChanged
BEFORE anupam.acrylic.EasyPaint.onCreateOptionsMenu(com.android.internal.view.menu.MenuBuilder)
BEFORE android.app.Activity.getMenuInflater()
AFTER android.app.Activity.getMenuInflater, returnValue: android.view.MenuInflater
BEFORE android.view.MenuInflater.inflate(2131165184,com.android.internal.view.menu.MenuBuilder)
AFTER android.view.MenuInflater.inflate
AFTER anupam.acrylic.EasyPaint.onCreateOptionsMenu, returnValue: true
BEFORE anupam.acrylic.EasyPaint.onPrepareOptionsMenu(com.android.internal.view.menu.MenuBuilder)
BEFORE android.app.Activity.onPrepareOptionsMenu(com.android.internal.view.menu.MenuBuilder)
AFTER android.app.Activity.onPrepareOptionsMenu, returnValue: true
AFTER anupam.acrylic.EasyPaint.onPrepareOptionsMenu, returnValue: true
BEFORE anupam.acrylic.EasyPaint$MyView.onDraw(android.view.GLES20RecordingCanvas)
BEFORE android.view.GLES20Canvas.drawColor(-1)
AFTER android.view.GLES20Canvas.drawColor
BEFORE android.view.GLES20Canvas.drawBitmap(android.graphics.Bitmap,0.0,0.0,android.graphics.Paint)
AFTER android.view.GLES20Canvas.drawBitmap
BEFORE android.view.GLES20Canvas.drawPath(anupam.acrylic.EasyPaint$MyView$LinePath,android.graphics.Paint)
AFTER android.view.GLES20Canvas.drawPath
BEFORE android.view.GLES20Canvas.drawPath(anupam.acrylic.EasyPaint$MyView$LinePath,android.graphics.Paint)
AFTER android.view.GLES20Canvas.drawPath
BEFORE android.view.GLES20Canvas.drawPath(anupam.acrylic.EasyPaint$MyView$LinePath,android.graphics.Paint)
AFTER android.view.GLES20Canvas.drawPath
BEFORE android.view.GLES20Canvas.drawPath(anupam.acrylic.EasyPaint$MyView$LinePath,android.graphics.Paint)
AFTER android.view.GLES20Canvas.drawPath
BEFORE android.view.GLES20Canvas.drawPath(anupam.acrylic.EasyPaint$MyView$LinePath,android.graphics.Paint)
AFTER android.view.GLES20Canvas.drawPath
BEFORE android.view.GLES20Canvas.drawPath(anupam.acrylic.EasyPaint$MyView$LinePath,android.graphics.Paint)
AFTER android.view.GLES20Canvas.drawPath
BEFORE android.view.GLES20Canvas.drawPath(anupam.acrylic.EasyPaint$MyView$LinePath,android.graphics.Paint)
AFTER android.view.GLES20Canvas.drawPath
BEFORE android.view.GLES20Canvas.drawPath(anupam.acrylic.EasyPaint$MyView$LinePath,android.graphics.Paint)
AFTER android.view.GLES20Canvas.drawPath
BEFORE android.view.GLES20Canvas.drawPath(anupam.acrylic.EasyPaint$MyView$LinePath,android.graphics.Paint)
AFTER android.view.GLES20Canvas.drawPath
BEFORE android.view.GLES20Canvas.drawPath(anupam.acrylic.EasyPaint$MyView$LinePath,android.graphics.Paint)
AFTER android.view.GLES20Canvas.drawPath
AFTER anupam.acrylic.EasyPaint$MyView.onDraw
