digraph FULL {
"c5825046-6d30-40ed-a0cb-999e14b9fdba" [label="android.os.Binder.execTransact\n Susp=0,8667"];
"c5825046-6d30-40ed-a0cb-999e14b9fdba" -> "12a3b4ef-a27a-42b6-b01d-5fc44ad9f39f";
"12a3b4ef-a27a-42b6-b01d-5fc44ad9f39f" [label="de.robv.android.xposed.XposedBridge.handleHookedMethod\n Susp=0,1344"];
"12a3b4ef-a27a-42b6-b01d-5fc44ad9f39f" -> "9ae5ee30-17ed-4f59-8c0f-85d74ee0ccb7";
"9ae5ee30-17ed-4f59-8c0f-85d74ee0ccb7" [label="it.unimib.disco.lta.unimiblogger.MyMethodHook.beforeHookedMethod\n Susp=0,1344"];
"9ae5ee30-17ed-4f59-8c0f-85d74ee0ccb7" -> "4df02be3-f15b-475c-adbf-c4fa37dfbd0a";
"4df02be3-f15b-475c-adbf-c4fa37dfbd0a" [label="java.lang.Thread.getStackTrace\n Susp=0,1344"];
"4df02be3-f15b-475c-adbf-c4fa37dfbd0a" -> "61ba4dc2-0c66-4643-b20e-c2442ab74e2e";
"61ba4dc2-0c66-4643-b20e-c2442ab74e2e" [label="dalvik.system.VMStack.getThreadStackTrace\n Susp=0,001"];
"c5825046-6d30-40ed-a0cb-999e14b9fdba" -> "3e4e634e-fa49-4fe7-aa3c-99eff0f6c9fa";
"3e4e634e-fa49-4fe7-aa3c-99eff0f6c9fa" [label="de.robv.android.xposed.XposedBridge.main\n Susp=0,3318"];
"3e4e634e-fa49-4fe7-aa3c-99eff0f6c9fa" -> "c81f9f4c-38d4-4f6e-8510-a5ecd0bd7273";
"c81f9f4c-38d4-4f6e-8510-a5ecd0bd7273" [label="com.android.internal.os.ZygoteInit.main\n Susp=0,4652"];
"c81f9f4c-38d4-4f6e-8510-a5ecd0bd7273" -> "c55a0b18-a355-4082-b34b-534cee5f92d6";
"c55a0b18-a355-4082-b34b-534cee5f92d6" [label="com.android.internal.os.ZygoteInit$MethodAndArgsCaller.run\n Susp=0,1342"];
"c55a0b18-a355-4082-b34b-534cee5f92d6" -> "b006c67e-926a-4064-a8ad-db8ee42464de";
"b006c67e-926a-4064-a8ad-db8ee42464de" [label="java.lang.reflect.Method.invoke\n Susp=0,1342"];
"b006c67e-926a-4064-a8ad-db8ee42464de" -> "8ba48f53-6870-4c14-9db9-cb3e5d00729c";
"8ba48f53-6870-4c14-9db9-cb3e5d00729c" [label="android.app.ActivityThread.main\n Susp=0,1342"];
"8ba48f53-6870-4c14-9db9-cb3e5d00729c" -> "e9aa6479-be0a-4424-aef7-9b9ce1e8db27";
"e9aa6479-be0a-4424-aef7-9b9ce1e8db27" [label="android.os.Looper.loop\n Susp=0,1342"];
"e9aa6479-be0a-4424-aef7-9b9ce1e8db27" -> "d1905ae4-5429-49d5-a9b2-c6aec40fc65e";
"d1905ae4-5429-49d5-a9b2-c6aec40fc65e" [label="android.os.Handler.dispatchMessage\n Susp=0,1342"];
"d1905ae4-5429-49d5-a9b2-c6aec40fc65e" -> "ec8b1317-6ef3-4ff1-ae2d-594d0f193c47";
"ec8b1317-6ef3-4ff1-ae2d-594d0f193c47" [label="android.app.ActivityThread$H.handleMessage\n Susp=0,1342"];
"ec8b1317-6ef3-4ff1-ae2d-594d0f193c47" -> "4a4c96e3-18e7-45af-ab1b-acc83c11c6e2";
"4a4c96e3-18e7-45af-ab1b-acc83c11c6e2" [label="android.app.ActivityThread.-wrap12\n Susp=0,1342"];
"4a4c96e3-18e7-45af-ab1b-acc83c11c6e2" -> "a8d55114-2dca-4769-a8f5-9ee3109877bc";
"a8d55114-2dca-4769-a8f5-9ee3109877bc" [label="android.app.ActivityThread.handleLaunchActivity\n Susp=0,1342"];
"a8d55114-2dca-4769-a8f5-9ee3109877bc" -> "025204e6-4ab0-46bf-93e6-8c87e11733b9";
"025204e6-4ab0-46bf-93e6-8c87e11733b9" [label="android.app.ActivityThread.performLaunchActivity\n Susp=0,1342"];
"025204e6-4ab0-46bf-93e6-8c87e11733b9" -> "c6390a5f-ca8c-46d9-8557-23a442634bf1";
"c6390a5f-ca8c-46d9-8557-23a442634bf1" [label="android.app.Instrumentation.callActivityOnCreate\n Susp=0,1342"];
"c6390a5f-ca8c-46d9-8557-23a442634bf1" -> "c9a49297-b073-450a-9472-2053236b76b9";
"c9a49297-b073-450a-9472-2053236b76b9" [label="de.robv.android.xposed.XposedBridge.handleHookedMethod\n Susp=0,1342"];
"c9a49297-b073-450a-9472-2053236b76b9" -> "6d54dac1-6366-4d65-907b-54a382c5e135";
"6d54dac1-6366-4d65-907b-54a382c5e135" [label="de.robv.android.xposed.XposedBridge.invokeOriginalMethodNative\n Susp=0,1342"];
"6d54dac1-6366-4d65-907b-54a382c5e135" -> "83a2c5bf-cb39-4bfe-830d-f19cff1672e8";
"83a2c5bf-cb39-4bfe-830d-f19cff1672e8" [label="android.app.Instrumentation.callActivityOnCreate\n Susp=0,1342"];
"83a2c5bf-cb39-4bfe-830d-f19cff1672e8" -> "a45c2768-0a49-4517-a6ba-a816d85b6c4d";
"a45c2768-0a49-4517-a6ba-a816d85b6c4d" [label="android.app.Activity.performCreate\n Susp=0,1342"];
"a45c2768-0a49-4517-a6ba-a816d85b6c4d" -> "5d0f2076-c1bc-47d2-b7a7-01a34f45bff3";
"5d0f2076-c1bc-47d2-b7a7-01a34f45bff3" [label="de.robv.android.xposed.XposedBridge.handleHookedMethod\n Susp=0,1342"];
"5d0f2076-c1bc-47d2-b7a7-01a34f45bff3" -> "47e5d4ff-c659-4552-8fa1-2165d3735992";
"47e5d4ff-c659-4552-8fa1-2165d3735992" [label="de.robv.android.xposed.XposedBridge.invokeOriginalMethodNative\n Susp=0,1342"];
"47e5d4ff-c659-4552-8fa1-2165d3735992" -> "823522d5-f9b7-4785-99a8-7a4de6f4dc65";
"823522d5-f9b7-4785-99a8-7a4de6f4dc65" [label="android.app.Activity.performCreate\n Susp=0,1342"];
"823522d5-f9b7-4785-99a8-7a4de6f4dc65" -> "30bec763-9b26-4cf6-b8f9-203f7c3ab380";
"30bec763-9b26-4cf6-b8f9-203f7c3ab380" [label="de.baumann.browser.Activity.BrowserActivity.onCreate\n Susp=0,1342"];
"30bec763-9b26-4cf6-b8f9-203f7c3ab380" -> "c53221ab-727a-434b-9a2a-abe5347a73c7";
"c53221ab-727a-434b-9a2a-abe5347a73c7" [label="de.robv.android.xposed.XposedBridge.handleHookedMethod\n Susp=0,1342"];
"c53221ab-727a-434b-9a2a-abe5347a73c7" -> "405ac5cd-18e7-41b9-bc4e-c8f92a4f8c99";
"405ac5cd-18e7-41b9-bc4e-c8f92a4f8c99" [label="de.robv.android.xposed.XposedBridge.invokeOriginalMethodNative\n Susp=0,1342"];
"405ac5cd-18e7-41b9-bc4e-c8f92a4f8c99" -> "160c3bf3-c704-493a-945b-4fbe210c5bfe";
"160c3bf3-c704-493a-945b-4fbe210c5bfe" [label="de.baumann.browser.Activity.BrowserActivity.onCreate\n Susp=0,2675"];
"160c3bf3-c704-493a-945b-4fbe210c5bfe" -> "065c3cb5-0ae2-40b8-a0f2-f2932880dee5";
"065c3cb5-0ae2-40b8-a0f2-f2932880dee5" [label="android.webkit.WebView.enableSlowWholeDocumentDraw\n Susp=0,1338"];
"065c3cb5-0ae2-40b8-a0f2-f2932880dee5" -> "f3bea46e-7d85-4f70-bdf0-6e417bb07b16";
"f3bea46e-7d85-4f70-bdf0-6e417bb07b16" [label="de.robv.android.xposed.XposedBridge.handleHookedMethod\n Susp=0,1338"];
"f3bea46e-7d85-4f70-bdf0-6e417bb07b16" -> "b463fa51-9992-4453-bc15-8a5339472c7d";
"b463fa51-9992-4453-bc15-8a5339472c7d" [label="de.robv.android.xposed.XposedBridge.invokeOriginalMethodNative\n Susp=0,1338"];
"b463fa51-9992-4453-bc15-8a5339472c7d" -> "82efc290-fdc9-4206-896b-7d5ba9b5a24e";
"82efc290-fdc9-4206-896b-7d5ba9b5a24e" [label="android.webkit.WebView.enableSlowWholeDocumentDraw\n Susp=0,2672"];
"82efc290-fdc9-4206-896b-7d5ba9b5a24e" -> "912c5e94-857a-42c3-95b2-d1145863a4e1";
"912c5e94-857a-42c3-95b2-d1145863a4e1" [label="android.webkit.WebView.getFactory\n Susp=0,1335"];
"912c5e94-857a-42c3-95b2-d1145863a4e1" -> "3430faad-ae62-4e50-81a8-fe4a9232458b";
"3430faad-ae62-4e50-81a8-fe4a9232458b" [label="de.robv.android.xposed.XposedBridge.handleHookedMethod\n Susp=0,1335"];
"3430faad-ae62-4e50-81a8-fe4a9232458b" -> "28960af2-de03-4159-915c-d66a0d801cd7";
"28960af2-de03-4159-915c-d66a0d801cd7" [label="de.robv.android.xposed.XposedBridge.invokeOriginalMethodNative\n Susp=0,1335"];
"28960af2-de03-4159-915c-d66a0d801cd7" -> "dbdbf4f9-a1ae-4ff1-80da-5d087b60005b";
"dbdbf4f9-a1ae-4ff1-80da-5d087b60005b" [label="android.webkit.WebView.getFactory\n Susp=0,1335"];
"dbdbf4f9-a1ae-4ff1-80da-5d087b60005b" -> "4d9a15ce-51d7-4384-afa2-f7a51c786f25";
"4d9a15ce-51d7-4384-afa2-f7a51c786f25" [label="android.webkit.WebViewFactory.getProvider\n Susp=0,1335"];
"4d9a15ce-51d7-4384-afa2-f7a51c786f25" -> "f14b619d-d546-41d1-a418-89fa28fe86b8";
"f14b619d-d546-41d1-a418-89fa28fe86b8" [label="java.lang.reflect.Constructor.newInstance\n Susp=0,1335"];
"f14b619d-d546-41d1-a418-89fa28fe86b8" -> "01317f8f-fc30-4716-9659-0051de35ee34";
"01317f8f-fc30-4716-9659-0051de35ee34" [label="java.lang.reflect.Constructor.newInstance0\n Susp=0,1335"];
"01317f8f-fc30-4716-9659-0051de35ee34" -> "a7d4fe6e-1c97-4494-8a2b-0f42c32a33f7";
"a7d4fe6e-1c97-4494-8a2b-0f42c32a33f7" [label="com.android.webview.chromium.WebViewChromiumFactoryProvider.<init>\n Susp=0,1335"];
"a7d4fe6e-1c97-4494-8a2b-0f42c32a33f7" -> "5cfb2c48-7713-43b1-9a51-a22562cc089f";
"5cfb2c48-7713-43b1-9a51-a22562cc089f" [label="com.android.webview.chromium.WebViewChromiumFactoryProvider.a\n Susp=0,1335"];
"5cfb2c48-7713-43b1-9a51-a22562cc089f" -> "8d42aa97-82ab-4867-82df-485557364146";
"8d42aa97-82ab-4867-82df-485557364146" [label="wx.a\n Susp=0,1335"];
"8d42aa97-82ab-4867-82df-485557364146" -> "5c29294a-d748-4c6c-8dde-787c0f25b9dc";
"5c29294a-d748-4c6c-8dde-787c0f25b9dc" [label="android.os.StrictMode.setThreadPolicy\n Susp=0,1335"];
"5c29294a-d748-4c6c-8dde-787c0f25b9dc" -> "83725680-2307-47a2-91ce-b6c1c7343004";
"83725680-2307-47a2-91ce-b6c1c7343004" [label="de.robv.android.xposed.XposedBridge.handleHookedMethod\n Susp=0,1335"];
"83725680-2307-47a2-91ce-b6c1c7343004" -> "a9f7ce5b-d80b-470c-8103-aada10e75c67";
"a9f7ce5b-d80b-470c-8103-aada10e75c67" [label="it.unimib.disco.lta.unimiblogger.MyMethodHook.beforeHookedMethod\n Susp=0,1335"];
"a9f7ce5b-d80b-470c-8103-aada10e75c67" -> "26bca5a6-0394-45c5-8069-d7d220b7d9e5";
"26bca5a6-0394-45c5-8069-d7d220b7d9e5" [label="java.lang.Thread.getStackTrace\n Susp=0,1335"];
"26bca5a6-0394-45c5-8069-d7d220b7d9e5" -> "e2f753f9-0bca-45c6-9eff-d474383b42b2";
"e2f753f9-0bca-45c6-9eff-d474383b42b2" [label="dalvik.system.VMStack.getThreadStackTrace\n Susp=0,0002"];
"82efc290-fdc9-4206-896b-7d5ba9b5a24e" -> "638d02f5-a5c1-414f-9174-81a34248d85f";
"638d02f5-a5c1-414f-9174-81a34248d85f" [label="com.android.webview.chromium.WebViewChromiumFactoryProvider.getStatics\n Susp=0,1337"];
"638d02f5-a5c1-414f-9174-81a34248d85f" -> "c127bac3-ffa5-4c98-a2b8-9395ba1ca427";
"c127bac3-ffa5-4c98-a2b8-9395ba1ca427" [label="kp.e\n Susp=0,1337"];
"c127bac3-ffa5-4c98-a2b8-9395ba1ca427" -> "b58a7dd3-71d3-4a08-a4f6-eddc1b141daf";
"b58a7dd3-71d3-4a08-a4f6-eddc1b141daf" [label="kp.b\n Susp=0,1337"];
"b58a7dd3-71d3-4a08-a4f6-eddc1b141daf" -> "9678156b-0f05-4399-be6d-a16bd6916e87";
"9678156b-0f05-4399-be6d-a16bd6916e87" [label="kp.c\n Susp=0,4004"];
"9678156b-0f05-4399-be6d-a16bd6916e87" -> "47ccfc4c-5114-4066-ae6a-0262f196796e";
"47ccfc4c-5114-4066-ae6a-0262f196796e" [label="android.os.Process.myUid\n Susp=0,1334"];
"47ccfc4c-5114-4066-ae6a-0262f196796e" -> "3fd96ebd-08c7-4c9d-96b5-7b10a91e67b0";
"3fd96ebd-08c7-4c9d-96b5-7b10a91e67b0" [label="de.robv.android.xposed.XposedBridge.handleHookedMethod\n Susp=0,1334"];
"3fd96ebd-08c7-4c9d-96b5-7b10a91e67b0" -> "3f3143be-d9d7-440f-98ee-a673b250bc77";
"3f3143be-d9d7-440f-98ee-a673b250bc77" [label="it.unimib.disco.lta.unimiblogger.MyMethodHook.beforeHookedMethod\n Susp=0,1334"];
"3f3143be-d9d7-440f-98ee-a673b250bc77" -> "ae11877c-4138-43e6-90d1-a27c0e4186df";
"ae11877c-4138-43e6-90d1-a27c0e4186df" [label="java.lang.Thread.getStackTrace\n Susp=0,1334"];
"ae11877c-4138-43e6-90d1-a27c0e4186df" -> "632ddb8d-a955-410b-b93d-4535eaea0c3a";
"632ddb8d-a955-410b-b93d-4535eaea0c3a" [label="dalvik.system.VMStack.getThreadStackTrace\n Susp=0,0001"];
"9678156b-0f05-4399-be6d-a16bd6916e87" -> "d5410e6e-3647-4081-9ad4-0793ad77b134";
"d5410e6e-3647-4081-9ad4-0793ad77b134" [label="org.chromium.android_webview.AwBrowserProcess.a\n Susp=0,1335"];
"d5410e6e-3647-4081-9ad4-0793ad77b134" -> "21bac01f-e9be-4b20-9c56-58f3807ef548";
"21bac01f-e9be-4b20-9c56-58f3807ef548" [label="org.chromium.base.ThreadUtils.a\n Susp=0,1335"];
"21bac01f-e9be-4b20-9c56-58f3807ef548" -> "5c948412-0eb0-479b-acb5-d6c9a78e00ce";
"5c948412-0eb0-479b-acb5-d6c9a78e00ce" [label="tt.run\n Susp=0,1335"];
"5c948412-0eb0-479b-acb5-d6c9a78e00ce" -> "f3c07d8b-479f-4ce6-8a88-43501bb7acb1";
"f3c07d8b-479f-4ce6-8a88-43501bb7acb1" [label="org.chromium.android_webview.AwBrowserProcess.a\n Susp=0,1335"];
"f3c07d8b-479f-4ce6-8a88-43501bb7acb1" -> "8b1cc474-9f1f-4cae-8c70-7099faef17f4";
"8b1cc474-9f1f-4cae-8c70-7099faef17f4" [label="Mj.a\n Susp=0,1335"];
"8b1cc474-9f1f-4cae-8c70-7099faef17f4" -> "f7e42778-5487-4762-881c-5e05230012cb";
"f7e42778-5487-4762-881c-5e05230012cb" [label="android.os.Handler.getLooper\n Susp=0,1335"];
"f7e42778-5487-4762-881c-5e05230012cb" -> "997cdfac-7e5d-487d-b9db-ff2005bf7bc3";
"997cdfac-7e5d-487d-b9db-ff2005bf7bc3" [label="de.robv.android.xposed.XposedBridge.handleHookedMethod\n Susp=0,1335"];
"997cdfac-7e5d-487d-b9db-ff2005bf7bc3" -> "f5bab2b7-48f0-44bc-99b9-225637ce7cc3";
"f5bab2b7-48f0-44bc-99b9-225637ce7cc3" [label="it.unimib.disco.lta.unimiblogger.MyMethodHook.beforeHookedMethod\n Susp=0,1335"];
"f5bab2b7-48f0-44bc-99b9-225637ce7cc3" -> "b0eb88c7-0dab-405a-9891-4b6a99557f8e";
"b0eb88c7-0dab-405a-9891-4b6a99557f8e" [label="java.lang.Thread.getStackTrace\n Susp=0,1335"];
"b0eb88c7-0dab-405a-9891-4b6a99557f8e" -> "a07f8717-64a5-4e23-8d8b-760f267c407f";
"a07f8717-64a5-4e23-8d8b-760f267c407f" [label="dalvik.system.VMStack.getThreadStackTrace\n Susp=0,0002"];
"9678156b-0f05-4399-be6d-a16bd6916e87" -> "07dcc939-a7fd-4776-a822-c2218c4aeb43";
"07dcc939-a7fd-4776-a822-c2218c4aeb43" [label="hC.a\n Susp=0,1334"];
"07dcc939-a7fd-4776-a822-c2218c4aeb43" -> "06d0f79d-20fd-4935-9e41-e9ce99962fba";
"06d0f79d-20fd-4935-9e41-e9ce99962fba" [label="android.os.Handler.getLooper\n Susp=0,1334"];
"06d0f79d-20fd-4935-9e41-e9ce99962fba" -> "399930e5-9763-4de8-8070-3692ad2c1fa7";
"399930e5-9763-4de8-8070-3692ad2c1fa7" [label="de.robv.android.xposed.XposedBridge.handleHookedMethod\n Susp=0,1334"];
"399930e5-9763-4de8-8070-3692ad2c1fa7" -> "21d23b44-801c-46a9-8fe7-d591320db6eb";
"21d23b44-801c-46a9-8fe7-d591320db6eb" [label="it.unimib.disco.lta.unimiblogger.MyMethodHook.beforeHookedMethod\n Susp=0,1334"];
"21d23b44-801c-46a9-8fe7-d591320db6eb" -> "5a5e49d9-491d-4d04-94dd-578cd6ebdae6";
"5a5e49d9-491d-4d04-94dd-578cd6ebdae6" [label="java.lang.Thread.getStackTrace\n Susp=0,1334"];
"5a5e49d9-491d-4d04-94dd-578cd6ebdae6" -> "70ae8783-2099-413d-aed1-d6376a739e26";
"70ae8783-2099-413d-aed1-d6376a739e26" [label="dalvik.system.VMStack.getThreadStackTrace\n Susp=0,0001"];
"160c3bf3-c704-493a-945b-4fbe210c5bfe" -> "0d47db8e-b42a-4f93-b3d8-f91b4e54c16f";
"0d47db8e-b42a-4f93-b3d8-f91b4e54c16f" [label="de.baumann.browser.Activity.BrowserActivity.dispatchIntent\n Susp=0,1337"];
"0d47db8e-b42a-4f93-b3d8-f91b4e54c16f" -> "3c72b09f-003b-4d4a-821b-c68700a0e65f";
"3c72b09f-003b-4d4a-821b-c68700a0e65f" [label="de.robv.android.xposed.XposedBridge.handleHookedMethod\n Susp=0,1337"];
"3c72b09f-003b-4d4a-821b-c68700a0e65f" -> "112e01d3-b832-46cc-b125-726213a314cb";
"112e01d3-b832-46cc-b125-726213a314cb" [label="de.robv.android.xposed.XposedBridge.invokeOriginalMethodNative\n Susp=0,1337"];
"112e01d3-b832-46cc-b125-726213a314cb" -> "b17f9170-d49a-45cc-b2dd-7de2d0eab7b4";
"b17f9170-d49a-45cc-b2dd-7de2d0eab7b4" [label="de.baumann.browser.Activity.BrowserActivity.dispatchIntent\n Susp=0,1337"];
"b17f9170-d49a-45cc-b2dd-7de2d0eab7b4" -> "e1960d98-ed57-4167-8566-762b8c731f19";
"e1960d98-ed57-4167-8566-762b8c731f19" [label="de.baumann.browser.Activity.BrowserActivity.pinAlbums\n Susp=0,1337"];
"e1960d98-ed57-4167-8566-762b8c731f19" -> "c41df072-c79f-4b81-b24a-da9830b22847";
"c41df072-c79f-4b81-b24a-da9830b22847" [label="de.baumann.browser.View.NinjaWebView.<init>\n Susp=0,267"];
"c41df072-c79f-4b81-b24a-da9830b22847" -> "7beeed9f-6db4-4c8a-9216-f2d1b0c18b24";
"7beeed9f-6db4-4c8a-9216-f2d1b0c18b24" [label="android.webkit.WebView.<init>\n Susp=0,1335"];
"7beeed9f-6db4-4c8a-9216-f2d1b0c18b24" -> "ac3446bf-f886-455a-bbb0-1dce9b17f539";
"ac3446bf-f886-455a-bbb0-1dce9b17f539" [label="com.android.webview.chromium.WebViewChromium.init\n Susp=0,1335"];
"ac3446bf-f886-455a-bbb0-1dce9b17f539" -> "babd9955-1092-4758-83ff-af1b4329f977";
"babd9955-1092-4758-83ff-af1b4329f977" [label="com.android.webview.chromium.WebViewChromiumFactoryProvider.b\n Susp=0,1335"];
"babd9955-1092-4758-83ff-af1b4329f977" -> "a878d4a7-7844-4b57-8c99-502e63b00d5c";
"a878d4a7-7844-4b57-8c99-502e63b00d5c" [label="wu.a\n Susp=0,1335"];
"a878d4a7-7844-4b57-8c99-502e63b00d5c" -> "c8a65e15-14b1-47a7-bea8-bc3ee454764c";
"c8a65e15-14b1-47a7-bea8-bc3ee454764c" [label="org.chromium.base.task.PostTask.b\n Susp=0,1335"];
"c8a65e15-14b1-47a7-bea8-bc3ee454764c" -> "942b79ba-e62c-44ea-a5cf-e347fef570be";
"942b79ba-e62c-44ea-a5cf-e347fef570be" [label="wv.run\n Susp=0,1335"];
"942b79ba-e62c-44ea-a5cf-e347fef570be" -> "81342b5e-d2cc-4528-abda-db55a29ff49a";
"81342b5e-d2cc-4528-abda-db55a29ff49a" [label="wu.a\n Susp=0,1335"];
"81342b5e-d2cc-4528-abda-db55a29ff49a" -> "e00a4abd-df5b-4af0-93f5-4c93d6a103b6";
"e00a4abd-df5b-4af0-93f5-4c93d6a103b6" [label="ip.run\n Susp=0,1335"];
"e00a4abd-df5b-4af0-93f5-4c93d6a103b6" -> "386a6424-2792-4941-adae-e79ec198d7c4";
"386a6424-2792-4941-adae-e79ec198d7c4" [label="org.chromium.android_webview.AwContents.<init>\n Susp=0,1335"];
"386a6424-2792-4941-adae-e79ec198d7c4" -> "a5ab9872-d095-4197-9718-5ec1056e4234";
"a5ab9872-d095-4197-9718-5ec1056e4234" [label="org.chromium.android_webview.AwContents.d\n Susp=0,1335"];
"a5ab9872-d095-4197-9718-5ec1056e4234" -> "ebb0a930-7c37-4784-8de8-ab2a982bc423";
"ebb0a930-7c37-4784-8de8-ab2a982bc423" [label="org.chromium.android_webview.AwContents.e\n Susp=0,2669"];
"ebb0a930-7c37-4784-8de8-ab2a982bc423" -> "19304c5c-bb9f-4d65-a1b0-87a43ac68e5c";
"19304c5c-bb9f-4d65-a1b0-87a43ac68e5c" [label="org.chromium.android_webview.AwContents.b\n Susp=0,1334"];
"19304c5c-bb9f-4d65-a1b0-87a43ac68e5c" -> "c181faf8-9000-4a41-9898-9033c734e3b0";
"c181faf8-9000-4a41-9898-9033c734e3b0" [label="tZ.<init>\n Susp=0,1334"];
"c181faf8-9000-4a41-9898-9033c734e3b0" -> "4cb50a4e-479a-4ad3-a128-2b45cfd822c1";
"4cb50a4e-479a-4ad3-a128-2b45cfd822c1" [label="vD.<init>\n Susp=0,1334"];
"4cb50a4e-479a-4ad3-a128-2b45cfd822c1" -> "f88a7e37-07e3-4ea3-8341-8d1fcd545b1d";
"f88a7e37-07e3-4ea3-8341-8d1fcd545b1d" [label="vD.a\n Susp=0,1334"];
"f88a7e37-07e3-4ea3-8341-8d1fcd545b1d" -> "f31b882e-5889-47c8-9265-66428c130df4";
"f31b882e-5889-47c8-9265-66428c130df4" [label="android.os.Message.obtain\n Susp=0,1334"];
"f31b882e-5889-47c8-9265-66428c130df4" -> "8e87fe61-d327-4aac-961a-c608fc3db72c";
"8e87fe61-d327-4aac-961a-c608fc3db72c" [label="de.robv.android.xposed.XposedBridge.handleHookedMethod\n Susp=0,1334"];
"8e87fe61-d327-4aac-961a-c608fc3db72c" -> "0ad05570-e976-4be4-8dc4-a698df786ae7";
"0ad05570-e976-4be4-8dc4-a698df786ae7" [label="de.robv.android.xposed.XposedBridge.invokeOriginalMethodNative\n Susp=0,1334"];
"0ad05570-e976-4be4-8dc4-a698df786ae7" -> "6fe1fcc6-e234-41be-ae45-855f37bca0f9";
"6fe1fcc6-e234-41be-ae45-855f37bca0f9" [label="android.os.Message.obtain\n Susp=0,1334"];
"6fe1fcc6-e234-41be-ae45-855f37bca0f9" -> "0d2b61f9-7313-4e26-bcf8-bd278bc9a1f8";
"0d2b61f9-7313-4e26-bcf8-bd278bc9a1f8" [label="de.robv.android.xposed.XposedBridge.handleHookedMethod\n Susp=0,1334"];
"0d2b61f9-7313-4e26-bcf8-bd278bc9a1f8" -> "e0ffd6bd-7d8b-464d-a841-61da6f6af500";
"e0ffd6bd-7d8b-464d-a841-61da6f6af500" [label="it.unimib.disco.lta.unimiblogger.MyMethodHook.beforeHookedMethod\n Susp=0,1334"];
"e0ffd6bd-7d8b-464d-a841-61da6f6af500" -> "6372d3ed-8239-4595-b9ac-fbf7a0282649";
"6372d3ed-8239-4595-b9ac-fbf7a0282649" [label="java.lang.Thread.getStackTrace\n Susp=0,1334"];
"6372d3ed-8239-4595-b9ac-fbf7a0282649" -> "09af9e4c-edc7-46a9-ad1a-ef4cf28ab713";
"09af9e4c-edc7-46a9-ad1a-ef4cf28ab713" [label="dalvik.system.VMStack.getThreadStackTrace\n Susp=0,0001"];
"ebb0a930-7c37-4784-8de8-ab2a982bc423" -> "deddc7a8-8d37-4084-8956-165814d8b2c8";
"deddc7a8-8d37-4084-8956-165814d8b2c8" [label="vD.<init>\n Susp=0,1334"];
"deddc7a8-8d37-4084-8956-165814d8b2c8" -> "4083c328-b111-43f9-a774-1de0d66fbf81";
"4083c328-b111-43f9-a774-1de0d66fbf81" [label="vD.a\n Susp=0,1334"];
"4083c328-b111-43f9-a774-1de0d66fbf81" -> "3a7ef0f2-8fb8-4151-a648-70552053326c";
"3a7ef0f2-8fb8-4151-a648-70552053326c" [label="android.os.Message.obtain\n Susp=0,1334"];
"3a7ef0f2-8fb8-4151-a648-70552053326c" -> "38d3400e-c4ea-4613-98d9-bc9027cbb755";
"38d3400e-c4ea-4613-98d9-bc9027cbb755" [label="de.robv.android.xposed.XposedBridge.handleHookedMethod\n Susp=0,1334"];
"38d3400e-c4ea-4613-98d9-bc9027cbb755" -> "8bf462a2-7bb5-46cc-ae36-7e580c8ebd88";
"8bf462a2-7bb5-46cc-ae36-7e580c8ebd88" [label="de.robv.android.xposed.XposedBridge.invokeOriginalMethodNative\n Susp=0,1334"];
"8bf462a2-7bb5-46cc-ae36-7e580c8ebd88" -> "0e845d39-50d3-47f4-8b41-e28a17f3025b";
"0e845d39-50d3-47f4-8b41-e28a17f3025b" [label="android.os.Message.obtain\n Susp=0,1334"];
"0e845d39-50d3-47f4-8b41-e28a17f3025b" -> "c7ab63d4-ef71-450d-bf08-684da18354fe";
"c7ab63d4-ef71-450d-bf08-684da18354fe" [label="de.robv.android.xposed.XposedBridge.handleHookedMethod\n Susp=0,1334"];
"c7ab63d4-ef71-450d-bf08-684da18354fe" -> "2282f817-515f-4ca0-b264-2b7511782a2c";
"2282f817-515f-4ca0-b264-2b7511782a2c" [label="it.unimib.disco.lta.unimiblogger.MyMethodHook.beforeHookedMethod\n Susp=0,1334"];
"2282f817-515f-4ca0-b264-2b7511782a2c" -> "88e4e4fb-bb55-4933-9b36-a15d6a7b7d89";
"88e4e4fb-bb55-4933-9b36-a15d6a7b7d89" [label="java.lang.Thread.getStackTrace\n Susp=0,1334"];
"88e4e4fb-bb55-4933-9b36-a15d6a7b7d89" -> "eb4f0a74-18dc-42ea-aaf4-ad7e9f2e82c5";
"eb4f0a74-18dc-42ea-aaf4-ad7e9f2e82c5" [label="dalvik.system.VMStack.getThreadStackTrace\n Susp=0,0001"];
"c41df072-c79f-4b81-b24a-da9830b22847" -> "69905e63-c3ab-4af7-b40c-18aaa41b6e59";
"69905e63-c3ab-4af7-b40c-18aaa41b6e59" [label="de.baumann.browser.View.Album.<init>\n Susp=0,1335"];
"69905e63-c3ab-4af7-b40c-18aaa41b6e59" -> "1eeefd75-8766-4542-ae9e-7a2a653eb12b";
"1eeefd75-8766-4542-ae9e-7a2a653eb12b" [label="de.baumann.browser.View.Album.initUI\n Susp=0,1335"];
"1eeefd75-8766-4542-ae9e-7a2a653eb12b" -> "34c72137-5d58-4c36-b588-40bb0c1ab07b";
"34c72137-5d58-4c36-b588-40bb0c1ab07b" [label="android.view.LayoutInflater.inflate\n Susp=0,1335"];
"34c72137-5d58-4c36-b588-40bb0c1ab07b" -> "a4c8c62f-5fa0-458f-b5f3-e98af764c11d";
"a4c8c62f-5fa0-458f-b5f3-e98af764c11d" [label="de.robv.android.xposed.XposedBridge.handleHookedMethod\n Susp=0,1335"];
"a4c8c62f-5fa0-458f-b5f3-e98af764c11d" -> "ccf7bc9b-77aa-4a58-ba05-5c935e1ef1a8";
"ccf7bc9b-77aa-4a58-ba05-5c935e1ef1a8" [label="de.robv.android.xposed.XposedBridge.invokeOriginalMethodNative\n Susp=0,1335"];
"ccf7bc9b-77aa-4a58-ba05-5c935e1ef1a8" -> "dabbec77-ef5e-45b1-b8c9-7f59353a176c";
"dabbec77-ef5e-45b1-b8c9-7f59353a176c" [label="android.view.LayoutInflater.inflate\n Susp=0,1335"];
"dabbec77-ef5e-45b1-b8c9-7f59353a176c" -> "366ce218-44a0-4eeb-8def-fd5786006ea4";
"366ce218-44a0-4eeb-8def-fd5786006ea4" [label="de.robv.android.xposed.XposedBridge.handleHookedMethod\n Susp=0,1335"];
"366ce218-44a0-4eeb-8def-fd5786006ea4" -> "afe1dc8d-ca48-4d1d-8c91-020da198e17a";
"afe1dc8d-ca48-4d1d-8c91-020da198e17a" [label="it.unimib.disco.lta.unimiblogger.MyMethodHook.beforeHookedMethod\n Susp=0,1335"];
"afe1dc8d-ca48-4d1d-8c91-020da198e17a" -> "6f918fc7-7410-49e9-86ff-346d84afd449";
"6f918fc7-7410-49e9-86ff-346d84afd449" [label="java.lang.Thread.getStackTrace\n Susp=0,1335"];
"6f918fc7-7410-49e9-86ff-346d84afd449" -> "13744328-5680-472c-ae50-1841f6de1ed3";
"13744328-5680-472c-ae50-1841f6de1ed3" [label="dalvik.system.VMStack.getThreadStackTrace\n Susp=0,0002"];
"c81f9f4c-38d4-4f6e-8510-a5ecd0bd7273" -> "975d0485-79cf-41e6-8eef-9c77fbdcfdeb";
"975d0485-79cf-41e6-8eef-9c77fbdcfdeb" [label="com.android.internal.os.Zygote$MethodAndArgsCaller.run\n Susp=0,331"];
"975d0485-79cf-41e6-8eef-9c77fbdcfdeb" -> "58bb42fc-66cd-4a53-8ce2-8913a29a6e99";
"58bb42fc-66cd-4a53-8ce2-8913a29a6e99" [label="java.lang.reflect.Method.invoke\n Susp=0,331"];
"58bb42fc-66cd-4a53-8ce2-8913a29a6e99" -> "7e2ca22a-49bf-43b1-a8ff-3e04165c56c4";
"7e2ca22a-49bf-43b1-a8ff-3e04165c56c4" [label="android.app.ActivityThread.main\n Susp=0,331"];
"7e2ca22a-49bf-43b1-a8ff-3e04165c56c4" -> "efb5557c-cda9-4194-860c-03163605c592";
"efb5557c-cda9-4194-860c-03163605c592" [label="android.os.Looper.loop\n Susp=0,331"];
"efb5557c-cda9-4194-860c-03163605c592" -> "eb3a254d-cc5b-47cf-9bb1-4112750f5aec";
"eb3a254d-cc5b-47cf-9bb1-4112750f5aec" [label="android.os.Handler.dispatchMessage\n Susp=0,331"];
"eb3a254d-cc5b-47cf-9bb1-4112750f5aec" -> "a9d12255-4e7d-4ef9-9fd4-93a5fdcc37cc";
"a9d12255-4e7d-4ef9-9fd4-93a5fdcc37cc" [label="android.app.ActivityThread$H.handleMessage\n Susp=0,331"];
"a9d12255-4e7d-4ef9-9fd4-93a5fdcc37cc" -> "af07419d-fe03-48df-ad49-a148eabd25de";
"af07419d-fe03-48df-ad49-a148eabd25de" [label="android.app.ActivityThread.-wrap11\n Susp=0,331"];
"af07419d-fe03-48df-ad49-a148eabd25de" -> "38d75aff-64a3-463d-bf61-810938b5ca25";
"38d75aff-64a3-463d-bf61-810938b5ca25" [label="android.app.ActivityThread.handleLaunchActivity\n Susp=0,331"];
"38d75aff-64a3-463d-bf61-810938b5ca25" -> "e9c51a01-560e-4932-85be-edad4fa5d17f";
"e9c51a01-560e-4932-85be-edad4fa5d17f" [label="android.app.ActivityThread.performLaunchActivity\n Susp=0,331"];
"e9c51a01-560e-4932-85be-edad4fa5d17f" -> "c465e4b8-8eff-453e-97e4-84c628057575";
"c465e4b8-8eff-453e-97e4-84c628057575" [label="android.app.Instrumentation.callActivityOnCreate\n Susp=0,331"];
"c465e4b8-8eff-453e-97e4-84c628057575" -> "f2f3b0a3-e76a-4340-937c-f03c89772a54";
"f2f3b0a3-e76a-4340-937c-f03c89772a54" [label="android.app.Activity.performCreate\n Susp=0,331"];
"f2f3b0a3-e76a-4340-937c-f03c89772a54" -> "95b6989b-6464-450d-9bf2-91ae5a09265c";
"95b6989b-6464-450d-9bf2-91ae5a09265c" [label="de.baumann.browser.Activity.BrowserActivity.onCreate\n Susp=0,331"];
"95b6989b-6464-450d-9bf2-91ae5a09265c" -> "38108b6f-7b78-42b9-a824-d49bbb1458c3";
"38108b6f-7b78-42b9-a824-d49bbb1458c3" [label="de.robv.android.xposed.XposedBridge.handleHookedMethod\n Susp=0,331"];
"38108b6f-7b78-42b9-a824-d49bbb1458c3" -> "b9adf0d1-5947-41cb-a88e-1e6c137dffab";
"b9adf0d1-5947-41cb-a88e-1e6c137dffab" [label="de.robv.android.xposed.XposedBridge.invokeOriginalMethodNative\n Susp=0,331"];
"b9adf0d1-5947-41cb-a88e-1e6c137dffab" -> "dc33bc47-6cdd-4f20-9f24-e46a87f69fb2";
"dc33bc47-6cdd-4f20-9f24-e46a87f69fb2" [label="de.baumann.browser.Activity.BrowserActivity.onCreate\n Susp=0,9976"];
"dc33bc47-6cdd-4f20-9f24-e46a87f69fb2" -> "d9536a04-59db-463d-aeca-280f1c97d29d";
"d9536a04-59db-463d-aeca-280f1c97d29d" [label="android.webkit.WebView.enableSlowWholeDocumentDraw\n Susp=0,1349"];
"d9536a04-59db-463d-aeca-280f1c97d29d" -> "6a74126b-3909-48ca-82f6-29f1f737e898";
"6a74126b-3909-48ca-82f6-29f1f737e898" [label="de.robv.android.xposed.XposedBridge.handleHookedMethod\n Susp=0,1349"];
"6a74126b-3909-48ca-82f6-29f1f737e898" -> "506f3d5e-4309-47e8-b667-8c0043477606";
"506f3d5e-4309-47e8-b667-8c0043477606" [label="de.robv.android.xposed.XposedBridge.invokeOriginalMethodNative\n Susp=0,1349"];
"506f3d5e-4309-47e8-b667-8c0043477606" -> "1f666b15-dd7b-4a41-b7af-956184b65c9e";
"1f666b15-dd7b-4a41-b7af-956184b65c9e" [label="android.webkit.WebView.enableSlowWholeDocumentDraw\n Susp=0,2682"];
"1f666b15-dd7b-4a41-b7af-956184b65c9e" -> "060f09db-6cd6-4273-b9ca-c624cff898ac";
"060f09db-6cd6-4273-b9ca-c624cff898ac" [label="android.webkit.WebView.getFactory\n Susp=0,1334"];
"060f09db-6cd6-4273-b9ca-c624cff898ac" -> "e6f471cd-36aa-48e7-9381-17ab1ec64755";
"e6f471cd-36aa-48e7-9381-17ab1ec64755" [label="de.robv.android.xposed.XposedBridge.handleHookedMethod\n Susp=0,1334"];
"e6f471cd-36aa-48e7-9381-17ab1ec64755" -> "cac37751-5c18-4c52-ad60-37ed211004fa";
"cac37751-5c18-4c52-ad60-37ed211004fa" [label="de.robv.android.xposed.XposedBridge.invokeOriginalMethodNative\n Susp=0,1334"];
"cac37751-5c18-4c52-ad60-37ed211004fa" -> "0fc94abe-0426-4277-8b41-c0719629e2e0";
"0fc94abe-0426-4277-8b41-c0719629e2e0" [label="android.webkit.WebView.getFactory\n Susp=0,1334"];
"0fc94abe-0426-4277-8b41-c0719629e2e0" -> "72462ebb-99ff-4634-82b2-96a867490352";
"72462ebb-99ff-4634-82b2-96a867490352" [label="android.webkit.WebViewFactory.getProvider\n Susp=0,1334"];
"72462ebb-99ff-4634-82b2-96a867490352" -> "5b1163b4-6153-4db9-9014-2b5af0b20341";
"5b1163b4-6153-4db9-9014-2b5af0b20341" [label="de.robv.android.xposed.XposedBridge.handleHookedMethod\n Susp=0,1334"];
"5b1163b4-6153-4db9-9014-2b5af0b20341" -> "c4d840ee-dcf9-40c4-9e31-477c5a383596";
"c4d840ee-dcf9-40c4-9e31-477c5a383596" [label="de.robv.android.xposed.XposedBridge.invokeOriginalMethodNative\n Susp=0,1334"];
"c4d840ee-dcf9-40c4-9e31-477c5a383596" -> "5d0fb070-8d32-476e-a5fa-909f7fb92479";
"5d0fb070-8d32-476e-a5fa-909f7fb92479" [label="android.webkit.WebViewFactory.getProvider\n Susp=0,1334"];
"5d0fb070-8d32-476e-a5fa-909f7fb92479" -> "46c40958-8d5b-4c4a-bbd6-b837282ea9e7";
"46c40958-8d5b-4c4a-bbd6-b837282ea9e7" [label="java.lang.reflect.Method.invoke\n Susp=0,1334"];
"46c40958-8d5b-4c4a-bbd6-b837282ea9e7" -> "3047cc93-f30c-4947-818d-fd24aa749130";
"3047cc93-f30c-4947-818d-fd24aa749130" [label="com.android.webview.chromium.WebViewChromiumFactoryProviderForO.create\n Susp=0,1334"];
"3047cc93-f30c-4947-818d-fd24aa749130" -> "8ec79ad2-f41c-4269-bb84-a6b742e17c77";
"8ec79ad2-f41c-4269-bb84-a6b742e17c77" [label="com.android.webview.chromium.WebViewChromiumFactoryProviderForO.<init>\n Susp=0,1334"];
"8ec79ad2-f41c-4269-bb84-a6b742e17c77" -> "566b7d08-d7e1-447e-a203-49f2e865f0a0";
"566b7d08-d7e1-447e-a203-49f2e865f0a0" [label="com.android.webview.chromium.WebViewChromiumFactoryProvider.<init>\n Susp=0,1334"];
"566b7d08-d7e1-447e-a203-49f2e865f0a0" -> "624d5a4a-fb62-494e-82fb-6f7c724dc3c3";
"624d5a4a-fb62-494e-82fb-6f7c724dc3c3" [label="com.android.webview.chromium.WebViewChromiumFactoryProvider.a\n Susp=0,1334"];
"624d5a4a-fb62-494e-82fb-6f7c724dc3c3" -> "ea39edfd-d2a6-405f-ac40-1844cc453b3c";
"ea39edfd-d2a6-405f-ac40-1844cc453b3c" [label="lb.c\n Susp=0,1334"];
"ea39edfd-d2a6-405f-ac40-1844cc453b3c" -> "2d6be49b-bbaf-4e21-9cc3-11fb01d4ee1e";
"2d6be49b-bbaf-4e21-9cc3-11fb01d4ee1e" [label="ht.a\n Susp=0,1334"];
"2d6be49b-bbaf-4e21-9cc3-11fb01d4ee1e" -> "843c9788-0d1c-415f-a670-3f9dfc3cfb76";
"843c9788-0d1c-415f-a670-3f9dfc3cfb76" [label="android.webkit.WebViewDelegate.isMultiProcessEnabled\n Susp=0,1334"];
"843c9788-0d1c-415f-a670-3f9dfc3cfb76" -> "999a5c40-6dcc-4e95-8538-1212ba595db0";
"999a5c40-6dcc-4e95-8538-1212ba595db0" [label="de.robv.android.xposed.XposedBridge.handleHookedMethod\n Susp=0,1334"];
"999a5c40-6dcc-4e95-8538-1212ba595db0" -> "d4f8d52c-0b97-4a5b-ace3-0886e28e74bd";
"d4f8d52c-0b97-4a5b-ace3-0886e28e74bd" [label="it.unimib.disco.lta.unimiblogger.MyMethodHook.beforeHookedMethod\n Susp=0,1334"];
"d4f8d52c-0b97-4a5b-ace3-0886e28e74bd" -> "002d7f35-dcc9-4117-9db4-3b813cec31ea";
"002d7f35-dcc9-4117-9db4-3b813cec31ea" [label="java.lang.Thread.getStackTrace\n Susp=0,1334"];
"002d7f35-dcc9-4117-9db4-3b813cec31ea" -> "a0dfba8b-1678-43a4-84d9-a50a81bd5d3f";
"a0dfba8b-1678-43a4-84d9-a50a81bd5d3f" [label="dalvik.system.VMStack.getThreadStackTrace\n Susp=0,0001"];
"1f666b15-dd7b-4a41-b7af-956184b65c9e" -> "a98c308c-791b-4e7a-a25d-03606566715c";
"a98c308c-791b-4e7a-a25d-03606566715c" [label="com.android.webview.chromium.WebViewChromiumFactoryProvider.getStatics\n Susp=0,1348"];
"a98c308c-791b-4e7a-a25d-03606566715c" -> "09f4668f-0801-4c8f-ab22-7390b28efc36";
"09f4668f-0801-4c8f-ab22-7390b28efc36" [label="kp.e\n Susp=0,1348"];
"09f4668f-0801-4c8f-ab22-7390b28efc36" -> "9415ca2a-dc17-451b-8afa-5b429bc14f7e";
"9415ca2a-dc17-451b-8afa-5b429bc14f7e" [label="kp.b\n Susp=0,1348"];
"9415ca2a-dc17-451b-8afa-5b429bc14f7e" -> "5f176a6e-6ce0-4234-a824-40deb4636efa";
"5f176a6e-6ce0-4234-a824-40deb4636efa" [label="kp.c\n Susp=0,2681"];
"5f176a6e-6ce0-4234-a824-40deb4636efa" -> "f3789e1f-05c8-424b-a1db-76862bc49519";
"f3789e1f-05c8-424b-a1db-76862bc49519" [label="org.chromium.android_webview.AwBrowserProcess.a\n Susp=0,1347"];
"f3789e1f-05c8-424b-a1db-76862bc49519" -> "9f47baa1-d604-498f-a388-88337eace938";
"9f47baa1-d604-498f-a388-88337eace938" [label="org.chromium.base.ThreadUtils.a\n Susp=0,268"];
"9f47baa1-d604-498f-a388-88337eace938" -> "55cfc4c3-ad66-4bf1-802a-2d9749a52cf8";
"55cfc4c3-ad66-4bf1-802a-2d9749a52cf8" [label="org.chromium.base.ThreadUtils.d\n Susp=0,1339"];
"55cfc4c3-ad66-4bf1-802a-2d9749a52cf8" -> "90cf8272-0c3e-4344-82e0-91c7bd99bc59";
"90cf8272-0c3e-4344-82e0-91c7bd99bc59" [label="android.os.Looper.myLooper\n Susp=0,1339"];
"90cf8272-0c3e-4344-82e0-91c7bd99bc59" -> "75670ba5-4419-4b9c-a63e-cae2523c4d66";
"75670ba5-4419-4b9c-a63e-cae2523c4d66" [label="de.robv.android.xposed.XposedBridge.handleHookedMethod\n Susp=0,1339"];
"75670ba5-4419-4b9c-a63e-cae2523c4d66" -> "8c03ffc2-52e0-4880-a5d7-e32240cf16cb";
"8c03ffc2-52e0-4880-a5d7-e32240cf16cb" [label="it.unimib.disco.lta.unimiblogger.MyMethodHook.beforeHookedMethod\n Susp=0,1339"];
"8c03ffc2-52e0-4880-a5d7-e32240cf16cb" -> "1e15e1e1-6bad-41ac-aad0-a25cb4b9b63d";
"1e15e1e1-6bad-41ac-aad0-a25cb4b9b63d" [label="java.lang.Thread.getStackTrace\n Susp=0,1339"];
"1e15e1e1-6bad-41ac-aad0-a25cb4b9b63d" -> "43fae6d6-77a1-44b2-93a0-5860508b5d33";
"43fae6d6-77a1-44b2-93a0-5860508b5d33" [label="dalvik.system.VMStack.getThreadStackTrace\n Susp=0,0006"];
"9f47baa1-d604-498f-a388-88337eace938" -> "db52685b-116e-493f-9188-f56f7984bcbc";
"db52685b-116e-493f-9188-f56f7984bcbc" [label="tt.run\n Susp=0,1341"];
"db52685b-116e-493f-9188-f56f7984bcbc" -> "cc1f1045-5667-49b0-9583-94bc06bc820f";
"cc1f1045-5667-49b0-9583-94bc06bc820f" [label="org.chromium.android_webview.AwBrowserProcess.a\n Susp=0,2674"];
"cc1f1045-5667-49b0-9583-94bc06bc820f" -> "1001312b-2a55-423c-95ff-e65eb74f761f";
"1001312b-2a55-423c-95ff-e65eb74f761f" [label="Mj.a\n Susp=0,134"];
"1001312b-2a55-423c-95ff-e65eb74f761f" -> "44d0fe14-b8b6-451a-bea8-cc34289ee6e2";
"44d0fe14-b8b6-451a-bea8-cc34289ee6e2" [label="android.os.Handler.getLooper\n Susp=0,134"];
"44d0fe14-b8b6-451a-bea8-cc34289ee6e2" -> "6e6f4d6d-f434-4ee3-9eff-943c570da33c";
"6e6f4d6d-f434-4ee3-9eff-943c570da33c" [label="de.robv.android.xposed.XposedBridge.handleHookedMethod\n Susp=0,134"];
"6e6f4d6d-f434-4ee3-9eff-943c570da33c" -> "ee3ac8c2-78db-48ee-9b90-4990c9a5b1a4";
"ee3ac8c2-78db-48ee-9b90-4990c9a5b1a4" [label="it.unimib.disco.lta.unimiblogger.MyMethodHook.beforeHookedMethod\n Susp=0,134"];
"ee3ac8c2-78db-48ee-9b90-4990c9a5b1a4" -> "64933287-aa80-432d-b950-2b9986e012a6";
"64933287-aa80-432d-b950-2b9986e012a6" [label="java.lang.Thread.getStackTrace\n Susp=0,134"];
"64933287-aa80-432d-b950-2b9986e012a6" -> "8130eb12-5388-49a2-a5ed-552eed6a9fb2";
"8130eb12-5388-49a2-a5ed-552eed6a9fb2" [label="dalvik.system.VMStack.getThreadStackTrace\n Susp=0,0007"];
"cc1f1045-5667-49b0-9583-94bc06bc820f" -> "783d8ced-8e92-4963-b0dd-ffce15c0ec9c";
"783d8ced-8e92-4963-b0dd-ffce15c0ec9c" [label="org.chromium.content.browser.BrowserStartupControllerImpl.a\n Susp=0,1334"];
"783d8ced-8e92-4963-b0dd-ffce15c0ec9c" -> "911c4cc6-7443-4864-9a8f-d8dec0f45e6a";
"911c4cc6-7443-4864-9a8f-d8dec0f45e6a" [label="org.chromium.content.browser.BrowserStartupControllerImpl.nativeFlushStartupTasks\n Susp=0,1334"];
"911c4cc6-7443-4864-9a8f-d8dec0f45e6a" -> "7e61bdb4-a42c-462d-bcd7-1b72d0a22647";
"7e61bdb4-a42c-462d-bcd7-1b72d0a22647" [label="org.chromium.ui.display.DisplayAndroidManager.onNativeSideCreated\n Susp=0,1334"];
"7e61bdb4-a42c-462d-bcd7-1b72d0a22647" -> "0287272d-2b12-4910-b745-cbaff3c8f6e0";
"0287272d-2b12-4910-b745-cbaff3c8f6e0" [label="org.chromium.ui.display.DisplayAndroidManager.a\n Susp=0,1334"];
"0287272d-2b12-4910-b745-cbaff3c8f6e0" -> "783b0a1f-b0bc-45b7-876a-ffe52e128645";
"783b0a1f-b0bc-45b7-876a-ffe52e128645" [label="OY.a\n Susp=0,1334"];
"783b0a1f-b0bc-45b7-876a-ffe52e128645" -> "2d81fc9a-bb88-45fe-9967-4a9a4aa83c3d";
"2d81fc9a-bb88-45fe-9967-4a9a4aa83c3d" [label="xC.a\n Susp=0,1334"];
"2d81fc9a-bb88-45fe-9967-4a9a4aa83c3d" -> "55043e56-fd3b-46e4-9501-c79edbb5e227";
"55043e56-fd3b-46e4-9501-c79edbb5e227" [label="android.view.Display.isWideColorGamut\n Susp=0,1334"];
"55043e56-fd3b-46e4-9501-c79edbb5e227" -> "bbbca187-35d1-46fc-bd26-d31a31c0ac96";
"bbbca187-35d1-46fc-bd26-d31a31c0ac96" [label="de.robv.android.xposed.XposedBridge.handleHookedMethod\n Susp=0,1334"];
"bbbca187-35d1-46fc-bd26-d31a31c0ac96" -> "317b1ea8-60d1-4e72-9efa-1679e49f44df";
"317b1ea8-60d1-4e72-9efa-1679e49f44df" [label="it.unimib.disco.lta.unimiblogger.MyMethodHook.beforeHookedMethod\n Susp=0,1334"];
"317b1ea8-60d1-4e72-9efa-1679e49f44df" -> "ceea8228-9cc1-489a-af01-9c5ad1d387e8";
"ceea8228-9cc1-489a-af01-9c5ad1d387e8" [label="java.lang.Thread.getStackTrace\n Susp=0,1334"];
"ceea8228-9cc1-489a-af01-9c5ad1d387e8" -> "cfe74358-ccb1-42ec-b14a-80a7b6138619";
"cfe74358-ccb1-42ec-b14a-80a7b6138619" [label="dalvik.system.VMStack.getThreadStackTrace\n Susp=0,0001"];
"5f176a6e-6ce0-4234-a824-40deb4636efa" -> "9a072f44-c984-403d-a20b-af06617277c8";
"9a072f44-c984-403d-a20b-af06617277c8" [label="hC.a\n Susp=0,1334"];
"9a072f44-c984-403d-a20b-af06617277c8" -> "9e30a3a7-2d5d-49f5-afed-9eac74f530d6";
"9e30a3a7-2d5d-49f5-afed-9eac74f530d6" [label="android.os.Handler.getLooper\n Susp=0,1334"];
"9e30a3a7-2d5d-49f5-afed-9eac74f530d6" -> "d7ae485e-df40-4127-aed3-e074a8b1d894";
"d7ae485e-df40-4127-aed3-e074a8b1d894" [label="de.robv.android.xposed.XposedBridge.handleHookedMethod\n Susp=0,1334"];
"d7ae485e-df40-4127-aed3-e074a8b1d894" -> "482e91dc-3ce1-49ea-886e-1ae0f2176aa5";
"482e91dc-3ce1-49ea-886e-1ae0f2176aa5" [label="it.unimib.disco.lta.unimiblogger.MyMethodHook.beforeHookedMethod\n Susp=0,1334"];
"482e91dc-3ce1-49ea-886e-1ae0f2176aa5" -> "3edf2053-1204-4248-9690-039153373938";
"3edf2053-1204-4248-9690-039153373938" [label="java.lang.Thread.getStackTrace\n Susp=0,1334"];
"3edf2053-1204-4248-9690-039153373938" -> "31caffab-ed88-43bd-b137-81ce47217567";
"31caffab-ed88-43bd-b137-81ce47217567" [label="dalvik.system.VMStack.getThreadStackTrace\n Susp=0,0001"];
"dc33bc47-6cdd-4f20-9f24-e46a87f69fb2" -> "307b98fa-b95c-4351-a5b9-48dc9b385ac8";
"307b98fa-b95c-4351-a5b9-48dc9b385ac8" [label="android.app.SharedPreferencesImpl.edit\n Susp=0,1345"];
"307b98fa-b95c-4351-a5b9-48dc9b385ac8" -> "6e403512-4914-4091-9935-44e2db0cf0b8";
"6e403512-4914-4091-9935-44e2db0cf0b8" [label="de.robv.android.xposed.XposedBridge.handleHookedMethod\n Susp=0,1345"];
"6e403512-4914-4091-9935-44e2db0cf0b8" -> "dfd1ca46-8d9f-4c3e-9978-2e1d2af15e05";
"dfd1ca46-8d9f-4c3e-9978-2e1d2af15e05" [label="it.unimib.disco.lta.unimiblogger.MyMethodHook.beforeHookedMethod\n Susp=0,1345"];
"dfd1ca46-8d9f-4c3e-9978-2e1d2af15e05" -> "437c55fb-e759-4dd7-a5f0-6cb4372ecdcb";
"437c55fb-e759-4dd7-a5f0-6cb4372ecdcb" [label="java.lang.Thread.getStackTrace\n Susp=0,1345"];
"437c55fb-e759-4dd7-a5f0-6cb4372ecdcb" -> "2278d586-cfd6-42bd-93db-766415c7645b";
"2278d586-cfd6-42bd-93db-766415c7645b" [label="dalvik.system.VMStack.getThreadStackTrace\n Susp=0,0011"];
"dc33bc47-6cdd-4f20-9f24-e46a87f69fb2" -> "eba3b7ed-f54d-4d92-b721-75b734061438";
"eba3b7ed-f54d-4d92-b721-75b734061438" [label="android.app.SharedPreferencesImpl$EditorImpl.putInt\n Susp=0,1335"];
"eba3b7ed-f54d-4d92-b721-75b734061438" -> "5c658b29-6c16-434b-86ee-846f69863f13";
"5c658b29-6c16-434b-86ee-846f69863f13" [label="de.robv.android.xposed.XposedBridge.handleHookedMethod\n Susp=0,1335"];
"5c658b29-6c16-434b-86ee-846f69863f13" -> "1dc7d556-39a0-411d-aff2-5544bb61d86a";
"1dc7d556-39a0-411d-aff2-5544bb61d86a" [label="it.unimib.disco.lta.unimiblogger.MyMethodHook.beforeHookedMethod\n Susp=0,1335"];
"1dc7d556-39a0-411d-aff2-5544bb61d86a" -> "740a6728-2583-41eb-89f1-31e16f738323";
"740a6728-2583-41eb-89f1-31e16f738323" [label="java.lang.Thread.getStackTrace\n Susp=0,1335"];
"740a6728-2583-41eb-89f1-31e16f738323" -> "a77c45b9-074c-41d7-9b76-741655aba587";
"a77c45b9-074c-41d7-9b76-741655aba587" [label="dalvik.system.VMStack.getThreadStackTrace\n Susp=0,0002"];
"dc33bc47-6cdd-4f20-9f24-e46a87f69fb2" -> "d6289637-f460-499b-96ce-b973644e132e";
"d6289637-f460-499b-96ce-b973644e132e" [label="android.support.v4.content.ContextCompat.getColor\n Susp=0,1335"];
"d6289637-f460-499b-96ce-b973644e132e" -> "be636865-4685-4827-a7cd-addfed49f8eb";
"be636865-4685-4827-a7cd-addfed49f8eb" [label="de.robv.android.xposed.XposedBridge.handleHookedMethod\n Susp=0,1335"];
"be636865-4685-4827-a7cd-addfed49f8eb" -> "90d71077-ab81-4bc9-af39-bc8d686e8598";
"90d71077-ab81-4bc9-af39-bc8d686e8598" [label="it.unimib.disco.lta.unimiblogger.MyMethodHook.beforeHookedMethod\n Susp=0,1335"];
"90d71077-ab81-4bc9-af39-bc8d686e8598" -> "3753d02c-73d4-4088-a59d-554fc61c1884";
"3753d02c-73d4-4088-a59d-554fc61c1884" [label="java.lang.Thread.getStackTrace\n Susp=0,1335"];
"3753d02c-73d4-4088-a59d-554fc61c1884" -> "478a0cf5-9d61-424e-ba7e-12c5febd9452";
"478a0cf5-9d61-424e-ba7e-12c5febd9452" [label="dalvik.system.VMStack.getThreadStackTrace\n Susp=0,0002"];
"dc33bc47-6cdd-4f20-9f24-e46a87f69fb2" -> "99c2fb7f-0c28-4b2c-b045-9bc940b3135e";
"99c2fb7f-0c28-4b2c-b045-9bc940b3135e" [label="android.app.Activity.getIntent\n Susp=0,1334"];
"99c2fb7f-0c28-4b2c-b045-9bc940b3135e" -> "c211a3fa-7945-41da-b9a5-d4420314472c";
"c211a3fa-7945-41da-b9a5-d4420314472c" [label="de.robv.android.xposed.XposedBridge.handleHookedMethod\n Susp=0,1334"];
"c211a3fa-7945-41da-b9a5-d4420314472c" -> "0bbeeec5-0b03-421a-894a-a294a0b986c9";
"0bbeeec5-0b03-421a-894a-a294a0b986c9" [label="it.unimib.disco.lta.unimiblogger.MyMethodHook.beforeHookedMethod\n Susp=0,1334"];
"0bbeeec5-0b03-421a-894a-a294a0b986c9" -> "e19ab663-7f6f-4643-b479-8200d6cde23f";
"e19ab663-7f6f-4643-b479-8200d6cde23f" [label="java.lang.Thread.getStackTrace\n Susp=0,1334"];
"e19ab663-7f6f-4643-b479-8200d6cde23f" -> "83983314-c5cc-4c6c-ae16-43853bc9dcf5";
"83983314-c5cc-4c6c-ae16-43853bc9dcf5" [label="dalvik.system.VMStack.getThreadStackTrace\n Susp=0,0001"];
"dc33bc47-6cdd-4f20-9f24-e46a87f69fb2" -> "e80f03b2-4cca-40ba-9f9f-323980ed9090";
"e80f03b2-4cca-40ba-9f9f-323980ed9090" [label="de.baumann.browser.Activity.BrowserActivity.dispatchIntent\n Susp=0,3278"];
"e80f03b2-4cca-40ba-9f9f-323980ed9090" -> "4c628ba8-fb15-4429-b35a-a624719470a6";
"4c628ba8-fb15-4429-b35a-a624719470a6" [label="de.robv.android.xposed.XposedBridge.handleHookedMethod\n Susp=0,3278"];
"4c628ba8-fb15-4429-b35a-a624719470a6" -> "85460932-4c68-4b3d-8b76-df6f6ca4dc1f";
"85460932-4c68-4b3d-8b76-df6f6ca4dc1f" [label="de.robv.android.xposed.XposedBridge.invokeOriginalMethodNative\n Susp=0,3278"];
"85460932-4c68-4b3d-8b76-df6f6ca4dc1f" -> "3d809446-e0ca-46f2-87b3-3250912cd7a0";
"3d809446-e0ca-46f2-87b3-3250912cd7a0" [label="de.baumann.browser.Activity.BrowserActivity.dispatchIntent\n Susp=0,3278"];
"3d809446-e0ca-46f2-87b3-3250912cd7a0" -> "3cc1026e-7d50-457c-9835-e55dfbe77301";
"3cc1026e-7d50-457c-9835-e55dfbe77301" [label="de.baumann.browser.Activity.BrowserActivity.pinAlbums\n Susp=0,4611"];
"3cc1026e-7d50-457c-9835-e55dfbe77301" -> "b87274e5-8032-4c72-9c4f-a525f82f4979";
"b87274e5-8032-4c72-9c4f-a525f82f4979" [label="de.baumann.browser.View.NinjaWebView.<init>\n Susp=0,2816"];
"b87274e5-8032-4c72-9c4f-a525f82f4979" -> "93ea5441-12ac-48f4-b16a-32cff3f7607e";
"93ea5441-12ac-48f4-b16a-32cff3f7607e" [label="android.webkit.WebView.<init>\n Susp=0,1344"];
"93ea5441-12ac-48f4-b16a-32cff3f7607e" -> "edd598ef-de1e-4e28-ad26-30b33890285c";
"edd598ef-de1e-4e28-ad26-30b33890285c" [label="com.android.webview.chromium.WebViewChromium.init\n Susp=0,2677"];
"edd598ef-de1e-4e28-ad26-30b33890285c" -> "9a6fb986-72f1-4ff1-9019-e71d9bf31a87";
"9a6fb986-72f1-4ff1-9019-e71d9bf31a87" [label="org.chromium.android_webview.AwSettings.<init>\n Susp=0,1337"];
"9a6fb986-72f1-4ff1-9019-e71d9bf31a87" -> "3c2fd1bd-63cb-4cc3-806a-80a49ffb6428";
"3c2fd1bd-63cb-4cc3-806a-80a49ffb6428" [label="android.content.res.Resources.getConfiguration\n Susp=0,1337"];
"3c2fd1bd-63cb-4cc3-806a-80a49ffb6428" -> "59119fc0-e2c6-4711-8eb5-791d3cb5350b";
"59119fc0-e2c6-4711-8eb5-791d3cb5350b" [label="de.robv.android.xposed.XposedBridge.handleHookedMethod\n Susp=0,1337"];
"59119fc0-e2c6-4711-8eb5-791d3cb5350b" -> "4ff234ee-6d41-4c79-9cfa-c82ad2109f44";
"4ff234ee-6d41-4c79-9cfa-c82ad2109f44" [label="it.unimib.disco.lta.unimiblogger.MyMethodHook.beforeHookedMethod\n Susp=0,1337"];
"4ff234ee-6d41-4c79-9cfa-c82ad2109f44" -> "17bfa257-023f-4c6f-b622-b03af555ec34";
"17bfa257-023f-4c6f-b622-b03af555ec34" [label="java.lang.Thread.getStackTrace\n Susp=0,1337"];
"17bfa257-023f-4c6f-b622-b03af555ec34" -> "b75508e6-c962-4d3d-9053-2cf68fb8eae0";
"b75508e6-c962-4d3d-9053-2cf68fb8eae0" [label="dalvik.system.VMStack.getThreadStackTrace\n Susp=0,0004"];
"edd598ef-de1e-4e28-ad26-30b33890285c" -> "3046167a-b8e2-444a-9ddf-d3a53fcf13ef";
"3046167a-b8e2-444a-9ddf-d3a53fcf13ef" [label="com.android.webview.chromium.WebViewChromiumFactoryProvider.b\n Susp=0,134"];
"3046167a-b8e2-444a-9ddf-d3a53fcf13ef" -> "ad4139cd-c17d-4a2a-9589-308f92c1a8be";
"ad4139cd-c17d-4a2a-9589-308f92c1a8be" [label="wu.a\n Susp=0,134"];
"ad4139cd-c17d-4a2a-9589-308f92c1a8be" -> "8ca61b84-e575-4726-a593-14f4e63acf79";
"8ca61b84-e575-4726-a593-14f4e63acf79" [label="org.chromium.base.task.PostTask.b\n Susp=0,134"];
"8ca61b84-e575-4726-a593-14f4e63acf79" -> "5ee4a121-841f-4c79-80e9-a664c9a31474";
"5ee4a121-841f-4c79-80e9-a664c9a31474" [label="wv.run\n Susp=0,134"];
"5ee4a121-841f-4c79-80e9-a664c9a31474" -> "0ba0423e-75d2-4704-8434-23a2e9166a9b";
"0ba0423e-75d2-4704-8434-23a2e9166a9b" [label="wu.a\n Susp=0,134"];
"0ba0423e-75d2-4704-8434-23a2e9166a9b" -> "849c0d50-c355-4654-a540-bc21b4560822";
"849c0d50-c355-4654-a540-bc21b4560822" [label="ip.run\n Susp=0,134"];
"849c0d50-c355-4654-a540-bc21b4560822" -> "805063ce-afda-4fd2-8fe6-2bffb2b2b839";
"805063ce-afda-4fd2-8fe6-2bffb2b2b839" [label="org.chromium.android_webview.AwContents.<init>\n Susp=0,134"];
"805063ce-afda-4fd2-8fe6-2bffb2b2b839" -> "cba2a199-cdbe-4656-860d-b9a12f1a6dda";
"cba2a199-cdbe-4656-860d-b9a12f1a6dda" [label="org.chromium.android_webview.AwContents.d\n Susp=0,134"];
"cba2a199-cdbe-4656-860d-b9a12f1a6dda" -> "bb11eaf5-718b-4623-9b68-23b0140c8757";
"bb11eaf5-718b-4623-9b68-23b0140c8757" [label="org.chromium.android_webview.AwContents.e\n Susp=0,4007"];
"bb11eaf5-718b-4623-9b68-23b0140c8757" -> "9206781c-e9a1-4aa3-8183-2ec4d7dde42f";
"9206781c-e9a1-4aa3-8183-2ec4d7dde42f" [label="org.chromium.android_webview.AwContents.b\n Susp=0,1335"];
"9206781c-e9a1-4aa3-8183-2ec4d7dde42f" -> "f226a6e1-6ab3-4545-b129-a481c9b326a7";
"f226a6e1-6ab3-4545-b129-a481c9b326a7" [label="tZ.<init>\n Susp=0,1335"];
"f226a6e1-6ab3-4545-b129-a481c9b326a7" -> "827cde89-33af-48c3-95f4-95969dd179e7";
"827cde89-33af-48c3-95f4-95969dd179e7" [label="vD.<init>\n Susp=0,1335"];
"827cde89-33af-48c3-95f4-95969dd179e7" -> "18644f94-68f5-4df8-af94-938be858bb78";
"18644f94-68f5-4df8-af94-938be858bb78" [label="vD.a\n Susp=0,1335"];
"18644f94-68f5-4df8-af94-938be858bb78" -> "3cf47553-7c71-4e14-bc13-61c3d7ff5942";
"3cf47553-7c71-4e14-bc13-61c3d7ff5942" [label="android.os.Message.obtain\n Susp=0,1335"];
"3cf47553-7c71-4e14-bc13-61c3d7ff5942" -> "02449a87-5df2-4399-bd55-e90fc6739bbc";
"02449a87-5df2-4399-bd55-e90fc6739bbc" [label="de.robv.android.xposed.XposedBridge.handleHookedMethod\n Susp=0,1335"];
"02449a87-5df2-4399-bd55-e90fc6739bbc" -> "f15d060f-cc3a-4cda-9289-2af05225d107";
"f15d060f-cc3a-4cda-9289-2af05225d107" [label="it.unimib.disco.lta.unimiblogger.MyMethodHook.beforeHookedMethod\n Susp=0,1335"];
"f15d060f-cc3a-4cda-9289-2af05225d107" -> "98d4fad2-37f8-4adf-ba7a-9ea67105f3a2";
"98d4fad2-37f8-4adf-ba7a-9ea67105f3a2" [label="java.lang.Thread.getStackTrace\n Susp=0,1335"];
"98d4fad2-37f8-4adf-ba7a-9ea67105f3a2" -> "76b2e0f0-efb2-40da-b8d0-952459fccbd9";
"76b2e0f0-efb2-40da-b8d0-952459fccbd9" [label="dalvik.system.VMStack.getThreadStackTrace\n Susp=0,0002"];
"bb11eaf5-718b-4623-9b68-23b0140c8757" -> "6d173219-a766-46a0-815f-62f60d30817e";
"6d173219-a766-46a0-815f-62f60d30817e" [label="org.chromium.content.browser.selection.SelectionPopupControllerImpl.a\n Susp=0,1336"];
"6d173219-a766-46a0-815f-62f60d30817e" -> "ca25f282-33c1-40b9-9d5a-512f9f7ff4b9";
"ca25f282-33c1-40b9-9d5a-512f9f7ff4b9" [label="org.chromium.content.browser.webcontents.WebContentsImpl.a\n Susp=0,1336"];
"ca25f282-33c1-40b9-9d5a-512f9f7ff4b9" -> "d80d73bf-c9ba-40ed-a335-1fc8856caae7";
"d80d73bf-c9ba-40ed-a335-1fc8856caae7" [label="Fd.a\n Susp=0,1336"];
"d80d73bf-c9ba-40ed-a335-1fc8856caae7" -> "74e193e9-46cf-4db6-9048-7cb579a0f794";
"74e193e9-46cf-4db6-9048-7cb579a0f794" [label="org.chromium.content.browser.selection.SelectionPopupControllerImpl.<init>\n Susp=0,1336"];
"74e193e9-46cf-4db6-9048-7cb579a0f794" -> "d4be1959-02b5-40c3-aaa6-4b07c20887c3";
"d4be1959-02b5-40c3-aaa6-4b07c20887c3" [label="org.chromium.content.browser.input.ImeAdapterImpl.a\n Susp=0,1336"];
"d4be1959-02b5-40c3-aaa6-4b07c20887c3" -> "d6697846-f3d7-4c31-8263-96f2a428e7d1";
"d6697846-f3d7-4c31-8263-96f2a428e7d1" [label="org.chromium.content.browser.webcontents.WebContentsImpl.a\n Susp=0,1336"];
"d6697846-f3d7-4c31-8263-96f2a428e7d1" -> "9c7137fe-1d17-4d4c-a116-60c33738e8c3";
"9c7137fe-1d17-4d4c-a116-60c33738e8c3" [label="Dg.a\n Susp=0,1336"];
"9c7137fe-1d17-4d4c-a116-60c33738e8c3" -> "be5a99ad-9d2e-4f4a-9696-bc8d304e9a0a";
"be5a99ad-9d2e-4f4a-9696-bc8d304e9a0a" [label="org.chromium.content.browser.input.ImeAdapterImpl.<init>\n Susp=0,1336"];
"be5a99ad-9d2e-4f4a-9696-bc8d304e9a0a" -> "1b77e335-0ce3-488b-b37e-b1bdd5845325";
"1b77e335-0ce3-488b-b37e-b1bdd5845325" [label="android.content.res.Resources.getConfiguration\n Susp=0,1336"];
"1b77e335-0ce3-488b-b37e-b1bdd5845325" -> "0bf247de-61e5-4baa-93fa-be89946ff354";
"0bf247de-61e5-4baa-93fa-be89946ff354" [label="de.robv.android.xposed.XposedBridge.handleHookedMethod\n Susp=0,1336"];
"0bf247de-61e5-4baa-93fa-be89946ff354" -> "4570bb92-326a-4296-ac24-7faf0402ad3d";
"4570bb92-326a-4296-ac24-7faf0402ad3d" [label="it.unimib.disco.lta.unimiblogger.MyMethodHook.beforeHookedMethod\n Susp=0,1336"];
"4570bb92-326a-4296-ac24-7faf0402ad3d" -> "710af0a1-7446-4172-b2f6-c90ee04147c5";
"710af0a1-7446-4172-b2f6-c90ee04147c5" [label="java.lang.Thread.getStackTrace\n Susp=0,1336"];
"710af0a1-7446-4172-b2f6-c90ee04147c5" -> "710b70f5-0c67-4e3f-8c6a-857b335c0a22";
"710b70f5-0c67-4e3f-8c6a-857b335c0a22" [label="dalvik.system.VMStack.getThreadStackTrace\n Susp=0,0003"];
"bb11eaf5-718b-4623-9b68-23b0140c8757" -> "eaf1a2e9-2bec-42f9-903b-76d7d8e7bc13";
"eaf1a2e9-2bec-42f9-903b-76d7d8e7bc13" [label="vD.<init>\n Susp=0,1335"];
"eaf1a2e9-2bec-42f9-903b-76d7d8e7bc13" -> "258ce7cf-ae07-4a87-b9c0-31680c3740c8";
"258ce7cf-ae07-4a87-b9c0-31680c3740c8" [label="vD.a\n Susp=0,1335"];
"258ce7cf-ae07-4a87-b9c0-31680c3740c8" -> "202ebe68-cac5-4b15-b6f5-92328b24783f";
"202ebe68-cac5-4b15-b6f5-92328b24783f" [label="android.os.Message.obtain\n Susp=0,1335"];
"202ebe68-cac5-4b15-b6f5-92328b24783f" -> "72596638-b4cd-4f45-8d38-18f2d17b6463";
"72596638-b4cd-4f45-8d38-18f2d17b6463" [label="de.robv.android.xposed.XposedBridge.handleHookedMethod\n Susp=0,1335"];
"72596638-b4cd-4f45-8d38-18f2d17b6463" -> "a165b967-b730-407a-867c-65356275c7d4";
"a165b967-b730-407a-867c-65356275c7d4" [label="it.unimib.disco.lta.unimiblogger.MyMethodHook.beforeHookedMethod\n Susp=0,1335"];
"a165b967-b730-407a-867c-65356275c7d4" -> "3420feaf-bc8b-45ae-9f49-004e381e4d8d";
"3420feaf-bc8b-45ae-9f49-004e381e4d8d" [label="java.lang.Thread.getStackTrace\n Susp=0,1335"];
"3420feaf-bc8b-45ae-9f49-004e381e4d8d" -> "76d96a35-c36f-4a12-9264-da2dd55048fb";
"76d96a35-c36f-4a12-9264-da2dd55048fb" [label="dalvik.system.VMStack.getThreadStackTrace\n Susp=0,0002"];
"b87274e5-8032-4c72-9c4f-a525f82f4979" -> "cd6ccde4-8c7d-4321-bf5f-4832124ae74d";
"cd6ccde4-8c7d-4321-bf5f-4832124ae74d" [label="de.baumann.browser.View.Album.<init>\n Susp=0,1472"];
"cd6ccde4-8c7d-4321-bf5f-4832124ae74d" -> "045f34fc-061a-4a28-8cb5-8b73122c67a8";
"045f34fc-061a-4a28-8cb5-8b73122c67a8" [label="de.baumann.browser.View.Album.initUI\n Susp=0,1472"];
"045f34fc-061a-4a28-8cb5-8b73122c67a8" -> "b068adf7-04b3-4ce5-bc3e-901166d8cc0e";
"b068adf7-04b3-4ce5-bc3e-901166d8cc0e" [label="android.view.LayoutInflater.inflate\n Susp=0,1472"];
"b068adf7-04b3-4ce5-bc3e-901166d8cc0e" -> "62ffafcb-2750-4d59-a916-a29e46878f38";
"62ffafcb-2750-4d59-a916-a29e46878f38" [label="de.robv.android.xposed.XposedBridge.handleHookedMethod\n Susp=0,1472"];
"62ffafcb-2750-4d59-a916-a29e46878f38" -> "13ccd63d-265a-4230-a448-1f1f6891da21";
"13ccd63d-265a-4230-a448-1f1f6891da21" [label="de.robv.android.xposed.XposedBridge.invokeOriginalMethodNative\n Susp=0,1472"];
"13ccd63d-265a-4230-a448-1f1f6891da21" -> "5c0fee9f-fd92-4c9e-81c8-9d93071979be";
"5c0fee9f-fd92-4c9e-81c8-9d93071979be" [label="android.view.LayoutInflater.inflate\n Susp=0,1472"];
"5c0fee9f-fd92-4c9e-81c8-9d93071979be" -> "7dd26277-5145-4e27-98eb-b0e87beabbad";
"7dd26277-5145-4e27-98eb-b0e87beabbad" [label="de.robv.android.xposed.XposedBridge.handleHookedMethod\n Susp=0,1472"];
"7dd26277-5145-4e27-98eb-b0e87beabbad" -> "5d79e4f6-6db4-4adf-8218-65425acd5233";
"5d79e4f6-6db4-4adf-8218-65425acd5233" [label="it.unimib.disco.lta.unimiblogger.MyMethodHook.beforeHookedMethod\n Susp=0,1472"];
"5d79e4f6-6db4-4adf-8218-65425acd5233" -> "9acc049c-48ef-40b5-a9e6-a41541cf981f";
"9acc049c-48ef-40b5-a9e6-a41541cf981f" [label="java.lang.Thread.getStackTrace\n Susp=0,1472"];
"9acc049c-48ef-40b5-a9e6-a41541cf981f" -> "b1fe3e2a-4612-407d-8f5c-454dd677a447";
"b1fe3e2a-4612-407d-8f5c-454dd677a447" [label="dalvik.system.VMStack.getThreadStackTrace\n Susp=0,0139"];
"3cc1026e-7d50-457c-9835-e55dfbe77301" -> "ab14ee77-9a42-4454-868a-146014ccd951";
"ab14ee77-9a42-4454-868a-146014ccd951" [label="de.baumann.browser.Activity.BrowserActivity.addAlbum\n Susp=0,3129"];
"ab14ee77-9a42-4454-868a-146014ccd951" -> "1d52c4fa-546b-42d3-bd15-67f37f3602a9";
"1d52c4fa-546b-42d3-bd15-67f37f3602a9" [label="de.baumann.browser.View.NinjaWebView.<init>\n Susp=0,3129"];
"1d52c4fa-546b-42d3-bd15-67f37f3602a9" -> "e9afc79b-3423-460d-91bf-aeabd9e7b815";
"e9afc79b-3423-460d-91bf-aeabd9e7b815" [label="de.baumann.browser.View.NinjaWebView.initPreferences\n Susp=0,3129"];
"e9afc79b-3423-460d-91bf-aeabd9e7b815" -> "5b9c2134-4a13-45d7-aec9-87737b7715e7";
"5b9c2134-4a13-45d7-aec9-87737b7715e7" [label="android.preference.PreferenceManager.getDefaultSharedPreferences\n Susp=0,3129"];
"5b9c2134-4a13-45d7-aec9-87737b7715e7" -> "559d4679-7f99-4c95-a28c-e1c740af12e3";
"559d4679-7f99-4c95-a28c-e1c740af12e3" [label="de.robv.android.xposed.XposedBridge.handleHookedMethod\n Susp=0,3129"];
"559d4679-7f99-4c95-a28c-e1c740af12e3" -> "42c8f3af-2d93-406c-a0f7-6d3f8f84c981";
"42c8f3af-2d93-406c-a0f7-6d3f8f84c981" [label="it.unimib.disco.lta.unimiblogger.MyMethodHook.beforeHookedMethod\n Susp=0,3129"];
"42c8f3af-2d93-406c-a0f7-6d3f8f84c981" -> "aafd8063-f647-4250-989c-9d4518f24c70";
"aafd8063-f647-4250-989c-9d4518f24c70" [label="java.lang.Thread.getStackTrace\n Susp=0,3129"];
"aafd8063-f647-4250-989c-9d4518f24c70" -> "65d91369-3ab5-4d0a-a664-1b20bf1a2cc2";
"65d91369-3ab5-4d0a-a664-1b20bf1a2cc2" [label="dalvik.system.VMStack.getThreadStackTrace\n Susp=0,1795"];
"c5825046-6d30-40ed-a0cb-999e14b9fdba" -> "e1434db5-57d3-4255-be86-547e0ae88ff9";
"e1434db5-57d3-4255-be86-547e0ae88ff9" [label="org.chromium.base.ApplicationStatus.registerThreadSafeNativeApplicationStateListener\n Susp=0,1334"];
"e1434db5-57d3-4255-be86-547e0ae88ff9" -> "dcf1d5e7-c631-4cc6-b6b3-7a9c506f3b3e";
"dcf1d5e7-c631-4cc6-b6b3-7a9c506f3b3e" [label="org.chromium.base.ThreadUtils.b\n Susp=0,1334"];
"dcf1d5e7-c631-4cc6-b6b3-7a9c506f3b3e" -> "4ae18756-ea54-46a9-ba3d-a03cd16950a1";
"4ae18756-ea54-46a9-ba3d-a03cd16950a1" [label="org.chromium.base.ThreadUtils.d\n Susp=0,1334"];
"4ae18756-ea54-46a9-ba3d-a03cd16950a1" -> "fcc026d2-8892-497a-97e1-eb486159fe8b";
"fcc026d2-8892-497a-97e1-eb486159fe8b" [label="android.os.Handler.getLooper\n Susp=0,1334"];
"fcc026d2-8892-497a-97e1-eb486159fe8b" -> "9b96f8a7-484e-4c40-adae-174055e5b4f2";
"9b96f8a7-484e-4c40-adae-174055e5b4f2" [label="de.robv.android.xposed.XposedBridge.handleHookedMethod\n Susp=0,1334"];
"9b96f8a7-484e-4c40-adae-174055e5b4f2" -> "dfade9eb-d641-423a-83fa-1e6856a20997";
"dfade9eb-d641-423a-83fa-1e6856a20997" [label="it.unimib.disco.lta.unimiblogger.MyMethodHook.beforeHookedMethod\n Susp=0,1334"];
"dfade9eb-d641-423a-83fa-1e6856a20997" -> "36e56d26-b1e0-4809-899c-e9c16cad811c";
"36e56d26-b1e0-4809-899c-e9c16cad811c" [label="java.lang.Thread.getStackTrace\n Susp=0,1334"];
"36e56d26-b1e0-4809-899c-e9c16cad811c" -> "60e9177b-5402-4565-af79-aeacfd83fcb0";
"60e9177b-5402-4565-af79-aeacfd83fcb0" [label="dalvik.system.VMStack.getThreadStackTrace\n Susp=0,0001"];
"c5825046-6d30-40ed-a0cb-999e14b9fdba" -> "ff0e3ee5-8c3f-463d-8862-e55b49224308";
"ff0e3ee5-8c3f-463d-8862-e55b49224308" [label="\n Susp=0,1335"];
"ff0e3ee5-8c3f-463d-8862-e55b49224308" -> "f7d62199-59d9-45ef-8254-a629f5edaf24";
"f7d62199-59d9-45ef-8254-a629f5edaf24" [label="isEmpty: false\n Susp=0,1335"];
"f7d62199-59d9-45ef-8254-a629f5edaf24" -> "c54df51f-e812-4dba-b548-0b4a4da40a99";
"c54df51f-e812-4dba-b548-0b4a4da40a99" [label="returnValue: cNx/G$s.;5(Lqk8Qey(HJspBd\n Susp=0,1335"];
"c54df51f-e812-4dba-b548-0b4a4da40a99" -> "985958ba-f881-4b2a-a609-fa901e8a9431";
"985958ba-f881-4b2a-a609-fa901e8a9431" [label="id.app.SharedPreferencesImpl.getString\n Susp=0,0002"];
"c5825046-6d30-40ed-a0cb-999e14b9fdba" -> "32e7f454-9248-4ad5-8ced-d160a092c3e4";
"32e7f454-9248-4ad5-8ced-d160a092c3e4" [label="android.os.HandlerThread.run\n Susp=0,1335"];
"32e7f454-9248-4ad5-8ced-d160a092c3e4" -> "b9b19461-6aaa-413c-89db-282d98750a91";
"b9b19461-6aaa-413c-89db-282d98750a91" [label="de.robv.android.xposed.XposedBridge.handleHookedMethod\n Susp=0,1335"];
"b9b19461-6aaa-413c-89db-282d98750a91" -> "9827ea4f-bc3d-4c02-9e9f-0eb0811f8e64";
"9827ea4f-bc3d-4c02-9e9f-0eb0811f8e64" [label="de.robv.android.xposed.XposedBridge.invokeOriginalMethodNative\n Susp=0,1335"];
"9827ea4f-bc3d-4c02-9e9f-0eb0811f8e64" -> "45f65fc9-2d4e-4544-8d06-1fe0225fadc6";
"45f65fc9-2d4e-4544-8d06-1fe0225fadc6" [label="android.os.HandlerThread.run\n Susp=0,1335"];
"45f65fc9-2d4e-4544-8d06-1fe0225fadc6" -> "0004cf3c-525d-4f52-afa4-ae6162d231f6";
"0004cf3c-525d-4f52-afa4-ae6162d231f6" [label="android.os.Looper.loop\n Susp=0,1335"];
"0004cf3c-525d-4f52-afa4-ae6162d231f6" -> "314077b5-9750-4176-bd90-fb41383cb4f1";
"314077b5-9750-4176-bd90-fb41383cb4f1" [label="de.robv.android.xposed.XposedBridge.handleHookedMethod\n Susp=0,1335"];
"314077b5-9750-4176-bd90-fb41383cb4f1" -> "f2f50534-d02b-4b18-a143-b3e738cd6da1";
"f2f50534-d02b-4b18-a143-b3e738cd6da1" [label="de.robv.android.xposed.XposedBridge.invokeOriginalMethodNative\n Susp=0,1335"];
"f2f50534-d02b-4b18-a143-b3e738cd6da1" -> "204ccb9d-b289-4fa7-8d00-986205d5e229";
"204ccb9d-b289-4fa7-8d00-986205d5e229" [label="android.os.Looper.loop\n Susp=0,1335"];
"204ccb9d-b289-4fa7-8d00-986205d5e229" -> "84949083-0524-4a75-92c1-3cbfdde6a625";
"84949083-0524-4a75-92c1-3cbfdde6a625" [label="android.os.Handler.dispatchMessage\n Susp=0,1335"];
"84949083-0524-4a75-92c1-3cbfdde6a625" -> "2f5dfc53-299c-4c44-9e31-4c68d235e8cb";
"2f5dfc53-299c-4c44-9e31-4c68d235e8cb" [label="android.os.Handler.handleCallback\n Susp=0,1335"];
"2f5dfc53-299c-4c44-9e31-4c68d235e8cb" -> "176a8008-1ae0-4116-b4e8-bc360eeef09d";
"176a8008-1ae0-4116-b4e8-bc360eeef09d" [label="android.app.LoadedApk$ServiceDispatcher$RunConnection.run\n Susp=0,1335"];
"176a8008-1ae0-4116-b4e8-bc360eeef09d" -> "8b440cfb-4481-47f0-9882-afcba979162d";
"8b440cfb-4481-47f0-9882-afcba979162d" [label="android.app.LoadedApk$ServiceDispatcher.doConnected\n Susp=0,1335"];
"8b440cfb-4481-47f0-9882-afcba979162d" -> "7cfbaf55-03ab-48b7-8b06-08dcb2f3d7df";
"7cfbaf55-03ab-48b7-8b06-08dcb2f3d7df" [label="yr.onServiceConnected\n Susp=0,1335"];
"7cfbaf55-03ab-48b7-8b06-08dcb2f3d7df" -> "ab49ca5a-2953-4eaa-ab04-f7350ec7049a";
"ab49ca5a-2953-4eaa-ab04-f7350ec7049a" [label="android.os.Handler.getLooper\n Susp=0,1335"];
"ab49ca5a-2953-4eaa-ab04-f7350ec7049a" -> "a15fb97e-567a-40c5-b553-3d44a75e3717";
"a15fb97e-567a-40c5-b553-3d44a75e3717" [label="de.robv.android.xposed.XposedBridge.handleHookedMethod\n Susp=0,1335"];
"a15fb97e-567a-40c5-b553-3d44a75e3717" -> "c7649e26-7f3a-490d-9d42-1a8256f72dac";
"c7649e26-7f3a-490d-9d42-1a8256f72dac" [label="it.unimib.disco.lta.unimiblogger.MyMethodHook.beforeHookedMethod\n Susp=0,1335"];
"c7649e26-7f3a-490d-9d42-1a8256f72dac" -> "fcbd2c02-0883-4946-b856-973f9344ac74";
"fcbd2c02-0883-4946-b856-973f9344ac74" [label="java.lang.Thread.getStackTrace\n Susp=0,1335"];
"fcbd2c02-0883-4946-b856-973f9344ac74" -> "5903a8c4-69d6-43f1-9419-6b1e91151d9b";
"5903a8c4-69d6-43f1-9419-6b1e91151d9b" [label="dalvik.system.VMStack.getThreadStackTrace\n Susp=0,0002"];
}
