BEFORE android.os.Binder.execTransact(55,java.lang.Long,java.lang.Long,17)
AFTER android.os.Binder.execTransact, returnValue: true
BEFORE de.baumann.browser.Activity.BrowserActivity.onCreate()
BEFORE android.support.v7.app.AppCompatActivity.onCreate()
AFTER android.support.v7.app.AppCompatActivity.onCreate
BEFORE android.support.v7.app.AppCompatDelegate.setCompatVectorFromResourcesEnabled(true)
AFTER android.support.v7.app.AppCompatDelegate.setCompatVectorFromResourcesEnabled
BEFORE android.webkit.WebView.enableSlowWholeDocumentDraw()
BEFORE android.webkit.WebViewDelegate.getApplication()
AFTER android.webkit.WebViewDelegate.getApplication, returnValue: android.app.Application
BEFORE android.webkit.WebViewDelegate.getApplication()
AFTER android.webkit.WebViewDelegate.getApplication, returnValue: android.app.Application
BEFORE android.os.BaseBundle.getString(com.android.webview.WebViewDonorPackage,com.android.webview)
BEFORE android.os.StrictMode.allowThreadDiskReads()
BEFORE android.os.BaseBundle.getString(com.android.webview.WebViewDonorPackage,com.android.webview)
AFTER android.os.BaseBundle.getString
BEFORE android.webkit.WebViewDelegate.getPackageId(android.content.res.XResources,com.android.webview)
BEFORE android.os.StrictMode.setThreadPolicy(android.os.StrictMode$ThreadPolicy)
AFTER android.os.StrictMode.setThreadPolicy
AFTER android.webkit.WebViewDelegate.getPackageId, returnValue: 2
BEFORE android.os.StrictMode.allowThreadDiskWrites()
AFTER android.os.StrictMode.allowThreadDiskWrites, returnValue: [StrictMode.ThreadPolicy; mask=16777220]
BEFORE android.os.Process.setThreadPriority(10)
AFTER android.os.Process.setThreadPriority
BEFORE android.os.StrictMode.allowThreadDiskReads()
BEFORE android.os.Process.setThreadPriority(10)
AFTER android.os.Process.setThreadPriority
AFTER android.os.StrictMode.allowThreadDiskReads, returnValue: [StrictMode.ThreadPolicy; mask=16777220]
BEFORE android.system.Os.chmod(/data/user/0/de.baumann.browser/app_webview,448)
AFTER android.system.Os.chmod
BEFORE android.os.StrictMode.setThreadPolicy(android.os.StrictMode$ThreadPolicy)
AFTER android.os.StrictMode.setThreadPolicy
BEFORE android.os.StrictMode.setThreadPolicy(android.os.StrictMode$ThreadPolicy)
AFTER android.os.StrictMode.setThreadPolicy
BEFORE android.app.ApplicationPackageManager.getPackageInfo(de.baumann.browser,0)
AFTER android.app.ApplicationPackageManager.getPackageInfo, returnValue: PackageInfo{1f3c7b de.baumann.browser}
BEFORE android.os.Looper.getMainLooper()
AFTER android.os.Looper.getMainLooper, returnValue: Looper (main, tid 1) {848f9dd}
BEFORE android.os.Looper.getMainLooper()
AFTER android.os.Looper.getMainLooper, returnValue: Looper (main, tid 1) {848f9dd}
BEFORE android.os.Handler.getLooper()
AFTER android.os.Handler.getLooper, returnValue: Looper (main, tid 1) {848f9dd}
BEFORE android.os.Looper.myLooper()
AFTER android.os.Looper.myLooper, returnValue: Looper (main, tid 1) {848f9dd}
BEFORE android.os.Process.myPid()
AFTER android.os.Process.myPid, returnValue: 3796
BEFORE android.os.Process.myUid()
AFTER android.os.Process.myUid, returnValue: 10066
AFTER android.os.StrictMode.allowThreadDiskReads, returnValue: [StrictMode.ThreadPolicy; mask=0]
BEFORE android.os.StrictMode.allowThreadDiskWrites()
AFTER android.os.StrictMode.allowThreadDiskWrites, returnValue: [StrictMode.ThreadPolicy; mask=16777220]
BEFORE android.os.StrictMode.setThreadPolicy(android.os.StrictMode$ThreadPolicy)
AFTER android.os.StrictMode.setThreadPolicy
BEFORE android.os.Handler.getLooper()
AFTER android.os.Handler.getLooper, returnValue: Looper (main, tid 1) {848f9dd}
BEFORE android.os.Looper.myLooper()
AFTER android.os.Looper.myLooper, returnValue: Looper (main, tid 1) {848f9dd}
BEFORE android.os.Handler.getLooper()
AFTER android.os.Handler.getLooper, returnValue: Looper (main, tid 1) {848f9dd}
BEFORE android.os.Binder.execTransact(1,java.lang.Long,java.lang.Long,17)
AFTER android.os.Binder.execTransact, returnValue: true
BEFORE android.app.ApplicationPackageManager.getApplicationInfo(de.baumann.browser,128)
AFTER android.app.ApplicationPackageManager.getApplicationInfo, returnValue: ApplicationInfo{6743a6b de.baumann.browser}
BEFORE android.os.Handler.post(zd)
AFTER android.os.Handler.post, returnValue: true
BEFORE android.os.StrictMode.allowThreadDiskReads()
AFTER android.os.StrictMode.allowThreadDiskReads, returnValue: [StrictMode.ThreadPolicy; mask=16777220]
BEFORE android.os.StrictMode.setThreadPolicy(android.os.StrictMode$ThreadPolicy)
AFTER android.os.StrictMode.setThreadPolicy
BEFORE android.os.StrictMode.allowThreadDiskReads()
AFTER android.os.StrictMode.allowThreadDiskReads, returnValue: [StrictMode.ThreadPolicy; mask=16777220]
BEFORE android.os.StrictMode.setThreadPolicy(android.os.StrictMode$ThreadPolicy)
AFTER android.os.StrictMode.setThreadPolicy
BEFORE android.app.ApplicationPackageManager.getPackageInfo(de.baumann.browser,0)
AFTER android.app.ApplicationPackageManager.getPackageInfo, returnValue: PackageInfo{2626a61 de.baumann.browser}
BEFORE android.app.ApplicationPackageManager.getApplicationLabel(android.content.pm.ApplicationInfo)
AFTER android.app.ApplicationPackageManager.getApplicationLabel, returnValue: FOSS Browser, isEmpty: false
BEFORE android.app.ApplicationPackageManager.getInstallerPackageName(com.android.webview)
AFTER android.app.ApplicationPackageManager.getInstallerPackageName
BEFORE android.app.ApplicationPackageManager.getPackageInfo(com.google.android.gms,0)
AFTER android.app.ApplicationPackageManager.getPackageInfo
BEFORE android.app.ApplicationPackageManager.getPackageInfo(projekt.substratum,0)
AFTER android.app.ApplicationPackageManager.getPackageInfo
BEFORE android.os.StrictMode.allowThreadDiskReads()
AFTER android.os.StrictMode.allowThreadDiskReads, returnValue: [StrictMode.ThreadPolicy; mask=16777220]
BEFORE android.os.StrictMode.setThreadPolicy(android.os.StrictMode$ThreadPolicy)
AFTER android.os.StrictMode.setThreadPolicy
BEFORE android.app.ActivityManager.isLowRamDevice()
AFTER android.app.ActivityManager.isLowRamDevice, returnValue: false
BEFORE android.content.res.Resources.getDisplayMetrics()
AFTER android.content.res.Resources.getDisplayMetrics, returnValue: DisplayMetrics{density=2.0, width=768, height=1184, scaledDensity=2.0, xdpi=320.0, ydpi=320.0}
BEFORE android.app.Application.registerComponentCallbacks(Pa)
AFTER android.app.Application.registerComponentCallbacks
BEFORE android.content.res.AssetFileDescriptor.getParcelFileDescriptor()
AFTER android.content.res.AssetFileDescriptor.getParcelFileDescriptor, returnValue: android.os.ParcelFileDescriptor
BEFORE android.content.res.AssetFileDescriptor.getStartOffset()
AFTER android.content.res.AssetFileDescriptor.getStartOffset, returnValue: 6429816
BEFORE android.content.res.AssetFileDescriptor.getLength()
AFTER android.content.res.AssetFileDescriptor.getLength, returnValue: 83217
BEFORE android.content.res.AssetFileDescriptor.close()
AFTER android.content.res.AssetFileDescriptor.close
BEFORE android.content.res.AssetFileDescriptor.getParcelFileDescriptor()
AFTER android.content.res.AssetFileDescriptor.getParcelFileDescriptor, returnValue: android.os.ParcelFileDescriptor
BEFORE android.content.res.AssetFileDescriptor.getStartOffset()
AFTER android.content.res.AssetFileDescriptor.getStartOffset, returnValue: 6856272
BEFORE android.content.res.AssetFileDescriptor.getLength()
AFTER android.content.res.AssetFileDescriptor.getLength, returnValue: 285908
BEFORE android.content.res.AssetFileDescriptor.close()
AFTER android.content.res.AssetFileDescriptor.close
BEFORE android.content.res.AssetFileDescriptor.getParcelFileDescriptor()
AFTER android.content.res.AssetFileDescriptor.getParcelFileDescriptor, returnValue: android.os.ParcelFileDescriptor
BEFORE android.content.res.AssetFileDescriptor.getStartOffset()
AFTER android.content.res.AssetFileDescriptor.getStartOffset, returnValue: 74240
BEFORE android.content.res.AssetFileDescriptor.getLength()
AFTER android.content.res.AssetFileDescriptor.getLength, returnValue: 6355520
BEFORE android.content.res.AssetFileDescriptor.close()
AFTER android.content.res.AssetFileDescriptor.close
BEFORE android.os.StrictMode.allowThreadDiskReads()
AFTER android.os.StrictMode.allowThreadDiskReads, returnValue: [StrictMode.ThreadPolicy; mask=16777220]
BEFORE android.os.StrictMode.setThreadPolicy(android.os.StrictMode$ThreadPolicy)
AFTER android.os.StrictMode.setThreadPolicy
BEFORE android.content.res.AssetFileDescriptor.getParcelFileDescriptor()
AFTER android.content.res.AssetFileDescriptor.getParcelFileDescriptor, returnValue: android.os.ParcelFileDescriptor
BEFORE android.content.res.AssetFileDescriptor.getStartOffset()
AFTER android.content.res.AssetFileDescriptor.getStartOffset, returnValue: 64
BEFORE android.content.res.AssetFileDescriptor.getLength()
AFTER android.content.res.AssetFileDescriptor.getLength, returnValue: 74127
BEFORE android.content.res.AssetFileDescriptor.close()
AFTER android.content.res.AssetFileDescriptor.close
BEFORE android.content.res.AssetFileDescriptor.getParcelFileDescriptor()
AFTER android.content.res.AssetFileDescriptor.getParcelFileDescriptor, returnValue: android.os.ParcelFileDescriptor
BEFORE android.content.res.AssetFileDescriptor.getStartOffset()
AFTER android.content.res.AssetFileDescriptor.getStartOffset, returnValue: 7283360
BEFORE android.content.res.AssetFileDescriptor.getLength()
AFTER android.content.res.AssetFileDescriptor.getLength, returnValue: 9118
BEFORE android.content.res.AssetFileDescriptor.close()
AFTER android.content.res.AssetFileDescriptor.close
BEFORE android.content.res.AssetFileDescriptor.getParcelFileDescriptor()
AFTER android.content.res.AssetFileDescriptor.getParcelFileDescriptor, returnValue: android.os.ParcelFileDescriptor
BEFORE android.content.res.AssetFileDescriptor.getStartOffset()
AFTER android.content.res.AssetFileDescriptor.getStartOffset, returnValue: 6513084
BEFORE android.content.res.AssetFileDescriptor.getLength()
AFTER android.content.res.AssetFileDescriptor.getLength, returnValue: 343129
BEFORE android.content.res.AssetFileDescriptor.close()
AFTER android.content.res.AssetFileDescriptor.close
BEFORE android.os.StrictMode.allowThreadDiskReads()
AFTER android.os.StrictMode.allowThreadDiskReads, returnValue: [StrictMode.ThreadPolicy; mask=16777220]
BEFORE android.os.UserManager.getApplicationRestrictions(de.baumann.browser)
AFTER android.os.UserManager.getApplicationRestrictions, returnValue: Bundle[{}], isEmpty: true
BEFORE android.os.StrictMode.setThreadPolicy(android.os.StrictMode$ThreadPolicy)
AFTER android.os.StrictMode.setThreadPolicy
BEFORE android.os.BaseBundle.keySet()
AFTER android.os.BaseBundle.keySet, returnValue: android.util.MapCollections$KeySet, isEmpty: true
BEFORE android.util.MapCollections$KeySet.iterator()
AFTER android.util.MapCollections$KeySet.iterator, returnValue: android.util.MapCollections$ArrayIterator
BEFORE android.util.MapCollections$ArrayIterator.hasNext()
AFTER android.util.MapCollections$ArrayIterator.hasNext, returnValue: false
BEFORE android.os.BaseBundle.keySet()
AFTER android.os.BaseBundle.keySet, returnValue: android.util.MapCollections$KeySet, isEmpty: true
BEFORE android.util.MapCollections$KeySet.iterator()
AFTER android.util.MapCollections$KeySet.iterator, returnValue: android.util.MapCollections$ArrayIterator
BEFORE android.util.MapCollections$ArrayIterator.hasNext()
AFTER android.util.MapCollections$ArrayIterator.hasNext, returnValue: false
BEFORE android.os.Process.getThreadPriority(3796)
AFTER android.os.Process.getThreadPriority, returnValue: -10
BEFORE android.os.Handler.getLooper()
AFTER android.os.Handler.getLooper, returnValue: Looper (main, tid 1) {848f9dd}
BEFORE android.os.Looper.myLooper()
AFTER android.os.Looper.myLooper, returnValue: Looper (main, tid 1) {848f9dd}
BEFORE android.os.Handler.getLooper()
AFTER android.os.Handler.getLooper, returnValue: Looper (main, tid 1) {848f9dd}
BEFORE android.os.Looper.myLooper()
AFTER android.os.Looper.myLooper
BEFORE android.os.Handler.post(wU)
AFTER android.os.Handler.post, returnValue: true
BEFORE android.hardware.display.DisplayManager.getDisplay(0)
AFTER android.hardware.display.DisplayManager.getDisplay, returnValue: android.view.Display
BEFORE android.view.Display.getDisplayId()
AFTER android.view.Display.getDisplayId, returnValue: 0
BEFORE android.view.Display.getDisplayId()
AFTER android.view.Display.getDisplayId, returnValue: 0
BEFORE android.view.Display.getDisplayId()
AFTER android.view.Display.getDisplayId, returnValue: 0
BEFORE android.util.SparseArray.put(0,OY)
AFTER android.util.SparseArray.put
BEFORE android.view.Display.getRealSize(android.graphics.Point)
AFTER android.view.Display.getRealSize
BEFORE android.view.Display.getRealMetrics(android.util.DisplayMetrics)
AFTER android.view.Display.getRealMetrics
BEFORE android.view.Display.getMode()
AFTER android.view.Display.getMode, returnValue: {id=1, width=768, height=1280, fps=60.000004}
BEFORE android.view.Display.getSupportedModes()
AFTER android.view.Display.getSupportedModes, returnValue: [Landroid.view.Display$Mode;
BEFORE android.view.Display.getRotation()
AFTER android.view.Display.getRotation, returnValue: 0
BEFORE android.view.Display.getRefreshRate()
AFTER android.view.Display.getRefreshRate, returnValue: 60.000004
BEFORE android.view.Display$Mode.equals()
AFTER android.view.Display$Mode.equals, returnValue: false
BEFORE android.hardware.display.DisplayManager.registerDisplayListener(OX)
AFTER android.hardware.display.DisplayManager.registerDisplayListener
BEFORE android.util.SparseArray.size()
AFTER android.util.SparseArray.size, returnValue: 1
BEFORE android.util.SparseArray.valueAt(0)
AFTER android.util.SparseArray.valueAt, returnValue: OY
BEFORE android.util.SparseArray.size()
AFTER android.util.SparseArray.size, returnValue: 1
BEFORE android.os.Looper.myLooper()
AFTER android.os.Looper.myLooper, returnValue: Looper (main, tid 1) {848f9dd}
BEFORE android.content.IntentFilter.addAction(android.intent.action.PROXY_CHANGE)
AFTER android.content.IntentFilter.addAction
BEFORE android.os.Looper.myLooper()
BEFORE android.os.Handler.getLooper()
AFTER android.os.Handler.getLooper, returnValue: Looper (main, tid 1) {848f9dd}
AFTER android.os.Looper.myLooper, returnValue: Looper (main, tid 1) {848f9dd}
BEFORE android.os.Looper.myLooper()
AFTER android.os.Looper.myLooper
BEFORE android.os.Handler.post(wU)
BEFORE android.os.Handler.getLooper()
AFTER android.os.Handler.getLooper, returnValue: Looper (main, tid 1) {848f9dd}
BEFORE android.webkit.WebViewDelegate.isTraceTagEnabled()
AFTER android.webkit.WebViewDelegate.isTraceTagEnabled, returnValue: false
BEFORE android.webkit.WebViewDelegate.setOnTraceEnabledChangeListener(lc)
AFTER android.webkit.WebViewDelegate.setOnTraceEnabledChangeListener
BEFORE android.app.Application.registerComponentCallbacks(xO)
AFTER android.app.Application.registerComponentCallbacks
BEFORE android.os.Process.myPid()
AFTER android.os.Process.myPid, returnValue: 3796
BEFORE android.os.Process.myUid()
AFTER android.os.Process.myUid, returnValue: 10066
BEFORE android.app.ApplicationPackageManager.getPackageInfo(org.chromium.webview_log_verbosifier,0)
AFTER android.app.ApplicationPackageManager.getPackageInfo
BEFORE android.preference.PreferenceManager.getDefaultSharedPreferences(de.baumann.browser.Activity.BrowserActivity)
AFTER android.preference.PreferenceManager.getDefaultSharedPreferences, returnValue: android.app.SharedPreferencesImpl
BEFORE android.support.v7.app.AppCompatActivity.getResources()
AFTER android.support.v7.app.AppCompatActivity.getResources, returnValue: android.content.res.XResources
BEFORE android.app.Activity.shouldShowRequestPermissionRationale(android.permission.WRITE_EXTERNAL_STORAGE)
AFTER android.app.Activity.shouldShowRequestPermissionRationale, returnValue: false
BEFORE android.app.AlertDialog$Builder.setTitle(2131689778)
AFTER android.app.AlertDialog$Builder.setTitle, returnValue: android.app.AlertDialog$Builder
BEFORE android.app.AlertDialog$Builder.setMessage(2131689776)
AFTER android.app.AlertDialog$Builder.setMessage, returnValue: android.app.AlertDialog$Builder
BEFORE android.content.Context.getString(2131689518)
AFTER android.content.Context.getString, returnValue: OK, isEmpty: false
BEFORE android.app.AlertDialog$Builder.setPositiveButton(OK,de.baumann.browser.Unit.HelperUnit$2)
AFTER android.app.AlertDialog$Builder.setPositiveButton, returnValue: android.app.AlertDialog$Builder
BEFORE android.content.Context.getString(2131689516)
AFTER android.content.Context.getString, returnValue: Cancel, isEmpty: false
BEFORE android.app.AlertDialog$Builder.setNegativeButton(Cancel,de.baumann.browser.Unit.HelperUnit$1)
AFTER android.app.AlertDialog$Builder.setNegativeButton, returnValue: android.app.AlertDialog$Builder
BEFORE android.app.AlertDialog$Builder.show()
BEFORE android.os.Binder.execTransact(6,java.lang.Long,java.lang.Long,17)
AFTER android.os.Binder.execTransact, returnValue: true
AFTER android.app.AlertDialog$Builder.show, returnValue: android.app.AlertDialog
BEFORE android.preference.PreferenceManager.getDefaultSharedPreferences(de.baumann.browser.Activity.BrowserActivity)
AFTER android.preference.PreferenceManager.getDefaultSharedPreferences, returnValue: android.app.SharedPreferencesImpl
BEFORE android.app.SharedPreferencesImpl.getBoolean(sp_darkUI,false)
AFTER android.app.SharedPreferencesImpl.getBoolean, returnValue: false
BEFORE android.support.v7.app.AppCompatActivity.setTheme(2131755015)
AFTER android.support.v7.app.AppCompatActivity.setTheme
AFTER android.os.Handler.post, returnValue: true
BEFORE android.app.SharedPreferencesImpl.getString(saved_key_ok,no)
AFTER android.app.SharedPreferencesImpl.getString, returnValue: no, isEmpty: false
BEFORE android.content.Context.getString(2131689742)
AFTER android.content.Context.getString, returnValue: SP_LOCATION_9, isEmpty: false
BEFORE android.app.SharedPreferencesImpl.getString(saved_key,)
AFTER android.app.SharedPreferencesImpl.getString, returnValue: cNx/G$s.;5(Lqk8Qey(HJspBd, isEmpty: false, 
BEFORE com.mobapphome.mahencryptorlib.MAHEncryptor.newInstance(cNx/G$s.;5(Lqk8Qey(HJspBd)
AFTER com.mobapphome.mahencryptorlib.MAHEncryptor.newInstance, returnValue: com.mobapphome.mahencryptorlib.MAHEncryptor
BEFORE android.support.v7.app.AppCompatActivity.findViewById(2131296417)
AFTER android.support.v7.app.AppCompatActivity.findViewById, returnValue: android.widget.FrameLayout{c3dab8e V.E...... ......I. 0,0-0,0 #7f0900a1 app:id/main_content}
BEFORE android.support.v7.app.AppCompatActivity.findViewById(2131296292)
AFTER android.support.v7.app.AppCompatActivity.findViewById, returnValue: android.widget.RelativeLayout{e5b7faf V.E...... ......I. 0,0-0,0 #7f090024 app:id/appBar}
BEFORE android.support.v7.app.AppCompatActivity.findViewById(2131296502)
AFTER android.support.v7.app.AppCompatActivity.findViewById, returnValue: android.widget.RelativeLayout{e36dfbc V.E...... ......I. 0,0-0,0 #7f0900f6 app:id/rootView}
BEFORE android.support.v7.app.AppCompatActivity.getResources()
AFTER android.support.v7.app.AppCompatActivity.getResources, returnValue: android.content.res.XResources
BEFORE android.support.v7.app.AppCompatActivity.getResources()
AFTER android.support.v7.app.AppCompatActivity.getResources, returnValue: android.content.res.XResources
BEFORE android.support.v7.app.AppCompatActivity.getResources()
AFTER android.support.v7.app.AppCompatActivity.getResources, returnValue: android.content.res.XResources
BEFORE android.support.v7.app.AppCompatActivity.getResources()
AFTER android.support.v7.app.AppCompatActivity.getResources, returnValue: android.content.res.XResources
BEFORE android.support.v7.app.AppCompatActivity.getResources()
AFTER android.support.v7.app.AppCompatActivity.getResources, returnValue: android.content.res.XResources
BEFORE android.support.v7.app.AppCompatActivity.findViewById(2131296418)
AFTER android.support.v7.app.AppCompatActivity.findViewById, returnValue: android.widget.RelativeLayout{cf0bb45 V.E...... ......ID 0,0-0,0 #7f0900a2 app:id/main_omnibox}
BEFORE android.support.v7.app.AppCompatActivity.findViewById(2131296419)
AFTER android.support.v7.app.AppCompatActivity.findViewById, returnValue: android.support.v7.widget.AppCompatAutoCompleteTextView{7ecf29a VFED..CL. ......ID 0,0-0,0 #7f0900a3 app:id/main_omnibox_input}
BEFORE android.support.v7.app.AppCompatActivity.findViewById(2131296464)
AFTER android.support.v7.app.AppCompatActivity.findViewById, returnValue: android.support.v7.widget.AppCompatImageButton{eea67cb VFED..C.. ......I. 0,0-0,0 #7f0900d0 app:id/omnibox_refresh}
BEFORE android.support.v7.app.AppCompatActivity.findViewById(2131296463)
AFTER android.support.v7.app.AppCompatActivity.findViewById, returnValue: android.support.v7.widget.AppCompatImageButton{7703ba8 VFED..C.. ......I. 0,0-0,0 #7f0900cf app:id/omnibox_overview}
BEFORE android.support.v7.app.AppCompatActivity.findViewById(2131296462)
AFTER android.support.v7.app.AppCompatActivity.findViewById, returnValue: android.support.v7.widget.AppCompatImageButton{8e6c6c1 VFED..C.. ......I. 0,0-0,0 #7f0900ce app:id/omnibox_overflow}
BEFORE android.support.v7.app.AppCompatActivity.findViewById(2131296465)
AFTER android.support.v7.app.AppCompatActivity.findViewById, returnValue: android.support.v7.widget.AppCompatTextView{5179e66 V.ED..... ......ID 0,0-0,0 #7f0900d1 app:id/omnibox_title}
BEFORE android.support.v7.app.AppCompatActivity.findViewById(2131296420)
AFTER android.support.v7.app.AppCompatActivity.findViewById, returnValue: android.widget.ProgressBar{635b5a7 V.ED..... ......ID 0,0-0,0 #7f0900a4 app:id/main_progress_bar}
BEFORE android.app.SharedPreferencesImpl.getString(nav_position,0)
AFTER android.app.SharedPreferencesImpl.getString, returnValue: 0, isEmpty: false
BEFORE android.support.v7.app.AppCompatActivity.findViewById(2131296350)
AFTER android.support.v7.app.AppCompatActivity.findViewById, returnValue: android.support.design.widget.FloatingActionButton{8616a54 GFED..... ......I. 0,0-0,0 #7f09005e app:id/fab_imageButtonNav_right}
BEFORE android.app.SharedPreferencesImpl.getBoolean(sp_gestures_use,true)
AFTER android.app.SharedPreferencesImpl.getBoolean, returnValue: true
BEFORE android.database.sqlite.SQLiteOpenHelper.getReadableDatabase()
BEFORE de.baumann.browser.Database.RecordHelper.onCreate(android.database.sqlite.SQLiteDatabase)
BEFORE android.database.sqlite.SQLiteDatabase.execSQL(CREATE TABLE BOOKMARKS ( TITLE text, URL text, TIME integer)
AFTER android.database.sqlite.SQLiteDatabase.execSQL
BEFORE android.database.sqlite.SQLiteDatabase.execSQL(CREATE TABLE HISTORY ( TITLE text, URL text, TIME integer)
AFTER android.database.sqlite.SQLiteDatabase.execSQL
BEFORE android.database.sqlite.SQLiteDatabase.execSQL(CREATE TABLE WHITELIST ( DOMAIN text)
AFTER android.database.sqlite.SQLiteDatabase.execSQL
BEFORE android.database.sqlite.SQLiteDatabase.execSQL(CREATE TABLE JAVASCRIPT ( DOMAIN text)
AFTER android.database.sqlite.SQLiteDatabase.execSQL
BEFORE android.database.sqlite.SQLiteDatabase.execSQL(CREATE TABLE COOKIE ( DOMAIN text)
AFTER android.database.sqlite.SQLiteDatabase.execSQL
BEFORE android.database.sqlite.SQLiteDatabase.execSQL(CREATE TABLE GRID ( TITLE text, URL text, FILENAME text, ORDINAL integer)
AFTER android.database.sqlite.SQLiteDatabase.execSQL
AFTER de.baumann.browser.Database.RecordHelper.onCreate
AFTER android.database.sqlite.SQLiteOpenHelper.getReadableDatabase, returnValue: SQLiteDatabase: /data/user/0/de.baumann.browser/databases/Ninja4.db
BEFORE android.database.sqlite.SQLiteOpenHelper.close()
AFTER android.database.sqlite.SQLiteOpenHelper.close
BEFORE android.database.sqlite.SQLiteOpenHelper.getReadableDatabase()
AFTER android.database.sqlite.SQLiteOpenHelper.getReadableDatabase, returnValue: SQLiteDatabase: /data/user/0/de.baumann.browser/databases/Ninja4.db
BEFORE android.database.sqlite.SQLiteDatabase.query(BOOKMARKS,[Ljava.lang.String;,TITLE)
BEFORE android.database.sqlite.SQLiteDatabase.query(BOOKMARKS,[Ljava.lang.String;,TITLE)
AFTER android.database.sqlite.SQLiteDatabase.query, returnValue: android.database.sqlite.SQLiteCursor
AFTER android.database.sqlite.SQLiteDatabase.query, returnValue: android.database.sqlite.SQLiteCursor
BEFORE android.database.AbstractCursor.moveToFirst()
AFTER android.database.AbstractCursor.moveToFirst, returnValue: false
BEFORE android.database.AbstractCursor.isAfterLast()
AFTER android.database.AbstractCursor.isAfterLast, returnValue: true
BEFORE android.database.sqlite.SQLiteCursor.close()
AFTER android.database.sqlite.SQLiteCursor.close
BEFORE android.database.sqlite.SQLiteDatabase.query(HISTORY,[Ljava.lang.String;,TIME desc)
BEFORE android.database.sqlite.SQLiteDatabase.query(HISTORY,[Ljava.lang.String;,TIME desc)
AFTER android.database.sqlite.SQLiteDatabase.query, returnValue: android.database.sqlite.SQLiteCursor
AFTER android.database.sqlite.SQLiteDatabase.query, returnValue: android.database.sqlite.SQLiteCursor
BEFORE android.database.AbstractCursor.moveToFirst()
AFTER android.database.AbstractCursor.moveToFirst, returnValue: false
BEFORE android.database.AbstractCursor.isAfterLast()
AFTER android.database.AbstractCursor.isAfterLast, returnValue: true
BEFORE android.database.sqlite.SQLiteCursor.close()
AFTER android.database.sqlite.SQLiteCursor.close
BEFORE android.database.sqlite.SQLiteOpenHelper.close()
AFTER android.database.sqlite.SQLiteOpenHelper.close
BEFORE android.widget.AutoCompleteTextView.setAdapter(de.baumann.browser.View.CompleteAdapter)
BEFORE de.baumann.browser.View.CompleteAdapter.getFilter()
AFTER de.baumann.browser.View.CompleteAdapter.getFilter, returnValue: de.baumann.browser.View.CompleteAdapter$CompleteFilter
AFTER android.widget.AutoCompleteTextView.setAdapter
BEFORE android.widget.BaseAdapter.notifyDataSetChanged()
AFTER android.widget.BaseAdapter.notifyDataSetChanged
BEFORE android.support.v7.app.AppCompatActivity.getResources()
AFTER android.support.v7.app.AppCompatActivity.getResources, returnValue: android.content.res.XResources
BEFORE android.content.res.Resources.getDisplayMetrics()
AFTER android.content.res.Resources.getDisplayMetrics, returnValue: DisplayMetrics{density=2.0, width=768, height=1184, scaledDensity=2.0, xdpi=320.0, ydpi=320.0}
BEFORE android.widget.AutoCompleteTextView.setDropDownWidth(768)
AFTER android.widget.AutoCompleteTextView.setDropDownWidth
BEFORE android.widget.AutoCompleteTextView.setDropDownHorizontalOffset(16)
AFTER android.widget.AutoCompleteTextView.setDropDownHorizontalOffset
BEFORE android.widget.AutoCompleteTextView.setOnItemClickListener(de.baumann.browser.Activity.BrowserActivity$9)
AFTER android.widget.AutoCompleteTextView.setOnItemClickListener
BEFORE android.support.v7.app.AppCompatActivity.findViewById(2131296424)
AFTER android.support.v7.app.AppCompatActivity.findViewById, returnValue: android.widget.RelativeLayout{eba6d16 G.E...... ......ID 0,0-0,0 #7f0900a8 app:id/main_search_panel}
BEFORE android.support.v7.app.AppCompatActivity.findViewById(2131296421)
AFTER android.support.v7.app.AppCompatActivity.findViewById, returnValue: android.support.v7.widget.AppCompatEditText{7a15697 VFED..CL. ......I. 0,0-0,0 #7f0900a5 app:id/main_search_box}
BEFORE android.support.v7.app.AppCompatActivity.findViewById(2131296425)
AFTER android.support.v7.app.AppCompatActivity.findViewById, returnValue: android.support.v7.widget.AppCompatImageButton{7de1084 VFED..C.. ......I. 0,0-0,0 #7f0900a9 app:id/main_search_up}
BEFORE android.support.v7.app.AppCompatActivity.findViewById(2131296423)
AFTER android.support.v7.app.AppCompatActivity.findViewById, returnValue: android.support.v7.widget.AppCompatImageButton{cad706d VFED..C.. ......I. 0,0-0,0 #7f0900a7 app:id/main_search_down}
BEFORE android.support.v7.app.AppCompatActivity.findViewById(2131296422)
AFTER android.support.v7.app.AppCompatActivity.findViewById, returnValue: android.support.v7.widget.AppCompatImageButton{f6844a2 VFED..C.. ......I. 0,0-0,0 #7f0900a6 app:id/main_search_cancel}
BEFORE android.widget.AbsListView.setOnScrollListener(org.askerov.dynamicgrid.DynamicGridView$2)
BEFORE org.askerov.dynamicgrid.DynamicGridView$2.onScroll(org.askerov.dynamicgrid.DynamicGridView,0,0,0)
AFTER org.askerov.dynamicgrid.DynamicGridView$2.onScroll
AFTER android.widget.AbsListView.setOnScrollListener
BEFORE android.support.v7.app.AppCompatActivity.getResources()
AFTER android.support.v7.app.AppCompatActivity.getResources, returnValue: android.content.res.XResources
BEFORE android.content.res.Resources.getDisplayMetrics()
AFTER android.content.res.Resources.getDisplayMetrics, returnValue: DisplayMetrics{density=2.0, width=768, height=1184, scaledDensity=2.0, xdpi=320.0, ydpi=320.0}
BEFORE android.widget.AbsListView.setOnScrollListener(de.baumann.browser.Activity.BrowserActivity$24)
BEFORE de.baumann.browser.Activity.BrowserActivity$24.onScroll(android.widget.ListView,0,0,0)
AFTER de.baumann.browser.Activity.BrowserActivity$24.onScroll
AFTER android.widget.AbsListView.setOnScrollListener
BEFORE android.support.design.widget.BottomSheetDialog.setContentView(android.widget.RelativeLayout)
AFTER android.support.design.widget.BottomSheetDialog.setContentView
BEFORE android.app.SharedPreferencesImpl.getString(start_tab,0)
AFTER android.app.SharedPreferencesImpl.getString, returnValue: 0, isEmpty: false
BEFORE android.content.Context.getString(2131689514)
AFTER android.content.Context.getString, returnValue: Home, isEmpty: false
BEFORE android.content.Context.getString(2131689514)
AFTER android.content.Context.getString, returnValue: Home, isEmpty: false
BEFORE android.database.sqlite.SQLiteOpenHelper.getReadableDatabase()
AFTER android.database.sqlite.SQLiteOpenHelper.getReadableDatabase, returnValue: SQLiteDatabase: /data/user/0/de.baumann.browser/databases/Ninja4.db
BEFORE android.database.sqlite.SQLiteDatabase.query(GRID,[Ljava.lang.String;,ORDINAL)
BEFORE android.database.sqlite.SQLiteDatabase.query(GRID,[Ljava.lang.String;,ORDINAL)
AFTER android.database.sqlite.SQLiteDatabase.query, returnValue: android.database.sqlite.SQLiteCursor
AFTER android.database.sqlite.SQLiteDatabase.query, returnValue: android.database.sqlite.SQLiteCursor
BEFORE android.database.AbstractCursor.moveToFirst()
AFTER android.database.AbstractCursor.moveToFirst, returnValue: false
BEFORE android.database.AbstractCursor.isAfterLast()
AFTER android.database.AbstractCursor.isAfterLast, returnValue: true
BEFORE android.database.sqlite.SQLiteCursor.close()
AFTER android.database.sqlite.SQLiteCursor.close
BEFORE android.database.sqlite.SQLiteOpenHelper.close()
AFTER android.database.sqlite.SQLiteOpenHelper.close
BEFORE android.widget.GridView.setAdapter(de.baumann.browser.View.GridAdapter)
BEFORE org.askerov.dynamicgrid.AbstractDynamicGridAdapter.hasStableIds()
AFTER org.askerov.dynamicgrid.AbstractDynamicGridAdapter.hasStableIds, returnValue: true
BEFORE org.askerov.dynamicgrid.BaseDynamicGridAdapter.getCount()
AFTER org.askerov.dynamicgrid.BaseDynamicGridAdapter.getCount, returnValue: 0
BEFORE org.askerov.dynamicgrid.BaseDynamicGridAdapter.getCount()
AFTER org.askerov.dynamicgrid.BaseDynamicGridAdapter.getCount, returnValue: 0
AFTER android.widget.GridView.setAdapter
BEFORE android.widget.BaseAdapter.notifyDataSetChanged()
BEFORE org.askerov.dynamicgrid.BaseDynamicGridAdapter.getCount()
AFTER org.askerov.dynamicgrid.BaseDynamicGridAdapter.getCount, returnValue: 0
BEFORE org.askerov.dynamicgrid.AbstractDynamicGridAdapter.hasStableIds()
AFTER org.askerov.dynamicgrid.AbstractDynamicGridAdapter.hasStableIds, returnValue: true
BEFORE org.askerov.dynamicgrid.BaseDynamicGridAdapter.getCount()
AFTER org.askerov.dynamicgrid.BaseDynamicGridAdapter.getCount, returnValue: 0
AFTER android.widget.BaseAdapter.notifyDataSetChanged
BEFORE android.widget.AdapterView.setOnItemClickListener(de.baumann.browser.Activity.BrowserActivity$26$1)
AFTER android.widget.AdapterView.setOnItemClickListener
BEFORE android.widget.AdapterView.setOnItemLongClickListener(de.baumann.browser.Activity.BrowserActivity$26$2)
AFTER android.widget.AdapterView.setOnItemLongClickListener
BEFORE android.app.SharedPreferencesImpl.getBoolean(start_tabStart,true)
AFTER android.app.SharedPreferencesImpl.getBoolean, returnValue: true
BEFORE android.app.Dialog.show()
BEFORE android.os.Binder.execTransact(6,java.lang.Long,java.lang.Long,17)
AFTER android.os.Binder.execTransact, returnValue: true
AFTER android.app.Dialog.show
BEFORE android.os.Handler.postDelayed(de.baumann.browser.Activity.BrowserActivity$10,java.lang.Long)
AFTER android.os.Handler.postDelayed, returnValue: true
BEFORE android.view.ContextThemeWrapper.getAssets()
BEFORE android.database.sqlite.SQLiteOpenHelper.getReadableDatabase()
AFTER android.database.sqlite.SQLiteOpenHelper.getReadableDatabase, returnValue: SQLiteDatabase: /data/user/0/de.baumann.browser/databases/Ninja4.db
BEFORE android.database.sqlite.SQLiteDatabase.query(WHITELIST,[Ljava.lang.String;,DOMAIN)
BEFORE android.database.sqlite.SQLiteDatabase.query(WHITELIST,[Ljava.lang.String;,DOMAIN)
AFTER android.database.sqlite.SQLiteDatabase.query, returnValue: android.database.sqlite.SQLiteCursor
AFTER android.database.sqlite.SQLiteDatabase.query, returnValue: android.database.sqlite.SQLiteCursor
BEFORE android.database.AbstractCursor.moveToFirst()
AFTER android.database.AbstractCursor.moveToFirst, returnValue: false
BEFORE android.database.AbstractCursor.isAfterLast()
AFTER android.database.AbstractCursor.isAfterLast, returnValue: true
BEFORE android.database.sqlite.SQLiteCursor.close()
AFTER android.database.sqlite.SQLiteCursor.close
BEFORE android.database.sqlite.SQLiteOpenHelper.close()
AFTER android.database.sqlite.SQLiteOpenHelper.close
BEFORE de.baumann.browser.Browser.Javascript$1.run()
BEFORE android.view.ContextThemeWrapper.getAssets()
BEFORE android.database.sqlite.SQLiteOpenHelper.getReadableDatabase()
AFTER android.database.sqlite.SQLiteOpenHelper.getReadableDatabase, returnValue: SQLiteDatabase: /data/user/0/de.baumann.browser/databases/Ninja4.db
BEFORE android.database.sqlite.SQLiteDatabase.query(JAVASCRIPT,[Ljava.lang.String;,DOMAIN)
BEFORE android.database.sqlite.SQLiteDatabase.query(JAVASCRIPT,[Ljava.lang.String;,DOMAIN)
AFTER android.database.sqlite.SQLiteDatabase.query, returnValue: android.database.sqlite.SQLiteCursor
AFTER android.database.sqlite.SQLiteDatabase.query, returnValue: android.database.sqlite.SQLiteCursor
BEFORE android.database.AbstractCursor.moveToFirst()
AFTER android.database.AbstractCursor.moveToFirst, returnValue: false
BEFORE android.database.AbstractCursor.isAfterLast()
AFTER android.database.AbstractCursor.isAfterLast, returnValue: true
BEFORE android.database.sqlite.SQLiteCursor.close()
AFTER android.database.sqlite.SQLiteCursor.close
BEFORE android.database.sqlite.SQLiteOpenHelper.close()
AFTER android.database.sqlite.SQLiteOpenHelper.close
BEFORE de.baumann.browser.Browser.Cookie$1.run()
BEFORE android.view.ContextThemeWrapper.getAssets()
BEFORE android.database.sqlite.SQLiteOpenHelper.getReadableDatabase()
AFTER android.database.sqlite.SQLiteOpenHelper.getReadableDatabase, returnValue: SQLiteDatabase: /data/user/0/de.baumann.browser/databases/Ninja4.db
BEFORE android.database.sqlite.SQLiteDatabase.query(COOKIE,[Ljava.lang.String;,DOMAIN)
BEFORE android.database.sqlite.SQLiteDatabase.query(COOKIE,[Ljava.lang.String;,DOMAIN)
AFTER android.database.sqlite.SQLiteDatabase.query, returnValue: android.database.sqlite.SQLiteCursor
AFTER android.database.sqlite.SQLiteDatabase.query, returnValue: android.database.sqlite.SQLiteCursor
BEFORE android.database.AbstractCursor.moveToFirst()
AFTER android.database.AbstractCursor.moveToFirst, returnValue: false
BEFORE android.database.AbstractCursor.isAfterLast()
AFTER android.database.AbstractCursor.isAfterLast, returnValue: true
BEFORE android.database.sqlite.SQLiteCursor.close()
AFTER android.database.sqlite.SQLiteCursor.close
BEFORE android.database.sqlite.SQLiteOpenHelper.close()
AFTER android.database.sqlite.SQLiteOpenHelper.close
BEFORE android.app.ApplicationPackageManager.getPackageInfo(de.baumann.browser,0)
AFTER android.app.ApplicationPackageManager.getPackageInfo, returnValue: PackageInfo{fd963e4 de.baumann.browser}
BEFORE android.app.SharedPreferencesImpl.getString(oldVersionName,0.0)
AFTER android.app.SharedPreferencesImpl.getString, returnValue: 0.0, isEmpty: false
BEFORE android.content.Context.getString(2131689521)
AFTER android.content.Context.getString, returnValue: java.lang.String, isEmpty: false
BEFORE android.support.design.widget.BottomSheetDialog.setContentView(android.widget.LinearLayout)
AFTER android.support.design.widget.BottomSheetDialog.setContentView
BEFORE android.app.Dialog.show()
BEFORE android.os.Binder.execTransact(6,java.lang.Long,java.lang.Long,17)
AFTER android.os.Binder.execTransact, returnValue: true
AFTER android.app.Dialog.show
BEFORE android.content.Intent.getAction()
AFTER android.content.Intent.getAction
BEFORE android.content.Intent.getAction()
AFTER android.content.Intent.getAction
BEFORE android.app.Activity.getSystemService(input_method)
AFTER android.app.Activity.getSystemService, returnValue: android.view.inputmethod.InputMethodManager
BEFORE android.view.inputmethod.InputMethodManager.hideSoftInputFromWindow(0)
BEFORE android.view.inputmethod.InputMethodManager.hideSoftInputFromWindow(0)
AFTER android.view.inputmethod.InputMethodManager.hideSoftInputFromWindow, returnValue: false
AFTER android.view.inputmethod.InputMethodManager.hideSoftInputFromWindow, returnValue: false
BEFORE android.app.Activity.getSystemService(input_method)
AFTER android.app.Activity.getSystemService, returnValue: android.view.inputmethod.InputMethodManager
BEFORE android.view.inputmethod.InputMethodManager.hideSoftInputFromWindow(0)
BEFORE android.view.inputmethod.InputMethodManager.hideSoftInputFromWindow(0)
AFTER android.view.inputmethod.InputMethodManager.hideSoftInputFromWindow, returnValue: false
AFTER android.view.inputmethod.InputMethodManager.hideSoftInputFromWindow, returnValue: false
BEFORE android.webkit.WebViewDelegate.addWebViewAssetPath(ld)
AFTER android.webkit.WebViewDelegate.addWebViewAssetPath
BEFORE android.os.Handler.getLooper()
AFTER android.os.Handler.getLooper, returnValue: Looper (main, tid 1) {848f9dd}
BEFORE android.os.Looper.myLooper()
AFTER android.os.Looper.myLooper, returnValue: Looper (main, tid 1) {848f9dd}
BEFORE android.os.Looper.myLooper()
AFTER android.os.Looper.myLooper, returnValue: Looper (main, tid 1) {848f9dd}
BEFORE android.os.Process.myPid()
AFTER android.os.Process.myPid, returnValue: 3796
BEFORE android.os.Process.myUid()
AFTER android.os.Process.myUid, returnValue: 10066
BEFORE android.app.ApplicationPackageManager.hasSystemFeature(android.hardware.touchscreen)
BEFORE android.app.ApplicationPackageManager.hasSystemFeature(android.hardware.touchscreen)
AFTER android.app.ApplicationPackageManager.hasSystemFeature, returnValue: true
AFTER android.app.ApplicationPackageManager.hasSystemFeature, returnValue: true
BEFORE android.provider.Settings$System.getInt(android.app.ContextImpl$ApplicationContentResolver,show_password,1)
AFTER android.provider.Settings$System.getInt, returnValue: 1
BEFORE android.content.res.Resources.getConfiguration()
AFTER android.content.res.Resources.getConfiguration, returnValue: {1.0 310mcc270mnc [en_US] ldltr sw384dp w384dp h568dp 320dpi nrml port finger qwerty/v/v -nav/h s.7}
BEFORE android.webkit.WebView$PrivateAccess.super_getScrollBarStyle()
AFTER android.webkit.WebView$PrivateAccess.super_getScrollBarStyle, returnValue: 0
BEFORE android.os.Handler.getLooper()
AFTER android.os.Handler.getLooper, returnValue: Looper (main, tid 1) {848f9dd}
BEFORE android.provider.Settings$Global.getUriFor(animator_duration_scale)
AFTER android.provider.Settings$Global.getUriFor, returnValue: content://settings/global/animator_duration_scale
BEFORE android.content.ContentResolver.registerContentObserver(android.net.Uri$HierarchicalUri,false,Cs)
BEFORE android.content.ContentResolver.registerContentObserver(android.net.Uri$HierarchicalUri,false,Cs)
AFTER android.content.ContentResolver.registerContentObserver
AFTER android.content.ContentResolver.registerContentObserver
BEFORE android.hardware.input.InputManager.registerInputDeviceListener(org.chromium.ui.events.devices.InputDeviceObserver)
AFTER android.hardware.input.InputManager.registerInputDeviceListener
BEFORE android.app.ActivityManager.getMyMemoryState(android.app.ActivityManager$RunningAppProcessInfo)
AFTER android.app.ActivityManager.getMyMemoryState
BEFORE android.telephony.TelephonyManager.getNetworkCountryIso()
AFTER android.telephony.TelephonyManager.getNetworkCountryIso, returnValue: us, isEmpty: false
BEFORE android.app.Activity.getSystemService(window)
AFTER android.app.Activity.getSystemService, returnValue: android.view.WindowManagerImpl
BEFORE android.view.WindowManagerImpl.getDefaultDisplay()
AFTER android.view.WindowManagerImpl.getDefaultDisplay, returnValue: android.view.Display
BEFORE android.view.Display.getDisplayId()
AFTER android.view.Display.getDisplayId, returnValue: 0
BEFORE android.util.SparseArray.get(0)
BEFORE android.util.SparseArray.get(0)
AFTER android.util.SparseArray.get, returnValue: OY
AFTER android.util.SparseArray.get, returnValue: OY
BEFORE android.os.StrictMode.allowThreadDiskReads()
AFTER android.os.StrictMode.allowThreadDiskReads, returnValue: [StrictMode.ThreadPolicy; mask=16777220]
BEFORE android.os.StrictMode.setThreadPolicy(android.os.StrictMode$ThreadPolicy)
AFTER android.os.StrictMode.setThreadPolicy
BEFORE android.os.Handler.getLooper()
AFTER android.os.Handler.getLooper, returnValue: Looper (main, tid 1) {848f9dd}
BEFORE android.os.Message.obtain(vG,1,vD)
BEFORE android.os.Message.obtain(vG,1,vD)
AFTER android.os.Message.obtain, returnValue: { when=-20m32s768ms barrier=0 }
AFTER android.os.Message.obtain, returnValue: { when=-20m32s769ms barrier=0 }
BEFORE android.os.Looper.myLooper()
AFTER android.os.Looper.myLooper, returnValue: Looper (main, tid 1) {848f9dd}
BEFORE android.os.Message.getTarget()
AFTER android.os.Message.getTarget, returnValue: Handler (vG) {6d937fb}
BEFORE android.os.Handler.getLooper()
AFTER android.os.Handler.getLooper, returnValue: Looper (main, tid 1) {848f9dd}
BEFORE android.os.Message.getTarget()
AFTER android.os.Message.getTarget, returnValue: Handler (vG) {6d937fb}
BEFORE android.os.Message.recycle()
AFTER android.os.Message.recycle
BEFORE android.os.Process.myTid()
AFTER android.os.Process.myTid, returnValue: 3796
BEFORE android.content.res.Resources.getConfiguration()
AFTER android.content.res.Resources.getConfiguration, returnValue: {1.0 310mcc270mnc [en_US] ldltr sw384dp w384dp h568dp 320dpi nrml port finger qwerty/v/v -nav/h s.7}
BEFORE android.os.Handler.getLooper()
AFTER android.os.Handler.getLooper, returnValue: Looper (main, tid 1) {848f9dd}
BEFORE android.view.InputDevice.getDeviceIds()
AFTER android.view.InputDevice.getDeviceIds, returnValue: [I
BEFORE android.view.InputDevice.getDevice(-1)
AFTER android.view.InputDevice.getDevice, returnValue: Input Device -1: Virtual   Descriptor: a718a782d34bc767f4689c232d64d527998ea7fd   Generation: 2   Location: built-in   Keyboard Type: alphabetic   Has Vibrator: false   Has mic: false   Sources: 0x301 ( keyboard dpad ) 
BEFORE android.view.InputDevice.getSources()
AFTER android.view.InputDevice.getSources, returnValue: 769
BEFORE android.view.InputDevice.getDevice(1)
AFTER android.view.InputDevice.getDevice, returnValue: Input Device 1: Sleep Button   Descriptor: 954faadc99bb5a7c1d0537b923e0490c90b47e98   Generation: 8   Location: built-in   Keyboard Type: non-alphabetic   Has Vibrator: false   Has mic: false   Sources: 0x101 ( keyboard ) 
BEFORE android.view.InputDevice.getSources()
AFTER android.view.InputDevice.getSources, returnValue: 257
BEFORE android.view.InputDevice.getDevice(2)
AFTER android.view.InputDevice.getDevice, returnValue: Input Device 2: Power Button   Descriptor: 26d13db3fa0f6bd5d05831266fb01ea6c500b88c   Generation: 6   Location: built-in   Keyboard Type: non-alphabetic   Has Vibrator: false   Has mic: false   Sources: 0x101 ( keyboard ) 
BEFORE android.view.InputDevice.getSources()
AFTER android.view.InputDevice.getSources, returnValue: 257
BEFORE android.view.InputDevice.getDevice(3)
AFTER android.view.InputDevice.getDevice, returnValue: Input Device 3: AT Translated Set 2 keyboard   Descriptor: 485d69228e24f5e46da1598745890b214130dbc4   Generation: 17   Location: built-in   Keyboard Type: alphabetic   Has Vibrator: false   Has mic: false   Sources: 0x101 ( keyboard ) 
BEFORE android.view.InputDevice.getSources()
AFTER android.view.InputDevice.getSources, returnValue: 257
BEFORE android.view.InputDevice.getDevice(4)
AFTER android.view.InputDevice.getDevice, returnValue: Input Device 4: Genymotion Virtual Input   Descriptor: e2af2aee625c3b6e5e9b6244f78a3667ab1b5c9e   Generation: 18   Location: built-in   Keyboard Type: alphabetic   Has Vibrator: false   Has mic: false   Sources: 0x1103 ( keyboard touchscreen )     AXIS_X: source=0x1002 min=0.0 max=767.0 flat=0.0 fuzz=0.0 resolution=0.0     AXIS_Y: source=0x1002 min=0.0 max=1279.0 flat=0.0 fuzz=0.0 resolution=0.0     AXIS_PRESSURE: source=0x1002 min=0.0 max=1.0 flat=0.0 fuzz=0.0 resolution=0.0     AXIS_VSCROLL: source=0x1002 min=-1.0 max=1.0 flat=0.0 fuzz=0.0 resolution=0.0     AXIS_HSCROLL: source=0x1002 min=-1.0 max=1.0 flat=0.0 fuzz=0.0 resolution=0.0 
BEFORE android.view.InputDevice.getSources()
AFTER android.view.InputDevice.getSources, returnValue: 4355
BEFORE android.view.InputDevice.getDeviceIds()
AFTER android.view.InputDevice.getDeviceIds, returnValue: [I
BEFORE android.view.InputDevice.getDevice(-1)
AFTER android.view.InputDevice.getDevice, returnValue: Input Device -1: Virtual   Descriptor: a718a782d34bc767f4689c232d64d527998ea7fd   Generation: 2   Location: built-in   Keyboard Type: alphabetic   Has Vibrator: false   Has mic: false   Sources: 0x301 ( keyboard dpad ) 
BEFORE android.view.InputDevice.getSources()
AFTER android.view.InputDevice.getSources, returnValue: 769
BEFORE android.view.InputDevice.getDevice(1)
AFTER android.view.InputDevice.getDevice, returnValue: Input Device 1: Sleep Button   Descriptor: 954faadc99bb5a7c1d0537b923e0490c90b47e98   Generation: 8   Location: built-in   Keyboard Type: non-alphabetic   Has Vibrator: false   Has mic: false   Sources: 0x101 ( keyboard ) 
BEFORE android.view.InputDevice.getSources()
AFTER android.view.InputDevice.getSources, returnValue: 257
BEFORE android.view.InputDevice.getDevice(2)
AFTER android.view.InputDevice.getDevice, returnValue: Input Device 2: Power Button   Descriptor: 26d13db3fa0f6bd5d05831266fb01ea6c500b88c   Generation: 6   Location: built-in   Keyboard Type: non-alphabetic   Has Vibrator: false   Has mic: false   Sources: 0x101 ( keyboard ) 
BEFORE android.view.InputDevice.getSources()
AFTER android.view.InputDevice.getSources, returnValue: 257
BEFORE android.view.InputDevice.getDevice(3)
AFTER android.view.InputDevice.getDevice, returnValue: Input Device 3: AT Translated Set 2 keyboard   Descriptor: 485d69228e24f5e46da1598745890b214130dbc4   Generation: 17   Location: built-in   Keyboard Type: alphabetic   Has Vibrator: false   Has mic: false   Sources: 0x101 ( keyboard ) 
BEFORE android.view.InputDevice.getSources()
AFTER android.view.InputDevice.getSources, returnValue: 257
BEFORE android.view.InputDevice.getDevice(4)
AFTER android.view.InputDevice.getDevice, returnValue: Input Device 4: Genymotion Virtual Input   Descriptor: e2af2aee625c3b6e5e9b6244f78a3667ab1b5c9e   Generation: 18   Location: built-in   Keyboard Type: alphabetic   Has Vibrator: false   Has mic: false   Sources: 0x1103 ( keyboard touchscreen )     AXIS_X: source=0x1002 min=0.0 max=767.0 flat=0.0 fuzz=0.0 resolution=0.0     AXIS_Y: source=0x1002 min=0.0 max=1279.0 flat=0.0 fuzz=0.0 resolution=0.0     AXIS_PRESSURE: source=0x1002 min=0.0 max=1.0 flat=0.0 fuzz=0.0 resolution=0.0     AXIS_VSCROLL: source=0x1002 min=-1.0 max=1.0 flat=0.0 fuzz=0.0 resolution=0.0     AXIS_HSCROLL: source=0x1002 min=-1.0 max=1.0 flat=0.0 fuzz=0.0 resolution=0.0 
BEFORE android.view.InputDevice.getSources()
AFTER android.view.InputDevice.getSources, returnValue: 4355
BEFORE android.app.ApplicationPackageManager.hasSystemFeature(android.hardware.touchscreen.multitouch.jazzhand)
BEFORE android.app.ApplicationPackageManager.hasSystemFeature(android.hardware.touchscreen.multitouch.jazzhand)
AFTER android.app.ApplicationPackageManager.hasSystemFeature, returnValue: true
AFTER android.app.ApplicationPackageManager.hasSystemFeature, returnValue: true
BEFORE android.provider.Settings$Global.getFloat(android.app.ContextImpl$ApplicationContentResolver,animator_duration_scale,1.0)
AFTER android.provider.Settings$Global.getFloat, returnValue: 1.0
BEFORE android.os.Handler.post(vi)
AFTER android.os.Handler.post, returnValue: true
BEFORE android.app.Activity.getSystemService(accessibility)
AFTER android.app.Activity.getSystemService, returnValue: android.view.accessibility.AccessibilityManager
BEFORE android.os.Message.obtain(vG,1,vD)
BEFORE android.os.Message.obtain(vG,1,vD)
AFTER android.os.Message.obtain, returnValue: { when=-20m33s101ms barrier=0 }
AFTER android.os.Message.obtain, returnValue: { when=-20m33s101ms barrier=0 }
BEFORE android.os.Looper.myLooper()
AFTER android.os.Looper.myLooper, returnValue: Looper (main, tid 1) {848f9dd}
BEFORE android.os.Message.getTarget()
AFTER android.os.Message.getTarget, returnValue: Handler (vG) {6d937fb}
BEFORE android.os.Handler.getLooper()
AFTER android.os.Handler.getLooper, returnValue: Looper (main, tid 1) {848f9dd}
BEFORE android.os.Message.getTarget()
AFTER android.os.Message.getTarget, returnValue: Handler (vG) {6d937fb}
BEFORE android.os.Message.recycle()
AFTER android.os.Message.recycle
BEFORE android.os.Handler.post(ty)
AFTER android.os.Handler.post, returnValue: true
BEFORE android.content.ClipboardManager.addPrimaryClipChangedListener(org.chromium.ui.base.Clipboard)
AFTER android.content.ClipboardManager.addPrimaryClipChangedListener
BEFORE android.database.sqlite.SQLiteOpenHelper.getReadableDatabase()
AFTER android.database.sqlite.SQLiteOpenHelper.getReadableDatabase, returnValue: SQLiteDatabase: /data/user/0/de.baumann.browser/databases/Ninja4.db
BEFORE android.database.sqlite.SQLiteDatabase.query(WHITELIST,[Ljava.lang.String;,DOMAIN)
BEFORE android.database.sqlite.SQLiteDatabase.query(WHITELIST,[Ljava.lang.String;,DOMAIN)
AFTER android.database.sqlite.SQLiteDatabase.query, returnValue: android.database.sqlite.SQLiteCursor
AFTER android.database.sqlite.SQLiteDatabase.query, returnValue: android.database.sqlite.SQLiteCursor
BEFORE android.database.AbstractCursor.moveToFirst()
AFTER android.database.AbstractCursor.moveToFirst, returnValue: false
BEFORE android.database.AbstractCursor.isAfterLast()
AFTER android.database.AbstractCursor.isAfterLast, returnValue: true
BEFORE android.database.sqlite.SQLiteCursor.close()
AFTER android.database.sqlite.SQLiteCursor.close
BEFORE android.database.sqlite.SQLiteOpenHelper.close()
AFTER android.database.sqlite.SQLiteOpenHelper.close
BEFORE de.baumann.browser.Browser.Javascript$1.run()
BEFORE android.view.ContextThemeWrapper.getAssets()
BEFORE android.database.sqlite.SQLiteOpenHelper.getReadableDatabase()
AFTER android.database.sqlite.SQLiteOpenHelper.getReadableDatabase, returnValue: SQLiteDatabase: /data/user/0/de.baumann.browser/databases/Ninja4.db
BEFORE android.database.sqlite.SQLiteDatabase.query(JAVASCRIPT,[Ljava.lang.String;,DOMAIN)
BEFORE android.database.sqlite.SQLiteDatabase.query(JAVASCRIPT,[Ljava.lang.String;,DOMAIN)
AFTER android.database.sqlite.SQLiteDatabase.query, returnValue: android.database.sqlite.SQLiteCursor
AFTER android.database.sqlite.SQLiteDatabase.query, returnValue: android.database.sqlite.SQLiteCursor
BEFORE android.database.AbstractCursor.moveToFirst()
AFTER android.database.AbstractCursor.moveToFirst, returnValue: false
BEFORE android.database.AbstractCursor.isAfterLast()
AFTER android.database.AbstractCursor.isAfterLast, returnValue: true
BEFORE android.database.sqlite.SQLiteCursor.close()
AFTER android.database.sqlite.SQLiteCursor.close
BEFORE android.database.sqlite.SQLiteOpenHelper.close()
AFTER android.database.sqlite.SQLiteOpenHelper.close
BEFORE de.baumann.browser.Browser.Cookie$1.run()
BEFORE android.view.ContextThemeWrapper.getAssets()
BEFORE android.database.sqlite.SQLiteOpenHelper.getReadableDatabase()
AFTER android.database.sqlite.SQLiteOpenHelper.getReadableDatabase, returnValue: SQLiteDatabase: /data/user/0/de.baumann.browser/databases/Ninja4.db
BEFORE android.database.sqlite.SQLiteDatabase.query(COOKIE,[Ljava.lang.String;,DOMAIN)
BEFORE android.database.sqlite.SQLiteDatabase.query(COOKIE,[Ljava.lang.String;,DOMAIN)
AFTER android.database.sqlite.SQLiteDatabase.query, returnValue: android.database.sqlite.SQLiteCursor
AFTER android.database.sqlite.SQLiteDatabase.query, returnValue: android.database.sqlite.SQLiteCursor
BEFORE android.database.AbstractCursor.moveToFirst()
AFTER android.database.AbstractCursor.moveToFirst, returnValue: false
BEFORE android.database.AbstractCursor.isAfterLast()
AFTER android.database.AbstractCursor.isAfterLast, returnValue: true
BEFORE android.database.sqlite.SQLiteCursor.close()
AFTER android.database.sqlite.SQLiteCursor.close
BEFORE android.database.sqlite.SQLiteOpenHelper.close()
AFTER android.database.sqlite.SQLiteOpenHelper.close
BEFORE android.view.LayoutInflater.from(de.baumann.browser.Activity.BrowserActivity)
AFTER android.view.LayoutInflater.from, returnValue: com.android.internal.policy.PhoneLayoutInflater
BEFORE android.view.LayoutInflater.inflate(2131492895,false)
BEFORE android.view.LayoutInflater.inflate(2131492895,false)
BEFORE android.view.LayoutInflater.inflate(2131492895,false)
AFTER android.view.LayoutInflater.inflate, returnValue: android.widget.FrameLayout{2c9d09f V.E...... ......I. 0,0-0,0}
AFTER android.view.LayoutInflater.inflate, returnValue: android.widget.FrameLayout{2c9d09f V.E...... ......I. 0,0-0,0}
AFTER android.view.LayoutInflater.inflate, returnValue: android.widget.FrameLayout{2c9d09f V.E...... ......I. 0,0-0,0}
BEFORE android.content.Context.getString(2131689515)
AFTER android.content.Context.getString, returnValue: , isEmpty: true
BEFORE android.preference.PreferenceManager.getDefaultSharedPreferences(de.baumann.browser.Activity.BrowserActivity)
AFTER android.preference.PreferenceManager.getDefaultSharedPreferences, returnValue: android.app.SharedPreferencesImpl
BEFORE android.webkit.WebView.setWebViewClient(de.baumann.browser.Browser.NinjaWebViewClient)
AFTER android.webkit.WebView.setWebViewClient
BEFORE android.webkit.WebView.setWebChromeClient(de.baumann.browser.Browser.NinjaWebChromeClient)
BEFORE android.os.Handler.getLooper()
AFTER android.os.Handler.getLooper, returnValue: Looper (main, tid 1) {848f9dd}
BEFORE android.os.Looper.myLooper()
AFTER android.os.Looper.myLooper, returnValue: Looper (main, tid 1) {848f9dd}
AFTER android.webkit.WebView.setWebChromeClient
BEFORE android.webkit.WebView.setDownloadListener(de.baumann.browser.Browser.NinjaDownloadListener)
AFTER android.webkit.WebView.setDownloadListener
BEFORE android.webkit.WebView.getSettings()
AFTER android.webkit.WebView.getSettings, returnValue: com.android.webview.chromium.ContentSettingsAdapter
BEFORE android.os.Handler.getLooper()
AFTER android.os.Handler.getLooper, returnValue: Looper (main, tid 1) {848f9dd}
BEFORE android.os.Looper.myLooper()
AFTER android.os.Looper.myLooper, returnValue: Looper (main, tid 1) {848f9dd}
BEFORE android.os.Handler.getLooper()
AFTER android.os.Handler.getLooper, returnValue: Looper (main, tid 1) {848f9dd}
BEFORE android.os.Looper.myLooper()
AFTER android.os.Looper.myLooper, returnValue: Looper (main, tid 1) {848f9dd}
BEFORE android.os.Handler.getLooper()
AFTER android.os.Handler.getLooper, returnValue: Looper (main, tid 1) {848f9dd}
BEFORE android.os.Looper.myLooper()
AFTER android.os.Looper.myLooper, returnValue: Looper (main, tid 1) {848f9dd}
BEFORE android.os.Handler.getLooper()
AFTER android.os.Handler.getLooper, returnValue: Looper (main, tid 1) {848f9dd}
BEFORE android.os.Looper.myLooper()
AFTER android.os.Looper.myLooper, returnValue: Looper (main, tid 1) {848f9dd}
BEFORE android.os.Handler.post(vi)
AFTER android.os.Handler.post, returnValue: true
BEFORE android.os.Handler.getLooper()
AFTER android.os.Handler.getLooper, returnValue: Looper (main, tid 1) {848f9dd}
BEFORE android.os.Looper.myLooper()
AFTER android.os.Looper.myLooper, returnValue: Looper (main, tid 1) {848f9dd}
BEFORE android.os.Handler.post(vi)
AFTER android.os.Handler.post, returnValue: true
BEFORE android.os.Binder.execTransact(1,java.lang.Long,java.lang.Long,17)
BEFORE android.os.Binder.execTransact(6,java.lang.Long,java.lang.Long,17)
AFTER android.os.Binder.execTransact, returnValue: true
AFTER android.os.Binder.execTransact, returnValue: true
BEFORE android.os.Binder.execTransact(6,java.lang.Long,java.lang.Long,17)
BEFORE android.os.Binder.execTransact(6,java.lang.Long,java.lang.Long,17)
AFTER android.os.Binder.execTransact, returnValue: true
AFTER android.os.Binder.execTransact, returnValue: true
BEFORE android.os.Binder.execTransact(4,java.lang.Long,java.lang.Long,17)
BEFORE android.os.Binder.execTransact(4,java.lang.Long,java.lang.Long,17)
BEFORE android.os.Binder.execTransact(4,java.lang.Long,java.lang.Long,17)
AFTER android.os.Binder.execTransact, returnValue: true
AFTER android.os.Binder.execTransact, returnValue: true
AFTER android.os.Binder.execTransact, returnValue: true
BEFORE android.os.Binder.execTransact(50,java.lang.Long,java.lang.Long,17)
AFTER android.os.Binder.execTransact, returnValue: true
BEFORE android.os.Binder.execTransact(42,java.lang.Long,java.lang.Long,17)
AFTER android.os.Binder.execTransact, returnValue: true
BEFORE android.os.Binder.execTransact(9,java.lang.Long,java.lang.Long,17)
AFTER android.os.Binder.execTransact, returnValue: true
