Position |MethodName|Relevancy
0.007633587786259542|java.lang.Thread.run|0.9500000000000001
0.015267175572519083|android.os.Handler.dispatchMessage|0.8039117199391173
0.022900763358778626|okhttp3.internal.connection.RealConnection.establishProtocol|0.7151623541349569
0.030534351145038167|android.widget.Spinner.onMeasure|0.568056823947235
0.03816793893129771|android.os.Handler.handleCallback|0.5485819381024861
0.04580152671755725|okhttp3.internal.connection.ConnectInterceptor.intercept|0.4903373921867073
0.05343511450381679|okhttp3.internal.http.RetryAndFollowUpInterceptor.intercept|0.48848046676813806
0.061068702290076333|okhttp3.RealCall$AsyncCall.execute|0.48847539320142064
0.06870229007633588|android.app.ActivityThread$H.handleMessage|0.48570522577371894
0.07633587786259542|android.app.Activity.performCreate|0.482937595129376
0.08396946564885496|okhttp3.internal.connection.RealConnection.connectTls|0.48202435312024355
0.0916030534351145|okhttp3.internal.framed.Http2$Reader.nextFrame|0.4635083713850837
0.09923664122137404|android.os.Looper.loop|0.349652460679858
0.10687022900763359|android.app.ActivityThread.main|0.34872653475393206
0.11450381679389313|java.lang.reflect.Method.invoke|0.3478006088280061
0.12213740458015267|com.android.internal.os.ZygoteInit$MethodAndArgsCaller.run|0.3468746829020802
0.1297709923664122|com.android.internal.os.ZygoteInit.main|0.3459487569761543
0.13740458015267176|android.support.v7.widget.AppCompatSpinner.onMeasure|0.3404642313546423
0.1450381679389313|android.view.View.measure|0.3395383054287164
0.15267175572519084|android.view.ViewGroup.measureChildWithMargins|0.3386123795027905
0.16030534351145037|android.widget.LinearLayout.measureChildBeforeLayout|0.33768645357686455
0.16793893129770993|android.widget.LinearLayout.measureVertical|0.3367605276509386
0.17557251908396945|android.widget.LinearLayout.onMeasure|0.33583460172501267
0.183206106870229|android.view.View.measure|0.3349086757990868
0.19083969465648856|android.widget.ScrollView.measureChildWithMargins|0.33398274987316084
0.1984732824427481|android.widget.FrameLayout.onMeasure|0.3330568239472349
0.20610687022900764|android.widget.ScrollView.onMeasure|0.332130898021309
0.21374045801526717|android.view.View.measure|0.3312049720953831
0.22137404580152673|android.view.ViewGroup.measureChildWithMargins|0.33027904616945714
0.22900763358778625|android.widget.LinearLayout.measureChildBeforeLayout|0.3293531202435312
0.2366412213740458|android.widget.LinearLayout.measureVertical|0.3284271943176053
0.24427480916030533|android.widget.Spinner.measureContentWidth|0.3275215626585489
0.25190839694656486|android.widget.LinearLayout.onMeasure|0.32750126839167937
0.2595419847328244|android.view.View.measure|0.3265753424657534
0.26717557251908397|android.view.ViewGroup.measureChildWithMargins|0.3256494165398275
0.2748091603053435|android.widget.FrameLayout.onMeasure|0.3247234906139016
0.2824427480916031|android.support.v7.widget.ContentFrameLayout.onMeasure|0.32379756468797566
0.2900763358778626|android.view.View.measure|0.3228716387620497
0.29770992366412213|android.view.ViewGroup.measureChildWithMargins|0.32194571283612383
0.3053435114503817|android.support.v7.widget.ActionBarOverlayLayout.onMeasure|0.3210197869101979
0.31297709923664124|android.view.View.measure|0.32009386098427195
0.32061068702290074|android.view.ViewGroup.measureChildWithMargins|0.319167935058346
0.3282442748091603|android.widget.FrameLayout.onMeasure|0.3182420091324201
0.33587786259541985|android.view.View.measure|0.3173160832064942
0.3435114503816794|android.view.ViewGroup.measureChildWithMargins|0.31639015728056824
0.3511450381679389|android.widget.LinearLayout.measureChildBeforeLayout|0.3154642313546423
0.35877862595419846|android.widget.LinearLayout.measureVertical|0.3145383054287164
0.366412213740458|android.widget.LinearLayout.onMeasure|0.3136123795027905
0.37404580152671757|android.view.View.measure|0.31268645357686453
0.3816793893129771|android.view.ViewGroup.measureChildWithMargins|0.31176052765093865
0.3893129770992366|android.widget.FrameLayout.onMeasure|0.3108346017250127
0.3969465648854962|com.android.internal.policy.PhoneWindow$DecorView.onMeasure|0.30990867579908676
0.40458015267175573|android.view.View.measure|0.3089827498731608
0.4122137404580153|android.view.ViewRootImpl.performMeasure|0.30805682394723494
0.4198473282442748|android.view.ViewRootImpl.measureHierarchy|0.307130898021309
0.42748091603053434|android.view.ViewRootImpl.performTraversals|0.30620497209538305
0.4351145038167939|android.view.ViewRootImpl.doTraversal|0.3052790461694571
0.44274809160305345|android.view.ViewRootImpl$TraversalRunnable.run|0.3043531202435312
0.45038167938931295|android.view.Choreographer$CallbackRecord.run|0.3034271943176053
0.4580152671755725|android.view.Choreographer.doCallbacks|0.30250126839167935
0.46564885496183206|android.view.Choreographer.doFrame|0.30157534246575346
0.4732824427480916|android.view.Choreographer$FrameDisplayEventReceiver.run|0.3006494165398275
0.48091603053435117|android.widget.AbsSpinner.onMeasure|0.29053526128868595
0.48854961832061067|okhttp3.internal.NamedRunnable.run|0.2664307458143075
0.4961832061068702|java.util.concurrent.ThreadPoolExecutor.runWorker|0.26550481988838154
0.5038167938931297|java.util.concurrent.ThreadPoolExecutor$Worker.run|0.26457889396245565
0.5114503816793893|okhttp3.internal.http.RealInterceptorChain.proceed|0.2627447995941147
0.5190839694656488|okhttp3.internal.cache.CacheInterceptor.intercept|0.2618188736681888
0.5267175572519084|okhttp3.internal.connection.RealConnection.buildConnection|0.2609030948756976
0.5343511450381679|okhttp3.internal.http.RealInterceptorChain.proceed|0.26089294774226285
0.5419847328244275|okhttp3.internal.http.RealInterceptorChain.proceed|0.26088787417554543
0.549618320610687|okhttp3.internal.connection.RealConnection.connect|0.25997716894977174
0.5572519083969466|okhttp3.internal.http.BridgeInterceptor.intercept|0.2599670218163369
0.5648854961832062|okhttp3.RealCall.getResponseWithInterceptorChain|0.2599619482496195
0.5725190839694656|okhttp3.internal.connection.StreamAllocation.findConnection|0.2590512430238458
0.5801526717557252|okhttp3.internal.http.RealInterceptorChain.proceed|0.259041095890411
0.5877862595419847|okhttp3.RealCall.access$100|0.2590360223236936
0.5954198473282443|okhttp3.internal.connection.StreamAllocation.findHealthyConnection|0.25812531709791986
0.6030534351145038|okhttp3.internal.connection.StreamAllocation.newStream|0.2571993911719939
0.6106870229007634|com.kamron.pogoiv.updater.DownloadUpdateService$1.onReceive|0.25719178082191785
0.6183206106870229|android.app.LoadedApk$ReceiverDispatcher$Args.run|0.2562658548959919
0.6259541984732825|android.app.Instrumentation.callActivityOnCreate|0.2553450025367834
0.6335877862595419|okio.Okio$1.write|0.25443429731100964
0.6412213740458015|android.app.ActivityThread.performLaunchActivity|0.25441907661085744
0.648854961832061|okio.AsyncTimeout$1.write|0.25350837138508375
0.6564885496183206|android.app.ActivityThread.handleLaunchActivity|0.25349315068493156
0.6641221374045801|okio.RealBufferedSink.flush|0.2525824454591578
0.6717557251908397|android.app.ActivityThread.-wrap11|0.2525672247590056
0.6793893129770993|okhttp3.internal.framed.Http2$Writer.flush|0.25165651953323187
0.6870229007633588|okhttp3.internal.framed.FramedConnection.newStream|0.250730593607306
0.6946564885496184|okhttp3.internal.http.Http2xStream.writeRequestHeaders|0.24980466768138004
0.7022900763358778|com.kamron.pogoiv.MainActivity.onCreate|0.24979959411466263
0.7099236641221374|okhttp3.internal.NamedRunnable.run|0.2497843734145104
0.7175572519083969|okhttp3.internal.http.CallServerInterceptor.intercept|0.2488787417554541
0.7251908396946565|okhttp3.internal.http.RealInterceptorChain.proceed|0.2479528158295282
0.732824427480916|com.kamron.pogoiv.MainActivity.initiateUserScreenSettings|0.24702688990360225
0.7404580152671756|android.widget.AdapterView.isScrollableForAccessibility|0.24610603754439372
0.7480916030534351|com.kamron.pogoiv.SettingsActivity.onCreate|0.24610096397767633
0.7557251908396947|android.widget.AdapterView.onInitializeAccessibilityNodeInfoInternal|0.24518011161846778
0.7633587786259542|android.app.Activity.performCreate|0.2451750380517504
0.7709923664122137|android.widget.Spinner.onInitializeAccessibilityNodeInfoInternal|0.24425418569254187
0.7786259541984732|android.app.Instrumentation.callActivityOnCreate|0.24424911212582448
0.7862595419847328|android.view.View.onInitializeAccessibilityNodeInfo|0.24332825976661593
0.7938931297709924|android.app.ActivityThread.performLaunchActivity|0.24332318619989857
0.8015267175572519|okhttp3.internal.framed.FramedConnection$Reader.execute|0.24331303906646373
0.8091603053435115|android.view.View.createAccessibilityNodeInfoInternal|0.24240233384069002
0.816793893129771|android.app.ActivityThread.handleLaunchActivity|0.24239726027397263
0.8244274809160306|android.view.View.createAccessibilityNodeInfo|0.24147640791476407
0.8320610687022901|android.app.ActivityThread.-wrap12|0.2414713343480467
0.8396946564885496|android.view.AccessibilityInteractionController$AccessibilityNodePrefetcher.prefetchDescendantsOfRealNode|0.24055048198883816
0.8473282442748091|android.view.AccessibilityInteractionController$AccessibilityNodePrefetcher.prefetchAccessibilityNodeInfos|0.23962455606291222
0.8549618320610687|android.view.AccessibilityInteractionController.findAccessibilityNodeInfoByAccessibilityIdUiThread|0.2386986301369863
0.8625954198473282|android.view.AccessibilityInteractionController.-wrap1|0.2377727042110604
0.8702290076335878|android.view.AccessibilityInteractionController$PrivateHandler.handleMessage|0.23684677828513445
0.8778625954198473|okio.AsyncTimeout$2.read|0.23592085235920854
0.8854961832061069|okio.RealBufferedSource.request|0.2349949264332826
0.8931297709923665|okio.RealBufferedSource.require|0.23406900050735668
0.9007633587786259|com.kamron.pogoiv.widgets.PlayerTeamAdapter.getView|0.10178082191780823
0.9083969465648855|com.kamron.pogoiv.widgets.PlayerTeamAdapter.getView|0.06479452054794521
0.916030534351145|com.android.org.conscrypt.OpenSSLSocketImpl$SSLOutputStream.write|0.028693556570268904
0.9236641221374046|com.android.org.conscrypt.OpenSSLSocketImpl.getSession|0.025918315575849823
0.9312977099236641|com.android.org.conscrypt.OpenSSLSocketImpl.startHandshake|0.024069000507356674
0.9389312977099237|com.android.org.conscrypt.OpenSSLSocketImplWrapper.setSoTimeout|0.023143074581430747
0.9465648854961832|com.kamron.pogoiv.widgets.PlayerTeamAdapter.getCount|0.02036529680365297
0.9541984732824428|android.content.ContextWrapper.unregisterReceiver|0.02035514967021816
0.9618320610687023|android.view.Display.getRealMetrics|0.01758751902587519
0.9694656488549618|android.app.BackStackRecord.replace|0.016661593099949263
0.9770992366412213|sun.net.spi.DefaultProxySelector.select|0.014809741248097412
0.9847328244274809|com.android.org.conscrypt.OpenSSLSocketImpl$SSLInputStream.read|0.013883815322171488
0.9923664122137404|com.android.org.conscrypt.OpenSSLSocketImpl$SSLInputStream.read|0.01110603754439371
1.0|android.content.Intent.putExtra|0.010180111618467783
