BEFORE com.devpaul.filepicker.MainActivity.onCreate()
BEFORE android.app.Activity.onCreate()
AFTER android.app.Activity.onCreate
BEFORE android.app.Activity.setContentView(2130903065)
AFTER android.app.Activity.setContentView
BEFORE android.app.Activity.getFragmentManager()
AFTER android.app.Activity.getFragmentManager, returnValue: FragmentManager{3cbb735 in HostCallbacks{78d57ca}}
BEFORE android.app.FragmentManagerImpl.beginTransaction()
AFTER android.app.FragmentManagerImpl.beginTransaction, returnValue: BackStackEntry{82a1d3b}, isEmpty: true
BEFORE android.app.BackStackRecord.add(2131165294,com.devpaul.filepicker.MainActivity$PlaceholderFragment)
AFTER android.app.BackStackRecord.add, returnValue: BackStackEntry{82a1d3b}, isEmpty: false
BEFORE android.app.BackStackRecord.commit()
AFTER android.app.BackStackRecord.commit, returnValue: -1
AFTER com.devpaul.filepicker.MainActivity.onCreate
BEFORE com.devpaul.filepicker.MainActivity$PlaceholderFragment.onCreateView(com.android.internal.policy.PhoneLayoutInflater,android.widget.FrameLayout)
BEFORE android.view.LayoutInflater.inflate(2130903076,android.widget.FrameLayout,false)
BEFORE android.view.LayoutInflater.inflate(2130903076,android.widget.FrameLayout,false)
BEFORE android.content.Context.obtainStyledAttributes(android.content.res.XmlBlock$Parser,[I)
BEFORE android.content.Context.obtainStyledAttributes(android.content.res.XmlBlock$Parser,[I)
BEFORE android.content.Context.obtainStyledAttributes(android.content.res.XmlBlock$Parser,[I)
AFTER android.content.Context.obtainStyledAttributes, returnValue: [3, 488, 2, 2131099688, 0, 0, 0, 0, 2, 0, 0, 0, 29, -13615201, -1, 0, 0, 0, 0, 0, 1, 0, 0, 0, 0, 0, 1, 0, 0, 0, 0, 0, 1, 0, 0, 0, 0, 0, 1, 0, 0, 0, 0, 0, 1, 0, 0, 0, 0, 0, 1, 0, 0, 0, 0, 0, 1, 0, 0, 0, 0, 0, 1, 0, 0, 0, 0, 0, 1, 0, 0, 0, 0, 0, 1, 0, 0, 0, 0, 0, 2, 0, 0, 0, 0, 0, 2, 0, 0, 0, 0, 0, 2, 0, 0, 0, 0, 0, 2, 0, 0, 0, 0, 0, 2, 0, 0, 0, 0, 0, 2, 0, 0, 0, 0, 0, 2, 0, 0, 0, 0, 0, 2, 0, 0, 0, 0, 0, 2, 0, 0, 0, 0, 0, 2, 0, 0, 0, 0, 0, 2, 0, 0, 0, 0, 0, 2, 0, 0, 0, 0, 0, 2, 0, 0, 0, 0, 0, 2, 0, 0, 0, 0, 0, 2, 0, 0, 0, 0, 0, 2, 0, 0, 0, 0, 0, 2, 0, 0, 0, 0, 0, 2, 0, 0, 0, 0, 0, 2, 0, 0, 0, 0, 0, 2, 0, 0, 0, 0, 0, 2, 0, 0, 0, 0, 0, 2, 0, 0, 0, 0, 0, 2, 0, 0, 0, 0, 0, 2, 0, 0, 0, 0, 0, 2, 0, 0, 0, 0, 0, 2, 0, 0, 0, 0, 0, 2, 0, 0, 0, 0, 0, 2, 0, 0, 0, 0, 0, 2, 0, 0, 0, 0, 0, 2, 0, 0, 0, 0, 0, 2, 0, 0, 0, 0, 0, 2, 0, 0, 0, 16, 250, 2, 0, 1073746944, 0, 16, 400, 2, 0, 1073746944, 0, 0, 0, 2, 0, 0, 0, 0, 0, 2, 0, 0, 0, 0, 0, 2, 0, 0, 0, 0, 0, 2, 0, 0, 0, 0, 0, 2, 0, 0, 0, 0, 0, 2, 0, 0, 0, 0, 0, 2, 0, 0, 0, 0, 0, 2, 0, 0, 0, 0, 0, 2, 0, 0, 0, 0, 0, 2, 0, 0, 0, 0, 0, 2, 0, 0, 0, 0, 0, 2, 0, 0, 0, 0, 0, 2, 0, 0, 0, 0, 0, 2, 0, 0, 0, 0, 0, 2, 0, 0, 0, 0, 0, 2, 0, 0, 0, 0, 0, 2, 0, 0, 0, 0, 0, 2, 0, 0, 0, 0, 0, 2, 0, 0, 0, 0, 0, 2, 0, 0, 0, 0, 0, 2, 0, 0, 0, 0, 0, 2, 0, 0, 0, 0, 0, 2, 0, 0, 0, 0, 0, 2, 0, 0, 0, 0, 0, 2, 0, 0, 0, 0, 0, 2, 0, 0, 0, 0, 0, 2, 0, 0, 0, 0, 0, 2, 0, 0, 0, 0, 0, 2, 0, 0, 0, 0, 0, 2, 0, 0, 0, 0, 0, 2, 0, 0, 0, 0, 0, 2, 0, 0, 0, 0, 0, 2, 0, 0, 0, 0, 0, 2, 0, 0, 0, 0, 0, 2, 0, 0, 0, 0, 0, 2, 0, 0, 0, 0, 0, 2, 0, 0, 0, 0, 0, 2, 0, 0, 0, 0, 0, 2, 0, 0, 0, 0, 0, 2, 0, 0, 0]
AFTER android.content.Context.obtainStyledAttributes, returnValue: [3, 488, 2, 2131099688, 0, 0, 0, 0, 2, 0, 0, 0, 29, -13615201, -1, 0, 0, 0, 0, 0, 1, 0, 0, 0, 0, 0, 1, 0, 0, 0, 0, 0, 1, 0, 0, 0, 0, 0, 1, 0, 0, 0, 0, 0, 1, 0, 0, 0, 0, 0, 1, 0, 0, 0, 0, 0, 1, 0, 0, 0, 0, 0, 1, 0, 0, 0, 0, 0, 1, 0, 0, 0, 0, 0, 1, 0, 0, 0, 0, 0, 2, 0, 0, 0, 0, 0, 2, 0, 0, 0, 0, 0, 2, 0, 0, 0, 0, 0, 2, 0, 0, 0, 0, 0, 2, 0, 0, 0, 0, 0, 2, 0, 0, 0, 0, 0, 2, 0, 0, 0, 0, 0, 2, 0, 0, 0, 0, 0, 2, 0, 0, 0, 0, 0, 2, 0, 0, 0, 0, 0, 2, 0, 0, 0, 0, 0, 2, 0, 0, 0, 0, 0, 2, 0, 0, 0, 0, 0, 2, 0, 0, 0, 0, 0, 2, 0, 0, 0, 0, 0, 2, 0, 0, 0, 0, 0, 2, 0, 0, 0, 0, 0, 2, 0, 0, 0, 0, 0, 2, 0, 0, 0, 0, 0, 2, 0, 0, 0, 0, 0, 2, 0, 0, 0, 0, 0, 2, 0, 0, 0, 0, 0, 2, 0, 0, 0, 0, 0, 2, 0, 0, 0, 0, 0, 2, 0, 0, 0, 0, 0, 2, 0, 0, 0, 0, 0, 2, 0, 0, 0, 0, 0, 2, 0, 0, 0, 0, 0, 2, 0, 0, 0, 0, 0, 2, 0, 0, 0, 0, 0, 2, 0, 0, 0, 0, 0, 2, 0, 0, 0, 16, 250, 2, 0, 1073746944, 0, 16, 400, 2, 0, 1073746944, 0, 0, 0, 2, 0, 0, 0, 0, 0, 2, 0, 0, 0, 0, 0, 2, 0, 0, 0, 0, 0, 2, 0, 0, 0, 0, 0, 2, 0, 0, 0, 0, 0, 2, 0, 0, 0, 0, 0, 2, 0, 0, 0, 0, 0, 2, 0, 0, 0, 0, 0, 2, 0, 0, 0, 0, 0, 2, 0, 0, 0, 0, 0, 2, 0, 0, 0, 0, 0, 2, 0, 0, 0, 0, 0, 2, 0, 0, 0, 0, 0, 2, 0, 0, 0, 0, 0, 2, 0, 0, 0, 0, 0, 2, 0, 0, 0, 0, 0, 2, 0, 0, 0, 0, 0, 2, 0, 0, 0, 0, 0, 2, 0, 0, 0, 0, 0, 2, 0, 0, 0, 0, 0, 2, 0, 0, 0, 0, 0, 2, 0, 0, 0, 0, 0, 2, 0, 0, 0, 0, 0, 2, 0, 0, 0, 0, 0, 2, 0, 0, 0, 0, 0, 2, 0, 0, 0, 0, 0, 2, 0, 0, 0, 0, 0, 2, 0, 0, 0, 0, 0, 2, 0, 0, 0, 0, 0, 2, 0, 0, 0, 0, 0, 2, 0, 0, 0, 0, 0, 2, 0, 0, 0, 0, 0, 2, 0, 0, 0, 0, 0, 2, 0, 0, 0, 0, 0, 2, 0, 0, 0, 0, 0, 2, 0, 0, 0, 0, 0, 2, 0, 0, 0, 0, 0, 2, 0, 0, 0, 0, 0, 2, 0, 0, 0, 0, 0, 2, 0, 0, 0]
AFTER android.content.Context.obtainStyledAttributes, returnValue: [3, 488, 2, 2131099688, 0, 0, 0, 0, 2, 0, 0, 0, 29, -13615201, -1, 0, 0, 0, 0, 0, 1, 0, 0, 0, 0, 0, 1, 0, 0, 0, 0, 0, 1, 0, 0, 0, 0, 0, 1, 0, 0, 0, 0, 0, 1, 0, 0, 0, 0, 0, 1, 0, 0, 0, 0, 0, 1, 0, 0, 0, 0, 0, 1, 0, 0, 0, 0, 0, 1, 0, 0, 0, 0, 0, 1, 0, 0, 0, 0, 0, 2, 0, 0, 0, 0, 0, 2, 0, 0, 0, 0, 0, 2, 0, 0, 0, 0, 0, 2, 0, 0, 0, 0, 0, 2, 0, 0, 0, 0, 0, 2, 0, 0, 0, 0, 0, 2, 0, 0, 0, 0, 0, 2, 0, 0, 0, 0, 0, 2, 0, 0, 0, 0, 0, 2, 0, 0, 0, 0, 0, 2, 0, 0, 0, 0, 0, 2, 0, 0, 0, 0, 0, 2, 0, 0, 0, 0, 0, 2, 0, 0, 0, 0, 0, 2, 0, 0, 0, 0, 0, 2, 0, 0, 0, 0, 0, 2, 0, 0, 0, 0, 0, 2, 0, 0, 0, 0, 0, 2, 0, 0, 0, 0, 0, 2, 0, 0, 0, 0, 0, 2, 0, 0, 0, 0, 0, 2, 0, 0, 0, 0, 0, 2, 0, 0, 0, 0, 0, 2, 0, 0, 0, 0, 0, 2, 0, 0, 0, 0, 0, 2, 0, 0, 0, 0, 0, 2, 0, 0, 0, 0, 0, 2, 0, 0, 0, 0, 0, 2, 0, 0, 0, 0, 0, 2, 0, 0, 0, 0, 0, 2, 0, 0, 0, 0, 0, 2, 0, 0, 0, 16, 250, 2, 0, 1073746944, 0, 16, 400, 2, 0, 1073746944, 0, 0, 0, 2, 0, 0, 0, 0, 0, 2, 0, 0, 0, 0, 0, 2, 0, 0, 0, 0, 0, 2, 0, 0, 0, 0, 0, 2, 0, 0, 0, 0, 0, 2, 0, 0, 0, 0, 0, 2, 0, 0, 0, 0, 0, 2, 0, 0, 0, 0, 0, 2, 0, 0, 0, 0, 0, 2, 0, 0, 0, 0, 0, 2, 0, 0, 0, 0, 0, 2, 0, 0, 0, 0, 0, 2, 0, 0, 0, 0, 0, 2, 0, 0, 0, 0, 0, 2, 0, 0, 0, 0, 0, 2, 0, 0, 0, 0, 0, 2, 0, 0, 0, 0, 0, 2, 0, 0, 0, 0, 0, 2, 0, 0, 0, 0, 0, 2, 0, 0, 0, 0, 0, 2, 0, 0, 0, 0, 0, 2, 0, 0, 0, 0, 0, 2, 0, 0, 0, 0, 0, 2, 0, 0, 0, 0, 0, 2, 0, 0, 0, 0, 0, 2, 0, 0, 0, 0, 0, 2, 0, 0, 0, 0, 0, 2, 0, 0, 0, 0, 0, 2, 0, 0, 0, 0, 0, 2, 0, 0, 0, 0, 0, 2, 0, 0, 0, 0, 0, 2, 0, 0, 0, 0, 0, 2, 0, 0, 0, 0, 0, 2, 0, 0, 0, 0, 0, 2, 0, 0, 0, 0, 0, 2, 0, 0, 0, 0, 0, 2, 0, 0, 0, 0, 0, 2, 0, 0, 0, 0, 0, 2, 0, 0, 0, 0, 0, 2, 0, 0, 0]
BEFORE android.content.res.TypedArray.recycle()
AFTER android.content.res.TypedArray.recycle
BEFORE android.view.animation.Animation.setInterpolator(android.view.animation.OvershootInterpolator)
AFTER android.view.animation.Animation.setInterpolator
BEFORE android.view.animation.AnimationSet.setDuration(java.lang.Long)
AFTER android.view.animation.AnimationSet.setDuration
BEFORE android.content.Context.obtainStyledAttributes(android.content.res.XmlBlock$Parser,[I)
BEFORE android.content.Context.obtainStyledAttributes(android.content.res.XmlBlock$Parser,[I)
BEFORE android.content.Context.obtainStyledAttributes(android.content.res.XmlBlock$Parser,[I)
AFTER android.content.Context.obtainStyledAttributes, returnValue: [3, 486, 2, 2131099690, 0, 0, 0, 0, 2, 0, 0, 0, 29, -13615201, -1, 0, 0, 0, 0, 0, 1, 0, 0, 0, 0, 0, 1, 0, 0, 0, 0, 0, 1, 0, 0, 0, 0, 0, 1, 0, 0, 0, 0, 0, 1, 0, 0, 0, 0, 0, 1, 0, 0, 0, 0, 0, 1, 0, 0, 0, 0, 0, 1, 0, 0, 0, 0, 0, 1, 0, 0, 0, 0, 0, 1, 0, 0, 0, 0, 0, 2, 0, 0, 0, 0, 0, 2, 0, 0, 0, 0, 0, 2, 0, 0, 0, 0, 0, 2, 0, 0, 0, 0, 0, 2, 0, 0, 0, 0, 0, 2, 0, 0, 0, 0, 0, 2, 0, 0, 0, 0, 0, 2, 0, 0, 0, 0, 0, 2, 0, 0, 0, 0, 0, 2, 0, 0, 0, 0, 0, 2, 0, 0, 0, 0, 0, 2, 0, 0, 0, 0, 0, 2, 0, 0, 0, 0, 0, 2, 0, 0, 0, 0, 0, 2, 0, 0, 0, 0, 0, 2, 0, 0, 0, 0, 0, 2, 0, 0, 0, 0, 0, 2, 0, 0, 0, 0, 0, 2, 0, 0, 0, 0, 0, 2, 0, 0, 0, 0, 0, 2, 0, 0, 0, 0, 0, 2, 0, 0, 0, 0, 0, 2, 0, 0, 0, 0, 0, 2, 0, 0, 0, 0, 0, 2, 0, 0, 0, 0, 0, 2, 0, 0, 0, 0, 0, 2, 0, 0, 0, 0, 0, 2, 0, 0, 0, 0, 0, 2, 0, 0, 0, 0, 0, 2, 0, 0, 0, 0, 0, 2, 0, 0, 0, 0, 0, 2, 0, 0, 0, 16, 250, 2, 0, 1073746944, 0, 16, 400, 2, 0, 1073746944, 0, 0, 0, 2, 0, 0, 0, 0, 0, 2, 0, 0, 0, 0, 0, 2, 0, 0, 0, 0, 0, 2, 0, 0, 0, 0, 0, 2, 0, 0, 0, 0, 0, 2, 0, 0, 0, 0, 0, 2, 0, 0, 0, 0, 0, 2, 0, 0, 0, 0, 0, 2, 0, 0, 0, 0, 0, 2, 0, 0, 0, 0, 0, 2, 0, 0, 0, 0, 0, 2, 0, 0, 0, 0, 0, 2, 0, 0, 0, 0, 0, 2, 0, 0, 0, 0, 0, 2, 0, 0, 0, 0, 0, 2, 0, 0, 0, 0, 0, 2, 0, 0, 0, 0, 0, 2, 0, 0, 0, 0, 0, 2, 0, 0, 0, 0, 0, 2, 0, 0, 0, 0, 0, 2, 0, 0, 0, 0, 0, 2, 0, 0, 0, 0, 0, 2, 0, 0, 0, 0, 0, 2, 0, 0, 0, 0, 0, 2, 0, 0, 0, 0, 0, 2, 0, 0, 0, 0, 0, 2, 0, 0, 0, 0, 0, 2, 0, 0, 0, 0, 0, 2, 0, 0, 0, 0, 0, 2, 0, 0, 0, 0, 0, 2, 0, 0, 0, 0, 0, 2, 0, 0, 0, 0, 0, 2, 0, 0, 0, 0, 0, 2, 0, 0, 0, 0, 0, 2, 0, 0, 0, 0, 0, 2, 0, 0, 0, 0, 0, 2, 0, 0, 0, 0, 0, 2, 0, 0, 0, 0, 0, 2, 0, 0, 0, 0, 0, 2, 0, 0, 0]
AFTER android.content.Context.obtainStyledAttributes, returnValue: [3, 486, 2, 2131099690, 0, 0, 0, 0, 2, 0, 0, 0, 29, -13615201, -1, 0, 0, 0, 0, 0, 1, 0, 0, 0, 0, 0, 1, 0, 0, 0, 0, 0, 1, 0, 0, 0, 0, 0, 1, 0, 0, 0, 0, 0, 1, 0, 0, 0, 0, 0, 1, 0, 0, 0, 0, 0, 1, 0, 0, 0, 0, 0, 1, 0, 0, 0, 0, 0, 1, 0, 0, 0, 0, 0, 1, 0, 0, 0, 0, 0, 2, 0, 0, 0, 0, 0, 2, 0, 0, 0, 0, 0, 2, 0, 0, 0, 0, 0, 2, 0, 0, 0, 0, 0, 2, 0, 0, 0, 0, 0, 2, 0, 0, 0, 0, 0, 2, 0, 0, 0, 0, 0, 2, 0, 0, 0, 0, 0, 2, 0, 0, 0, 0, 0, 2, 0, 0, 0, 0, 0, 2, 0, 0, 0, 0, 0, 2, 0, 0, 0, 0, 0, 2, 0, 0, 0, 0, 0, 2, 0, 0, 0, 0, 0, 2, 0, 0, 0, 0, 0, 2, 0, 0, 0, 0, 0, 2, 0, 0, 0, 0, 0, 2, 0, 0, 0, 0, 0, 2, 0, 0, 0, 0, 0, 2, 0, 0, 0, 0, 0, 2, 0, 0, 0, 0, 0, 2, 0, 0, 0, 0, 0, 2, 0, 0, 0, 0, 0, 2, 0, 0, 0, 0, 0, 2, 0, 0, 0, 0, 0, 2, 0, 0, 0, 0, 0, 2, 0, 0, 0, 0, 0, 2, 0, 0, 0, 0, 0, 2, 0, 0, 0, 0, 0, 2, 0, 0, 0, 0, 0, 2, 0, 0, 0, 0, 0, 2, 0, 0, 0, 16, 250, 2, 0, 1073746944, 0, 16, 400, 2, 0, 1073746944, 0, 0, 0, 2, 0, 0, 0, 0, 0, 2, 0, 0, 0, 0, 0, 2, 0, 0, 0, 0, 0, 2, 0, 0, 0, 0, 0, 2, 0, 0, 0, 0, 0, 2, 0, 0, 0, 0, 0, 2, 0, 0, 0, 0, 0, 2, 0, 0, 0, 0, 0, 2, 0, 0, 0, 0, 0, 2, 0, 0, 0, 0, 0, 2, 0, 0, 0, 0, 0, 2, 0, 0, 0, 0, 0, 2, 0, 0, 0, 0, 0, 2, 0, 0, 0, 0, 0, 2, 0, 0, 0, 0, 0, 2, 0, 0, 0, 0, 0, 2, 0, 0, 0, 0, 0, 2, 0, 0, 0, 0, 0, 2, 0, 0, 0, 0, 0, 2, 0, 0, 0, 0, 0, 2, 0, 0, 0, 0, 0, 2, 0, 0, 0, 0, 0, 2, 0, 0, 0, 0, 0, 2, 0, 0, 0, 0, 0, 2, 0, 0, 0, 0, 0, 2, 0, 0, 0, 0, 0, 2, 0, 0, 0, 0, 0, 2, 0, 0, 0, 0, 0, 2, 0, 0, 0, 0, 0, 2, 0, 0, 0, 0, 0, 2, 0, 0, 0, 0, 0, 2, 0, 0, 0, 0, 0, 2, 0, 0, 0, 0, 0, 2, 0, 0, 0, 0, 0, 2, 0, 0, 0, 0, 0, 2, 0, 0, 0, 0, 0, 2, 0, 0, 0, 0, 0, 2, 0, 0, 0, 0, 0, 2, 0, 0, 0, 0, 0, 2, 0, 0, 0]
AFTER android.content.Context.obtainStyledAttributes, returnValue: [3, 486, 2, 2131099690, 0, 0, 0, 0, 2, 0, 0, 0, 29, -13615201, -1, 0, 0, 0, 0, 0, 1, 0, 0, 0, 0, 0, 1, 0, 0, 0, 0, 0, 1, 0, 0, 0, 0, 0, 1, 0, 0, 0, 0, 0, 1, 0, 0, 0, 0, 0, 1, 0, 0, 0, 0, 0, 1, 0, 0, 0, 0, 0, 1, 0, 0, 0, 0, 0, 1, 0, 0, 0, 0, 0, 1, 0, 0, 0, 0, 0, 2, 0, 0, 0, 0, 0, 2, 0, 0, 0, 0, 0, 2, 0, 0, 0, 0, 0, 2, 0, 0, 0, 0, 0, 2, 0, 0, 0, 0, 0, 2, 0, 0, 0, 0, 0, 2, 0, 0, 0, 0, 0, 2, 0, 0, 0, 0, 0, 2, 0, 0, 0, 0, 0, 2, 0, 0, 0, 0, 0, 2, 0, 0, 0, 0, 0, 2, 0, 0, 0, 0, 0, 2, 0, 0, 0, 0, 0, 2, 0, 0, 0, 0, 0, 2, 0, 0, 0, 0, 0, 2, 0, 0, 0, 0, 0, 2, 0, 0, 0, 0, 0, 2, 0, 0, 0, 0, 0, 2, 0, 0, 0, 0, 0, 2, 0, 0, 0, 0, 0, 2, 0, 0, 0, 0, 0, 2, 0, 0, 0, 0, 0, 2, 0, 0, 0, 0, 0, 2, 0, 0, 0, 0, 0, 2, 0, 0, 0, 0, 0, 2, 0, 0, 0, 0, 0, 2, 0, 0, 0, 0, 0, 2, 0, 0, 0, 0, 0, 2, 0, 0, 0, 0, 0, 2, 0, 0, 0, 0, 0, 2, 0, 0, 0, 0, 0, 2, 0, 0, 0, 16, 250, 2, 0, 1073746944, 0, 16, 400, 2, 0, 1073746944, 0, 0, 0, 2, 0, 0, 0, 0, 0, 2, 0, 0, 0, 0, 0, 2, 0, 0, 0, 0, 0, 2, 0, 0, 0, 0, 0, 2, 0, 0, 0, 0, 0, 2, 0, 0, 0, 0, 0, 2, 0, 0, 0, 0, 0, 2, 0, 0, 0, 0, 0, 2, 0, 0, 0, 0, 0, 2, 0, 0, 0, 0, 0, 2, 0, 0, 0, 0, 0, 2, 0, 0, 0, 0, 0, 2, 0, 0, 0, 0, 0, 2, 0, 0, 0, 0, 0, 2, 0, 0, 0, 0, 0, 2, 0, 0, 0, 0, 0, 2, 0, 0, 0, 0, 0, 2, 0, 0, 0, 0, 0, 2, 0, 0, 0, 0, 0, 2, 0, 0, 0, 0, 0, 2, 0, 0, 0, 0, 0, 2, 0, 0, 0, 0, 0, 2, 0, 0, 0, 0, 0, 2, 0, 0, 0, 0, 0, 2, 0, 0, 0, 0, 0, 2, 0, 0, 0, 0, 0, 2, 0, 0, 0, 0, 0, 2, 0, 0, 0, 0, 0, 2, 0, 0, 0, 0, 0, 2, 0, 0, 0, 0, 0, 2, 0, 0, 0, 0, 0, 2, 0, 0, 0, 0, 0, 2, 0, 0, 0, 0, 0, 2, 0, 0, 0, 0, 0, 2, 0, 0, 0, 0, 0, 2, 0, 0, 0, 0, 0, 2, 0, 0, 0, 0, 0, 2, 0, 0, 0, 0, 0, 2, 0, 0, 0, 0, 0, 2, 0, 0, 0]
BEFORE android.content.res.TypedArray.recycle()
AFTER android.content.res.TypedArray.recycle
BEFORE android.view.animation.Animation.setInterpolator(android.view.animation.OvershootInterpolator)
AFTER android.view.animation.Animation.setInterpolator
BEFORE android.view.animation.AnimationSet.setDuration(java.lang.Long)
AFTER android.view.animation.AnimationSet.setDuration
BEFORE android.content.Context.obtainStyledAttributes(android.content.res.XmlBlock$Parser,[I)
BEFORE android.content.Context.obtainStyledAttributes(android.content.res.XmlBlock$Parser,[I)
BEFORE android.content.Context.obtainStyledAttributes(android.content.res.XmlBlock$Parser,[I)
AFTER android.content.Context.obtainStyledAttributes, returnValue: [3, 487, 2, 2131099689, 0, 0, 0, 0, 2, 0, 0, 0, 29, -13615201, -1, 0, 0, 0, 0, 0, 1, 0, 0, 0, 0, 0, 1, 0, 0, 0, 0, 0, 1, 0, 0, 0, 0, 0, 1, 0, 0, 0, 0, 0, 1, 0, 0, 0, 0, 0, 1, 0, 0, 0, 0, 0, 1, 0, 0, 0, 0, 0, 1, 0, 0, 0, 0, 0, 1, 0, 0, 0, 0, 0, 1, 0, 0, 0, 0, 0, 2, 0, 0, 0, 0, 0, 2, 0, 0, 0, 0, 0, 2, 0, 0, 0, 0, 0, 2, 0, 0, 0, 0, 0, 2, 0, 0, 0, 0, 0, 2, 0, 0, 0, 0, 0, 2, 0, 0, 0, 0, 0, 2, 0, 0, 0, 0, 0, 2, 0, 0, 0, 0, 0, 2, 0, 0, 0, 0, 0, 2, 0, 0, 0, 0, 0, 2, 0, 0, 0, 0, 0, 2, 0, 0, 0, 0, 0, 2, 0, 0, 0, 0, 0, 2, 0, 0, 0, 0, 0, 2, 0, 0, 0, 0, 0, 2, 0, 0, 0, 0, 0, 2, 0, 0, 0, 0, 0, 2, 0, 0, 0, 0, 0, 2, 0, 0, 0, 0, 0, 2, 0, 0, 0, 0, 0, 2, 0, 0, 0, 0, 0, 2, 0, 0, 0, 0, 0, 2, 0, 0, 0, 0, 0, 2, 0, 0, 0, 0, 0, 2, 0, 0, 0, 0, 0, 2, 0, 0, 0, 0, 0, 2, 0, 0, 0, 0, 0, 2, 0, 0, 0, 0, 0, 2, 0, 0, 0, 0, 0, 2, 0, 0, 0, 0, 0, 2, 0, 0, 0, 16, 250, 2, 0, 1073746944, 0, 16, 400, 2, 0, 1073746944, 0, 0, 0, 2, 0, 0, 0, 0, 0, 2, 0, 0, 0, 0, 0, 2, 0, 0, 0, 0, 0, 2, 0, 0, 0, 0, 0, 2, 0, 0, 0, 0, 0, 2, 0, 0, 0, 0, 0, 2, 0, 0, 0, 0, 0, 2, 0, 0, 0, 0, 0, 2, 0, 0, 0, 0, 0, 2, 0, 0, 0, 0, 0, 2, 0, 0, 0, 0, 0, 2, 0, 0, 0, 0, 0, 2, 0, 0, 0, 0, 0, 2, 0, 0, 0, 0, 0, 2, 0, 0, 0, 0, 0, 2, 0, 0, 0, 0, 0, 2, 0, 0, 0, 0, 0, 2, 0, 0, 0, 0, 0, 2, 0, 0, 0, 0, 0, 2, 0, 0, 0, 0, 0, 2, 0, 0, 0, 0, 0, 2, 0, 0, 0, 0, 0, 2, 0, 0, 0, 0, 0, 2, 0, 0, 0, 0, 0, 2, 0, 0, 0, 0, 0, 2, 0, 0, 0, 0, 0, 2, 0, 0, 0, 0, 0, 2, 0, 0, 0, 0, 0, 2, 0, 0, 0, 0, 0, 2, 0, 0, 0, 0, 0, 2, 0, 0, 0, 0, 0, 2, 0, 0, 0, 0, 0, 2, 0, 0, 0, 0, 0, 2, 0, 0, 0, 0, 0, 2, 0, 0, 0, 0, 0, 2, 0, 0, 0, 0, 0, 2, 0, 0, 0, 0, 0, 2, 0, 0, 0, 0, 0, 2, 0, 0, 0, 0, 0, 2, 0, 0, 0]
AFTER android.content.Context.obtainStyledAttributes, returnValue: [3, 487, 2, 2131099689, 0, 0, 0, 0, 2, 0, 0, 0, 29, -13615201, -1, 0, 0, 0, 0, 0, 1, 0, 0, 0, 0, 0, 1, 0, 0, 0, 0, 0, 1, 0, 0, 0, 0, 0, 1, 0, 0, 0, 0, 0, 1, 0, 0, 0, 0, 0, 1, 0, 0, 0, 0, 0, 1, 0, 0, 0, 0, 0, 1, 0, 0, 0, 0, 0, 1, 0, 0, 0, 0, 0, 1, 0, 0, 0, 0, 0, 2, 0, 0, 0, 0, 0, 2, 0, 0, 0, 0, 0, 2, 0, 0, 0, 0, 0, 2, 0, 0, 0, 0, 0, 2, 0, 0, 0, 0, 0, 2, 0, 0, 0, 0, 0, 2, 0, 0, 0, 0, 0, 2, 0, 0, 0, 0, 0, 2, 0, 0, 0, 0, 0, 2, 0, 0, 0, 0, 0, 2, 0, 0, 0, 0, 0, 2, 0, 0, 0, 0, 0, 2, 0, 0, 0, 0, 0, 2, 0, 0, 0, 0, 0, 2, 0, 0, 0, 0, 0, 2, 0, 0, 0, 0, 0, 2, 0, 0, 0, 0, 0, 2, 0, 0, 0, 0, 0, 2, 0, 0, 0, 0, 0, 2, 0, 0, 0, 0, 0, 2, 0, 0, 0, 0, 0, 2, 0, 0, 0, 0, 0, 2, 0, 0, 0, 0, 0, 2, 0, 0, 0, 0, 0, 2, 0, 0, 0, 0, 0, 2, 0, 0, 0, 0, 0, 2, 0, 0, 0, 0, 0, 2, 0, 0, 0, 0, 0, 2, 0, 0, 0, 0, 0, 2, 0, 0, 0, 0, 0, 2, 0, 0, 0, 0, 0, 2, 0, 0, 0, 16, 250, 2, 0, 1073746944, 0, 16, 400, 2, 0, 1073746944, 0, 0, 0, 2, 0, 0, 0, 0, 0, 2, 0, 0, 0, 0, 0, 2, 0, 0, 0, 0, 0, 2, 0, 0, 0, 0, 0, 2, 0, 0, 0, 0, 0, 2, 0, 0, 0, 0, 0, 2, 0, 0, 0, 0, 0, 2, 0, 0, 0, 0, 0, 2, 0, 0, 0, 0, 0, 2, 0, 0, 0, 0, 0, 2, 0, 0, 0, 0, 0, 2, 0, 0, 0, 0, 0, 2, 0, 0, 0, 0, 0, 2, 0, 0, 0, 0, 0, 2, 0, 0, 0, 0, 0, 2, 0, 0, 0, 0, 0, 2, 0, 0, 0, 0, 0, 2, 0, 0, 0, 0, 0, 2, 0, 0, 0, 0, 0, 2, 0, 0, 0, 0, 0, 2, 0, 0, 0, 0, 0, 2, 0, 0, 0, 0, 0, 2, 0, 0, 0, 0, 0, 2, 0, 0, 0, 0, 0, 2, 0, 0, 0, 0, 0, 2, 0, 0, 0, 0, 0, 2, 0, 0, 0, 0, 0, 2, 0, 0, 0, 0, 0, 2, 0, 0, 0, 0, 0, 2, 0, 0, 0, 0, 0, 2, 0, 0, 0, 0, 0, 2, 0, 0, 0, 0, 0, 2, 0, 0, 0, 0, 0, 2, 0, 0, 0, 0, 0, 2, 0, 0, 0, 0, 0, 2, 0, 0, 0, 0, 0, 2, 0, 0, 0, 0, 0, 2, 0, 0, 0, 0, 0, 2, 0, 0, 0, 0, 0, 2, 0, 0, 0]
AFTER android.content.Context.obtainStyledAttributes, returnValue: [3, 487, 2, 2131099689, 0, 0, 0, 0, 2, 0, 0, 0, 29, -13615201, -1, 0, 0, 0, 0, 0, 1, 0, 0, 0, 0, 0, 1, 0, 0, 0, 0, 0, 1, 0, 0, 0, 0, 0, 1, 0, 0, 0, 0, 0, 1, 0, 0, 0, 0, 0, 1, 0, 0, 0, 0, 0, 1, 0, 0, 0, 0, 0, 1, 0, 0, 0, 0, 0, 1, 0, 0, 0, 0, 0, 1, 0, 0, 0, 0, 0, 2, 0, 0, 0, 0, 0, 2, 0, 0, 0, 0, 0, 2, 0, 0, 0, 0, 0, 2, 0, 0, 0, 0, 0, 2, 0, 0, 0, 0, 0, 2, 0, 0, 0, 0, 0, 2, 0, 0, 0, 0, 0, 2, 0, 0, 0, 0, 0, 2, 0, 0, 0, 0, 0, 2, 0, 0, 0, 0, 0, 2, 0, 0, 0, 0, 0, 2, 0, 0, 0, 0, 0, 2, 0, 0, 0, 0, 0, 2, 0, 0, 0, 0, 0, 2, 0, 0, 0, 0, 0, 2, 0, 0, 0, 0, 0, 2, 0, 0, 0, 0, 0, 2, 0, 0, 0, 0, 0, 2, 0, 0, 0, 0, 0, 2, 0, 0, 0, 0, 0, 2, 0, 0, 0, 0, 0, 2, 0, 0, 0, 0, 0, 2, 0, 0, 0, 0, 0, 2, 0, 0, 0, 0, 0, 2, 0, 0, 0, 0, 0, 2, 0, 0, 0, 0, 0, 2, 0, 0, 0, 0, 0, 2, 0, 0, 0, 0, 0, 2, 0, 0, 0, 0, 0, 2, 0, 0, 0, 0, 0, 2, 0, 0, 0, 0, 0, 2, 0, 0, 0, 16, 250, 2, 0, 1073746944, 0, 16, 400, 2, 0, 1073746944, 0, 0, 0, 2, 0, 0, 0, 0, 0, 2, 0, 0, 0, 0, 0, 2, 0, 0, 0, 0, 0, 2, 0, 0, 0, 0, 0, 2, 0, 0, 0, 0, 0, 2, 0, 0, 0, 0, 0, 2, 0, 0, 0, 0, 0, 2, 0, 0, 0, 0, 0, 2, 0, 0, 0, 0, 0, 2, 0, 0, 0, 0, 0, 2, 0, 0, 0, 0, 0, 2, 0, 0, 0, 0, 0, 2, 0, 0, 0, 0, 0, 2, 0, 0, 0, 0, 0, 2, 0, 0, 0, 0, 0, 2, 0, 0, 0, 0, 0, 2, 0, 0, 0, 0, 0, 2, 0, 0, 0, 0, 0, 2, 0, 0, 0, 0, 0, 2, 0, 0, 0, 0, 0, 2, 0, 0, 0, 0, 0, 2, 0, 0, 0, 0, 0, 2, 0, 0, 0, 0, 0, 2, 0, 0, 0, 0, 0, 2, 0, 0, 0, 0, 0, 2, 0, 0, 0, 0, 0, 2, 0, 0, 0, 0, 0, 2, 0, 0, 0, 0, 0, 2, 0, 0, 0, 0, 0, 2, 0, 0, 0, 0, 0, 2, 0, 0, 0, 0, 0, 2, 0, 0, 0, 0, 0, 2, 0, 0, 0, 0, 0, 2, 0, 0, 0, 0, 0, 2, 0, 0, 0, 0, 0, 2, 0, 0, 0, 0, 0, 2, 0, 0, 0, 0, 0, 2, 0, 0, 0, 0, 0, 2, 0, 0, 0, 0, 0, 2, 0, 0, 0]
BEFORE android.content.res.TypedArray.recycle()
AFTER android.content.res.TypedArray.recycle
BEFORE android.view.animation.Animation.setInterpolator(android.view.animation.OvershootInterpolator)
AFTER android.view.animation.Animation.setInterpolator
BEFORE android.view.animation.AnimationSet.setDuration(java.lang.Long)
AFTER android.view.animation.AnimationSet.setDuration
BEFORE android.content.Context.obtainStyledAttributes(android.content.res.XmlBlock$Parser,[I)
BEFORE android.content.Context.obtainStyledAttributes(android.content.res.XmlBlock$Parser,[I)
BEFORE android.content.Context.obtainStyledAttributes(android.content.res.XmlBlock$Parser,[I)
AFTER android.content.Context.obtainStyledAttributes, returnValue: [3, 19, -1, 0, 0, 0, 0, 0, -1, 0, 0, 0, 29, -13615201, -1, 0, 0, 0, 0, 0, 1, 0, 0, 0, 0, 0, 1, 0, 0, 0, 0, 0, 1, 0, 0, 0, 0, 0, 1, 0, 0, 0, 0, 0, 1, 0, 0, 0, 0, 0, 1, 0, 0, 0, 0, 0, 1, 0, 0, 0, 0, 0, 1, 0, 0, 0, 0, 0, 1, 0, 0, 0, 0, 0, 1, 0, 0, 0, 0, 0, 2, 0, 0, 0, 0, 0, 2, 0, 0, 0, 0, 0, 2, 0, 0, 0, 0, 0, 2, 0, 0, 0, 0, 0, 2, 0, 0, 0, 0, 0, 2, 0, 0, 0, 0, 0, 2, 0, 0, 0, 0, 0, 2, 0, 0, 0, 0, 0, 2, 0, 0, 0, 0, 0, 2, 0, 0, 0, 0, 0, 2, 0, 0, 0, 0, 0, 2, 0, 0, 0, 0, 0, 2, 0, 0, 0, 0, 0, 2, 0, 0, 0, 0, 0, 2, 0, 0, 0, 0, 0, 2, 0, 0, 0, 0, 0, 2, 0, 0, 0, 0, 0, 2, 0, 0, 0, 0, 0, 2, 0, 0, 0, 0, 0, 2, 0, 0, 0, 0, 0, 2, 0, 0, 0, 0, 0, 2, 0, 0, 0, 0, 0, 2, 0, 0, 0, 0, 0, 2, 0, 0, 0, 0, 0, 2, 0, 0, 0, 0, 0, 2, 0, 0, 0, 0, 0, 2, 0, 0, 0, 0, 0, 2, 0, 0, 0, 0, 0, 2, 0, 0, 0, 0, 0, 2, 0, 0, 0, 0, 0, 2, 0, 0, 0, 0, 0, 2, 0, 0, 0, 16, 250, 2, 0, 1073746944, 0, 16, 400, 2, 0, 1073746944, 0, 0, 0, 2, 0, 0, 0, 0, 0, 2, 0, 0, 0, 0, 0, 2, 0, 0, 0, 0, 0, 2, 0, 0, 0, 0, 0, 2, 0, 0, 0, 0, 0, 2, 0, 0, 0, 0, 0, 2, 0, 0, 0, 0, 0, 2, 0, 0, 0, 0, 0, 2, 0, 0, 0, 0, 0, 2, 0, 0, 0, 0, 0, 2, 0, 0, 0, 0, 0, 2, 0, 0, 0, 0, 0, 2, 0, 0, 0, 0, 0, 2, 0, 0, 0, 0, 0, 2, 0, 0, 0, 0, 0, 2, 0, 0, 0, 0, 0, 2, 0, 0, 0, 0, 0, 2, 0, 0, 0, 0, 0, 2, 0, 0, 0, 0, 0, 2, 0, 0, 0, 0, 0, 2, 0, 0, 0, 0, 0, 2, 0, 0, 0, 0, 0, 2, 0, 0, 0, 0, 0, 2, 0, 0, 0, 0, 0, 2, 0, 0, 0, 0, 0, 2, 0, 0, 0, 0, 0, 2, 0, 0, 0, 0, 0, 2, 0, 0, 0, 0, 0, 2, 0, 0, 0, 0, 0, 2, 0, 0, 0, 0, 0, 2, 0, 0, 0, 0, 0, 2, 0, 0, 0, 0, 0, 2, 0, 0, 0, 0, 0, 2, 0, 0, 0, 0, 0, 2, 0, 0, 0, 0, 0, 2, 0, 0, 0, 0, 0, 2, 0, 0, 0, 0, 0, 2, 0, 0, 0, 0, 0, 2, 0, 0, 0, 0, 0, 2, 0, 0, 0]
AFTER android.content.Context.obtainStyledAttributes, returnValue: [3, 19, -1, 0, 0, 0, 0, 0, -1, 0, 0, 0, 29, -13615201, -1, 0, 0, 0, 0, 0, 1, 0, 0, 0, 0, 0, 1, 0, 0, 0, 0, 0, 1, 0, 0, 0, 0, 0, 1, 0, 0, 0, 0, 0, 1, 0, 0, 0, 0, 0, 1, 0, 0, 0, 0, 0, 1, 0, 0, 0, 0, 0, 1, 0, 0, 0, 0, 0, 1, 0, 0, 0, 0, 0, 1, 0, 0, 0, 0, 0, 2, 0, 0, 0, 0, 0, 2, 0, 0, 0, 0, 0, 2, 0, 0, 0, 0, 0, 2, 0, 0, 0, 0, 0, 2, 0, 0, 0, 0, 0, 2, 0, 0, 0, 0, 0, 2, 0, 0, 0, 0, 0, 2, 0, 0, 0, 0, 0, 2, 0, 0, 0, 0, 0, 2, 0, 0, 0, 0, 0, 2, 0, 0, 0, 0, 0, 2, 0, 0, 0, 0, 0, 2, 0, 0, 0, 0, 0, 2, 0, 0, 0, 0, 0, 2, 0, 0, 0, 0, 0, 2, 0, 0, 0, 0, 0, 2, 0, 0, 0, 0, 0, 2, 0, 0, 0, 0, 0, 2, 0, 0, 0, 0, 0, 2, 0, 0, 0, 0, 0, 2, 0, 0, 0, 0, 0, 2, 0, 0, 0, 0, 0, 2, 0, 0, 0, 0, 0, 2, 0, 0, 0, 0, 0, 2, 0, 0, 0, 0, 0, 2, 0, 0, 0, 0, 0, 2, 0, 0, 0, 0, 0, 2, 0, 0, 0, 0, 0, 2, 0, 0, 0, 0, 0, 2, 0, 0, 0, 0, 0, 2, 0, 0, 0, 0, 0, 2, 0, 0, 0, 16, 250, 2, 0, 1073746944, 0, 16, 400, 2, 0, 1073746944, 0, 0, 0, 2, 0, 0, 0, 0, 0, 2, 0, 0, 0, 0, 0, 2, 0, 0, 0, 0, 0, 2, 0, 0, 0, 0, 0, 2, 0, 0, 0, 0, 0, 2, 0, 0, 0, 0, 0, 2, 0, 0, 0, 0, 0, 2, 0, 0, 0, 0, 0, 2, 0, 0, 0, 0, 0, 2, 0, 0, 0, 0, 0, 2, 0, 0, 0, 0, 0, 2, 0, 0, 0, 0, 0, 2, 0, 0, 0, 0, 0, 2, 0, 0, 0, 0, 0, 2, 0, 0, 0, 0, 0, 2, 0, 0, 0, 0, 0, 2, 0, 0, 0, 0, 0, 2, 0, 0, 0, 0, 0, 2, 0, 0, 0, 0, 0, 2, 0, 0, 0, 0, 0, 2, 0, 0, 0, 0, 0, 2, 0, 0, 0, 0, 0, 2, 0, 0, 0, 0, 0, 2, 0, 0, 0, 0, 0, 2, 0, 0, 0, 0, 0, 2, 0, 0, 0, 0, 0, 2, 0, 0, 0, 0, 0, 2, 0, 0, 0, 0, 0, 2, 0, 0, 0, 0, 0, 2, 0, 0, 0, 0, 0, 2, 0, 0, 0, 0, 0, 2, 0, 0, 0, 0, 0, 2, 0, 0, 0, 0, 0, 2, 0, 0, 0, 0, 0, 2, 0, 0, 0, 0, 0, 2, 0, 0, 0, 0, 0, 2, 0, 0, 0, 0, 0, 2, 0, 0, 0, 0, 0, 2, 0, 0, 0, 0, 0, 2, 0, 0, 0]
AFTER android.content.Context.obtainStyledAttributes, returnValue: [3, 19, -1, 0, 0, 0, 0, 0, -1, 0, 0, 0, 29, -13615201, -1, 0, 0, 0, 0, 0, 1, 0, 0, 0, 0, 0, 1, 0, 0, 0, 0, 0, 1, 0, 0, 0, 0, 0, 1, 0, 0, 0, 0, 0, 1, 0, 0, 0, 0, 0, 1, 0, 0, 0, 0, 0, 1, 0, 0, 0, 0, 0, 1, 0, 0, 0, 0, 0, 1, 0, 0, 0, 0, 0, 1, 0, 0, 0, 0, 0, 2, 0, 0, 0, 0, 0, 2, 0, 0, 0, 0, 0, 2, 0, 0, 0, 0, 0, 2, 0, 0, 0, 0, 0, 2, 0, 0, 0, 0, 0, 2, 0, 0, 0, 0, 0, 2, 0, 0, 0, 0, 0, 2, 0, 0, 0, 0, 0, 2, 0, 0, 0, 0, 0, 2, 0, 0, 0, 0, 0, 2, 0, 0, 0, 0, 0, 2, 0, 0, 0, 0, 0, 2, 0, 0, 0, 0, 0, 2, 0, 0, 0, 0, 0, 2, 0, 0, 0, 0, 0, 2, 0, 0, 0, 0, 0, 2, 0, 0, 0, 0, 0, 2, 0, 0, 0, 0, 0, 2, 0, 0, 0, 0, 0, 2, 0, 0, 0, 0, 0, 2, 0, 0, 0, 0, 0, 2, 0, 0, 0, 0, 0, 2, 0, 0, 0, 0, 0, 2, 0, 0, 0, 0, 0, 2, 0, 0, 0, 0, 0, 2, 0, 0, 0, 0, 0, 2, 0, 0, 0, 0, 0, 2, 0, 0, 0, 0, 0, 2, 0, 0, 0, 0, 0, 2, 0, 0, 0, 0, 0, 2, 0, 0, 0, 0, 0, 2, 0, 0, 0, 16, 250, 2, 0, 1073746944, 0, 16, 400, 2, 0, 1073746944, 0, 0, 0, 2, 0, 0, 0, 0, 0, 2, 0, 0, 0, 0, 0, 2, 0, 0, 0, 0, 0, 2, 0, 0, 0, 0, 0, 2, 0, 0, 0, 0, 0, 2, 0, 0, 0, 0, 0, 2, 0, 0, 0, 0, 0, 2, 0, 0, 0, 0, 0, 2, 0, 0, 0, 0, 0, 2, 0, 0, 0, 0, 0, 2, 0, 0, 0, 0, 0, 2, 0, 0, 0, 0, 0, 2, 0, 0, 0, 0, 0, 2, 0, 0, 0, 0, 0, 2, 0, 0, 0, 0, 0, 2, 0, 0, 0, 0, 0, 2, 0, 0, 0, 0, 0, 2, 0, 0, 0, 0, 0, 2, 0, 0, 0, 0, 0, 2, 0, 0, 0, 0, 0, 2, 0, 0, 0, 0, 0, 2, 0, 0, 0, 0, 0, 2, 0, 0, 0, 0, 0, 2, 0, 0, 0, 0, 0, 2, 0, 0, 0, 0, 0, 2, 0, 0, 0, 0, 0, 2, 0, 0, 0, 0, 0, 2, 0, 0, 0, 0, 0, 2, 0, 0, 0, 0, 0, 2, 0, 0, 0, 0, 0, 2, 0, 0, 0, 0, 0, 2, 0, 0, 0, 0, 0, 2, 0, 0, 0, 0, 0, 2, 0, 0, 0, 0, 0, 2, 0, 0, 0, 0, 0, 2, 0, 0, 0, 0, 0, 2, 0, 0, 0, 0, 0, 2, 0, 0, 0, 0, 0, 2, 0, 0, 0, 0, 0, 2, 0, 0, 0]
BEFORE android.content.res.TypedArray.recycle()
AFTER android.content.res.TypedArray.recycle
BEFORE android.view.animation.Animation.setInterpolator(android.view.animation.OvershootInterpolator)
AFTER android.view.animation.Animation.setInterpolator
BEFORE android.view.animation.AnimationSet.setDuration(java.lang.Long)
AFTER android.view.animation.AnimationSet.setDuration
BEFORE android.content.Context.obtainStyledAttributes(android.content.res.XmlBlock$Parser,[I)
BEFORE android.content.Context.obtainStyledAttributes(android.content.res.XmlBlock$Parser,[I)
BEFORE android.content.Context.obtainStyledAttributes(android.content.res.XmlBlock$Parser,[I)
AFTER android.content.Context.obtainStyledAttributes, returnValue: [3, 20, -1, 0, 0, 0, 0, 0, -1, 0, 0, 0, 29, -13615201, -1, 0, 0, 0, 0, 0, 1, 0, 0, 0, 0, 0, 1, 0, 0, 0, 0, 0, 1, 0, 0, 0, 0, 0, 1, 0, 0, 0, 0, 0, 1, 0, 0, 0, 0, 0, 1, 0, 0, 0, 0, 0, 1, 0, 0, 0, 0, 0, 1, 0, 0, 0, 0, 0, 1, 0, 0, 0, 0, 0, 1, 0, 0, 0, 0, 0, 2, 0, 0, 0, 0, 0, 2, 0, 0, 0, 0, 0, 2, 0, 0, 0, 0, 0, 2, 0, 0, 0, 0, 0, 2, 0, 0, 0, 0, 0, 2, 0, 0, 0, 0, 0, 2, 0, 0, 0, 0, 0, 2, 0, 0, 0, 0, 0, 2, 0, 0, 0, 0, 0, 2, 0, 0, 0, 0, 0, 2, 0, 0, 0, 0, 0, 2, 0, 0, 0, 0, 0, 2, 0, 0, 0, 0, 0, 2, 0, 0, 0, 0, 0, 2, 0, 0, 0, 0, 0, 2, 0, 0, 0, 0, 0, 2, 0, 0, 0, 0, 0, 2, 0, 0, 0, 0, 0, 2, 0, 0, 0, 0, 0, 2, 0, 0, 0, 0, 0, 2, 0, 0, 0, 0, 0, 2, 0, 0, 0, 0, 0, 2, 0, 0, 0, 0, 0, 2, 0, 0, 0, 0, 0, 2, 0, 0, 0, 0, 0, 2, 0, 0, 0, 0, 0, 2, 0, 0, 0, 0, 0, 2, 0, 0, 0, 0, 0, 2, 0, 0, 0, 0, 0, 2, 0, 0, 0, 0, 0, 2, 0, 0, 0, 0, 0, 2, 0, 0, 0, 16, 250, 2, 0, 1073746944, 0, 16, 400, 2, 0, 1073746944, 0, 0, 0, 2, 0, 0, 0, 0, 0, 2, 0, 0, 0, 0, 0, 2, 0, 0, 0, 0, 0, 2, 0, 0, 0, 0, 0, 2, 0, 0, 0, 0, 0, 2, 0, 0, 0, 0, 0, 2, 0, 0, 0, 0, 0, 2, 0, 0, 0, 0, 0, 2, 0, 0, 0, 0, 0, 2, 0, 0, 0, 0, 0, 2, 0, 0, 0, 0, 0, 2, 0, 0, 0, 0, 0, 2, 0, 0, 0, 0, 0, 2, 0, 0, 0, 0, 0, 2, 0, 0, 0, 0, 0, 2, 0, 0, 0, 0, 0, 2, 0, 0, 0, 0, 0, 2, 0, 0, 0, 0, 0, 2, 0, 0, 0, 0, 0, 2, 0, 0, 0, 0, 0, 2, 0, 0, 0, 0, 0, 2, 0, 0, 0, 0, 0, 2, 0, 0, 0, 0, 0, 2, 0, 0, 0, 0, 0, 2, 0, 0, 0, 0, 0, 2, 0, 0, 0, 0, 0, 2, 0, 0, 0, 0, 0, 2, 0, 0, 0, 0, 0, 2, 0, 0, 0, 0, 0, 2, 0, 0, 0, 0, 0, 2, 0, 0, 0, 0, 0, 2, 0, 0, 0, 0, 0, 2, 0, 0, 0, 0, 0, 2, 0, 0, 0, 0, 0, 2, 0, 0, 0, 0, 0, 2, 0, 0, 0, 0, 0, 2, 0, 0, 0, 0, 0, 2, 0, 0, 0, 0, 0, 2, 0, 0, 0, 0, 0, 2, 0, 0, 0]
AFTER android.content.Context.obtainStyledAttributes, returnValue: [3, 20, -1, 0, 0, 0, 0, 0, -1, 0, 0, 0, 29, -13615201, -1, 0, 0, 0, 0, 0, 1, 0, 0, 0, 0, 0, 1, 0, 0, 0, 0, 0, 1, 0, 0, 0, 0, 0, 1, 0, 0, 0, 0, 0, 1, 0, 0, 0, 0, 0, 1, 0, 0, 0, 0, 0, 1, 0, 0, 0, 0, 0, 1, 0, 0, 0, 0, 0, 1, 0, 0, 0, 0, 0, 1, 0, 0, 0, 0, 0, 2, 0, 0, 0, 0, 0, 2, 0, 0, 0, 0, 0, 2, 0, 0, 0, 0, 0, 2, 0, 0, 0, 0, 0, 2, 0, 0, 0, 0, 0, 2, 0, 0, 0, 0, 0, 2, 0, 0, 0, 0, 0, 2, 0, 0, 0, 0, 0, 2, 0, 0, 0, 0, 0, 2, 0, 0, 0, 0, 0, 2, 0, 0, 0, 0, 0, 2, 0, 0, 0, 0, 0, 2, 0, 0, 0, 0, 0, 2, 0, 0, 0, 0, 0, 2, 0, 0, 0, 0, 0, 2, 0, 0, 0, 0, 0, 2, 0, 0, 0, 0, 0, 2, 0, 0, 0, 0, 0, 2, 0, 0, 0, 0, 0, 2, 0, 0, 0, 0, 0, 2, 0, 0, 0, 0, 0, 2, 0, 0, 0, 0, 0, 2, 0, 0, 0, 0, 0, 2, 0, 0, 0, 0, 0, 2, 0, 0, 0, 0, 0, 2, 0, 0, 0, 0, 0, 2, 0, 0, 0, 0, 0, 2, 0, 0, 0, 0, 0, 2, 0, 0, 0, 0, 0, 2, 0, 0, 0, 0, 0, 2, 0, 0, 0, 0, 0, 2, 0, 0, 0, 16, 250, 2, 0, 1073746944, 0, 16, 400, 2, 0, 1073746944, 0, 0, 0, 2, 0, 0, 0, 0, 0, 2, 0, 0, 0, 0, 0, 2, 0, 0, 0, 0, 0, 2, 0, 0, 0, 0, 0, 2, 0, 0, 0, 0, 0, 2, 0, 0, 0, 0, 0, 2, 0, 0, 0, 0, 0, 2, 0, 0, 0, 0, 0, 2, 0, 0, 0, 0, 0, 2, 0, 0, 0, 0, 0, 2, 0, 0, 0, 0, 0, 2, 0, 0, 0, 0, 0, 2, 0, 0, 0, 0, 0, 2, 0, 0, 0, 0, 0, 2, 0, 0, 0, 0, 0, 2, 0, 0, 0, 0, 0, 2, 0, 0, 0, 0, 0, 2, 0, 0, 0, 0, 0, 2, 0, 0, 0, 0, 0, 2, 0, 0, 0, 0, 0, 2, 0, 0, 0, 0, 0, 2, 0, 0, 0, 0, 0, 2, 0, 0, 0, 0, 0, 2, 0, 0, 0, 0, 0, 2, 0, 0, 0, 0, 0, 2, 0, 0, 0, 0, 0, 2, 0, 0, 0, 0, 0, 2, 0, 0, 0, 0, 0, 2, 0, 0, 0, 0, 0, 2, 0, 0, 0, 0, 0, 2, 0, 0, 0, 0, 0, 2, 0, 0, 0, 0, 0, 2, 0, 0, 0, 0, 0, 2, 0, 0, 0, 0, 0, 2, 0, 0, 0, 0, 0, 2, 0, 0, 0, 0, 0, 2, 0, 0, 0, 0, 0, 2, 0, 0, 0, 0, 0, 2, 0, 0, 0, 0, 0, 2, 0, 0, 0]
AFTER android.content.Context.obtainStyledAttributes, returnValue: [3, 20, -1, 0, 0, 0, 0, 0, -1, 0, 0, 0, 29, -13615201, -1, 0, 0, 0, 0, 0, 1, 0, 0, 0, 0, 0, 1, 0, 0, 0, 0, 0, 1, 0, 0, 0, 0, 0, 1, 0, 0, 0, 0, 0, 1, 0, 0, 0, 0, 0, 1, 0, 0, 0, 0, 0, 1, 0, 0, 0, 0, 0, 1, 0, 0, 0, 0, 0, 1, 0, 0, 0, 0, 0, 1, 0, 0, 0, 0, 0, 2, 0, 0, 0, 0, 0, 2, 0, 0, 0, 0, 0, 2, 0, 0, 0, 0, 0, 2, 0, 0, 0, 0, 0, 2, 0, 0, 0, 0, 0, 2, 0, 0, 0, 0, 0, 2, 0, 0, 0, 0, 0, 2, 0, 0, 0, 0, 0, 2, 0, 0, 0, 0, 0, 2, 0, 0, 0, 0, 0, 2, 0, 0, 0, 0, 0, 2, 0, 0, 0, 0, 0, 2, 0, 0, 0, 0, 0, 2, 0, 0, 0, 0, 0, 2, 0, 0, 0, 0, 0, 2, 0, 0, 0, 0, 0, 2, 0, 0, 0, 0, 0, 2, 0, 0, 0, 0, 0, 2, 0, 0, 0, 0, 0, 2, 0, 0, 0, 0, 0, 2, 0, 0, 0, 0, 0, 2, 0, 0, 0, 0, 0, 2, 0, 0, 0, 0, 0, 2, 0, 0, 0, 0, 0, 2, 0, 0, 0, 0, 0, 2, 0, 0, 0, 0, 0, 2, 0, 0, 0, 0, 0, 2, 0, 0, 0, 0, 0, 2, 0, 0, 0, 0, 0, 2, 0, 0, 0, 0, 0, 2, 0, 0, 0, 0, 0, 2, 0, 0, 0, 16, 250, 2, 0, 1073746944, 0, 16, 400, 2, 0, 1073746944, 0, 0, 0, 2, 0, 0, 0, 0, 0, 2, 0, 0, 0, 0, 0, 2, 0, 0, 0, 0, 0, 2, 0, 0, 0, 0, 0, 2, 0, 0, 0, 0, 0, 2, 0, 0, 0, 0, 0, 2, 0, 0, 0, 0, 0, 2, 0, 0, 0, 0, 0, 2, 0, 0, 0, 0, 0, 2, 0, 0, 0, 0, 0, 2, 0, 0, 0, 0, 0, 2, 0, 0, 0, 0, 0, 2, 0, 0, 0, 0, 0, 2, 0, 0, 0, 0, 0, 2, 0, 0, 0, 0, 0, 2, 0, 0, 0, 0, 0, 2, 0, 0, 0, 0, 0, 2, 0, 0, 0, 0, 0, 2, 0, 0, 0, 0, 0, 2, 0, 0, 0, 0, 0, 2, 0, 0, 0, 0, 0, 2, 0, 0, 0, 0, 0, 2, 0, 0, 0, 0, 0, 2, 0, 0, 0, 0, 0, 2, 0, 0, 0, 0, 0, 2, 0, 0, 0, 0, 0, 2, 0, 0, 0, 0, 0, 2, 0, 0, 0, 0, 0, 2, 0, 0, 0, 0, 0, 2, 0, 0, 0, 0, 0, 2, 0, 0, 0, 0, 0, 2, 0, 0, 0, 0, 0, 2, 0, 0, 0, 0, 0, 2, 0, 0, 0, 0, 0, 2, 0, 0, 0, 0, 0, 2, 0, 0, 0, 0, 0, 2, 0, 0, 0, 0, 0, 2, 0, 0, 0, 0, 0, 2, 0, 0, 0, 0, 0, 2, 0, 0, 0]
BEFORE android.content.res.TypedArray.recycle()
AFTER android.content.res.TypedArray.recycle
BEFORE android.view.animation.Animation.setInterpolator(android.view.animation.OvershootInterpolator)
AFTER android.view.animation.Animation.setInterpolator
BEFORE android.view.animation.AnimationSet.setDuration(java.lang.Long)
AFTER android.view.animation.AnimationSet.setDuration
AFTER android.view.LayoutInflater.inflate, returnValue: android.widget.RelativeLayout{8a974a3 V.E...... ......I. 0,0-0,0}
AFTER android.view.LayoutInflater.inflate, returnValue: android.widget.RelativeLayout{8a974a3 V.E...... ......I. 0,0-0,0}
AFTER com.devpaul.filepicker.MainActivity$PlaceholderFragment.onCreateView, returnValue: android.widget.RelativeLayout{8a974a3 V.E...... ......I. 0,0-0,0}
BEFORE com.devpaul.materiallibrary.utils.ShadowRippleGenerator$1.onViewAttachedToWindow(com.devpaul.materiallibrary.views.MaterialFlatButton)
AFTER com.devpaul.materiallibrary.utils.ShadowRippleGenerator$1.onViewAttachedToWindow
BEFORE com.devpaul.materiallibrary.utils.ShadowRippleGenerator$1.onViewAttachedToWindow(com.devpaul.materiallibrary.views.MaterialFlatButton)
AFTER com.devpaul.materiallibrary.utils.ShadowRippleGenerator$1.onViewAttachedToWindow
BEFORE com.devpaul.materiallibrary.utils.ShadowRippleGenerator$1.onViewAttachedToWindow(com.devpaul.materiallibrary.views.MaterialFlatButton)
AFTER com.devpaul.materiallibrary.utils.ShadowRippleGenerator$1.onViewAttachedToWindow
BEFORE com.devpaul.materiallibrary.utils.ShadowRippleGenerator$1.onViewAttachedToWindow(com.devpaul.materiallibrary.views.MaterialFlatButton)
AFTER com.devpaul.materiallibrary.utils.ShadowRippleGenerator$1.onViewAttachedToWindow
BEFORE com.devpaul.materiallibrary.utils.ShadowRippleGenerator$1.onViewAttachedToWindow(com.devpaul.materiallibrary.views.MaterialFlatButton)
AFTER com.devpaul.materiallibrary.utils.ShadowRippleGenerator$1.onViewAttachedToWindow
BEFORE com.devpaul.materiallibrary.views.MaterialFlatButton.onMeasure(-2147482664,-2147482214)
AFTER com.devpaul.materiallibrary.views.MaterialFlatButton.onMeasure
BEFORE com.devpaul.materiallibrary.views.MaterialFlatButton.onMeasure(-2147482664,-2147482214)
AFTER com.devpaul.materiallibrary.views.MaterialFlatButton.onMeasure
BEFORE com.devpaul.materiallibrary.views.MaterialFlatButton.onMeasure(-2147482664,-2147482214)
AFTER com.devpaul.materiallibrary.views.MaterialFlatButton.onMeasure
BEFORE com.devpaul.materiallibrary.views.MaterialFlatButton.onMeasure(-2147482664,-2147482214)
AFTER com.devpaul.materiallibrary.views.MaterialFlatButton.onMeasure
BEFORE com.devpaul.materiallibrary.views.MaterialFlatButton.onMeasure(-2147482664,-2147482184)
AFTER com.devpaul.materiallibrary.views.MaterialFlatButton.onMeasure
BEFORE com.devpaul.materiallibrary.views.MaterialFlatButton.onMeasure(1073742016,-2147482184)
AFTER com.devpaul.materiallibrary.views.MaterialFlatButton.onMeasure
BEFORE com.devpaul.materiallibrary.views.MaterialFlatButton.onMeasure(1073742016,-2147482406)
AFTER com.devpaul.materiallibrary.views.MaterialFlatButton.onMeasure
BEFORE com.devpaul.materiallibrary.views.MaterialFlatButton.onMeasure(1073742016,-2147482628)
AFTER com.devpaul.materiallibrary.views.MaterialFlatButton.onMeasure
BEFORE com.devpaul.materiallibrary.views.MaterialFlatButton.onMeasure(1073742016,-2147482850)
AFTER com.devpaul.materiallibrary.views.MaterialFlatButton.onMeasure
BEFORE com.devpaul.materiallibrary.views.MaterialFlatButton.onMeasure(1073742016,-2147483072)
AFTER com.devpaul.materiallibrary.views.MaterialFlatButton.onMeasure
BEFORE com.devpaul.materiallibrary.views.MaterialFlatButton.onMeasure(-2147482664,-2147482070)
AFTER com.devpaul.materiallibrary.views.MaterialFlatButton.onMeasure
BEFORE com.devpaul.materiallibrary.views.MaterialFlatButton.onMeasure(-2147482664,-2147482070)
AFTER com.devpaul.materiallibrary.views.MaterialFlatButton.onMeasure
BEFORE com.devpaul.materiallibrary.views.MaterialFlatButton.onMeasure(-2147482664,-2147482070)
AFTER com.devpaul.materiallibrary.views.MaterialFlatButton.onMeasure
BEFORE com.devpaul.materiallibrary.views.MaterialFlatButton.onMeasure(-2147482664,-2147482070)
AFTER com.devpaul.materiallibrary.views.MaterialFlatButton.onMeasure
BEFORE com.devpaul.materiallibrary.views.MaterialFlatButton.onMeasure(-2147482664,-2147482040)
AFTER com.devpaul.materiallibrary.views.MaterialFlatButton.onMeasure
BEFORE com.devpaul.materiallibrary.views.MaterialFlatButton.onMeasure(1073742016,-2147482040)
AFTER com.devpaul.materiallibrary.views.MaterialFlatButton.onMeasure
BEFORE com.devpaul.materiallibrary.views.MaterialFlatButton.onMeasure(1073742016,-2147482262)
AFTER com.devpaul.materiallibrary.views.MaterialFlatButton.onMeasure
BEFORE com.devpaul.materiallibrary.views.MaterialFlatButton.onMeasure(1073742016,-2147482484)
AFTER com.devpaul.materiallibrary.views.MaterialFlatButton.onMeasure
BEFORE com.devpaul.materiallibrary.views.MaterialFlatButton.onMeasure(1073742016,-2147482706)
AFTER com.devpaul.materiallibrary.views.MaterialFlatButton.onMeasure
BEFORE com.devpaul.materiallibrary.views.MaterialFlatButton.onMeasure(1073742016,-2147482928)
AFTER com.devpaul.materiallibrary.views.MaterialFlatButton.onMeasure
BEFORE com.devpaul.materiallibrary.views.MaterialFlatButton.onLayout(true,444,312,636,504)
AFTER com.devpaul.materiallibrary.views.MaterialFlatButton.onLayout
BEFORE com.devpaul.materiallibrary.views.MaterialFlatButton.onLayout(true,444,534,636,726)
AFTER com.devpaul.materiallibrary.views.MaterialFlatButton.onLayout
BEFORE com.devpaul.materiallibrary.views.MaterialFlatButton.onLayout(true,444,756,636,948)
AFTER com.devpaul.materiallibrary.views.MaterialFlatButton.onLayout
BEFORE com.devpaul.materiallibrary.views.MaterialFlatButton.onLayout(true,444,978,636,1170)
AFTER com.devpaul.materiallibrary.views.MaterialFlatButton.onLayout
BEFORE com.devpaul.materiallibrary.views.MaterialFlatButton.onLayout(true,444,1200,636,1392)
AFTER com.devpaul.materiallibrary.views.MaterialFlatButton.onLayout
BEFORE com.devpaul.materiallibrary.views.MaterialFlatButton.onMeasure(-2147482664,-2147482070)
AFTER com.devpaul.materiallibrary.views.MaterialFlatButton.onMeasure
BEFORE com.devpaul.materiallibrary.views.MaterialFlatButton.onMeasure(-2147482664,-2147482070)
AFTER com.devpaul.materiallibrary.views.MaterialFlatButton.onMeasure
BEFORE com.devpaul.materiallibrary.views.MaterialFlatButton.onMeasure(-2147482664,-2147482070)
AFTER com.devpaul.materiallibrary.views.MaterialFlatButton.onMeasure
BEFORE com.devpaul.materiallibrary.views.MaterialFlatButton.onMeasure(-2147482664,-2147482070)
AFTER com.devpaul.materiallibrary.views.MaterialFlatButton.onMeasure
BEFORE com.devpaul.materiallibrary.views.MaterialFlatButton.onMeasure(-2147482664,-2147482040)
AFTER com.devpaul.materiallibrary.views.MaterialFlatButton.onMeasure
BEFORE com.devpaul.materiallibrary.views.MaterialFlatButton.onMeasure(1073742192,-2147482040)
AFTER com.devpaul.materiallibrary.views.MaterialFlatButton.onMeasure
BEFORE com.devpaul.materiallibrary.views.MaterialFlatButton.onMeasure(1073742119,-2147482262)
AFTER com.devpaul.materiallibrary.views.MaterialFlatButton.onMeasure
BEFORE com.devpaul.materiallibrary.views.MaterialFlatButton.onMeasure(1073742162,-2147482484)
AFTER com.devpaul.materiallibrary.views.MaterialFlatButton.onMeasure
BEFORE com.devpaul.materiallibrary.views.MaterialFlatButton.onMeasure(1073742208,-2147482706)
AFTER com.devpaul.materiallibrary.views.MaterialFlatButton.onMeasure
BEFORE com.devpaul.materiallibrary.views.MaterialFlatButton.onMeasure(1073742208,-2147482928)
AFTER com.devpaul.materiallibrary.views.MaterialFlatButton.onMeasure
BEFORE com.devpaul.materiallibrary.views.MaterialFlatButton.onLayout(true,348,312,716,504)
AFTER com.devpaul.materiallibrary.views.MaterialFlatButton.onLayout
BEFORE com.devpaul.materiallibrary.views.MaterialFlatButton.onLayout(true,348,534,643,726)
AFTER com.devpaul.materiallibrary.views.MaterialFlatButton.onLayout
BEFORE com.devpaul.materiallibrary.views.MaterialFlatButton.onLayout(true,348,756,686,948)
AFTER com.devpaul.materiallibrary.views.MaterialFlatButton.onLayout
BEFORE com.devpaul.materiallibrary.views.MaterialFlatButton.onLayout(true,348,978,732,1170)
AFTER com.devpaul.materiallibrary.views.MaterialFlatButton.onLayout
BEFORE com.devpaul.materiallibrary.views.MaterialFlatButton.onLayout(true,348,1200,732,1392)
AFTER com.devpaul.materiallibrary.views.MaterialFlatButton.onLayout
BEFORE com.devpaul.materiallibrary.views.MaterialFlatButton.onDraw(android.graphics.Canvas)
AFTER com.devpaul.materiallibrary.views.MaterialFlatButton.onDraw
BEFORE com.devpaul.materiallibrary.views.MaterialFlatButton.onDraw(android.graphics.Canvas)
AFTER com.devpaul.materiallibrary.views.MaterialFlatButton.onDraw
BEFORE com.devpaul.materiallibrary.views.MaterialFlatButton.onDraw(android.graphics.Canvas)
AFTER com.devpaul.materiallibrary.views.MaterialFlatButton.onDraw
BEFORE com.devpaul.materiallibrary.views.MaterialFlatButton.onDraw(android.graphics.Canvas)
AFTER com.devpaul.materiallibrary.views.MaterialFlatButton.onDraw
BEFORE com.devpaul.materiallibrary.views.MaterialFlatButton.onDraw(android.graphics.Canvas)
AFTER com.devpaul.materiallibrary.views.MaterialFlatButton.onDraw
BEFORE com.devpaul.materiallibrary.views.MaterialFlatButton.onTouchEvent(android.view.MotionEvent)
BEFORE android.support.v4.view.MotionEventCompat.getActionMasked(android.view.MotionEvent)
AFTER android.support.v4.view.MotionEventCompat.getActionMasked, returnValue: 0
BEFORE android.view.MotionEvent.getX()
AFTER android.view.MotionEvent.getX, returnValue: 260.43665
BEFORE android.view.MotionEvent.getY()
AFTER android.view.MotionEvent.getY, returnValue: 112.74127
BEFORE android.view.animation.Animation.cancel()
AFTER android.view.animation.Animation.cancel
BEFORE android.view.animation.AnimationSet.getAnimations()
AFTER android.view.animation.AnimationSet.getAnimations, returnValue: [], isEmpty: true
BEFORE android.view.animation.AnimationSet.addAnimation(com.devpaul.materiallibrary.utils.ValueGeneratorAnim)
AFTER android.view.animation.AnimationSet.addAnimation
AFTER com.devpaul.materiallibrary.views.MaterialFlatButton.onTouchEvent, returnValue: true
BEFORE com.devpaul.materiallibrary.views.MaterialFlatButton.onTouchEvent(android.view.MotionEvent)
BEFORE android.support.v4.view.MotionEventCompat.getActionMasked(android.view.MotionEvent)
AFTER android.support.v4.view.MotionEventCompat.getActionMasked, returnValue: 1
BEFORE android.view.animation.Animation.setAnimationListener(com.devpaul.materiallibrary.utils.ShadowRippleGenerator$9)
AFTER android.view.animation.Animation.setAnimationListener
BEFORE android.view.animation.Animation.cancel()
AFTER android.view.animation.Animation.cancel
BEFORE android.view.animation.AnimationSet.getAnimations()
AFTER android.view.animation.AnimationSet.getAnimations, returnValue: java.util.ArrayList, isEmpty: false
BEFORE android.view.animation.AnimationSet.addAnimation(com.devpaul.materiallibrary.utils.ValueGeneratorAnim)
AFTER android.view.animation.AnimationSet.addAnimation
AFTER com.devpaul.materiallibrary.views.MaterialFlatButton.onTouchEvent, returnValue: true
BEFORE com.devpaul.materiallibrary.utils.ValueGeneratorAnim.applyTransformation(0.0,android.view.animation.Transformation)
AFTER com.devpaul.materiallibrary.utils.ValueGeneratorAnim.applyTransformation
BEFORE com.devpaul.materiallibrary.utils.ShadowRippleGenerator$9.onAnimationStart(com.devpaul.materiallibrary.utils.ValueGeneratorAnim)
AFTER com.devpaul.materiallibrary.utils.ShadowRippleGenerator$9.onAnimationStart
BEFORE com.devpaul.materiallibrary.utils.ValueGeneratorAnim.applyTransformation(0.0,android.view.animation.Transformation)
AFTER com.devpaul.materiallibrary.utils.ValueGeneratorAnim.applyTransformation
BEFORE com.devpaul.materiallibrary.views.MaterialFlatButton.onDraw(android.graphics.Canvas)
AFTER com.devpaul.materiallibrary.views.MaterialFlatButton.onDraw
BEFORE com.devpaul.materiallibrary.utils.ValueGeneratorAnim.applyTransformation(0.859375,android.view.animation.Transformation)
AFTER com.devpaul.materiallibrary.utils.ValueGeneratorAnim.applyTransformation
BEFORE com.devpaul.materiallibrary.views.MaterialFlatButton.onDraw(android.graphics.Canvas)
AFTER com.devpaul.materiallibrary.views.MaterialFlatButton.onDraw
BEFORE com.devpaul.materiallibrary.utils.ValueGeneratorAnim.applyTransformation(1.1305361,android.view.animation.Transformation)
AFTER com.devpaul.materiallibrary.utils.ValueGeneratorAnim.applyTransformation
BEFORE com.devpaul.materiallibrary.views.MaterialFlatButton.onDraw(android.graphics.Canvas)
AFTER com.devpaul.materiallibrary.views.MaterialFlatButton.onDraw
BEFORE com.devpaul.materiallibrary.utils.ValueGeneratorAnim.applyTransformation(1.043061,android.view.animation.Transformation)
AFTER com.devpaul.materiallibrary.utils.ValueGeneratorAnim.applyTransformation
BEFORE com.devpaul.materiallibrary.views.MaterialFlatButton.onDraw(android.graphics.Canvas)
AFTER com.devpaul.materiallibrary.views.MaterialFlatButton.onDraw
BEFORE com.devpaul.materiallibrary.utils.ValueGeneratorAnim.applyTransformation(1.0,android.view.animation.Transformation)
AFTER com.devpaul.materiallibrary.utils.ValueGeneratorAnim.applyTransformation
BEFORE com.devpaul.materiallibrary.utils.ShadowRippleGenerator$9.onAnimationEnd(com.devpaul.materiallibrary.utils.ValueGeneratorAnim)
BEFORE com.devpaul.filepicker.MainActivity$PlaceholderFragment$1.onClick(com.devpaul.materiallibrary.views.MaterialFlatButton)
BEFORE android.app.Fragment.getActivity()
AFTER android.app.Fragment.getActivity, returnValue: com.devpaul.filepicker.MainActivity
BEFORE android.content.Intent.putExtra(scopeType,com.devpaul.filepickerlibrary.enums.FileScopeType)
BEFORE android.content.Intent.putExtra(scopeType,com.devpaul.filepickerlibrary.enums.FileScopeType)
AFTER android.content.Intent.putExtra, returnValue: Intent { cmp=com.devpaul.filepickerbug/com.devpaul.filepickerlibrary.FilePickerActivity (has extras) }
AFTER android.content.Intent.putExtra, returnValue: Intent { cmp=com.devpaul.filepickerbug/com.devpaul.filepickerlibrary.FilePickerActivity (has extras) }
BEFORE android.content.Intent.putExtra(requestCode,101)
BEFORE android.content.Intent.putExtra(requestCode,101)
AFTER android.content.Intent.putExtra, returnValue: Intent { cmp=com.devpaul.filepickerbug/com.devpaul.filepickerlibrary.FilePickerActivity (has extras) }
AFTER android.content.Intent.putExtra, returnValue: Intent { cmp=com.devpaul.filepickerbug/com.devpaul.filepickerlibrary.FilePickerActivity (has extras) }
BEFORE android.content.Intent.putExtra(intentExtraFabColorId,17170453)
BEFORE android.content.Intent.putExtra(intentExtraFabColorId,17170453)
AFTER android.content.Intent.putExtra, returnValue: Intent { cmp=com.devpaul.filepickerbug/com.devpaul.filepickerlibrary.FilePickerActivity (has extras) }
AFTER android.content.Intent.putExtra, returnValue: Intent { cmp=com.devpaul.filepickerbug/com.devpaul.filepickerlibrary.FilePickerActivity (has extras) }
BEFORE android.app.Fragment.startActivityForResult(android.content.Intent,101)
AFTER android.app.Fragment.startActivityForResult
AFTER com.devpaul.filepicker.MainActivity$PlaceholderFragment$1.onClick
AFTER com.devpaul.materiallibrary.utils.ShadowRippleGenerator$9.onAnimationEnd
BEFORE com.devpaul.materiallibrary.views.MaterialFlatButton.onDraw(android.graphics.Canvas)
AFTER com.devpaul.materiallibrary.views.MaterialFlatButton.onDraw
BEFORE com.devpaul.materiallibrary.utils.ValueGeneratorAnim.applyTransformation(1.0,android.view.animation.Transformation)
AFTER com.devpaul.materiallibrary.utils.ValueGeneratorAnim.applyTransformation
BEFORE com.devpaul.materiallibrary.views.MaterialFlatButton.onDraw(android.graphics.Canvas)
AFTER com.devpaul.materiallibrary.views.MaterialFlatButton.onDraw
BEFORE com.devpaul.filepickerlibrary.FilePickerActivity.onCreate()
BEFORE android.app.Activity.onCreate()
AFTER android.app.Activity.onCreate
BEFORE android.app.Activity.getIntent()
AFTER android.app.Activity.getIntent, returnValue: Intent { cmp=com.devpaul.filepickerbug/com.devpaul.filepickerlibrary.FilePickerActivity (has extras) }
BEFORE android.content.Intent.getSerializableExtra(themeType)
BEFORE com.devpaul.filepickerlibrary.enums.FileScopeType.values()
AFTER com.devpaul.filepickerlibrary.enums.FileScopeType.values, returnValue: [Lcom.devpaul.filepickerlibrary.enums.FileScopeType;
AFTER android.content.Intent.getSerializableExtra
BEFORE android.view.ContextThemeWrapper.setTheme(16973934)
AFTER android.view.ContextThemeWrapper.setTheme
BEFORE android.app.Activity.getActionBar()
AFTER android.app.Activity.getActionBar, returnValue: com.android.internal.app.WindowDecorActionBar
BEFORE com.android.internal.app.WindowDecorActionBar.setDisplayHomeAsUpEnabled(true)
AFTER com.android.internal.app.WindowDecorActionBar.setDisplayHomeAsUpEnabled
BEFORE android.app.Activity.getIntent()
AFTER android.app.Activity.getIntent, returnValue: Intent { cmp=com.devpaul.filepickerbug/com.devpaul.filepickerlibrary.FilePickerActivity (has extras) }
BEFORE android.content.Intent.getExtras()
AFTER android.content.Intent.getExtras, returnValue: Bundle[{intentExtraFabColorId=17170453, requestCode=101, scopeType=ALL}], isEmpty: false
BEFORE android.os.BaseBundle.get(mimeType)
AFTER android.os.BaseBundle.get
BEFORE android.view.animation.AnimationUtils.loadAnimation(com.devpaul.filepickerlibrary.FilePickerActivity,2130968600)
AFTER android.view.animation.AnimationUtils.loadAnimation, returnValue: android.view.animation.AnimationSet
BEFORE android.view.animation.AnimationUtils.loadAnimation(com.devpaul.filepickerlibrary.FilePickerActivity,2130968599)
AFTER android.view.animation.AnimationUtils.loadAnimation, returnValue: android.view.animation.AnimationSet
BEFORE android.app.Activity.getIntent()
AFTER android.app.Activity.getIntent, returnValue: Intent { cmp=com.devpaul.filepickerbug/com.devpaul.filepickerlibrary.FilePickerActivity (has extras) }
BEFORE android.content.Intent.getSerializableExtra(scopeType)
AFTER android.content.Intent.getSerializableExtra, returnValue: ALL
BEFORE android.content.Intent.getIntExtra(requestCode,101)
AFTER android.content.Intent.getIntExtra, returnValue: 101
BEFORE android.content.Intent.getIntExtra(intentExtraColorId,17170450)
AFTER android.content.Intent.getIntExtra, returnValue: 17170450
BEFORE android.content.Intent.getIntExtra(intentExtraDrawableId,-1)
AFTER android.content.Intent.getIntExtra, returnValue: -1
BEFORE android.content.Intent.getIntExtra(intentExtraFabColorId,-1)
AFTER android.content.Intent.getIntExtra, returnValue: 17170453
BEFORE android.app.Activity.setContentView(2130903074)
BEFORE android.content.Context.obtainStyledAttributes(0,[I)
BEFORE android.content.Context.obtainStyledAttributes(0,[I)
BEFORE android.content.Context.obtainStyledAttributes(0,[I)
AFTER android.content.Context.obtainStyledAttributes, returnValue: [0, 0, 1, 0, 0, 0, 5, 2561, 1, 0, 1073746944, 0, 3, 6766, 1, 17302987, 1073747200, 480, 3, 6766, 1, 17302987, 1073747200, 480, 0, 0, -1, 0, 1073746944, 0, 0, 0, -1, 0, 1073746944, 0, 0, 0, -1, 0, 0, 0, 0, 0, -1, 0, 0, 0, 0, 0, -1, 0, 0, 0, 18, 0, 2, 2131165304, 0, 0, 0, 0, 2, 0, 0, 0, 0, 0, 2, 0, 0, 0, 0, 0, 2, 0, 0, 0, 0, 0, 2, 0, 0, 0, 0, 0, 2, 0, 0, 0, 0, 0, 2, 0, 0, 0, 0, 0, 2, 0, 0, 0, 0, 0, 2, 0, 0, 0, 0, 0, 2, 0, 0, 0, 0, 0, 2, 0, 0, 0, 0, 0, 2, 0, 0, 0, 0, 0, 2, 0, 0, 0, 0, 0, 2, 0, 0, 0, 0, 0, 2, 0, 0, 0, 0, 0, 2, 0, 0, 0, 0, 0, 2, 0, 0, 0, 0, 0, 2, 0, 0, 0, 0, 0, 2, 0, 0, 0, 0, 0, 2, 0, 0, 0, 0, 0, 2, 0, 0, 0, 0, 0, 2, 0, 0, 0, 0, 0, 2, 0, 0, 0, 0, 0, 2, 0, 0, 0, 0, 0, 2, 0, 0, 0, 0, 0, 2, 0, 0, 0, 0, 0, 2, 0, 0, 0, 0, 0, 2, 0, 0, 0, 0, 0, 2, 0, 0, 0, 0, 0, 2, 0, 0, 0, 0, 0, 2, 0, 0, 0, 0, 0, 2, 0, 0, 0, 0, 0, 2, 0, 0, 0, 0, 0, 2, 0, 0, 0, 0, 0, 2, 0, 0, 0, 0, 0, 2, 0, 0, 0, 16, 250, 2, 0, 1073746944, 0, 16, 300, 2, 0, 1073746944, 0, 0, 0, 2, 0, 0, 0, 0, 0, 2, 0, 0, 0, 0, 0, 2, 0, 0, 0, 0, 0, 2, 0, 0, 0, 0, 0, 2, 0, 0, 0, 0, 0, 2, 0, 0, 0, 0, 0, 2, 0, 0, 0, 0, 0, 2, 0, 0, 0, 0, 0, 2, 0, 0, 0, 0, 0, 2, 0, 0, 0, 0, 0, 2, 0, 0, 0, 0, 0, 2, 0, 0, 0, 0, 0, 2, 0, 0, 0, 0, 0, 2, 0, 0, 0, 0, 0, 2, 0, 0, 0, 0, 0, 2, 0, 0, 0, 0, 0, 2, 0, 0, 0, 0, 0, 2, 0, 0, 0, 0, 0, 2, 0, 0, 0, 0, 0, 2, 0, 0, 0, 0, 0, 2, 0, 0, 0, 0, 0, 2, 0, 0, 0, 0, 0, 2, 0, 0, 0, 0, 0, 2, 0, 0, 0, 0, 0, 2, 0, 0, 0, 0, 0, 2, 0, 0, 0, 0, 0, 2, 0, 0, 0, 0, 0, 2, 0, 0, 0, 0, 0, 2, 0, 0, 0, 0, 0, 2, 0, 0, 0, 0, 0, 2, 0, 0, 0, 0, 0, 2, 0, 0, 0, 0, 0, 2, 0, 0, 0, 0, 0, 2, 0, 0, 0, 0, 0, 2, 0, 0, 0, 0, 0, 2, 0, 0, 0, 0, 0, 2, 0, 0, 0, 0, 0, 2, 0, 0, 0, 0, 0, 2, 0, 0, 0, 0, 0, 2, 0, 0, 0]
AFTER android.content.Context.obtainStyledAttributes, returnValue: [0, 0, 1, 0, 0, 0, 5, 2561, 1, 0, 1073746944, 0, 3, 6766, 1, 17302987, 1073747200, 480, 3, 6766, 1, 17302987, 1073747200, 480, 0, 0, -1, 0, 1073746944, 0, 0, 0, -1, 0, 1073746944, 0, 0, 0, -1, 0, 0, 0, 0, 0, -1, 0, 0, 0, 0, 0, -1, 0, 0, 0, 18, 0, 2, 2131165304, 0, 0, 0, 0, 2, 0, 0, 0, 0, 0, 2, 0, 0, 0, 0, 0, 2, 0, 0, 0, 0, 0, 2, 0, 0, 0, 0, 0, 2, 0, 0, 0, 0, 0, 2, 0, 0, 0, 0, 0, 2, 0, 0, 0, 0, 0, 2, 0, 0, 0, 0, 0, 2, 0, 0, 0, 0, 0, 2, 0, 0, 0, 0, 0, 2, 0, 0, 0, 0, 0, 2, 0, 0, 0, 0, 0, 2, 0, 0, 0, 0, 0, 2, 0, 0, 0, 0, 0, 2, 0, 0, 0, 0, 0, 2, 0, 0, 0, 0, 0, 2, 0, 0, 0, 0, 0, 2, 0, 0, 0, 0, 0, 2, 0, 0, 0, 0, 0, 2, 0, 0, 0, 0, 0, 2, 0, 0, 0, 0, 0, 2, 0, 0, 0, 0, 0, 2, 0, 0, 0, 0, 0, 2, 0, 0, 0, 0, 0, 2, 0, 0, 0, 0, 0, 2, 0, 0, 0, 0, 0, 2, 0, 0, 0, 0, 0, 2, 0, 0, 0, 0, 0, 2, 0, 0, 0, 0, 0, 2, 0, 0, 0, 0, 0, 2, 0, 0, 0, 0, 0, 2, 0, 0, 0, 0, 0, 2, 0, 0, 0, 0, 0, 2, 0, 0, 0, 0, 0, 2, 0, 0, 0, 16, 250, 2, 0, 1073746944, 0, 16, 300, 2, 0, 1073746944, 0, 0, 0, 2, 0, 0, 0, 0, 0, 2, 0, 0, 0, 0, 0, 2, 0, 0, 0, 0, 0, 2, 0, 0, 0, 0, 0, 2, 0, 0, 0, 0, 0, 2, 0, 0, 0, 0, 0, 2, 0, 0, 0, 0, 0, 2, 0, 0, 0, 0, 0, 2, 0, 0, 0, 0, 0, 2, 0, 0, 0, 0, 0, 2, 0, 0, 0, 0, 0, 2, 0, 0, 0, 0, 0, 2, 0, 0, 0, 0, 0, 2, 0, 0, 0, 0, 0, 2, 0, 0, 0, 0, 0, 2, 0, 0, 0, 0, 0, 2, 0, 0, 0, 0, 0, 2, 0, 0, 0, 0, 0, 2, 0, 0, 0, 0, 0, 2, 0, 0, 0, 0, 0, 2, 0, 0, 0, 0, 0, 2, 0, 0, 0, 0, 0, 2, 0, 0, 0, 0, 0, 2, 0, 0, 0, 0, 0, 2, 0, 0, 0, 0, 0, 2, 0, 0, 0, 0, 0, 2, 0, 0, 0, 0, 0, 2, 0, 0, 0, 0, 0, 2, 0, 0, 0, 0, 0, 2, 0, 0, 0, 0, 0, 2, 0, 0, 0, 0, 0, 2, 0, 0, 0, 0, 0, 2, 0, 0, 0, 0, 0, 2, 0, 0, 0, 0, 0, 2, 0, 0, 0, 0, 0, 2, 0, 0, 0, 0, 0, 2, 0, 0, 0, 0, 0, 2, 0, 0, 0, 0, 0, 2, 0, 0, 0, 0, 0, 2, 0, 0, 0]
AFTER android.content.Context.obtainStyledAttributes, returnValue: [0, 0, 1, 0, 0, 0, 5, 2561, 1, 0, 1073746944, 0, 3, 6766, 1, 17302987, 1073747200, 480, 3, 6766, 1, 17302987, 1073747200, 480, 0, 0, -1, 0, 1073746944, 0, 0, 0, -1, 0, 1073746944, 0, 0, 0, -1, 0, 0, 0, 0, 0, -1, 0, 0, 0, 0, 0, -1, 0, 0, 0, 18, 0, 2, 2131165304, 0, 0, 0, 0, 2, 0, 0, 0, 0, 0, 2, 0, 0, 0, 0, 0, 2, 0, 0, 0, 0, 0, 2, 0, 0, 0, 0, 0, 2, 0, 0, 0, 0, 0, 2, 0, 0, 0, 0, 0, 2, 0, 0, 0, 0, 0, 2, 0, 0, 0, 0, 0, 2, 0, 0, 0, 0, 0, 2, 0, 0, 0, 0, 0, 2, 0, 0, 0, 0, 0, 2, 0, 0, 0, 0, 0, 2, 0, 0, 0, 0, 0, 2, 0, 0, 0, 0, 0, 2, 0, 0, 0, 0, 0, 2, 0, 0, 0, 0, 0, 2, 0, 0, 0, 0, 0, 2, 0, 0, 0, 0, 0, 2, 0, 0, 0, 0, 0, 2, 0, 0, 0, 0, 0, 2, 0, 0, 0, 0, 0, 2, 0, 0, 0, 0, 0, 2, 0, 0, 0, 0, 0, 2, 0, 0, 0, 0, 0, 2, 0, 0, 0, 0, 0, 2, 0, 0, 0, 0, 0, 2, 0, 0, 0, 0, 0, 2, 0, 0, 0, 0, 0, 2, 0, 0, 0, 0, 0, 2, 0, 0, 0, 0, 0, 2, 0, 0, 0, 0, 0, 2, 0, 0, 0, 0, 0, 2, 0, 0, 0, 0, 0, 2, 0, 0, 0, 0, 0, 2, 0, 0, 0, 16, 250, 2, 0, 1073746944, 0, 16, 300, 2, 0, 1073746944, 0, 0, 0, 2, 0, 0, 0, 0, 0, 2, 0, 0, 0, 0, 0, 2, 0, 0, 0, 0, 0, 2, 0, 0, 0, 0, 0, 2, 0, 0, 0, 0, 0, 2, 0, 0, 0, 0, 0, 2, 0, 0, 0, 0, 0, 2, 0, 0, 0, 0, 0, 2, 0, 0, 0, 0, 0, 2, 0, 0, 0, 0, 0, 2, 0, 0, 0, 0, 0, 2, 0, 0, 0, 0, 0, 2, 0, 0, 0, 0, 0, 2, 0, 0, 0, 0, 0, 2, 0, 0, 0, 0, 0, 2, 0, 0, 0, 0, 0, 2, 0, 0, 0, 0, 0, 2, 0, 0, 0, 0, 0, 2, 0, 0, 0, 0, 0, 2, 0, 0, 0, 0, 0, 2, 0, 0, 0, 0, 0, 2, 0, 0, 0, 0, 0, 2, 0, 0, 0, 0, 0, 2, 0, 0, 0, 0, 0, 2, 0, 0, 0, 0, 0, 2, 0, 0, 0, 0, 0, 2, 0, 0, 0, 0, 0, 2, 0, 0, 0, 0, 0, 2, 0, 0, 0, 0, 0, 2, 0, 0, 0, 0, 0, 2, 0, 0, 0, 0, 0, 2, 0, 0, 0, 0, 0, 2, 0, 0, 0, 0, 0, 2, 0, 0, 0, 0, 0, 2, 0, 0, 0, 0, 0, 2, 0, 0, 0, 0, 0, 2, 0, 0, 0, 0, 0, 2, 0, 0, 0, 0, 0, 2, 0, 0, 0, 0, 0, 2, 0, 0, 0]
BEFORE android.content.res.TypedArray.recycle()
AFTER android.content.res.TypedArray.recycle
BEFORE android.content.Context.obtainStyledAttributes(android.content.res.XmlBlock$Parser,[I,0,0)
BEFORE android.content.Context.obtainStyledAttributes(android.content.res.XmlBlock$Parser,[I,0,0)
BEFORE android.content.Context.obtainStyledAttributes(android.content.res.XmlBlock$Parser,[I,0,0)
AFTER android.content.Context.obtainStyledAttributes, returnValue: [28, -16720385, 1, 17170459, 1073741824, 0, 0, 0, 1, 0, 0, 0, 0, 0, 1, 0, 0, 0, 0, 0, 1, 0, 0, 0, 0, 0, 1, 0, 0, 0, 16, 1, -1, 0, 0, 0, 0, 0, -1, 0, 0, 0, 0, 0, -1, 0, 0, 0, 0, 0, -1, 0, 0, 0, 18, 0, 2, 2131165304, 0, 0, 0, 0, 2, 0, 0, 0, 0, 0, 2, 0, 0, 0, 0, 0, 2, 0, 0, 0, 0, 0, 2, 0, 0, 0, 0, 0, 2, 0, 0, 0, 0, 0, 2, 0, 0, 0, 0, 0, 2, 0, 0, 0, 0, 0, 2, 0, 0, 0, 0, 0, 2, 0, 0, 0, 0, 0, 2, 0, 0, 0, 0, 0, 2, 0, 0, 0, 0, 0, 2, 0, 0, 0, 0, 0, 2, 0, 0, 0, 0, 0, 2, 0, 0, 0, 0, 0, 2, 0, 0, 0, 0, 0, 2, 0, 0, 0, 0, 0, 2, 0, 0, 0, 0, 0, 2, 0, 0, 0, 0, 0, 2, 0, 0, 0, 0, 0, 2, 0, 0, 0, 0, 0, 2, 0, 0, 0, 0, 0, 2, 0, 0, 0, 0, 0, 2, 0, 0, 0, 0, 0, 2, 0, 0, 0, 0, 0, 2, 0, 0, 0, 0, 0, 2, 0, 0, 0, 0, 0, 2, 0, 0, 0, 0, 0, 2, 0, 0, 0, 0, 0, 2, 0, 0, 0, 0, 0, 2, 0, 0, 0, 0, 0, 2, 0, 0, 0, 0, 0, 2, 0, 0, 0, 0, 0, 2, 0, 0, 0, 0, 0, 2, 0, 0, 0, 0, 0, 2, 0, 0, 0, 16, 250, 2, 0, 1073746944, 0, 16, 300, 2, 0, 1073746944, 0, 0, 0, 2, 0, 0, 0, 0, 0, 2, 0, 0, 0, 0, 0, 2, 0, 0, 0, 0, 0, 2, 0, 0, 0, 0, 0, 2, 0, 0, 0, 0, 0, 2, 0, 0, 0, 0, 0, 2, 0, 0, 0, 0, 0, 2, 0, 0, 0, 0, 0, 2, 0, 0, 0, 0, 0, 2, 0, 0, 0, 0, 0, 2, 0, 0, 0, 0, 0, 2, 0, 0, 0, 0, 0, 2, 0, 0, 0, 0, 0, 2, 0, 0, 0, 0, 0, 2, 0, 0, 0, 0, 0, 2, 0, 0, 0, 0, 0, 2, 0, 0, 0, 0, 0, 2, 0, 0, 0, 0, 0, 2, 0, 0, 0, 0, 0, 2, 0, 0, 0, 0, 0, 2, 0, 0, 0, 0, 0, 2, 0, 0, 0, 0, 0, 2, 0, 0, 0, 0, 0, 2, 0, 0, 0, 0, 0, 2, 0, 0, 0, 0, 0, 2, 0, 0, 0, 0, 0, 2, 0, 0, 0, 0, 0, 2, 0, 0, 0, 0, 0, 2, 0, 0, 0, 0, 0, 2, 0, 0, 0, 0, 0, 2, 0, 0, 0, 0, 0, 2, 0, 0, 0, 0, 0, 2, 0, 0, 0, 0, 0, 2, 0, 0, 0, 0, 0, 2, 0, 0, 0, 0, 0, 2, 0, 0, 0, 0, 0, 2, 0, 0, 0, 0, 0, 2, 0, 0, 0, 0, 0, 2, 0, 0, 0, 0, 0, 2, 0, 0, 0]
AFTER android.content.Context.obtainStyledAttributes, returnValue: [28, -16720385, 1, 17170459, 1073741824, 0, 0, 0, 1, 0, 0, 0, 0, 0, 1, 0, 0, 0, 0, 0, 1, 0, 0, 0, 0, 0, 1, 0, 0, 0, 16, 1, -1, 0, 0, 0, 0, 0, -1, 0, 0, 0, 0, 0, -1, 0, 0, 0, 0, 0, -1, 0, 0, 0, 18, 0, 2, 2131165304, 0, 0, 0, 0, 2, 0, 0, 0, 0, 0, 2, 0, 0, 0, 0, 0, 2, 0, 0, 0, 0, 0, 2, 0, 0, 0, 0, 0, 2, 0, 0, 0, 0, 0, 2, 0, 0, 0, 0, 0, 2, 0, 0, 0, 0, 0, 2, 0, 0, 0, 0, 0, 2, 0, 0, 0, 0, 0, 2, 0, 0, 0, 0, 0, 2, 0, 0, 0, 0, 0, 2, 0, 0, 0, 0, 0, 2, 0, 0, 0, 0, 0, 2, 0, 0, 0, 0, 0, 2, 0, 0, 0, 0, 0, 2, 0, 0, 0, 0, 0, 2, 0, 0, 0, 0, 0, 2, 0, 0, 0, 0, 0, 2, 0, 0, 0, 0, 0, 2, 0, 0, 0, 0, 0, 2, 0, 0, 0, 0, 0, 2, 0, 0, 0, 0, 0, 2, 0, 0, 0, 0, 0, 2, 0, 0, 0, 0, 0, 2, 0, 0, 0, 0, 0, 2, 0, 0, 0, 0, 0, 2, 0, 0, 0, 0, 0, 2, 0, 0, 0, 0, 0, 2, 0, 0, 0, 0, 0, 2, 0, 0, 0, 0, 0, 2, 0, 0, 0, 0, 0, 2, 0, 0, 0, 0, 0, 2, 0, 0, 0, 0, 0, 2, 0, 0, 0, 0, 0, 2, 0, 0, 0, 16, 250, 2, 0, 1073746944, 0, 16, 300, 2, 0, 1073746944, 0, 0, 0, 2, 0, 0, 0, 0, 0, 2, 0, 0, 0, 0, 0, 2, 0, 0, 0, 0, 0, 2, 0, 0, 0, 0, 0, 2, 0, 0, 0, 0, 0, 2, 0, 0, 0, 0, 0, 2, 0, 0, 0, 0, 0, 2, 0, 0, 0, 0, 0, 2, 0, 0, 0, 0, 0, 2, 0, 0, 0, 0, 0, 2, 0, 0, 0, 0, 0, 2, 0, 0, 0, 0, 0, 2, 0, 0, 0, 0, 0, 2, 0, 0, 0, 0, 0, 2, 0, 0, 0, 0, 0, 2, 0, 0, 0, 0, 0, 2, 0, 0, 0, 0, 0, 2, 0, 0, 0, 0, 0, 2, 0, 0, 0, 0, 0, 2, 0, 0, 0, 0, 0, 2, 0, 0, 0, 0, 0, 2, 0, 0, 0, 0, 0, 2, 0, 0, 0, 0, 0, 2, 0, 0, 0, 0, 0, 2, 0, 0, 0, 0, 0, 2, 0, 0, 0, 0, 0, 2, 0, 0, 0, 0, 0, 2, 0, 0, 0, 0, 0, 2, 0, 0, 0, 0, 0, 2, 0, 0, 0, 0, 0, 2, 0, 0, 0, 0, 0, 2, 0, 0, 0, 0, 0, 2, 0, 0, 0, 0, 0, 2, 0, 0, 0, 0, 0, 2, 0, 0, 0, 0, 0, 2, 0, 0, 0, 0, 0, 2, 0, 0, 0, 0, 0, 2, 0, 0, 0, 0, 0, 2, 0, 0, 0, 0, 0, 2, 0, 0, 0]
AFTER android.content.Context.obtainStyledAttributes, returnValue: [28, -16720385, 1, 17170459, 1073741824, 0, 0, 0, 1, 0, 0, 0, 0, 0, 1, 0, 0, 0, 0, 0, 1, 0, 0, 0, 0, 0, 1, 0, 0, 0, 16, 1, -1, 0, 0, 0, 0, 0, -1, 0, 0, 0, 0, 0, -1, 0, 0, 0, 0, 0, -1, 0, 0, 0, 18, 0, 2, 2131165304, 0, 0, 0, 0, 2, 0, 0, 0, 0, 0, 2, 0, 0, 0, 0, 0, 2, 0, 0, 0, 0, 0, 2, 0, 0, 0, 0, 0, 2, 0, 0, 0, 0, 0, 2, 0, 0, 0, 0, 0, 2, 0, 0, 0, 0, 0, 2, 0, 0, 0, 0, 0, 2, 0, 0, 0, 0, 0, 2, 0, 0, 0, 0, 0, 2, 0, 0, 0, 0, 0, 2, 0, 0, 0, 0, 0, 2, 0, 0, 0, 0, 0, 2, 0, 0, 0, 0, 0, 2, 0, 0, 0, 0, 0, 2, 0, 0, 0, 0, 0, 2, 0, 0, 0, 0, 0, 2, 0, 0, 0, 0, 0, 2, 0, 0, 0, 0, 0, 2, 0, 0, 0, 0, 0, 2, 0, 0, 0, 0, 0, 2, 0, 0, 0, 0, 0, 2, 0, 0, 0, 0, 0, 2, 0, 0, 0, 0, 0, 2, 0, 0, 0, 0, 0, 2, 0, 0, 0, 0, 0, 2, 0, 0, 0, 0, 0, 2, 0, 0, 0, 0, 0, 2, 0, 0, 0, 0, 0, 2, 0, 0, 0, 0, 0, 2, 0, 0, 0, 0, 0, 2, 0, 0, 0, 0, 0, 2, 0, 0, 0, 0, 0, 2, 0, 0, 0, 0, 0, 2, 0, 0, 0, 16, 250, 2, 0, 1073746944, 0, 16, 300, 2, 0, 1073746944, 0, 0, 0, 2, 0, 0, 0, 0, 0, 2, 0, 0, 0, 0, 0, 2, 0, 0, 0, 0, 0, 2, 0, 0, 0, 0, 0, 2, 0, 0, 0, 0, 0, 2, 0, 0, 0, 0, 0, 2, 0, 0, 0, 0, 0, 2, 0, 0, 0, 0, 0, 2, 0, 0, 0, 0, 0, 2, 0, 0, 0, 0, 0, 2, 0, 0, 0, 0, 0, 2, 0, 0, 0, 0, 0, 2, 0, 0, 0, 0, 0, 2, 0, 0, 0, 0, 0, 2, 0, 0, 0, 0, 0, 2, 0, 0, 0, 0, 0, 2, 0, 0, 0, 0, 0, 2, 0, 0, 0, 0, 0, 2, 0, 0, 0, 0, 0, 2, 0, 0, 0, 0, 0, 2, 0, 0, 0, 0, 0, 2, 0, 0, 0, 0, 0, 2, 0, 0, 0, 0, 0, 2, 0, 0, 0, 0, 0, 2, 0, 0, 0, 0, 0, 2, 0, 0, 0, 0, 0, 2, 0, 0, 0, 0, 0, 2, 0, 0, 0, 0, 0, 2, 0, 0, 0, 0, 0, 2, 0, 0, 0, 0, 0, 2, 0, 0, 0, 0, 0, 2, 0, 0, 0, 0, 0, 2, 0, 0, 0, 0, 0, 2, 0, 0, 0, 0, 0, 2, 0, 0, 0, 0, 0, 2, 0, 0, 0, 0, 0, 2, 0, 0, 0, 0, 0, 2, 0, 0, 0, 0, 0, 2, 0, 0, 0, 0, 0, 2, 0, 0, 0]
BEFORE android.content.res.TypedArray.getResourceId(3,0)
AFTER android.content.res.TypedArray.getResourceId, returnValue: 0
BEFORE android.content.res.TypedArray.recycle()
AFTER android.content.res.TypedArray.recycle
BEFORE android.animation.ObjectAnimator.ofFloat(com.devpaul.materiallibrary.views.MaterialFloatingActionButton,rotation,[F)
AFTER android.animation.ObjectAnimator.ofFloat, returnValue: android.animation.ObjectAnimator
BEFORE android.animation.ObjectAnimator.setDuration(java.lang.Long)
AFTER android.animation.ObjectAnimator.setDuration, returnValue: android.animation.ObjectAnimator
BEFORE android.animation.ValueAnimator.setInterpolator(android.view.animation.OvershootInterpolator)
AFTER android.animation.ValueAnimator.setInterpolator
BEFORE android.view.animation.Animation.setInterpolator(android.view.animation.OvershootInterpolator)
AFTER android.view.animation.Animation.setInterpolator
BEFORE android.view.animation.AnimationSet.setDuration(java.lang.Long)
AFTER android.view.animation.AnimationSet.setDuration
BEFORE android.view.animation.Animation.setInterpolator(android.view.animation.OvershootInterpolator)
AFTER android.view.animation.Animation.setInterpolator
BEFORE android.view.animation.AnimationSet.setDuration(java.lang.Long)
AFTER android.view.animation.AnimationSet.setDuration
AFTER android.app.Activity.setContentView
BEFORE android.app.Activity.findViewById(16908298)
AFTER android.app.Activity.findViewById, returnValue: android.widget.ListView{f6ce50 G.ED.VC.. ......I. 0,0-0,0 #102000a android:id/list}
BEFORE android.widget.AbsListView.setOnScrollListener(com.devpaul.filepickerlibrary.FilePickerActivity$1)
BEFORE com.devpaul.filepickerlibrary.FilePickerActivity$1.onScroll(android.widget.ListView,0,0,0)
AFTER com.devpaul.filepickerlibrary.FilePickerActivity$1.onScroll
AFTER android.widget.AbsListView.setOnScrollListener
BEFORE android.app.Activity.getLayoutInflater()
AFTER android.app.Activity.getLayoutInflater, returnValue: com.android.internal.policy.PhoneLayoutInflater
BEFORE android.view.LayoutInflater.inflate(2130903072)
BEFORE android.view.LayoutInflater.inflate(2130903072)
AFTER android.view.LayoutInflater.inflate, returnValue: android.widget.RelativeLayout{5b61768 V.E...... ......ID 0,0-0,0}
AFTER android.view.LayoutInflater.inflate, returnValue: android.widget.RelativeLayout{5b61768 V.E...... ......ID 0,0-0,0}
BEFORE android.app.Activity.findViewById(2131165303)
AFTER android.app.Activity.findViewById, returnValue: android.widget.TextView{c19d781 V.ED..... ......ID 0,0-0,0 #7f070077 app:id/file_directory_title}
BEFORE android.app.Activity.findViewById(2131165304)
AFTER android.app.Activity.findViewById, returnValue: com.devpaul.materiallibrary.views.MaterialFloatingActionButton{43a3038 V.ED..... ......ID 0,0-0,0 #7f070078 app:id/file_picker_add_button}
BEFORE android.view.ContextThemeWrapper.getResources()
AFTER android.view.ContextThemeWrapper.getResources, returnValue: android.content.res.XResources
BEFORE android.app.Activity.findViewById(2131165307)
AFTER android.app.Activity.findViewById, returnValue: android.widget.Button{5704026 VFED..C.. ......ID 0,0-0,0 #7f07007b app:id/select_button}
BEFORE android.app.Activity.findViewById(2131165306)
AFTER android.app.Activity.findViewById, returnValue: android.widget.Button{7bb1467 VFED..C.. ......ID 0,0-0,0 #7f07007a app:id/open_button}
BEFORE android.app.Activity.findViewById(2131165305)
AFTER android.app.Activity.findViewById, returnValue: android.widget.LinearLayout{9894214 V.E...... ......I. 0,0-0,0 #7f070079 app:id/button_container}
BEFORE android.app.Activity.findViewById(2131165302)
AFTER android.app.Activity.findViewById, returnValue: android.widget.RelativeLayout{10b6abd V.E...... ......ID 0,0-0,0 #7f070076 app:id/header_container}
BEFORE android.view.ContextThemeWrapper.getResources()
AFTER android.view.ContextThemeWrapper.getResources, returnValue: android.content.res.XResources
BEFORE android.support.v4.content.ContextCompat.checkSelfPermission(com.devpaul.filepickerlibrary.FilePickerActivity,android.permission.READ_EXTERNAL_STORAGE)
AFTER android.support.v4.content.ContextCompat.checkSelfPermission, returnValue: 0
AFTER com.devpaul.filepickerlibrary.FilePickerActivity.onCreate
BEFORE com.devpaul.materiallibrary.utils.ShadowRippleGenerator$1.onViewAttachedToWindow(com.devpaul.materiallibrary.views.MaterialFloatingActionButton)
AFTER com.devpaul.materiallibrary.utils.ShadowRippleGenerator$1.onViewAttachedToWindow
BEFORE com.devpaul.materiallibrary.utils.ShadowSelectorGenerator$1.onViewAttachedToWindow(com.devpaul.materiallibrary.views.MaterialFloatingActionButton)
AFTER com.devpaul.materiallibrary.utils.ShadowSelectorGenerator$1.onViewAttachedToWindow
BEFORE com.devpaul.materiallibrary.views.MaterialFloatingActionButton.onMeasure(-2147482568,-2147482250)
AFTER com.devpaul.materiallibrary.views.MaterialFloatingActionButton.onMeasure
BEFORE com.devpaul.materiallibrary.views.MaterialFloatingActionButton.onDraw(android.graphics.Canvas)
AFTER com.devpaul.materiallibrary.views.MaterialFloatingActionButton.onDraw
BEFORE com.devpaul.materiallibrary.views.MaterialFloatingActionButton.onMeasure(-2147482568,-2147482250)
AFTER com.devpaul.materiallibrary.views.MaterialFloatingActionButton.onMeasure
