digraph FULL {
"08f03bff-901a-4271-ac3e-111a15443716" [label="de.robv.android.xposed.XposedBridge.main\n Susp=0,6"];
"08f03bff-901a-4271-ac3e-111a15443716" -> "58592ba2-bcbe-4f89-99c5-61e909a1c2cc";
"58592ba2-bcbe-4f89-99c5-61e909a1c2cc" [label="com.android.internal.os.ZygoteInit.main\n Susp=0,6"];
"58592ba2-bcbe-4f89-99c5-61e909a1c2cc" -> "2112912d-e8a1-48d7-a1f5-47a5416314e8";
"2112912d-e8a1-48d7-a1f5-47a5416314e8" [label="com.android.internal.os.ZygoteInit$MethodAndArgsCaller.run\n Susp=0,6"];
"2112912d-e8a1-48d7-a1f5-47a5416314e8" -> "80e19264-efd6-4d78-b7d2-8d053d345fbb";
"80e19264-efd6-4d78-b7d2-8d053d345fbb" [label="java.lang.reflect.Method.invoke\n Susp=0,6"];
"80e19264-efd6-4d78-b7d2-8d053d345fbb" -> "edd14075-763b-4228-a6e3-105917fef6b1";
"edd14075-763b-4228-a6e3-105917fef6b1" [label="android.app.ActivityThread.main\n Susp=0,6"];
"edd14075-763b-4228-a6e3-105917fef6b1" -> "913b2377-c57a-4b1b-9f5d-1bac0789d10c";
"913b2377-c57a-4b1b-9f5d-1bac0789d10c" [label="android.os.Looper.loop\n Susp=0,6"];
"913b2377-c57a-4b1b-9f5d-1bac0789d10c" -> "03c2d4bf-7f56-4029-8c72-8bceacb32c05";
"03c2d4bf-7f56-4029-8c72-8bceacb32c05" [label="android.os.Handler.dispatchMessage\n Susp=1"];
"03c2d4bf-7f56-4029-8c72-8bceacb32c05" -> "1980ead4-0d6a-4159-8101-3bfc0c7cc9e3";
"1980ead4-0d6a-4159-8101-3bfc0c7cc9e3" [label="android.os.Handler.handleCallback\n Susp=0,4035"];
"1980ead4-0d6a-4159-8101-3bfc0c7cc9e3" -> "7b1e4f09-acef-40e9-9800-105aabb315b1";
"7b1e4f09-acef-40e9-9800-105aabb315b1" [label="android.view.View$PerformClick.run\n Susp=0,4035"];
"7b1e4f09-acef-40e9-9800-105aabb315b1" -> "f9f3b146-42d0-4f43-b74f-448fc9e831f4";
"f9f3b146-42d0-4f43-b74f-448fc9e831f4" [label="android.view.View.performClick\n Susp=0,4035"];
"f9f3b146-42d0-4f43-b74f-448fc9e831f4" -> "d5aa7d8b-c9cb-4686-92f3-aa370295b907";
"d5aa7d8b-c9cb-4686-92f3-aa370295b907" [label="android.support.v7.view.menu.ActionMenuItemView.onClick\n Susp=0,4035"];
"d5aa7d8b-c9cb-4686-92f3-aa370295b907" -> "9340299e-1800-4d19-a93e-6b2bf5dfce45";
"9340299e-1800-4d19-a93e-6b2bf5dfce45" [label="android.support.v7.widget.ActionMenuView.invokeItem\n Susp=0,4035"];
"9340299e-1800-4d19-a93e-6b2bf5dfce45" -> "7c2a2d39-b7e7-42da-8d40-91eac4c2050e";
"7c2a2d39-b7e7-42da-8d40-91eac4c2050e" [label="android.support.v7.view.menu.MenuBuilder.performItemAction\n Susp=0,4035"];
"7c2a2d39-b7e7-42da-8d40-91eac4c2050e" -> "193e1df7-ace1-4a58-9dbd-cefc8fef9ceb";
"193e1df7-ace1-4a58-9dbd-cefc8fef9ceb" [label="android.support.v7.view.menu.MenuItemImpl.invoke\n Susp=0,4035"];
"193e1df7-ace1-4a58-9dbd-cefc8fef9ceb" -> "16693703-9c70-46f1-8b48-0de4680abb03";
"16693703-9c70-46f1-8b48-0de4680abb03" [label="android.support.v7.view.menu.MenuBuilder.dispatchMenuItemSelected\n Susp=0,4035"];
"16693703-9c70-46f1-8b48-0de4680abb03" -> "a88a9241-221e-4448-88b4-052ac42daed1";
"a88a9241-221e-4448-88b4-052ac42daed1" [label="android.support.v7.widget.ActionMenuView$MenuBuilderCallback.onMenuItemSelected\n Susp=0,4035"];
"a88a9241-221e-4448-88b4-052ac42daed1" -> "73380569-8067-48a8-83ea-4f8540b948a0";
"73380569-8067-48a8-83ea-4f8540b948a0" [label="android.support.v7.widget.Toolbar$1.onMenuItemClick\n Susp=0,4035"];
"73380569-8067-48a8-83ea-4f8540b948a0" -> "75396ced-7a79-4a47-b066-e3127af1f5b5";
"75396ced-7a79-4a47-b066-e3127af1f5b5" [label="android.support.v7.app.ToolbarActionBar$2.onMenuItemClick\n Susp=0,4035"];
"75396ced-7a79-4a47-b066-e3127af1f5b5" -> "ef675a16-459d-4e7c-ad66-7defb0705486";
"ef675a16-459d-4e7c-ad66-7defb0705486" [label="android.support.v7.view.WindowCallbackWrapper.onMenuItemSelected\n Susp=0,4035"];
"ef675a16-459d-4e7c-ad66-7defb0705486" -> "8e938a08-4336-47cb-8d7a-3b60ad92c003";
"8e938a08-4336-47cb-8d7a-3b60ad92c003" [label="android.support.v7.app.AppCompatActivity.onMenuItemSelected\n Susp=0,4035"];
"8e938a08-4336-47cb-8d7a-3b60ad92c003" -> "07df7cae-57ac-4bfc-a208-d829dd5fa420";
"07df7cae-57ac-4bfc-a208-d829dd5fa420" [label="android.support.v4.app.FragmentActivity.onMenuItemSelected\n Susp=0,4035"];
"07df7cae-57ac-4bfc-a208-d829dd5fa420" -> "0ed2b2b6-f504-47ce-a153-519e79ae4f82";
"0ed2b2b6-f504-47ce-a153-519e79ae4f82" [label="android.app.Activity.onMenuItemSelected\n Susp=0,4035"];
"0ed2b2b6-f504-47ce-a153-519e79ae4f82" -> "ade58e87-aec9-4826-98c5-0e98506526ad";
"ade58e87-aec9-4826-98c5-0e98506526ad" [label="org.asdtm.goodweather.MainActivity.onOptionsItemSelected\n Susp=0,4035"];
"ade58e87-aec9-4826-98c5-0e98506526ad" -> "00b60b21-2c14-4cc7-a991-5c09a425265a";
"00b60b21-2c14-4cc7-a991-5c09a425265a" [label="de.robv.android.xposed.XposedBridge.handleHookedMethod\n Susp=0,4035"];
"00b60b21-2c14-4cc7-a991-5c09a425265a" -> "5f457727-de3a-4f5c-80f3-6723a2aa70c1";
"5f457727-de3a-4f5c-80f3-6723a2aa70c1" [label="de.robv.android.xposed.XposedBridge.invokeOriginalMethodNative\n Susp=0,4035"];
"5f457727-de3a-4f5c-80f3-6723a2aa70c1" -> "f4e362d6-4d4e-408a-a16b-81fe50a3182a";
"f4e362d6-4d4e-408a-a16b-81fe50a3182a" [label="org.asdtm.goodweather.MainActivity.onOptionsItemSelected\n Susp=0,4035"];
"f4e362d6-4d4e-408a-a16b-81fe50a3182a" -> "c78764f4-1d35-4bf7-8e0e-0541c2c4329a";
"c78764f4-1d35-4bf7-8e0e-0541c2c4329a" [label="org.asdtm.goodweather.MainActivity.gpsRequestLocation\n Susp=0,8035"];
"c78764f4-1d35-4bf7-8e0e-0541c2c4329a" -> "a1e77e15-0d1a-4648-a576-0d86c2b6e6b8";
"a1e77e15-0d1a-4648-a576-0d86c2b6e6b8" [label="android.support.v4.content.ContextCompat.checkSelfPermission\n Susp=0,4023"];
"a1e77e15-0d1a-4648-a576-0d86c2b6e6b8" -> "e1c41cfe-1009-4b1d-9b58-f41f1fd9e465";
"e1c41cfe-1009-4b1d-9b58-f41f1fd9e465" [label="de.robv.android.xposed.XposedBridge.handleHookedMethod\n Susp=0,4023"];
"e1c41cfe-1009-4b1d-9b58-f41f1fd9e465" -> "1ba7d6f9-4007-4097-919f-75718a37fbff";
"1ba7d6f9-4007-4097-919f-75718a37fbff" [label="it.unimib.disco.lta.unimiblogger.MyMethodHook.beforeHookedMethod\n Susp=0,4023"];
"1ba7d6f9-4007-4097-919f-75718a37fbff" -> "b7000e39-0eef-44e6-bf91-88d7d1fe5820";
"b7000e39-0eef-44e6-bf91-88d7d1fe5820" [label="java.lang.Thread.getStackTrace\n Susp=0,4023"];
"b7000e39-0eef-44e6-bf91-88d7d1fe5820" -> "a8eb45f2-135e-4dd6-a660-f04717a88033";
"a8eb45f2-135e-4dd6-a660-f04717a88033" [label="dalvik.system.VMStack.getThreadStackTrace\n Susp=0,0023"];
"c78764f4-1d35-4bf7-8e0e-0541c2c4329a" -> "6bb595dc-3217-40c2-99db-ba0dcd06df99";
"6bb595dc-3217-40c2-99db-ba0dcd06df99" [label="android.location.LocationManager.requestLocationUpdates\n Susp=0,4012"];
"6bb595dc-3217-40c2-99db-ba0dcd06df99" -> "928c5876-0d09-408f-969b-5a2c3e426fe1";
"928c5876-0d09-408f-969b-5a2c3e426fe1" [label="de.robv.android.xposed.XposedBridge.handleHookedMethod\n Susp=0,4012"];
"928c5876-0d09-408f-969b-5a2c3e426fe1" -> "f3075c4f-c0f2-493c-864b-c14564d60235";
"f3075c4f-c0f2-493c-864b-c14564d60235" [label="it.unimib.disco.lta.unimiblogger.MyMethodHook.beforeHookedMethod\n Susp=0,4012"];
"f3075c4f-c0f2-493c-864b-c14564d60235" -> "64c2485a-6e72-4282-b4ae-60a8d769ac3b";
"64c2485a-6e72-4282-b4ae-60a8d769ac3b" [label="java.lang.Thread.getStackTrace\n Susp=0,4012"];
"64c2485a-6e72-4282-b4ae-60a8d769ac3b" -> "7f087ac3-5e2e-4e8d-bc17-15f3eb0c5763";
"7f087ac3-5e2e-4e8d-bc17-15f3eb0c5763" [label="dalvik.system.VMStack.getThreadStackTrace\n Susp=0,0012"];
"03c2d4bf-7f56-4029-8c72-8bceacb32c05" -> "970c9784-999e-4cf5-8774-3d2cdecaf166";
"970c9784-999e-4cf5-8774-3d2cdecaf166" [label="android.location.LocationManager$ListenerTransport$1.handleMessage\n Susp=0,5965"];
"970c9784-999e-4cf5-8774-3d2cdecaf166" -> "31948571-faf1-4c39-8656-aa2563f383f3";
"31948571-faf1-4c39-8656-aa2563f383f3" [label="android.location.LocationManager$ListenerTransport.access$000\n Susp=0,5965"];
"31948571-faf1-4c39-8656-aa2563f383f3" -> "adbe0ac1-fe62-4fd1-b249-2e28d6348e19";
"adbe0ac1-fe62-4fd1-b249-2e28d6348e19" [label="android.location.LocationManager$ListenerTransport._handleMessage\n Susp=0,5965"];
"adbe0ac1-fe62-4fd1-b249-2e28d6348e19" -> "1a47648e-c635-4e8c-8e86-9af8e0833387";
"1a47648e-c635-4e8c-8e86-9af8e0833387" [label="org.asdtm.goodweather.MainActivity$1.onLocationChanged\n Susp=0,5965"];
"1a47648e-c635-4e8c-8e86-9af8e0833387" -> "2efe552f-0588-4023-a76b-6a3362a44176";
"2efe552f-0588-4023-a76b-6a3362a44176" [label="de.robv.android.xposed.XposedBridge.handleHookedMethod\n Susp=0,5965"];
"2efe552f-0588-4023-a76b-6a3362a44176" -> "82e2f3b7-8b19-4e19-941d-c3e5ca314783";
"82e2f3b7-8b19-4e19-941d-c3e5ca314783" [label="it.unimib.disco.lta.unimiblogger.MyMethodHook.beforeHookedMethod\n Susp=0,5965"];
"82e2f3b7-8b19-4e19-941d-c3e5ca314783" -> "871234ad-07fd-495a-a828-bfa7368bc0db";
"871234ad-07fd-495a-a828-bfa7368bc0db" [label="java.lang.Thread.getStackTrace\n Susp=0,5965"];
"871234ad-07fd-495a-a828-bfa7368bc0db" -> "bda76105-a96c-4f1e-a44e-603e80f555eb";
"bda76105-a96c-4f1e-a44e-603e80f555eb" [label="dalvik.system.VMStack.getThreadStackTrace\n Susp=0,1965"];
}
