Position |MethodName|Relevancy
0.2|com.bytestemplar.tonedef.DTMFActivity.onActivityResult|0.7685714285714286
0.4|com.bytestemplar.tonedef.touchpad.TouchPadActivity.onActivityResult|0.679047619047619
0.6|com.bytestemplar.tonedef.ContactList.parseResponse|0.5895238095238096
0.8|com.bytestemplar.tonedef.touchpad.TouchPadActivity.setup|0.25476190476190474
1.0|com.bytestemplar.tonedef.DTMFActivity.onCreate|0.25285714285714284
