BEFORE com.cunnj.activities.MainActivity.onCreate()
BEFORE android.support.v7.app.AppCompatActivity.onCreate()
AFTER android.support.v7.app.AppCompatActivity.onCreate
BEFORE android.support.v7.app.AppCompatActivity.setContentView(2131296283)
AFTER android.support.v7.app.AppCompatActivity.setContentView
BEFORE android.support.v4.app.FragmentActivity.getSupportFragmentManager()
AFTER android.support.v4.app.FragmentActivity.getSupportFragmentManager, returnValue: FragmentManager{1915c63 in HostCallbacks{c9cb060}}
BEFORE android.support.v4.app.FragmentManagerImpl.beginTransaction()
AFTER android.support.v4.app.FragmentManagerImpl.beginTransaction, returnValue: BackStackEntry{6b48919}, isEmpty: true
BEFORE android.support.v4.app.BackStackRecord.replace(2131165237,com.cunnj.activities.AllTasksListFragment)
BEFORE android.support.v4.app.BackStackRecord.replace(2131165237,com.cunnj.activities.AllTasksListFragment)
AFTER android.support.v4.app.BackStackRecord.replace, returnValue: BackStackEntry{6b48919}, isEmpty: false
AFTER android.support.v4.app.BackStackRecord.replace, returnValue: BackStackEntry{6b48919}, isEmpty: false
BEFORE android.support.v4.app.BackStackRecord.commit()
AFTER android.support.v4.app.BackStackRecord.commit, returnValue: -1
AFTER com.cunnj.activities.MainActivity.onCreate
BEFORE com.cunnj.activities.AllTasksListFragment.onCreateView(com.android.internal.policy.PhoneLayoutInflater,android.widget.FrameLayout)
BEFORE android.view.LayoutInflater.inflate(2131296288)
BEFORE android.view.LayoutInflater.inflate(2131296288)
AFTER android.view.LayoutInflater.inflate, returnValue: android.widget.LinearLayout{70c26ec V.E...... ......I. 0,0-0,0}
AFTER android.view.LayoutInflater.inflate, returnValue: android.widget.LinearLayout{70c26ec V.E...... ......I. 0,0-0,0}
BEFORE android.widget.ExpandableListView.setOnChildClickListener(com.cunnj.activities.AllTasksListFragment$1)
AFTER android.widget.ExpandableListView.setOnChildClickListener
BEFORE android.support.v4.app.Fragment.getActivity()
AFTER android.support.v4.app.Fragment.getActivity, returnValue: com.cunnj.activities.MainActivity
BEFORE android.os.AsyncTask.execute([Ljava.lang.Void;)
BEFORE com.cunnj.activities.AsyncProvider.onPreExecute()
BEFORE android.os.AsyncTask.onPreExecute()
AFTER android.os.AsyncTask.onPreExecute
BEFORE android.app.Dialog.setCancelable(false)
AFTER android.app.Dialog.setCancelable
BEFORE android.content.Context.getText(2131492896)
AFTER android.content.Context.getText, returnValue: Activities, isEmpty: false
BEFORE android.app.AlertDialog.setTitle(Activities)
AFTER android.app.AlertDialog.setTitle
BEFORE android.content.Context.getText(2131493128)
AFTER android.content.Context.getText, returnValue: Loading apps…, isEmpty: false
BEFORE android.app.ProgressDialog.setMessage(Loading apps…)
AFTER android.app.ProgressDialog.setMessage
BEFORE android.app.ProgressDialog.setProgressStyle(0)
AFTER android.app.ProgressDialog.setProgressStyle
BEFORE android.app.Dialog.show()
AFTER android.app.Dialog.show
AFTER com.cunnj.activities.AsyncProvider.onPreExecute
BEFORE com.cunnj.activities.AsyncProvider.doInBackground([Ljava.lang.Void;)
BEFORE com.cunnj.activities.AsyncProvider.doInBackground([Ljava.lang.Void;)
BEFORE android.content.ContextWrapper.getPackageManager()
BEFORE com.cunnj.activities.AllTasksListFragment.onActivityCreated()
BEFORE android.support.v4.app.Fragment.onActivityCreated()
AFTER android.support.v4.app.Fragment.onActivityCreated
BEFORE android.support.v4.app.Fragment.registerForContextMenu(android.widget.ExpandableListView)
AFTER android.support.v4.app.Fragment.registerForContextMenu
AFTER com.cunnj.activities.AllTasksListFragment.onActivityCreated
AFTER android.content.ContextWrapper.getPackageManager, returnValue: android.app.ApplicationPackageManager
BEFORE android.app.ApplicationPackageManager.getInstalledPackages(0)
AFTER android.app.ApplicationPackageManager.getInstalledPackages, returnValue: [PackageInfo{6783781 com.android.cts.priv.ctsshim}, PackageInfo{df2026 com.example.android.livecubes}, PackageInfo{e307467 com.android.providers.telephony}, PackageInfo{cc32214 io.appium.settings}, PackageInfo{2efcabd com.android.providers.calendar}, PackageInfo{b0d18b2 com.android.providers.media}, PackageInfo{dc5f003 com.android.wallpapercropper}, PackageInfo{1ba4b80 tech.ula}, PackageInfo{45355b9 com.android.documentsui}, PackageInfo{1b00dfe com.android.externalstorage}, PackageInfo{cad895f com.android.htmlviewer}, PackageInfo{4389fac com.android.companiondevicemanager}, PackageInfo{7ca9475 com.android.quicksearchbox}, PackageInfo{1fb0c0a com.android.mms.service}, PackageInfo{f4b5c7b com.android.providers.downloads}, PackageInfo{b660a98 com.android.messaging}, PackageInfo{b3d02f1 com.android.defcontainer}, PackageInfo{745ded6 de.robv.android.xposed.installer}, PackageInfo{2294557 com.android.providers.downloads.ui}, PackageInfo{6fd3844 com.android.pacprocessor}, PackageInfo{98ddd2d com.android.certinstaller}, PackageInfo{8991262 com.android.carrierconfig}, PackageInfo{692dff3 com.google.android.launcher.layouts.genymotion}, PackageInfo{5b794b0 com.genymotion.systempatcher}, PackageInfo{e981f29 android}, PackageInfo{2f9f2ae com.android.contacts}, PackageInfo{cf1884f com.android.camera2}, PackageInfo{6794bdc com.android.egg}, PackageInfo{eea84e5 com.android.nfc}, PackageInfo{c768bba com.android.launcher3}, PackageInfo{8e85a6b com.android.backupconfirm}, PackageInfo{3d49c8 com.android.provision}, PackageInfo{f438a61 com.android.statementservice}, PackageInfo{bf1a986 com.android.calendar}, PackageInfo{b303247 it.unimib.disco.lta.unimiblogger}, PackageInfo{cc13a74 com.android.providers.settings}, PackageInfo{7cd6b9d com.android.sharedstoragebackup}, PackageInfo{1aed812 com.android.printspooler}, PackageInfo{d33abe3 com.android.dreams.basic}, PackageInfo{1f189e0 com.android.webview}, PackageInfo{f1a2499 com.android.inputdevices}, PackageInfo{c9e635e com.android.bips}, PackageInfo{a6b233f com.android.musicfx}, PackageInfo{615640c com.android.development_settings}, PackageInfo{8df7155 com.android.cellbroadcastreceiver}, PackageInfo{869576a android.ext.shared}, PackageInfo{378b45b com.android.onetimeinitializer}, PackageInfo{abab4f8 com.android.server.telecom}, PackageInfo{472cdd1 com.android.keychain}, PackageInfo{3d8036 com.android.printservice.recommendation}, PackageInfo{7043b37 com.android.dialer}, PackageInfo{a6228a4 com.android.gallery3d}, PackageInfo{705760d android.ext.services}, PackageInfo{25969c2 com.android.calllogbackup}, PackageInfo{c5753d3 com.android.packageinstaller}, PackageInfo{4eb2b10 com.android.carrierdefaultapp}, PackageInfo{da06609 com.svox.pico}, PackageInfo{58600e com.example.android.apis}, PackageInfo{bb95a2f com.android.proxyhandler}, PackageInfo{6bfe83c com.android.inputmethod.latin}, PackageInfo{2e059c5 org.chromium.webview_shell}, PackageInfo{83e6f1a com.android.managedprovisioning}, PackageInfo{8b6a4b com.android.dreams.phototable}, PackageInfo{6c14c28 com.android.smspush}, PackageInfo{471cd41 com.cunnj.activities}, PackageInfo{24462e6 de.baumann.browser}, PackageInfo{1246027 com.android.wallpaper.livepicker}, PackageInfo{6f302d4 com.amaze.filemanager}, PackageInfo{44cfc7d com.android.storagemanager}, PackageInfo{f63c772 jp.co.omronsoft.openwnn}, PackageInfo{86cd7c3 com.android.bookmarkprovider}, PackageInfo{3e77840 com.android.settings}, PackageInfo{1b1e379 com.android.calculator2}, PackageInfo{4a2e8be com.android.gesture.builder}, PackageInfo{d3b2d1f com.android.cts.ctsshim}, PackageInfo{eebd86c com.android.vpndialogs}, PackageInfo{5e43e35 com.android.email}, PackageInfo{f20d2ca com.android.music}, PackageInfo{36f7c3b com.android.phone}, PackageInfo{ef40f58 com.android.shell}, PackageInfo{a788b1 com.android.wallpaperbackup}, PackageInfo{ce15196 com.android.providers.blockednumber}, PackageInfo{2cfa117 com.android.providers.userdictionary}, PackageInfo{446c904 com.android.emergency}, PackageInfo{7afeed com.genymotion.genyd}, PackageInfo{658f122 com.android.location.fused}, PackageInfo{fa337b3 com.android.deskclock}, PackageInfo{ae97170 com.android.systemui}, PackageInfo{2959ce9 com.android.bluetoothmidiservice}, PackageInfo{4b8fd6e com.genymotion.superuser}, PackageInfo{10f9c0f de.skubware.opentraining}, PackageInfo{7cc349c com.android.customlocale2}, PackageInfo{6a21ea5 com.android.bluetooth}, PackageInfo{fb827a com.android.development}, PackageInfo{133ea2b com.android.wallpaperpicker}, PackageInfo{cb5fe88 com.android.providers.contacts}, PackageInfo{23b0021 com.android.captiveportallogin}], isEmpty: false
BEFORE android.os.AsyncTask.publishProgress([Ljava.lang.Integer;)
AFTER android.os.AsyncTask.publishProgress
BEFORE android.os.AsyncTask.publishProgress([Ljava.lang.Integer;)
AFTER android.os.AsyncTask.publishProgress
BEFORE android.app.ApplicationPackageManager.getPackageInfo(com.android.cts.priv.ctsshim,1)
AFTER android.app.ApplicationPackageManager.getPackageInfo, returnValue: PackageInfo{267d5d com.android.cts.priv.ctsshim}
BEFORE android.app.ApplicationPackageManager.getApplicationLabel(android.content.pm.ApplicationInfo)
AFTER android.app.ApplicationPackageManager.getApplicationLabel, returnValue: com.android.cts.priv.ctsshim, isEmpty: false
BEFORE android.app.ApplicationPackageManager.getApplicationIcon(android.content.pm.ApplicationInfo)
AFTER android.app.ApplicationPackageManager.getApplicationIcon, returnValue: android.graphics.drawable.AdaptiveIconDrawable
BEFORE android.app.ApplicationPackageManager.getDefaultActivityIcon()
AFTER android.app.ApplicationPackageManager.getDefaultActivityIcon, returnValue: android.graphics.drawable.AdaptiveIconDrawable
AFTER com.cunnj.activities.AsyncProvider.doInBackground
AFTER com.cunnj.activities.AsyncProvider.doInBackground
