0a1,238
> BEFORE com.furkantektas.braingames.ui.MainActivity.onCreate()
> BEFORE android.app.Activity.onCreate()
> AFTER android.app.Activity.onCreate
> BEFORE android.app.Activity.setContentView(2131296287)
> AFTER android.app.Activity.setContentView
> BEFORE android.content.ContextWrapper.getApplicationContext()
> AFTER android.content.ContextWrapper.getApplicationContext, returnValue: android.app.Application
> BEFORE android.app.Activity.findViewById(2131165284)
> AFTER android.app.Activity.findViewById, returnValue: android.widget.ImageButton{29d41e5e VFED..C. ......I. 0,0-0,0 #7f070064 app:id/toggle_volume}
> BEFORE android.widget.ImageView.setImageResource(2131099710)
> AFTER android.widget.ImageView.setImageResource
> BEFORE android.app.Activity.findViewById(2131165207)
> AFTER android.app.Activity.findViewById, returnValue: android.widget.Button{99d170c VFED..C. ......ID 0,0-0,0 #7f070017 app:id/button_color_match}
> BEFORE android.app.Activity.findViewById(2131165213)
> AFTER android.app.Activity.findViewById, returnValue: android.widget.Button{1430a855 VFED..C. ......ID 0,0-0,0 #7f07001d app:id/button_shape_match}
> BEFORE android.app.Activity.findViewById(2131165210)
> AFTER android.app.Activity.findViewById, returnValue: android.widget.Button{32bfc26a VFED..C. ......ID 0,0-0,0 #7f07001a app:id/button_find_operation}
> BEFORE android.app.Activity.findViewById(2131165206)
> AFTER android.app.Activity.findViewById, returnValue: android.widget.Button{10de435b VFED..C. ......ID 0,0-0,0 #7f070016 app:id/button_calculate_fast}
> BEFORE android.app.Activity.findViewById(2131165211)
> AFTER android.app.Activity.findViewById, returnValue: android.widget.Button{1a8a97f8 VFED..C. ......ID 0,0-0,0 #7f07001b app:id/button_memory_matrix}
> BEFORE android.app.Activity.findViewById(2131165208)
> AFTER android.app.Activity.findViewById, returnValue: android.widget.Button{92074d1 VFED..C. ......ID 0,0-0,0 #7f070018 app:id/button_compare_fast}
> BEFORE android.app.Activity.findViewById(2131165280)
> AFTER android.app.Activity.findViewById, returnValue: android.widget.ImageButton{310f9b36 VFED..C. ......I. 0,0-0,0 #7f070060 app:id/stats}
> AFTER com.furkantektas.braingames.ui.MainActivity.onCreate
> BEFORE com.furkantektas.braingames.ui.MainActivity$1.onClick(android.widget.Button)
> BEFORE android.content.ContextWrapper.getApplicationContext()
> AFTER android.content.ContextWrapper.getApplicationContext, returnValue: android.app.Application
> BEFORE android.app.Activity.startActivity(android.content.Intent)
> BEFORE android.app.Activity.startActivity(android.content.Intent)
> AFTER android.app.Activity.startActivity
> AFTER android.app.Activity.startActivity
> AFTER com.furkantektas.braingames.ui.MainActivity$1.onClick
> BEFORE com.furkantektas.braingames.ui.games.GameColorMatchActivity.onCreate()
> BEFORE android.app.Activity.onCreate()
> AFTER android.app.Activity.onCreate
> BEFORE android.content.ContextWrapper.getApplicationContext()
> AFTER android.content.ContextWrapper.getApplicationContext, returnValue: android.app.Application
> BEFORE android.content.ContextWrapper.getApplicationContext()
> AFTER android.content.ContextWrapper.getApplicationContext, returnValue: android.app.Application
> BEFORE android.content.ContextWrapper.getSharedPreferences(GAME_PREFERENCES,0)
> AFTER android.content.ContextWrapper.getSharedPreferences, returnValue: android.app.SharedPreferencesImpl
> BEFORE android.content.ContextWrapper.getApplicationContext()
> AFTER android.content.ContextWrapper.getApplicationContext, returnValue: android.app.Application
> BEFORE android.content.ContextWrapper.getResources()
> AFTER android.content.ContextWrapper.getResources, returnValue: android.content.res.XResources
> BEFORE android.content.res.Resources.getString(2131492892)
> AFTER android.content.res.Resources.getString, returnValue: Color Match, isEmpty: false
> BEFORE android.app.Activity.setContentView(2131296281)
> BEFORE android.view.ContextThemeWrapper.getTheme()
> AFTER android.view.ContextThemeWrapper.getTheme, returnValue: android.content.res.Resources$Theme
> BEFORE android.content.res.Resources$Theme.obtainStyledAttributes(android.content.res.XmlBlock$Parser,[I,0,0)
> BEFORE android.content.res.Resources$Theme.obtainStyledAttributes(android.content.res.XmlBlock$Parser,[I,0,0)
> AFTER android.content.res.Resources$Theme.obtainStyledAttributes, returnValue: [0, 0, 1, 0, 0, 0, 16, 60000, -1, 0, 0, 0, 0, 0, -1, 0, 0, 0, 3, 862, 1, 17302997, 1073746944, 0, 0, 0, -1, 0, 1073746944, 0, 0, 0, -1, 0, 1073746944, 0, 0, 0, -1, 0, 0, 0, 0, 0, -1, 0, 0, 0, 0, 0, -1, 0, 0, 0, 18, 0, 2, 2131165221, 0, 0, 0, 0, 2, 0, 0, 0, 0, 0, 2, 0, 0, 0, 0, 0, 2, 0, 0, 0, 0, 0, 2, 0, 0, 0, 0, 0, 2, 0, 0, 0, 0, 0, 2, 0, 0, 0, 0, 0, 2, 0, 0, 0, 0, 0, 2, 0, 0, 0, 0, 0, 2, 0, 0, 0, 0, 0, 2, 0, 0, 0, 0, 0, 2, 0, 0, 0, 0, 0, 2, 0, 0, 0, 0, 0, 2, 0, 0, 0, 0, 0, 2, 0, 0, 0, 0, 0, 2, 0, 0, 0, 0, 0, 2, 0, 0, 0, 0, 0, 2, 0, 0, 0, 0, 0, 2, 0, 0, 0, 0, 0, 2, 0, 0, 0, 0, 0, 2, 0, 0, 0, 0, 0, 2, 0, 0, 0, 0, 0, 2, 0, 0, 0, 0, 0, 2, 0, 0, 0, 0, 0, 2, 0, 0, 0, 0, 0, 2, 0, 0, 0, 0, 0, 2, 0, 0, 0, 0, 0, 2, 0, 0, 0, 0, 0, 2, 0, 0, 0, 0, 0, 2, 0, 0, 0, 0, 0, 2, 0, 0, 0, 0, 0, 2, 0, 0, 0, 0, 0, 2, 0, 0, 0, 0, 0, 2, 0, 0, 0, 16, 250, 2, 0, 1073746944, 0, 16, 300, 2, 0, 1073746944, 0, 0, 0, 2, 0, 0, 0, 0, 0, 2, 0, 0, 0, 0, 0, 2, 0, 0, 0, 0, 0, 2, 0, 0, 0, 0, 0, 2, 0, 0, 0, 0, 0, 2, 0, 0, 0, 0, 0, 2, 0, 0, 0, 0, 0, 2, 0, 0, 0, 0, 0, 2, 0, 0, 0, 0, 0, 2, 0, 0, 0, 0, 0, 2, 0, 0, 0, 0, 0, 2, 0, 0, 0, 0, 0, 2, 0, 0, 0, 0, 0, 2, 0, 0, 0, 0, 0, 2, 0, 0, 0, 0, 0, 2, 0, 0, 0, 0, 0, 2, 0, 0, 0, 0, 0, 2, 0, 0, 0, 0, 0, 2, 0, 0, 0, 0, 0, 2, 0, 0, 0, 0, 0, 2, 0, 0, 0, 0, 0, 2, 0, 0, 0, 0, 0, 2, 0, 0, 0, 0, 0, 2, 0, 0, 0, 0, 0, 2, 0, 0, 0, 0, 0, 2, 0, 0, 0, 0, 0, 2, 0, 0, 0, 0, 0, 2, 0, 0, 0, 0, 0, 2, 0, 0, 0, 0, 0, 2, 0, 0, 0, 0, 0, 2, 0, 0, 0, 0, 0, 2, 0, 0, 0, 0, 0, 2, 0, 0, 0, 0, 0, 1, 0, 0, 0]
> AFTER android.content.res.Resources$Theme.obtainStyledAttributes, returnValue: [0, 0, 1, 0, 0, 0, 16, 60000, -1, 0, 0, 0, 0, 0, -1, 0, 0, 0, 3, 862, 1, 17302997, 1073746944, 0, 0, 0, -1, 0, 1073746944, 0, 0, 0, -1, 0, 1073746944, 0, 0, 0, -1, 0, 0, 0, 0, 0, -1, 0, 0, 0, 0, 0, -1, 0, 0, 0, 18, 0, 2, 2131165221, 0, 0, 0, 0, 2, 0, 0, 0, 0, 0, 2, 0, 0, 0, 0, 0, 2, 0, 0, 0, 0, 0, 2, 0, 0, 0, 0, 0, 2, 0, 0, 0, 0, 0, 2, 0, 0, 0, 0, 0, 2, 0, 0, 0, 0, 0, 2, 0, 0, 0, 0, 0, 2, 0, 0, 0, 0, 0, 2, 0, 0, 0, 0, 0, 2, 0, 0, 0, 0, 0, 2, 0, 0, 0, 0, 0, 2, 0, 0, 0, 0, 0, 2, 0, 0, 0, 0, 0, 2, 0, 0, 0, 0, 0, 2, 0, 0, 0, 0, 0, 2, 0, 0, 0, 0, 0, 2, 0, 0, 0, 0, 0, 2, 0, 0, 0, 0, 0, 2, 0, 0, 0, 0, 0, 2, 0, 0, 0, 0, 0, 2, 0, 0, 0, 0, 0, 2, 0, 0, 0, 0, 0, 2, 0, 0, 0, 0, 0, 2, 0, 0, 0, 0, 0, 2, 0, 0, 0, 0, 0, 2, 0, 0, 0, 0, 0, 2, 0, 0, 0, 0, 0, 2, 0, 0, 0, 0, 0, 2, 0, 0, 0, 0, 0, 2, 0, 0, 0, 0, 0, 2, 0, 0, 0, 0, 0, 2, 0, 0, 0, 16, 250, 2, 0, 1073746944, 0, 16, 300, 2, 0, 1073746944, 0, 0, 0, 2, 0, 0, 0, 0, 0, 2, 0, 0, 0, 0, 0, 2, 0, 0, 0, 0, 0, 2, 0, 0, 0, 0, 0, 2, 0, 0, 0, 0, 0, 2, 0, 0, 0, 0, 0, 2, 0, 0, 0, 0, 0, 2, 0, 0, 0, 0, 0, 2, 0, 0, 0, 0, 0, 2, 0, 0, 0, 0, 0, 2, 0, 0, 0, 0, 0, 2, 0, 0, 0, 0, 0, 2, 0, 0, 0, 0, 0, 2, 0, 0, 0, 0, 0, 2, 0, 0, 0, 0, 0, 2, 0, 0, 0, 0, 0, 2, 0, 0, 0, 0, 0, 2, 0, 0, 0, 0, 0, 2, 0, 0, 0, 0, 0, 2, 0, 0, 0, 0, 0, 2, 0, 0, 0, 0, 0, 2, 0, 0, 0, 0, 0, 2, 0, 0, 0, 0, 0, 2, 0, 0, 0, 0, 0, 2, 0, 0, 0, 0, 0, 2, 0, 0, 0, 0, 0, 2, 0, 0, 0, 0, 0, 2, 0, 0, 0, 0, 0, 2, 0, 0, 0, 0, 0, 2, 0, 0, 0, 0, 0, 2, 0, 0, 0, 0, 0, 2, 0, 0, 0, 0, 0, 2, 0, 0, 0, 0, 0, 1, 0, 0, 0]
> BEFORE android.content.res.TypedArray.recycle()
> AFTER android.content.res.TypedArray.recycle
> AFTER android.app.Activity.setContentView
> BEFORE android.app.Activity.findViewById(2131165233)
> AFTER android.app.Activity.findViewById, returnValue: android.widget.AdapterViewFlipper{346a9487 V.E..... ......I. 0,0-0,0 #7f070031 app:id/flipper}
> BEFORE android.widget.BaseAdapter.notifyDataSetChanged()
> AFTER android.widget.BaseAdapter.notifyDataSetChanged
> BEFORE android.widget.AdapterViewFlipper.setAdapter(com.furkantektas.braingames.data.ColorMatchAdapter)
> BEFORE com.furkantektas.braingames.data.ColorMatchAdapter.getCount()
> AFTER com.furkantektas.braingames.data.ColorMatchAdapter.getCount, returnValue: 25
> BEFORE com.furkantektas.braingames.data.ColorMatchAdapter.getCount()
> AFTER com.furkantektas.braingames.data.ColorMatchAdapter.getCount, returnValue: 25
> BEFORE com.furkantektas.braingames.data.ColorMatchAdapter.getCount()
> AFTER com.furkantektas.braingames.data.ColorMatchAdapter.getCount, returnValue: 25
> BEFORE com.furkantektas.braingames.data.ColorMatchAdapter.getView(0,android.widget.AdapterViewFlipper)
> BEFORE android.view.LayoutInflater.from(com.furkantektas.braingames.ui.games.GameColorMatchActivity)
> AFTER android.view.LayoutInflater.from, returnValue: com.android.internal.policy.impl.PhoneLayoutInflater
> BEFORE android.view.LayoutInflater.inflate(2131296291,android.widget.AdapterViewFlipper,false)
> BEFORE android.view.ContextThemeWrapper.getTheme()
> AFTER android.view.ContextThemeWrapper.getTheme, returnValue: android.content.res.Resources$Theme
> BEFORE android.content.res.Resources$Theme.obtainStyledAttributes(android.content.res.XmlBlock$Parser,[I,0,0)
> BEFORE android.content.res.Resources$Theme.obtainStyledAttributes(android.content.res.XmlBlock$Parser,[I,0,0)
> AFTER android.content.res.Resources$Theme.obtainStyledAttributes, returnValue: [4, 1061158912, -1, 0, 0, 0, 5, 1, -1, 0, 0, 0, 5, 513, 2, 2131034152, 0, 0, 5, 513, 2, 2131034152, 0, 0, 18, -1, 2, 0, 0, 0, 18, 0, 2, 0, 0, 0, 0, 0, 2, 0, 0, 0, 0, 0, 2, 0, 0, 0, 0, 0, 2, 0, 0, 0, 0, 0, 2, 0, 0, 0, 0, 0, 2, 0, 0, 0, 0, 0, 1, 0, 0, 0, 0, 0, 1, 0, 0, 0, 0, 0, 2, 0, 0, 0, 0, 0, 2, 0, 0, 0, 0, 0, 2, 0, 0, 0, 0, 0, 2, 0, 0, 0, 0, 0, 2, 0, 0, 0, 0, 0, 2, 0, 0, 0, 0, 0, 2, 0, 0, 0, 0, 0, 2, 0, 0, 0, 0, 0, 2, 0, 0, 0, 0, 0, 2, 0, 0, 0, 0, 0, 2, 0, 0, 0, 0, 0, 2, 0, 0, 0, 0, 0, 2, 0, 0, 0, 0, 0, 2, 0, 0, 0, 0, 0, 2, 0, 0, 0, 0, 0, 2, 0, 0, 0, 0, 0, 2, 0, 0, 0, 0, 0, 2, 0, 0, 0, 0, 0, 2, 0, 0, 0, 0, 0, 2, 0, 0, 0, 0, 0, 2, 0, 0, 0, 0, 0, 2, 0, 0, 0, 0, 0, 2, 0, 0, 0, 0, 0, 2, 0, 0, 0, 0, 0, 2, 0, 0, 0, 0, 0, 2, 0, 0, 0, 0, 0, 2, 0, 0, 0, 0, 0, 2, 0, 0, 0, 0, 0, 2, 0, 0, 0, 0, 0, 2, 0, 0, 0, 16, 250, 2, 0, 1073746944, 0, 16, 300, 2, 0, 1073746944, 0, 0, 0, 2, 0, 0, 0, 0, 0, 2, 0, 0, 0, 0, 0, 2, 0, 0, 0, 0, 0, 2, 0, 0, 0, 0, 0, 2, 0, 0, 0, 0, 0, 2, 0, 0, 0, 0, 0, 2, 0, 0, 0, 0, 0, 2, 0, 0, 0, 0, 0, 2, 0, 0, 0, 0, 0, 2, 0, 0, 0, 0, 0, 2, 0, 0, 0, 0, 0, 2, 0, 0, 0, 0, 0, 2, 0, 0, 0, 0, 0, 2, 0, 0, 0, 0, 0, 2, 0, 0, 0, 0, 0, 2, 0, 0, 0, 0, 0, 2, 0, 0, 0, 0, 0, 2, 0, 0, 0, 0, 0, 2, 0, 0, 0, 0, 0, 2, 0, 0, 0, 0, 0, 2, 0, 0, 0, 0, 0, 2, 0, 0, 0, 0, 0, 2, 0, 0, 0, 0, 0, 2, 0, 0, 0, 0, 0, 2, 0, 0, 0, 0, 0, 2, 0, 0, 0, 0, 0, 2, 0, 0, 0, 0, 0, 2, 0, 0, 0, 0, 0, 2, 0, 0, 0, 0, 0, 2, 0, 0, 0, 0, 0, 2, 0, 0, 0, 0, 0, 2, 0, 0, 0, 0, 0, 2, 0, 0, 0, 0, 0, 1, 0, 0, 0]
> AFTER android.content.res.Resources$Theme.obtainStyledAttributes, returnValue: [4, 1061158912, -1, 0, 0, 0, 5, 1, -1, 0, 0, 0, 5, 513, 2, 2131034152, 0, 0, 5, 513, 2, 2131034152, 0, 0, 18, -1, 2, 0, 0, 0, 18, 0, 2, 0, 0, 0, 0, 0, 2, 0, 0, 0, 0, 0, 2, 0, 0, 0, 0, 0, 2, 0, 0, 0, 0, 0, 2, 0, 0, 0, 0, 0, 2, 0, 0, 0, 0, 0, 1, 0, 0, 0, 0, 0, 1, 0, 0, 0, 0, 0, 2, 0, 0, 0, 0, 0, 2, 0, 0, 0, 0, 0, 2, 0, 0, 0, 0, 0, 2, 0, 0, 0, 0, 0, 2, 0, 0, 0, 0, 0, 2, 0, 0, 0, 0, 0, 2, 0, 0, 0, 0, 0, 2, 0, 0, 0, 0, 0, 2, 0, 0, 0, 0, 0, 2, 0, 0, 0, 0, 0, 2, 0, 0, 0, 0, 0, 2, 0, 0, 0, 0, 0, 2, 0, 0, 0, 0, 0, 2, 0, 0, 0, 0, 0, 2, 0, 0, 0, 0, 0, 2, 0, 0, 0, 0, 0, 2, 0, 0, 0, 0, 0, 2, 0, 0, 0, 0, 0, 2, 0, 0, 0, 0, 0, 2, 0, 0, 0, 0, 0, 2, 0, 0, 0, 0, 0, 2, 0, 0, 0, 0, 0, 2, 0, 0, 0, 0, 0, 2, 0, 0, 0, 0, 0, 2, 0, 0, 0, 0, 0, 2, 0, 0, 0, 0, 0, 2, 0, 0, 0, 0, 0, 2, 0, 0, 0, 0, 0, 2, 0, 0, 0, 0, 0, 2, 0, 0, 0, 16, 250, 2, 0, 1073746944, 0, 16, 300, 2, 0, 1073746944, 0, 0, 0, 2, 0, 0, 0, 0, 0, 2, 0, 0, 0, 0, 0, 2, 0, 0, 0, 0, 0, 2, 0, 0, 0, 0, 0, 2, 0, 0, 0, 0, 0, 2, 0, 0, 0, 0, 0, 2, 0, 0, 0, 0, 0, 2, 0, 0, 0, 0, 0, 2, 0, 0, 0, 0, 0, 2, 0, 0, 0, 0, 0, 2, 0, 0, 0, 0, 0, 2, 0, 0, 0, 0, 0, 2, 0, 0, 0, 0, 0, 2, 0, 0, 0, 0, 0, 2, 0, 0, 0, 0, 0, 2, 0, 0, 0, 0, 0, 2, 0, 0, 0, 0, 0, 2, 0, 0, 0, 0, 0, 2, 0, 0, 0, 0, 0, 2, 0, 0, 0, 0, 0, 2, 0, 0, 0, 0, 0, 2, 0, 0, 0, 0, 0, 2, 0, 0, 0, 0, 0, 2, 0, 0, 0, 0, 0, 2, 0, 0, 0, 0, 0, 2, 0, 0, 0, 0, 0, 2, 0, 0, 0, 0, 0, 2, 0, 0, 0, 0, 0, 2, 0, 0, 0, 0, 0, 2, 0, 0, 0, 0, 0, 2, 0, 0, 0, 0, 0, 2, 0, 0, 0, 0, 0, 2, 0, 0, 0, 0, 0, 1, 0, 0, 0]
> BEFORE android.content.res.TypedArray.recycle()
> AFTER android.content.res.TypedArray.recycle
> AFTER android.view.LayoutInflater.inflate, returnValue: android.widget.RelativeLayout{2dd4488b V.E..... ......I. 0,0-0,0}
> BEFORE com.android.internal.os.LoggingPrintStream.println(i=0)
> AFTER com.android.internal.os.LoggingPrintStream.println
> AFTER com.furkantektas.braingames.data.ColorMatchAdapter.getView, returnValue: android.widget.RelativeLayout{2dd4488b V.E..... ......I. 0,0-0,0}
> BEFORE com.furkantektas.braingames.data.ColorMatchAdapter.getItemId(0)
> AFTER com.furkantektas.braingames.data.ColorMatchAdapter.getItemId, returnValue: 0
> BEFORE com.furkantektas.braingames.ui.AspectRatioCardView.onMeasure(0,0)
> BEFORE android.support.v7.widget.CardView.onMeasure(0,0)
> AFTER android.support.v7.widget.CardView.onMeasure
> BEFORE android.support.v7.widget.CardView.onMeasure(1073742103,1073742197)
> AFTER android.support.v7.widget.CardView.onMeasure
> AFTER com.furkantektas.braingames.ui.AspectRatioCardView.onMeasure
> BEFORE com.furkantektas.braingames.ui.AspectRatioCardView.onMeasure(1073742103,0)
> BEFORE android.support.v7.widget.CardView.onMeasure(1073742103,0)
> AFTER android.support.v7.widget.CardView.onMeasure
> BEFORE android.support.v7.widget.CardView.onMeasure(1073742103,1073742196)
> AFTER android.support.v7.widget.CardView.onMeasure
> AFTER com.furkantektas.braingames.ui.AspectRatioCardView.onMeasure
> AFTER android.widget.AdapterViewFlipper.setAdapter
> AFTER com.furkantektas.braingames.ui.games.GameColorMatchActivity.onCreate
> BEFORE com.furkantektas.braingames.ui.games.AbstractGameActivity.onStart()
> BEFORE android.app.Activity.onStart()
> AFTER android.app.Activity.onStart
> BEFORE android.app.Fragment.setArguments(android.os.Bundle)
> AFTER android.app.Fragment.setArguments
> BEFORE android.app.Activity.getFragmentManager()
> AFTER android.app.Activity.getFragmentManager, returnValue: FragmentManager{22b4e8bd in GameColorMatchActivity{251edeb2}}
> BEFORE android.app.FragmentManagerImpl.beginTransaction()
> AFTER android.app.FragmentManagerImpl.beginTransaction, returnValue: BackStackEntry{25ab3e03}, isEmpty: true
> BEFORE android.app.BackStackRecord.add(2131165252,com.furkantektas.braingames.ui.ReadyScreenFragment)
> AFTER android.app.BackStackRecord.add, returnValue: BackStackEntry{25ab3e03}, isEmpty: false
> BEFORE android.app.BackStackRecord.commit()
> AFTER android.app.BackStackRecord.commit, returnValue: -1
> AFTER com.furkantektas.braingames.ui.games.AbstractGameActivity.onStart
> BEFORE com.furkantektas.braingames.ui.ReadyScreenFragment.onCreate()
> BEFORE android.app.Fragment.onCreate()
> AFTER android.app.Fragment.onCreate
> BEFORE android.app.Fragment.getArguments()
> AFTER android.app.Fragment.getArguments, returnValue: Bundle[{}], isEmpty: true
> AFTER com.furkantektas.braingames.ui.ReadyScreenFragment.onCreate
> BEFORE com.furkantektas.braingames.ui.ReadyScreenFragment.onCreateView(com.android.internal.policy.impl.PhoneLayoutInflater,android.widget.FrameLayout)
> BEFORE android.view.LayoutInflater.inflate(2131296294,android.widget.FrameLayout,false)
> AFTER android.view.LayoutInflater.inflate, returnValue: android.widget.FrameLayout{d174ab0 V.E..... ......I. 0,0-0,0}
> AFTER com.furkantektas.braingames.ui.ReadyScreenFragment.onCreateView, returnValue: android.widget.FrameLayout{d174ab0 V.E..... ......I. 0,0-0,0}
> BEFORE com.furkantektas.braingames.ui.games.AbstractCountDownTimerGameActivity.onResume()
> BEFORE android.app.Activity.onResume()
> AFTER android.app.Activity.onResume
> BEFORE android.app.Activity.findViewById(2131165221)
> AFTER android.app.Activity.findViewById, returnValue: com.furkantektas.braingames.ui.CountDownTimerWidget{18b798ae V.ED.... ......ID 0,0-0,0 #7f070025 app:id/countdown}
> BEFORE android.os.CountDownTimer.start()
> AFTER android.os.CountDownTimer.start, returnValue: com.furkantektas.braingames.ui.CountDownTimerWidget$1
> BEFORE com.android.internal.os.LoggingPrintStream.println(Countdown timer - Start)
> AFTER com.android.internal.os.LoggingPrintStream.println
> AFTER com.furkantektas.braingames.ui.games.AbstractCountDownTimerGameActivity.onResume
> BEFORE com.furkantektas.braingames.ui.AspectRatioCardView.onMeasure(1073742688,1073743309)
> BEFORE android.support.v7.widget.CardView.onMeasure(1073742688,1073743309)
> AFTER android.support.v7.widget.CardView.onMeasure
> BEFORE android.support.v7.widget.CardView.onMeasure(1073742688,1073742976)
> AFTER android.support.v7.widget.CardView.onMeasure
> AFTER com.furkantektas.braingames.ui.AspectRatioCardView.onMeasure
> BEFORE com.furkantektas.braingames.ui.AspectRatioCardView.onMeasure(1073742688,1073743309)
> BEFORE android.support.v7.widget.CardView.onMeasure(1073742688,1073743309)
> AFTER android.support.v7.widget.CardView.onMeasure
> BEFORE android.support.v7.widget.CardView.onMeasure(1073742688,1073742976)
> AFTER android.support.v7.widget.CardView.onMeasure
> AFTER com.furkantektas.braingames.ui.AspectRatioCardView.onMeasure
> BEFORE com.furkantektas.braingames.ui.AspectRatioCardView.onMeasure(1073742688,1073743309)
> BEFORE android.support.v7.widget.CardView.onMeasure(1073742688,1073743309)
> AFTER android.support.v7.widget.CardView.onMeasure
> BEFORE android.support.v7.widget.CardView.onMeasure(1073742688,1073742976)
> AFTER android.support.v7.widget.CardView.onMeasure
> AFTER com.furkantektas.braingames.ui.AspectRatioCardView.onMeasure
> BEFORE com.furkantektas.braingames.ui.AspectRatioCardView.onMeasure(1073742688,1073743309)
> BEFORE android.support.v7.widget.CardView.onMeasure(1073742688,1073743309)
> AFTER android.support.v7.widget.CardView.onMeasure
> BEFORE android.support.v7.widget.CardView.onMeasure(1073742688,1073742976)
> AFTER android.support.v7.widget.CardView.onMeasure
> AFTER com.furkantektas.braingames.ui.AspectRatioCardView.onMeasure
> BEFORE com.furkantektas.braingames.ui.AspectRatioCardView.onMeasure(1073742688,1073743309)
> BEFORE android.support.v7.widget.CardView.onMeasure(1073742688,1073743309)
> AFTER android.support.v7.widget.CardView.onMeasure
> BEFORE android.support.v7.widget.CardView.onMeasure(1073742688,1073742976)
> AFTER android.support.v7.widget.CardView.onMeasure
> AFTER com.furkantektas.braingames.ui.AspectRatioCardView.onMeasure
> BEFORE com.furkantektas.braingames.ui.AspectRatioCardView.onMeasure(1073742688,1073743309)
> BEFORE android.support.v7.widget.CardView.onMeasure(1073742688,1073743309)
> AFTER android.support.v7.widget.CardView.onMeasure
> BEFORE android.support.v7.widget.CardView.onMeasure(1073742688,1073742976)
> AFTER android.support.v7.widget.CardView.onMeasure
> AFTER com.furkantektas.braingames.ui.AspectRatioCardView.onMeasure
> BEFORE com.furkantektas.braingames.ui.AspectRatioCardView.onMeasure(1073742688,1073743309)
> BEFORE android.support.v7.widget.CardView.onMeasure(1073742688,1073743309)
> AFTER android.support.v7.widget.CardView.onMeasure
> BEFORE android.support.v7.widget.CardView.onMeasure(1073742688,1073742976)
> AFTER android.support.v7.widget.CardView.onMeasure
> AFTER com.furkantektas.braingames.ui.AspectRatioCardView.onMeasure
> BEFORE com.furkantektas.braingames.ui.AspectRatioCardView.onMeasure(1073742688,1073743309)
> BEFORE android.support.v7.widget.CardView.onMeasure(1073742688,1073743309)
> AFTER android.support.v7.widget.CardView.onMeasure
> BEFORE android.support.v7.widget.CardView.onMeasure(1073742688,1073742976)
> AFTER android.support.v7.widget.CardView.onMeasure
> AFTER com.furkantektas.braingames.ui.AspectRatioCardView.onMeasure
> BEFORE com.furkantektas.braingames.ui.CountDownTimerWidget$1.onTick(java.lang.Long)
> AFTER com.furkantektas.braingames.ui.CountDownTimerWidget$1.onTick
> BEFORE com.furkantektas.braingames.ui.AspectRatioCardView.onMeasure(1073742688,1073743309)
> BEFORE android.support.v7.widget.CardView.onMeasure(1073742688,1073743309)
> AFTER android.support.v7.widget.CardView.onMeasure
> BEFORE android.support.v7.widget.CardView.onMeasure(1073742688,1073742976)
> AFTER android.support.v7.widget.CardView.onMeasure
> AFTER com.furkantektas.braingames.ui.AspectRatioCardView.onMeasure
> BEFORE com.furkantektas.braingames.ui.AspectRatioCardView.onMeasure(1073742688,1073743309)
> BEFORE android.support.v7.widget.CardView.onMeasure(1073742688,1073743309)
> AFTER android.support.v7.widget.CardView.onMeasure
> BEFORE android.support.v7.widget.CardView.onMeasure(1073742688,1073742976)
> AFTER android.support.v7.widget.CardView.onMeasure
> AFTER com.furkantektas.braingames.ui.AspectRatioCardView.onMeasure
> BEFORE com.furkantektas.braingames.ui.AspectRatioCardView.onMeasure(1073742688,1073743309)
> BEFORE android.support.v7.widget.CardView.onMeasure(1073742688,1073743309)
> AFTER android.support.v7.widget.CardView.onMeasure
> BEFORE android.support.v7.widget.CardView.onMeasure(1073742688,1073742976)
> AFTER android.support.v7.widget.CardView.onMeasure
> AFTER com.furkantektas.braingames.ui.AspectRatioCardView.onMeasure
> BEFORE com.furkantektas.braingames.ui.AspectRatioCardView.onMeasure(1073742688,1073743309)
> BEFORE android.support.v7.widget.CardView.onMeasure(1073742688,1073743309)
> AFTER android.support.v7.widget.CardView.onMeasure
> BEFORE android.support.v7.widget.CardView.onMeasure(1073742688,1073742976)
> AFTER android.support.v7.widget.CardView.onMeasure
> AFTER com.furkantektas.braingames.ui.AspectRatioCardView.onMeasure
> BEFORE com.furkantektas.braingames.ui.CountDownTimerWidget$1.onTick(java.lang.Long)
> AFTER com.furkantektas.braingames.ui.CountDownTimerWidget$1.onTick
> BEFORE com.furkantektas.braingames.ui.CountDownTimerWidget$1.onTick(java.lang.Long)
> AFTER com.furkantektas.braingames.ui.CountDownTimerWidget$1.onTick
> BEFORE com.furkantektas.braingames.ui.CountDownTimerWidget$1.onTick(java.lang.Long)
> AFTER com.furkantektas.braingames.ui.CountDownTimerWidget$1.onTick
> BEFORE com.furkantektas.braingames.ui.CountDownTimerWidget$1.onTick(java.lang.Long)
> AFTER com.furkantektas.braingames.ui.CountDownTimerWidget$1.onTick
> BEFORE com.furkantektas.braingames.ui.CountDownTimerWidget$1.onTick(java.lang.Long)
> AFTER com.furkantektas.braingames.ui.CountDownTimerWidget$1.onTick
> BEFORE com.furkantektas.braingames.ui.CountDownTimerWidget$1.onTick(java.lang.Long)
> AFTER com.furkantektas.braingames.ui.CountDownTimerWidget$1.onTick
> BEFORE com.furkantektas.braingames.ui.CountDownTimerWidget$1.onTick(java.lang.Long)
> AFTER com.furkantektas.braingames.ui.CountDownTimerWidget$1.onTick
> BEFORE com.furkantektas.braingames.ui.CountDownTimerWidget$1.onTick(java.lang.Long)
> AFTER com.furkantektas.braingames.ui.CountDownTimerWidget$1.onTick
> BEFORE com.furkantektas.braingames.ui.games.AbstractCountDownTimerGameActivity.onPause()
> BEFORE android.app.Activity.onPause()
> AFTER android.app.Activity.onPause
> BEFORE android.os.CountDownTimer.cancel()
> AFTER android.os.CountDownTimer.cancel
> BEFORE com.android.internal.os.LoggingPrintStream.println(Countdown timer - Cancel)
> AFTER com.android.internal.os.LoggingPrintStream.println
> AFTER com.furkantektas.braingames.ui.games.AbstractCountDownTimerGameActivity.onPause
> BEFORE com.furkantektas.braingames.ui.games.AbstractCountDownTimerGameActivity.onStop()
> BEFORE android.app.Activity.onStop()
> AFTER android.app.Activity.onStop
> AFTER com.furkantektas.braingames.ui.games.AbstractCountDownTimerGameActivity.onStop
