Position |MethodName|Relevancy
0.125|com.example.mapdemo.MapDemoActivity.onCreate|0.9093226443592424
0.25|abex.a|0.23691878703380964
0.375|cbg.onTransact|0.23200650633205527
0.5|abey.newMapFragmentDelegate|0.15254908795166722
0.625|com.example.mapdemo.MapDemoActivity$2.onClick|0.04858429185546648
0.75|com.example.mapdemo.MapDemoActivity.onConnected|0.046963518066689906
0.875|abey.initV2|0.045259091437202276
1.0|com.example.mapdemo.MapDemoActivity.onStop|0.01583130010456605
