digraph FULL {
"65766cca-08cd-4a4d-acb3-a2faecec0e6f" [label="de.robv.android.xposed.XposedBridge.main\n Susp=1"];
"65766cca-08cd-4a4d-acb3-a2faecec0e6f" -> "390e9415-7af2-411a-8a42-965407c19f47";
"390e9415-7af2-411a-8a42-965407c19f47" [label="com.android.internal.os.ZygoteInit.main\n Susp=1"];
"390e9415-7af2-411a-8a42-965407c19f47" -> "5a93921b-fc26-432e-8460-d98d3bae68cb";
"5a93921b-fc26-432e-8460-d98d3bae68cb" [label="com.android.internal.os.ZygoteInit$MethodAndArgsCaller.run\n Susp=1"];
"5a93921b-fc26-432e-8460-d98d3bae68cb" -> "aaac14fd-8939-488c-9435-61bffa5669b9";
"aaac14fd-8939-488c-9435-61bffa5669b9" [label="java.lang.reflect.Method.invoke\n Susp=1"];
"aaac14fd-8939-488c-9435-61bffa5669b9" -> "def95bb1-de3b-4fde-8a26-38a049d14d3d";
"def95bb1-de3b-4fde-8a26-38a049d14d3d" [label="android.app.ActivityThread.main\n Susp=1"];
"def95bb1-de3b-4fde-8a26-38a049d14d3d" -> "391e7597-beca-4c74-b0ac-11fe97630432";
"391e7597-beca-4c74-b0ac-11fe97630432" [label="android.os.Looper.loop\n Susp=1"];
"391e7597-beca-4c74-b0ac-11fe97630432" -> "cc1a92fb-2cf1-40a3-8dcd-6373e7698d89";
"cc1a92fb-2cf1-40a3-8dcd-6373e7698d89" [label="android.os.Handler.dispatchMessage\n Susp=1"];
"cc1a92fb-2cf1-40a3-8dcd-6373e7698d89" -> "65125cb9-1667-4736-97e5-4a07b9db6715";
"65125cb9-1667-4736-97e5-4a07b9db6715" [label="android.app.ActivityThread$H.handleMessage\n Susp=1"];
"65125cb9-1667-4736-97e5-4a07b9db6715" -> "f715d9ed-2da7-4bdf-a4b7-0e6f98427e32";
"f715d9ed-2da7-4bdf-a4b7-0e6f98427e32" [label="android.app.ActivityThread.access$800\n Susp=1"];
"f715d9ed-2da7-4bdf-a4b7-0e6f98427e32" -> "d3b0432f-682f-4dfa-b098-9fe8288583b0";
"d3b0432f-682f-4dfa-b098-9fe8288583b0" [label="android.app.ActivityThread.handleLaunchActivity\n Susp=1"];
"d3b0432f-682f-4dfa-b098-9fe8288583b0" -> "b570573d-a759-4878-b3dc-a935feec729b";
"b570573d-a759-4878-b3dc-a935feec729b" [label="android.app.ActivityThread.performLaunchActivity\n Susp=1"];
"b570573d-a759-4878-b3dc-a935feec729b" -> "a2045a33-5f9d-4346-b88b-7acd38d886fa";
"a2045a33-5f9d-4346-b88b-7acd38d886fa" [label="android.app.Instrumentation.callActivityOnCreate\n Susp=1"];
"a2045a33-5f9d-4346-b88b-7acd38d886fa" -> "d7e9c8df-b8ec-4501-bc91-b9f7195c88e5";
"d7e9c8df-b8ec-4501-bc91-b9f7195c88e5" [label="android.app.Activity.performCreate\n Susp=1"];
"d7e9c8df-b8ec-4501-bc91-b9f7195c88e5" -> "a0d5712d-7395-4735-adeb-d5dc60a54857";
"a0d5712d-7395-4735-adeb-d5dc60a54857" [label="anupam.acrylic.Splash.onCreate\n Susp=1"];
"a0d5712d-7395-4735-adeb-d5dc60a54857" -> "89ce0fd2-905b-4a0e-8306-41d2581dc0fc";
"89ce0fd2-905b-4a0e-8306-41d2581dc0fc" [label="de.robv.android.xposed.XposedBridge.handleHookedMethod\n Susp=1"];
"89ce0fd2-905b-4a0e-8306-41d2581dc0fc" -> "c67e10e9-be64-41af-a385-0832f03a92b3";
"c67e10e9-be64-41af-a385-0832f03a92b3" [label="it.unimib.disco.lta.unimiblogger.MyMethodHook.beforeHookedMethod\n Susp=1"];
"c67e10e9-be64-41af-a385-0832f03a92b3" -> "45cb0b03-0fc4-4f3f-9262-08c0f5fc3585";
"45cb0b03-0fc4-4f3f-9262-08c0f5fc3585" [label="java.lang.Thread.getStackTrace\n Susp=1"];
"45cb0b03-0fc4-4f3f-9262-08c0f5fc3585" -> "b8322fcc-9082-4971-a6eb-d8630d4030de";
"b8322fcc-9082-4971-a6eb-d8630d4030de" [label="dalvik.system.VMStack.getThreadStackTrace\n Susp=0,2"];
}
