digraph SIB_treshold_2 {
"aaf20f3e-8fbf-474c-8278-41926b8a4b8d" [style=filled, fillcolor="#919191", label="com.android.internal.os.ZygoteInit.main\n Susp=0,49"];
"aaf20f3e-8fbf-474c-8278-41926b8a4b8d" -> "30aeb11b-18da-4038-8f5f-b8623e4f561b";
"30aeb11b-18da-4038-8f5f-b8623e4f561b" [style=filled, fillcolor="#919191", label="com.android.internal.os.ZygoteInit$MethodAndArgsCaller.run\n Susp=0,4986"];
"30aeb11b-18da-4038-8f5f-b8623e4f561b" -> "e83af488-6082-4a48-bd2d-a67e0367e486";
"e83af488-6082-4a48-bd2d-a67e0367e486" [style=filled, fillcolor="#5E5E5E",fontcolor=white, label="java.lang.reflect.Method.invoke\n Susp=0,5071"];
"e83af488-6082-4a48-bd2d-a67e0367e486" -> "aecc70a2-c5c9-46d0-a274-f73d1b673e43";
"aecc70a2-c5c9-46d0-a274-f73d1b673e43" [style=filled, fillcolor="#5E5E5E",fontcolor=white, label="android.app.ActivityThread.main\n Susp=0,5157"];
"aecc70a2-c5c9-46d0-a274-f73d1b673e43" -> "0847d3e8-3fb8-4631-8e77-73be9714f678";
"0847d3e8-3fb8-4631-8e77-73be9714f678" [style=filled, fillcolor="#5E5E5E",fontcolor=white, label="android.os.Looper.loop\n Susp=0,5243"];
"0847d3e8-3fb8-4631-8e77-73be9714f678" -> "f0f7c6ad-98cb-4798-92dc-f3d4d1798274";
"f0f7c6ad-98cb-4798-92dc-f3d4d1798274" [style=filled, fillcolor="#5E5E5E",fontcolor=white, label="android.os.Handler.dispatchMessage\n Susp=0,5329"];
"f0f7c6ad-98cb-4798-92dc-f3d4d1798274" -> "29964cd9-7724-4999-9cb2-da8c447f6446";
"29964cd9-7724-4999-9cb2-da8c447f6446" [style=filled, fillcolor="#5E5E5E",fontcolor=white, label="android.app.ActivityThread$H.handleMessage\n Susp=0,9314"];
"29964cd9-7724-4999-9cb2-da8c447f6446" -> "580de331-a9ff-4916-b3bc-baea27f47b2a";
"580de331-a9ff-4916-b3bc-baea27f47b2a" [style=filled, fillcolor="#EBEBEB", label="android.app.ActivityThread.-wrap11\n Susp=0,21"];
"580de331-a9ff-4916-b3bc-baea27f47b2a" -> "795a9cf9-9932-4420-b83b-016580df9d69";
"795a9cf9-9932-4420-b83b-016580df9d69" [style=filled, fillcolor="#EBEBEB", label="android.app.ActivityThread.handleLaunchActivity\n Susp=0,2186"];
"795a9cf9-9932-4420-b83b-016580df9d69" -> "6ff02224-bd9a-48de-9cd6-42952579b2fe";
"6ff02224-bd9a-48de-9cd6-42952579b2fe" [style=filled, fillcolor="#EBEBEB", label="android.app.ActivityThread.performLaunchActivity\n Susp=0,2271"];
"6ff02224-bd9a-48de-9cd6-42952579b2fe" -> "dd1198e2-37db-4492-8d60-5d4e57bcdf51";
"dd1198e2-37db-4492-8d60-5d4e57bcdf51" [style=filled, fillcolor="#EBEBEB", label="android.app.Instrumentation.callActivityOnCreate\n Susp=0,2357"];
"dd1198e2-37db-4492-8d60-5d4e57bcdf51" -> "3238aa1c-b2d7-485f-8139-f19542c88769";
"3238aa1c-b2d7-485f-8139-f19542c88769" [style=filled, fillcolor="#EBEBEB", label="android.app.Activity.performCreate\n Susp=0,2443"];
"3238aa1c-b2d7-485f-8139-f19542c88769" -> "a468bef6-23d2-436e-a989-ffd9141ee512";
"a468bef6-23d2-436e-a989-ffd9141ee512" [style=filled, fillcolor="#C0C0C0", label="com.bytestemplar.tonedef.DTMFActivity.onCreate\n Susp=0,2529"];
"a468bef6-23d2-436e-a989-ffd9141ee512" -> "e1528aed-5a3b-42b7-8465-73787fac08f2";
"e1528aed-5a3b-42b7-8465-73787fac08f2" [style=filled, fillcolor="#C0C0C0", label="com.bytestemplar.tonedef.touchpad.TouchPadActivity.setup\n Susp=0,2548"];
"e1528aed-5a3b-42b7-8465-73787fac08f2" -> "9d0063e0-10e3-4f97-94fb-6d68f4b02988";
"9d0063e0-10e3-4f97-94fb-6d68f4b02988" [style=filled, fillcolor="#FFFFFF", label="android.view.LayoutInflater.inflate\n Susp=0,1267"];
"29964cd9-7724-4999-9cb2-da8c447f6446" -> "ff1c0071-2034-4429-bc2f-e5233350ce29";
"ff1c0071-2034-4429-bc2f-e5233350ce29" [style=filled, fillcolor="#A9A9A9", label="android.app.ActivityThread.-wrap16\n Susp=0,37"];
"ff1c0071-2034-4429-bc2f-e5233350ce29" -> "34794845-9776-4e46-badd-595bcc4520af";
"34794845-9776-4e46-badd-595bcc4520af" [style=filled, fillcolor="#A9A9A9", label="android.app.ActivityThread.handleSendResult\n Susp=0,3786"];
"34794845-9776-4e46-badd-595bcc4520af" -> "80b5ede3-75b9-49d2-bccb-8b417f0826ea";
"80b5ede3-75b9-49d2-bccb-8b417f0826ea" [style=filled, fillcolor="#A9A9A9", label="android.app.ActivityThread.deliverResults\n Susp=0,3871"];
"80b5ede3-75b9-49d2-bccb-8b417f0826ea" -> "62ad56a2-e104-4dec-86f5-259b8d20a20d";
"62ad56a2-e104-4dec-86f5-259b8d20a20d" [style=filled, fillcolor="#A9A9A9", label="android.app.Activity.dispatchActivityResult\n Susp=0,3957"];
"62ad56a2-e104-4dec-86f5-259b8d20a20d" -> "90baea25-0d36-48bc-a72a-de35629831da";
"90baea25-0d36-48bc-a72a-de35629831da" [style=filled, fillcolor="#919191", label="com.bytestemplar.tonedef.DTMFActivity.onActivityResult\n Susp=0,4043"];
"90baea25-0d36-48bc-a72a-de35629831da" -> "aa90e688-cc4c-4d07-afbc-e06c4659c1bb";
"aa90e688-cc4c-4d07-afbc-e06c4659c1bb" [style=filled, fillcolor="#A9A9A9", label="com.bytestemplar.tonedef.touchpad.TouchPadActivity.onActivityResult\n Susp=0,3529"];
"aa90e688-cc4c-4d07-afbc-e06c4659c1bb" -> "28dbc250-b4c8-41bb-937d-99671ab9055e";
"28dbc250-b4c8-41bb-937d-99671ab9055e" [style=filled, fillcolor="#A9A9A9", label="com.bytestemplar.tonedef.ContactList.parseResponse\n Susp=0,3014"];
"28dbc250-b4c8-41bb-937d-99671ab9055e" -> "5dce2dbf-c40e-42e9-b3d0-e28e7e65980a";
"5dce2dbf-c40e-42e9-b3d0-e28e7e65980a" [style=filled, fillcolor="#FFFFFF", label="android.content.ContentResolver.query\n Susp=0,18"];
"29964cd9-7724-4999-9cb2-da8c447f6446" -> "4addf30c-5e99-455b-b17f-901bff57390d";
"4addf30c-5e99-455b-b17f-901bff57390d" [style=filled, fillcolor="#EBEBEB", label="android.app.ActivityThread.access$800\n Susp=0,21"];
"4addf30c-5e99-455b-b17f-901bff57390d" -> "91e40783-365e-4428-8151-1b87417b459c";
"91e40783-365e-4428-8151-1b87417b459c" [style=filled, fillcolor="#EBEBEB", label="android.app.ActivityThread.handleLaunchActivity\n Susp=0,2186"];
"91e40783-365e-4428-8151-1b87417b459c" -> "27d916a6-dc69-4bfa-a957-49d0d31a1d06";
"27d916a6-dc69-4bfa-a957-49d0d31a1d06" [style=filled, fillcolor="#EBEBEB", label="android.app.ActivityThread.performLaunchActivity\n Susp=0,2271"];
"27d916a6-dc69-4bfa-a957-49d0d31a1d06" -> "7153ca13-1ca3-47a8-815b-5524e561f48b";
"7153ca13-1ca3-47a8-815b-5524e561f48b" [style=filled, fillcolor="#EBEBEB", label="android.app.Instrumentation.callActivityOnCreate\n Susp=0,2357"];
"7153ca13-1ca3-47a8-815b-5524e561f48b" -> "85956bfa-5cf9-4c89-b36e-e0943077d77e";
"85956bfa-5cf9-4c89-b36e-e0943077d77e" [style=filled, fillcolor="#EBEBEB", label="android.app.Activity.performCreate\n Susp=0,2443"];
"85956bfa-5cf9-4c89-b36e-e0943077d77e" -> "5e472211-4e76-4d9c-acd3-96652fb58e19";
"5e472211-4e76-4d9c-acd3-96652fb58e19" [style=filled, fillcolor="#C0C0C0", label="com.bytestemplar.tonedef.DTMFActivity.onCreate\n Susp=0,2529"];
"5e472211-4e76-4d9c-acd3-96652fb58e19" -> "8d01eab0-618e-4ca4-8348-a2a9153fc70b";
"8d01eab0-618e-4ca4-8348-a2a9153fc70b" [style=filled, fillcolor="#C0C0C0", label="com.bytestemplar.tonedef.touchpad.TouchPadActivity.setup\n Susp=0,2548"];
"8d01eab0-618e-4ca4-8348-a2a9153fc70b" -> "827cfb0f-c41d-4ccb-8e15-ed60e8711ca8";
"827cfb0f-c41d-4ccb-8e15-ed60e8711ca8" [style=filled, fillcolor="#FFFFFF", label="android.view.LayoutInflater.inflate\n Susp=0,1267"];
"29964cd9-7724-4999-9cb2-da8c447f6446" -> "c2b08317-634e-4cc1-b796-d0eaa690f103";
"c2b08317-634e-4cc1-b796-d0eaa690f103" [style=filled, fillcolor="#A9A9A9", label="android.app.ActivityThread.access$1300\n Susp=0,33"];
"c2b08317-634e-4cc1-b796-d0eaa690f103" -> "28fb5fdb-46b8-4a2c-abd8-ab037d3e9b4b";
"28fb5fdb-46b8-4a2c-abd8-ab037d3e9b4b" [style=filled, fillcolor="#A9A9A9", label="android.app.ActivityThread.handleSendResult\n Susp=0,3386"];
"28fb5fdb-46b8-4a2c-abd8-ab037d3e9b4b" -> "b35ba8e9-5ead-4a6e-99c4-90db021c2a08";
"b35ba8e9-5ead-4a6e-99c4-90db021c2a08" [style=filled, fillcolor="#A9A9A9", label="android.app.ActivityThread.deliverResults\n Susp=0,3471"];
"b35ba8e9-5ead-4a6e-99c4-90db021c2a08" -> "164942fa-6841-497d-8211-c54c8a874556";
"164942fa-6841-497d-8211-c54c8a874556" [style=filled, fillcolor="#A9A9A9", label="android.app.Activity.dispatchActivityResult\n Susp=0,3557"];
"164942fa-6841-497d-8211-c54c8a874556" -> "aecf979f-fff6-4104-ac0d-9ecce2ea0074";
"aecf979f-fff6-4104-ac0d-9ecce2ea0074" [style=filled, fillcolor="#A9A9A9", label="com.bytestemplar.tonedef.DTMFActivity.onActivityResult\n Susp=0,3643"];
"aecf979f-fff6-4104-ac0d-9ecce2ea0074" -> "0dcffada-15b1-40b3-a90d-acf969c2ffd8";
"0dcffada-15b1-40b3-a90d-acf969c2ffd8" [style=filled, fillcolor="#A9A9A9", label="com.bytestemplar.tonedef.touchpad.TouchPadActivity.onActivityResult\n Susp=0,3262"];
"0dcffada-15b1-40b3-a90d-acf969c2ffd8" -> "4b5de87f-56c8-4a44-9950-45261ab65231";
"4b5de87f-56c8-4a44-9950-45261ab65231" [style=filled, fillcolor="#C0C0C0", label="com.bytestemplar.tonedef.ContactList.parseResponse\n Susp=0,2881"];
"4b5de87f-56c8-4a44-9950-45261ab65231" -> "0054c703-6436-49fe-865d-51a6f3b068dd";
"0054c703-6436-49fe-865d-51a6f3b068dd" [style=filled, fillcolor="#FFFFFF", label="android.content.ContentResolver.query\n Susp=0,1667"];
}
