Position |MethodName|Relevancy
0.3333333333333333|com.squareup.leakcanary.LeakCanary.install|0.8842857142857143
0.6666666666666666|com.squareup.leakcanary.LeakCanary.refWatcher|0.8028571428571428
1.0|com.squareup.leakcanary.AndroidRefWatcherBuilder.<init>|0.7214285714285714
