digraph FULL {
"3504601a-69fd-4e4d-98b5-4fa018382eab" [label="de.robv.android.xposed.XposedBridge.main\n Susp=1"];
"3504601a-69fd-4e4d-98b5-4fa018382eab" -> "5645f9ee-7e1d-42e9-adbc-943c3bf4d342";
"5645f9ee-7e1d-42e9-adbc-943c3bf4d342" [label="com.android.internal.os.ZygoteInit.main\n Susp=1"];
"5645f9ee-7e1d-42e9-adbc-943c3bf4d342" -> "8923d14f-87c0-450e-b6c8-3743e5c6299d";
"8923d14f-87c0-450e-b6c8-3743e5c6299d" [label="com.android.internal.os.ZygoteInit$MethodAndArgsCaller.run\n Susp=1"];
"8923d14f-87c0-450e-b6c8-3743e5c6299d" -> "28899ab7-8362-4256-9157-fb351a03acc6";
"28899ab7-8362-4256-9157-fb351a03acc6" [label="java.lang.reflect.Method.invoke\n Susp=1"];
"28899ab7-8362-4256-9157-fb351a03acc6" -> "8a88cd5d-d775-4e3a-a20c-82b4439c7f92";
"8a88cd5d-d775-4e3a-a20c-82b4439c7f92" [label="android.app.ActivityThread.main\n Susp=1"];
"8a88cd5d-d775-4e3a-a20c-82b4439c7f92" -> "dd0c64c8-8885-4506-994c-4b3c3329549b";
"dd0c64c8-8885-4506-994c-4b3c3329549b" [label="android.os.Looper.loop\n Susp=1"];
"dd0c64c8-8885-4506-994c-4b3c3329549b" -> "57f76c3a-bdd3-4067-b863-95ea8889386c";
"57f76c3a-bdd3-4067-b863-95ea8889386c" [label="android.os.Handler.dispatchMessage\n Susp=1"];
"57f76c3a-bdd3-4067-b863-95ea8889386c" -> "e0f74b46-f9d9-4b4a-bcb2-1809ffa14b4f";
"e0f74b46-f9d9-4b4a-bcb2-1809ffa14b4f" [label="android.app.ActivityThread$H.handleMessage\n Susp=1"];
"e0f74b46-f9d9-4b4a-bcb2-1809ffa14b4f" -> "d1ec7af3-f9db-44ac-a648-549c22129095";
"d1ec7af3-f9db-44ac-a648-549c22129095" [label="android.app.ActivityThread.access$800\n Susp=1"];
"d1ec7af3-f9db-44ac-a648-549c22129095" -> "22912b73-30aa-4c25-9220-732a1faf79fe";
"22912b73-30aa-4c25-9220-732a1faf79fe" [label="android.app.ActivityThread.handleLaunchActivity\n Susp=1"];
"22912b73-30aa-4c25-9220-732a1faf79fe" -> "55086092-0198-4519-bd6b-229fbdab8f77";
"55086092-0198-4519-bd6b-229fbdab8f77" [label="android.app.ActivityThread.performLaunchActivity\n Susp=1"];
"55086092-0198-4519-bd6b-229fbdab8f77" -> "793a9e05-6b5d-4828-a738-1508ea9ccbba";
"793a9e05-6b5d-4828-a738-1508ea9ccbba" [label="android.app.Instrumentation.callActivityOnCreate\n Susp=1"];
"793a9e05-6b5d-4828-a738-1508ea9ccbba" -> "0e7ccc7f-5bb4-4a1d-9e40-b2bce5a1ad35";
"0e7ccc7f-5bb4-4a1d-9e40-b2bce5a1ad35" [label="android.app.Activity.performCreate\n Susp=1"];
"0e7ccc7f-5bb4-4a1d-9e40-b2bce5a1ad35" -> "cec436c6-e189-45ad-ba07-c4484178a668";
"cec436c6-e189-45ad-ba07-c4484178a668" [label="com.ascendtv.kanjifix.MainActivity.onCreate\n Susp=1"];
"cec436c6-e189-45ad-ba07-c4484178a668" -> "845990ec-1045-4a9e-9b0c-3812238b6dab";
"845990ec-1045-4a9e-9b0c-3812238b6dab" [label="de.robv.android.xposed.XposedBridge.handleHookedMethod\n Susp=1"];
"845990ec-1045-4a9e-9b0c-3812238b6dab" -> "6537da59-6fcb-48f1-8b15-9641e205e844";
"6537da59-6fcb-48f1-8b15-9641e205e844" [label="it.unimib.disco.lta.unimiblogger.MyMethodHook.beforeHookedMethod\n Susp=1"];
"6537da59-6fcb-48f1-8b15-9641e205e844" -> "62692e1a-b6c7-49b6-aa8d-36f7ec09522a";
"62692e1a-b6c7-49b6-aa8d-36f7ec09522a" [label="java.lang.Thread.getStackTrace\n Susp=1"];
"62692e1a-b6c7-49b6-aa8d-36f7ec09522a" -> "682f6bf2-dbbf-40d3-ab51-4c320d0ae6c2";
"682f6bf2-dbbf-40d3-ab51-4c320d0ae6c2" [label="dalvik.system.VMStack.getThreadStackTrace\n Susp=0,2"];
}
