digraph SIB_treshold_2 {
"df730f6f-ce57-4026-93f3-59b16cd04223" [style=filled, fillcolor="#5E5E5E",fontcolor=white, label="com.android.internal.os.ZygoteInit.main\n Susp=0,88"];
"df730f6f-ce57-4026-93f3-59b16cd04223" -> "0d990696-04df-4670-ace4-a65cfda58dcb";
"0d990696-04df-4670-ace4-a65cfda58dcb" [style=filled, fillcolor="#5E5E5E",fontcolor=white, label="com.android.internal.os.ZygoteInit$MethodAndArgsCaller.run\n Susp=0,89"];
"0d990696-04df-4670-ace4-a65cfda58dcb" -> "c5d0dadb-f8c0-4abd-89ec-f1d9671a5f2a";
"c5d0dadb-f8c0-4abd-89ec-f1d9671a5f2a" [style=filled, fillcolor="#5E5E5E",fontcolor=white, label="java.lang.reflect.Method.invoke\n Susp=0,9"];
"c5d0dadb-f8c0-4abd-89ec-f1d9671a5f2a" -> "e93c84ef-2008-4650-9524-9cdddb4bf65c";
"e93c84ef-2008-4650-9524-9cdddb4bf65c" [style=filled, fillcolor="#5E5E5E",fontcolor=white, label="android.app.ActivityThread.main\n Susp=0,91"];
"e93c84ef-2008-4650-9524-9cdddb4bf65c" -> "ae966e1e-4783-4187-96a2-c5c9fd454483";
"ae966e1e-4783-4187-96a2-c5c9fd454483" [style=filled, fillcolor="#5E5E5E",fontcolor=white, label="android.os.Looper.loop\n Susp=0,92"];
"ae966e1e-4783-4187-96a2-c5c9fd454483" -> "a8b75f6e-a688-4529-ba9c-30966d1c4b0f";
"a8b75f6e-a688-4529-ba9c-30966d1c4b0f" [style=filled, fillcolor="#5E5E5E",fontcolor=white, label="android.os.Handler.dispatchMessage\n Susp=0,93"];
"a8b75f6e-a688-4529-ba9c-30966d1c4b0f" -> "d0f7a362-170c-4ff2-ac3b-ae96e09c4af8";
"d0f7a362-170c-4ff2-ac3b-ae96e09c4af8" [style=filled, fillcolor="#5E5E5E",fontcolor=white, label="android.app.ActivityThread$H.handleMessage\n Susp=0,94"];
"d0f7a362-170c-4ff2-ac3b-ae96e09c4af8" -> "b2ea37a5-c780-4432-8204-c2c92d2b793f";
"b2ea37a5-c780-4432-8204-c2c92d2b793f" [style=filled, fillcolor="#5E5E5E",fontcolor=white, label="android.app.ActivityThread.access$800\n Susp=0,95"];
"b2ea37a5-c780-4432-8204-c2c92d2b793f" -> "0cd98095-4d12-478f-8232-70b045526457";
"0cd98095-4d12-478f-8232-70b045526457" [style=filled, fillcolor="#5E5E5E",fontcolor=white, label="android.app.ActivityThread.handleLaunchActivity\n Susp=0,96"];
"0cd98095-4d12-478f-8232-70b045526457" -> "6ca5a051-d070-4dd7-8f27-9e4bb0ee1d4a";
"6ca5a051-d070-4dd7-8f27-9e4bb0ee1d4a" [style=filled, fillcolor="#5E5E5E",fontcolor=white, label="android.app.ActivityThread.performLaunchActivity\n Susp=0,97"];
"6ca5a051-d070-4dd7-8f27-9e4bb0ee1d4a" -> "f19bc85d-3556-42af-99cb-2e8961837524";
"f19bc85d-3556-42af-99cb-2e8961837524" [style=filled, fillcolor="#5E5E5E",fontcolor=white, label="android.app.Instrumentation.callActivityOnCreate\n Susp=0,98"];
"f19bc85d-3556-42af-99cb-2e8961837524" -> "a33ad319-6c6e-401b-9934-bc524a52438d";
"a33ad319-6c6e-401b-9934-bc524a52438d" [style=filled, fillcolor="#5E5E5E",fontcolor=white, label="android.app.Activity.performCreate\n Susp=0,99"];
"a33ad319-6c6e-401b-9934-bc524a52438d" -> "edbc2703-2307-4a3e-90b7-09c92057c53f";
"edbc2703-2307-4a3e-90b7-09c92057c53f" [style=filled, fillcolor="#919191", label="com.ascendtv.kanjifix.MainActivity.onCreate\n Susp=0,48"];
}
