BEFORE dk.example.example_fragment_oninflate.MainActivity.onCreate(), invoked by: dalvik.system.VMStack.getThreadStackTrace, java.lang.Thread.getStackTrace, it.unimib.disco.lta.unimiblogger.MyMethodHook.beforeHookedMethod, de.robv.android.xposed.XposedBridge.handleHookedMethod, dk.example.example_fragment_oninflate.MainActivity.onCreate, android.app.Activity.performCreate, android.app.Instrumentation.callActivityOnCreate, android.app.ActivityThread.performLaunchActivity, android.app.ActivityThread.handleLaunchActivity, android.app.ActivityThread.-wrap11, android.app.ActivityThread$H.handleMessage, android.os.Handler.dispatchMessage, android.os.Looper.loop, android.app.ActivityThread.main, java.lang.reflect.Method.invoke, com.android.internal.os.ZygoteInit$MethodAndArgsCaller.run, com.android.internal.os.ZygoteInit.main, de.robv.android.xposed.XposedBridge.main
BEFORE android.app.Activity.onCreate(), invoked by: dalvik.system.VMStack.getThreadStackTrace, java.lang.Thread.getStackTrace, it.unimib.disco.lta.unimiblogger.MyMethodHook.beforeHookedMethod, de.robv.android.xposed.XposedBridge.handleHookedMethod, android.app.Activity.onCreate, dk.example.example_fragment_oninflate.MainActivity.onCreate, de.robv.android.xposed.XposedBridge.invokeOriginalMethodNative, de.robv.android.xposed.XposedBridge.handleHookedMethod, dk.example.example_fragment_oninflate.MainActivity.onCreate, android.app.Activity.performCreate, android.app.Instrumentation.callActivityOnCreate, android.app.ActivityThread.performLaunchActivity, android.app.ActivityThread.handleLaunchActivity, android.app.ActivityThread.-wrap11, android.app.ActivityThread$H.handleMessage, android.os.Handler.dispatchMessage, android.os.Looper.loop, android.app.ActivityThread.main, java.lang.reflect.Method.invoke, com.android.internal.os.ZygoteInit$MethodAndArgsCaller.run, com.android.internal.os.ZygoteInit.main, de.robv.android.xposed.XposedBridge.main
AFTER android.app.Activity.onCreate, invoked by: dalvik.system.VMStack.getThreadStackTrace, java.lang.Thread.getStackTrace, it.unimib.disco.lta.unimiblogger.MyMethodHook.beforeHookedMethod, de.robv.android.xposed.XposedBridge.handleHookedMethod, android.app.Activity.onCreate, dk.example.example_fragment_oninflate.MainActivity.onCreate, de.robv.android.xposed.XposedBridge.invokeOriginalMethodNative, de.robv.android.xposed.XposedBridge.handleHookedMethod, dk.example.example_fragment_oninflate.MainActivity.onCreate, android.app.Activity.performCreate, android.app.Instrumentation.callActivityOnCreate, android.app.ActivityThread.performLaunchActivity, android.app.ActivityThread.handleLaunchActivity, android.app.ActivityThread.-wrap11, android.app.ActivityThread$H.handleMessage, android.os.Handler.dispatchMessage, android.os.Looper.loop, android.app.ActivityThread.main, java.lang.reflect.Method.invoke, com.android.internal.os.ZygoteInit$MethodAndArgsCaller.run, com.android.internal.os.ZygoteInit.main, de.robv.android.xposed.XposedBridge.main
BEFORE android.app.Activity.setContentView(2130968576), invoked by: dalvik.system.VMStack.getThreadStackTrace, java.lang.Thread.getStackTrace, it.unimib.disco.lta.unimiblogger.MyMethodHook.beforeHookedMethod, de.robv.android.xposed.XposedBridge.handleHookedMethod, android.app.Activity.setContentView, dk.example.example_fragment_oninflate.MainActivity.onCreate, de.robv.android.xposed.XposedBridge.invokeOriginalMethodNative, de.robv.android.xposed.XposedBridge.handleHookedMethod, dk.example.example_fragment_oninflate.MainActivity.onCreate, android.app.Activity.performCreate, android.app.Instrumentation.callActivityOnCreate, android.app.ActivityThread.performLaunchActivity, android.app.ActivityThread.handleLaunchActivity, android.app.ActivityThread.-wrap11, android.app.ActivityThread$H.handleMessage, android.os.Handler.dispatchMessage, android.os.Looper.loop, android.app.ActivityThread.main, java.lang.reflect.Method.invoke, com.android.internal.os.ZygoteInit$MethodAndArgsCaller.run, com.android.internal.os.ZygoteInit.main, de.robv.android.xposed.XposedBridge.main
BEFORE dk.example.example_fragment_oninflate.MainActivityFragment.onInflate(android.content.res.XmlBlock$Parser), invoked by: dalvik.system.VMStack.getThreadStackTrace, java.lang.Thread.getStackTrace, it.unimib.disco.lta.unimiblogger.MyMethodHook.beforeHookedMethod, de.robv.android.xposed.XposedBridge.handleHookedMethod, dk.example.example_fragment_oninflate.MainActivityFragment.onInflate, android.app.Fragment.onInflate, android.app.FragmentManagerImpl.onCreateView, android.app.FragmentController.onCreateView, android.app.Activity.onCreateView, android.view.LayoutInflater.createViewFromTag, android.view.LayoutInflater.createViewFromTag, android.view.LayoutInflater.inflate, de.robv.android.xposed.XposedBridge.invokeOriginalMethodNative, de.robv.android.xposed.XposedBridge.handleHookedMethod, android.view.LayoutInflater.inflate, android.view.LayoutInflater.inflate, de.robv.android.xposed.XposedBridge.invokeOriginalMethodNative, de.robv.android.xposed.XposedBridge.handleHookedMethod, android.view.LayoutInflater.inflate, android.view.LayoutInflater.inflate, de.robv.android.xposed.XposedBridge.invokeOriginalMethodNative, de.robv.android.xposed.XposedBridge.handleHookedMethod, android.view.LayoutInflater.inflate, com.android.internal.policy.PhoneWindow.setContentView, android.app.Activity.setContentView, de.robv.android.xposed.XposedBridge.invokeOriginalMethodNative, de.robv.android.xposed.XposedBridge.handleHookedMethod, android.app.Activity.setContentView, dk.example.example_fragment_oninflate.MainActivity.onCreate, de.robv.android.xposed.XposedBridge.invokeOriginalMethodNative, de.robv.android.xposed.XposedBridge.handleHookedMethod, dk.example.example_fragment_oninflate.MainActivity.onCreate, android.app.Activity.performCreate, android.app.Instrumentation.callActivityOnCreate, android.app.ActivityThread.performLaunchActivity, android.app.ActivityThread.handleLaunchActivity, android.app.ActivityThread.-wrap11, android.app.ActivityThread$H.handleMessage, android.os.Handler.dispatchMessage, android.os.Looper.loop, android.app.ActivityThread.main, java.lang.reflect.Method.invoke, com.android.internal.os.ZygoteInit$MethodAndArgsCaller.run, com.android.internal.os.ZygoteInit.main, de.robv.android.xposed.XposedBridge.main
BEFORE dk.example.example_fragment_oninflate.MainActivityFragment.onInflate(android.content.res.XmlBlock$Parser), invoked by: dalvik.system.VMStack.getThreadStackTrace, java.lang.Thread.getStackTrace, it.unimib.disco.lta.unimiblogger.MyMethodHook.beforeHookedMethod, de.robv.android.xposed.XposedBridge.handleHookedMethod, dk.example.example_fragment_oninflate.MainActivityFragment.onInflate, android.app.Fragment.onInflate, android.app.FragmentManagerImpl.onCreateView, android.app.FragmentController.onCreateView, android.app.Activity.onCreateView, android.view.LayoutInflater.createViewFromTag, android.view.LayoutInflater.createViewFromTag, android.view.LayoutInflater.inflate, de.robv.android.xposed.XposedBridge.invokeOriginalMethodNative, de.robv.android.xposed.XposedBridge.handleHookedMethod, android.view.LayoutInflater.inflate, android.view.LayoutInflater.inflate, de.robv.android.xposed.XposedBridge.invokeOriginalMethodNative, de.robv.android.xposed.XposedBridge.handleHookedMethod, android.view.LayoutInflater.inflate, android.view.LayoutInflater.inflate, de.robv.android.xposed.XposedBridge.invokeOriginalMethodNative, de.robv.android.xposed.XposedBridge.handleHookedMethod, android.view.LayoutInflater.inflate, com.android.internal.policy.PhoneWindow.setContentView, android.app.Activity.setContentView, de.robv.android.xposed.XposedBridge.invokeOriginalMethodNative, de.robv.android.xposed.XposedBridge.handleHookedMethod, android.app.Activity.setContentView, dk.example.example_fragment_oninflate.MainActivity.onCreate, de.robv.android.xposed.XposedBridge.invokeOriginalMethodNative, de.robv.android.xposed.XposedBridge.handleHookedMethod, dk.example.example_fragment_oninflate.MainActivity.onCreate, android.app.Activity.performCreate, android.app.Instrumentation.callActivityOnCreate, android.app.ActivityThread.performLaunchActivity, android.app.ActivityThread.handleLaunchActivity, android.app.ActivityThread.-wrap11, android.app.ActivityThread$H.handleMessage, android.os.Handler.dispatchMessage, android.os.Looper.loop, android.app.ActivityThread.main, java.lang.reflect.Method.invoke, com.android.internal.os.ZygoteInit$MethodAndArgsCaller.run, com.android.internal.os.ZygoteInit.main, de.robv.android.xposed.XposedBridge.main
AFTER dk.example.example_fragment_oninflate.MainActivityFragment.onInflate, invoked by: dalvik.system.VMStack.getThreadStackTrace, java.lang.Thread.getStackTrace, it.unimib.disco.lta.unimiblogger.MyMethodHook.beforeHookedMethod, de.robv.android.xposed.XposedBridge.handleHookedMethod, dk.example.example_fragment_oninflate.MainActivityFragment.onInflate, android.app.Fragment.onInflate, android.app.FragmentManagerImpl.onCreateView, android.app.FragmentController.onCreateView, android.app.Activity.onCreateView, android.view.LayoutInflater.createViewFromTag, android.view.LayoutInflater.createViewFromTag, android.view.LayoutInflater.inflate, de.robv.android.xposed.XposedBridge.invokeOriginalMethodNative, de.robv.android.xposed.XposedBridge.handleHookedMethod, android.view.LayoutInflater.inflate, android.view.LayoutInflater.inflate, de.robv.android.xposed.XposedBridge.invokeOriginalMethodNative, de.robv.android.xposed.XposedBridge.handleHookedMethod, android.view.LayoutInflater.inflate, android.view.LayoutInflater.inflate, de.robv.android.xposed.XposedBridge.invokeOriginalMethodNative, de.robv.android.xposed.XposedBridge.handleHookedMethod, android.view.LayoutInflater.inflate, com.android.internal.policy.PhoneWindow.setContentView, android.app.Activity.setContentView, de.robv.android.xposed.XposedBridge.invokeOriginalMethodNative, de.robv.android.xposed.XposedBridge.handleHookedMethod, android.app.Activity.setContentView, dk.example.example_fragment_oninflate.MainActivity.onCreate, de.robv.android.xposed.XposedBridge.invokeOriginalMethodNative, de.robv.android.xposed.XposedBridge.handleHookedMethod, dk.example.example_fragment_oninflate.MainActivity.onCreate, android.app.Activity.performCreate, android.app.Instrumentation.callActivityOnCreate, android.app.ActivityThread.performLaunchActivity, android.app.ActivityThread.handleLaunchActivity, android.app.ActivityThread.-wrap11, android.app.ActivityThread$H.handleMessage, android.os.Handler.dispatchMessage, android.os.Looper.loop, android.app.ActivityThread.main, java.lang.reflect.Method.invoke, com.android.internal.os.ZygoteInit$MethodAndArgsCaller.run, com.android.internal.os.ZygoteInit.main, de.robv.android.xposed.XposedBridge.main
AFTER dk.example.example_fragment_oninflate.MainActivityFragment.onInflate, invoked by: dalvik.system.VMStack.getThreadStackTrace, java.lang.Thread.getStackTrace, it.unimib.disco.lta.unimiblogger.MyMethodHook.beforeHookedMethod, de.robv.android.xposed.XposedBridge.handleHookedMethod, dk.example.example_fragment_oninflate.MainActivityFragment.onInflate, android.app.Fragment.onInflate, android.app.FragmentManagerImpl.onCreateView, android.app.FragmentController.onCreateView, android.app.Activity.onCreateView, android.view.LayoutInflater.createViewFromTag, android.view.LayoutInflater.createViewFromTag, android.view.LayoutInflater.inflate, de.robv.android.xposed.XposedBridge.invokeOriginalMethodNative, de.robv.android.xposed.XposedBridge.handleHookedMethod, android.view.LayoutInflater.inflate, android.view.LayoutInflater.inflate, de.robv.android.xposed.XposedBridge.invokeOriginalMethodNative, de.robv.android.xposed.XposedBridge.handleHookedMethod, android.view.LayoutInflater.inflate, android.view.LayoutInflater.inflate, de.robv.android.xposed.XposedBridge.invokeOriginalMethodNative, de.robv.android.xposed.XposedBridge.handleHookedMethod, android.view.LayoutInflater.inflate, com.android.internal.policy.PhoneWindow.setContentView, android.app.Activity.setContentView, de.robv.android.xposed.XposedBridge.invokeOriginalMethodNative, de.robv.android.xposed.XposedBridge.handleHookedMethod, android.app.Activity.setContentView, dk.example.example_fragment_oninflate.MainActivity.onCreate, de.robv.android.xposed.XposedBridge.invokeOriginalMethodNative, de.robv.android.xposed.XposedBridge.handleHookedMethod, dk.example.example_fragment_oninflate.MainActivity.onCreate, android.app.Activity.performCreate, android.app.Instrumentation.callActivityOnCreate, android.app.ActivityThread.performLaunchActivity, android.app.ActivityThread.handleLaunchActivity, android.app.ActivityThread.-wrap11, android.app.ActivityThread$H.handleMessage, android.os.Handler.dispatchMessage, android.os.Looper.loop, android.app.ActivityThread.main, java.lang.reflect.Method.invoke, com.android.internal.os.ZygoteInit$MethodAndArgsCaller.run, com.android.internal.os.ZygoteInit.main, de.robv.android.xposed.XposedBridge.main
BEFORE dk.example.example_fragment_oninflate.MainActivityFragment.onInflate(dk.example.example_fragment_oninflate.MainActivity,android.content.res.XmlBlock$Parser), invoked by: dalvik.system.VMStack.getThreadStackTrace, java.lang.Thread.getStackTrace, it.unimib.disco.lta.unimiblogger.MyMethodHook.beforeHookedMethod, de.robv.android.xposed.XposedBridge.handleHookedMethod, dk.example.example_fragment_oninflate.MainActivityFragment.onInflate, android.app.Fragment.onInflate, android.app.FragmentManagerImpl.onCreateView, android.app.FragmentController.onCreateView, android.app.Activity.onCreateView, android.view.LayoutInflater.createViewFromTag, android.view.LayoutInflater.createViewFromTag, android.view.LayoutInflater.inflate, de.robv.android.xposed.XposedBridge.invokeOriginalMethodNative, de.robv.android.xposed.XposedBridge.handleHookedMethod, android.view.LayoutInflater.inflate, android.view.LayoutInflater.inflate, de.robv.android.xposed.XposedBridge.invokeOriginalMethodNative, de.robv.android.xposed.XposedBridge.handleHookedMethod, android.view.LayoutInflater.inflate, android.view.LayoutInflater.inflate, de.robv.android.xposed.XposedBridge.invokeOriginalMethodNative, de.robv.android.xposed.XposedBridge.handleHookedMethod, android.view.LayoutInflater.inflate, com.android.internal.policy.PhoneWindow.setContentView, android.app.Activity.setContentView, de.robv.android.xposed.XposedBridge.invokeOriginalMethodNative, de.robv.android.xposed.XposedBridge.handleHookedMethod, android.app.Activity.setContentView, dk.example.example_fragment_oninflate.MainActivity.onCreate, de.robv.android.xposed.XposedBridge.invokeOriginalMethodNative, de.robv.android.xposed.XposedBridge.handleHookedMethod, dk.example.example_fragment_oninflate.MainActivity.onCreate, android.app.Activity.performCreate, android.app.Instrumentation.callActivityOnCreate, android.app.ActivityThread.performLaunchActivity, android.app.ActivityThread.handleLaunchActivity, android.app.ActivityThread.-wrap11, android.app.ActivityThread$H.handleMessage, android.os.Handler.dispatchMessage, android.os.Looper.loop, android.app.ActivityThread.main, java.lang.reflect.Method.invoke, com.android.internal.os.ZygoteInit$MethodAndArgsCaller.run, com.android.internal.os.ZygoteInit.main, de.robv.android.xposed.XposedBridge.main
BEFORE dk.example.example_fragment_oninflate.MainActivityFragment.onInflate(dk.example.example_fragment_oninflate.MainActivity,android.content.res.XmlBlock$Parser), invoked by: dalvik.system.VMStack.getThreadStackTrace, java.lang.Thread.getStackTrace, it.unimib.disco.lta.unimiblogger.MyMethodHook.beforeHookedMethod, de.robv.android.xposed.XposedBridge.handleHookedMethod, dk.example.example_fragment_oninflate.MainActivityFragment.onInflate, android.app.Fragment.onInflate, android.app.FragmentManagerImpl.onCreateView, android.app.FragmentController.onCreateView, android.app.Activity.onCreateView, android.view.LayoutInflater.createViewFromTag, android.view.LayoutInflater.createViewFromTag, android.view.LayoutInflater.inflate, de.robv.android.xposed.XposedBridge.invokeOriginalMethodNative, de.robv.android.xposed.XposedBridge.handleHookedMethod, android.view.LayoutInflater.inflate, android.view.LayoutInflater.inflate, de.robv.android.xposed.XposedBridge.invokeOriginalMethodNative, de.robv.android.xposed.XposedBridge.handleHookedMethod, android.view.LayoutInflater.inflate, android.view.LayoutInflater.inflate, de.robv.android.xposed.XposedBridge.invokeOriginalMethodNative, de.robv.android.xposed.XposedBridge.handleHookedMethod, android.view.LayoutInflater.inflate, com.android.internal.policy.PhoneWindow.setContentView, android.app.Activity.setContentView, de.robv.android.xposed.XposedBridge.invokeOriginalMethodNative, de.robv.android.xposed.XposedBridge.handleHookedMethod, android.app.Activity.setContentView, dk.example.example_fragment_oninflate.MainActivity.onCreate, de.robv.android.xposed.XposedBridge.invokeOriginalMethodNative, de.robv.android.xposed.XposedBridge.handleHookedMethod, dk.example.example_fragment_oninflate.MainActivity.onCreate, android.app.Activity.performCreate, android.app.Instrumentation.callActivityOnCreate, android.app.ActivityThread.performLaunchActivity, android.app.ActivityThread.handleLaunchActivity, android.app.ActivityThread.-wrap11, android.app.ActivityThread$H.handleMessage, android.os.Handler.dispatchMessage, android.os.Looper.loop, android.app.ActivityThread.main, java.lang.reflect.Method.invoke, com.android.internal.os.ZygoteInit$MethodAndArgsCaller.run, com.android.internal.os.ZygoteInit.main, de.robv.android.xposed.XposedBridge.main
BEFORE android.content.Context.obtainStyledAttributes(android.content.res.XmlBlock$Parser,[I), invoked by: dalvik.system.VMStack.getThreadStackTrace, java.lang.Thread.getStackTrace, it.unimib.disco.lta.unimiblogger.MyMethodHook.beforeHookedMethod, de.robv.android.xposed.XposedBridge.handleHookedMethod, android.content.Context.obtainStyledAttributes, dk.example.example_fragment_oninflate.MainActivityFragment.onInflate, de.robv.android.xposed.XposedBridge.invokeOriginalMethodNative, de.robv.android.xposed.XposedBridge.handleHookedMethod, dk.example.example_fragment_oninflate.MainActivityFragment.onInflate, android.app.Fragment.onInflate, android.app.FragmentManagerImpl.onCreateView, android.app.FragmentController.onCreateView, android.app.Activity.onCreateView, android.view.LayoutInflater.createViewFromTag, android.view.LayoutInflater.createViewFromTag, android.view.LayoutInflater.inflate, de.robv.android.xposed.XposedBridge.invokeOriginalMethodNative, de.robv.android.xposed.XposedBridge.handleHookedMethod, android.view.LayoutInflater.inflate, android.view.LayoutInflater.inflate, de.robv.android.xposed.XposedBridge.invokeOriginalMethodNative, de.robv.android.xposed.XposedBridge.handleHookedMethod, android.view.LayoutInflater.inflate, android.view.LayoutInflater.inflate, de.robv.android.xposed.XposedBridge.invokeOriginalMethodNative, de.robv.android.xposed.XposedBridge.handleHookedMethod, android.view.LayoutInflater.inflate, com.android.internal.policy.PhoneWindow.setContentView, android.app.Activity.setContentView, de.robv.android.xposed.XposedBridge.invokeOriginalMethodNative, de.robv.android.xposed.XposedBridge.handleHookedMethod, android.app.Activity.setContentView, dk.example.example_fragment_oninflate.MainActivity.onCreate, de.robv.android.xposed.XposedBridge.invokeOriginalMethodNative, de.robv.android.xposed.XposedBridge.handleHookedMethod, dk.example.example_fragment_oninflate.MainActivity.onCreate, android.app.Activity.performCreate, android.app.Instrumentation.callActivityOnCreate, android.app.ActivityThread.performLaunchActivity, android.app.ActivityThread.handleLaunchActivity, android.app.ActivityThread.-wrap11, android.app.ActivityThread$H.handleMessage, android.os.Handler.dispatchMessage, android.os.Looper.loop, android.app.ActivityThread.main, java.lang.reflect.Method.invoke, com.android.internal.os.ZygoteInit$MethodAndArgsCaller.run, com.android.internal.os.ZygoteInit.main, de.robv.android.xposed.XposedBridge.main
AFTER android.content.Context.obtainStyledAttributes, returnValue: [3, 5, -1, 0, 0, 0, 18, 0, 2, 2130903041, 0, 0, 0, 0, 2, 0, 0, 0, 0, 0, 2, 0, 0, 0, 0, 0, 2, 0, 0, 0, 0, 0, 2, 0, 0, 0, 0, 0, 2, 0, 0, 0, 0, 0, 2, 0, 0, 0, 0, 0, 2, 0, 0, 0, 0, 0, 2, 0, 0, 0, 0, 0, 2, 0, 0, 0, 1, 16974098, 1, 16974098, 1073746944, 0, 1, 16974099, 1, 16974099, 1073746944, 0, 3, 1044, 1, 17302251, 1073746944, 0, 1, 16973977, 1, 16973977, 1073746944, 0, 5, 8193, 1, 0, 1073746944, 0, 3, 723, 1, 17367064, 1073746944, 0, 5, 2049, 1, 0, 1073746944, 0, 3, 6215, 1, 17301695, 1073747200, 480, 3, 6325, 1, 17301665, 1073747200, 480, 0, 0, 1, 0, 0, 0, 0, 0, 1, 0, 0, 0, 0, 0, 1, 0, 0, 0, 0, 0, 1, 0, 0, 0, 0, 0, 1, 0, 0, 0, 0, 0, 1, 0, 0, 0, 0, 0, -1, 0, 1073746944, 0, 0, 0, -1, 0, 0, 0, 0, 0, -1, 0, 0, 0, 0, 0, -1, 0, 0, 0, 0, 0, -1, 0, 0, 0, 0, 0, -1, 0, 0, 0, 0, 0, -1, 0, 0, 0, 0, 0, -1, 0, 0, 0, 0, 0, -1, 0, 0, 0, 0, 0, -1, 0, 0, 0, 0, 0, -1, 0, 0, 0, 0, 0, -1, 0, 0, 0, 0, 0, -1, 0, 0, 0, 0, 0, -1, 0, 0, 0, 0, 0, -1, 0, 0, 0, 0, 0, -1, 0, 0, 0, 0, 0, -1, 0, 0, 0, 0, 0, -1, 0, 0, 0, 0, 0, -1, 0, 0, 0, 16, 250, -1, 0, 1073746944, 0, 16, 300, -1, 0, 1073746944, 0, 0, 0, -1, 0, 0, 0, 0, 0, -1, 0, 0, 0, 0, 0, -1, 0, 0, 0, 0, 0, -1, 0, 0, 0, 0, 0, -1, 0, 0, 0, 0, 0, -1, 0, 0, 0, 0, 0, -1, 0, 0, 0, 0, 0, -1, 0, 0, 0, 0, 0, -1, 0, 0, 0, 0, 0, -1, 0, 0, 0, 0, 0, -1, 0, 0, 0, 0, 0, -1, 0, 0, 0, 0, 0, -1, 0, 0, 0, 0, 0, -1, 0, 0, 0, 0, 0, -1, 0, 0, 0, 0, 0, -1, 0, 0, 0, 0, 0, -1, 0, 0, 0, 0, 0, -1, 0, 0, 0, 0, 0, -1, 0, 0, 0, 0, 0, -1, 0, 0, 0, 0, 0, -1, 0, 0, 0, 5, 1, 1, 0, 1073746944, 0, 5, 1, 1, 0, 1073746944, 0, 0, 0, 1, 0, 0, 0, 0, 0, 1, 0, 0, 0, 0, 0, 1, 0, 0, 0, 0, 0, 1, 0, 0, 0, 0, 0, 1, 0, 0, 0, 0, 0, 1, 0, 0, 0, 0, 0, 1, 0, 0, 0, 0, 0, 1, 0, 0, 0, 0, 0, 1, 0, 0, 0, 0, 0, 1, 0, 0, 0, 0, 0, 1, 0, 0, 0, 0, 0, 1, 0, 0, 0, 0, 0, 1, 0, 0, 0, 0, 0, 1, 0, 0, 0, 0, 0, 1, 0, 0, 0, 0, 0, 1, 0, 0, 0, 0, 0, 1, 0, 0, 0], invoked by: dalvik.system.VMStack.getThreadStackTrace, java.lang.Thread.getStackTrace, it.unimib.disco.lta.unimiblogger.MyMethodHook.beforeHookedMethod, de.robv.android.xposed.XposedBridge.handleHookedMethod, android.content.Context.obtainStyledAttributes, dk.example.example_fragment_oninflate.MainActivityFragment.onInflate, de.robv.android.xposed.XposedBridge.invokeOriginalMethodNative, de.robv.android.xposed.XposedBridge.handleHookedMethod, dk.example.example_fragment_oninflate.MainActivityFragment.onInflate, android.app.Fragment.onInflate, android.app.FragmentManagerImpl.onCreateView, android.app.FragmentController.onCreateView, android.app.Activity.onCreateView, android.view.LayoutInflater.createViewFromTag, android.view.LayoutInflater.createViewFromTag, android.view.LayoutInflater.inflate, de.robv.android.xposed.XposedBridge.invokeOriginalMethodNative, de.robv.android.xposed.XposedBridge.handleHookedMethod, android.view.LayoutInflater.inflate, android.view.LayoutInflater.inflate, de.robv.android.xposed.XposedBridge.invokeOriginalMethodNative, de.robv.android.xposed.XposedBridge.handleHookedMethod, android.view.LayoutInflater.inflate, android.view.LayoutInflater.inflate, de.robv.android.xposed.XposedBridge.invokeOriginalMethodNative, de.robv.android.xposed.XposedBridge.handleHookedMethod, android.view.LayoutInflater.inflate, com.android.internal.policy.PhoneWindow.setContentView, android.app.Activity.setContentView, de.robv.android.xposed.XposedBridge.invokeOriginalMethodNative, de.robv.android.xposed.XposedBridge.handleHookedMethod, android.app.Activity.setContentView, dk.example.example_fragment_oninflate.MainActivity.onCreate, de.robv.android.xposed.XposedBridge.invokeOriginalMethodNative, de.robv.android.xposed.XposedBridge.handleHookedMethod, dk.example.example_fragment_oninflate.MainActivity.onCreate, android.app.Activity.performCreate, android.app.Instrumentation.callActivityOnCreate, android.app.ActivityThread.performLaunchActivity, android.app.ActivityThread.handleLaunchActivity, android.app.ActivityThread.-wrap11, android.app.ActivityThread$H.handleMessage, android.os.Handler.dispatchMessage, android.os.Looper.loop, android.app.ActivityThread.main, java.lang.reflect.Method.invoke, com.android.internal.os.ZygoteInit$MethodAndArgsCaller.run, com.android.internal.os.ZygoteInit.main, de.robv.android.xposed.XposedBridge.main
BEFORE android.content.res.TypedArray.recycle(), invoked by: dalvik.system.VMStack.getThreadStackTrace, java.lang.Thread.getStackTrace, it.unimib.disco.lta.unimiblogger.MyMethodHook.beforeHookedMethod, de.robv.android.xposed.XposedBridge.handleHookedMethod, android.content.res.TypedArray.recycle, dk.example.example_fragment_oninflate.MainActivityFragment.onInflate, de.robv.android.xposed.XposedBridge.invokeOriginalMethodNative, de.robv.android.xposed.XposedBridge.handleHookedMethod, dk.example.example_fragment_oninflate.MainActivityFragment.onInflate, android.app.Fragment.onInflate, android.app.FragmentManagerImpl.onCreateView, android.app.FragmentController.onCreateView, android.app.Activity.onCreateView, android.view.LayoutInflater.createViewFromTag, android.view.LayoutInflater.createViewFromTag, android.view.LayoutInflater.inflate, de.robv.android.xposed.XposedBridge.invokeOriginalMethodNative, de.robv.android.xposed.XposedBridge.handleHookedMethod, android.view.LayoutInflater.inflate, android.view.LayoutInflater.inflate, de.robv.android.xposed.XposedBridge.invokeOriginalMethodNative, de.robv.android.xposed.XposedBridge.handleHookedMethod, android.view.LayoutInflater.inflate, android.view.LayoutInflater.inflate, de.robv.android.xposed.XposedBridge.invokeOriginalMethodNative, de.robv.android.xposed.XposedBridge.handleHookedMethod, android.view.LayoutInflater.inflate, com.android.internal.policy.PhoneWindow.setContentView, android.app.Activity.setContentView, de.robv.android.xposed.XposedBridge.invokeOriginalMethodNative, de.robv.android.xposed.XposedBridge.handleHookedMethod, android.app.Activity.setContentView, dk.example.example_fragment_oninflate.MainActivity.onCreate, de.robv.android.xposed.XposedBridge.invokeOriginalMethodNative, de.robv.android.xposed.XposedBridge.handleHookedMethod, dk.example.example_fragment_oninflate.MainActivity.onCreate, android.app.Activity.performCreate, android.app.Instrumentation.callActivityOnCreate, android.app.ActivityThread.performLaunchActivity, android.app.ActivityThread.handleLaunchActivity, android.app.ActivityThread.-wrap11, android.app.ActivityThread$H.handleMessage, android.os.Handler.dispatchMessage, android.os.Looper.loop, android.app.ActivityThread.main, java.lang.reflect.Method.invoke, com.android.internal.os.ZygoteInit$MethodAndArgsCaller.run, com.android.internal.os.ZygoteInit.main, de.robv.android.xposed.XposedBridge.main
AFTER android.content.res.TypedArray.recycle, invoked by: dalvik.system.VMStack.getThreadStackTrace, java.lang.Thread.getStackTrace, it.unimib.disco.lta.unimiblogger.MyMethodHook.beforeHookedMethod, de.robv.android.xposed.XposedBridge.handleHookedMethod, android.content.res.TypedArray.recycle, dk.example.example_fragment_oninflate.MainActivityFragment.onInflate, de.robv.android.xposed.XposedBridge.invokeOriginalMethodNative, de.robv.android.xposed.XposedBridge.handleHookedMethod, dk.example.example_fragment_oninflate.MainActivityFragment.onInflate, android.app.Fragment.onInflate, android.app.FragmentManagerImpl.onCreateView, android.app.FragmentController.onCreateView, android.app.Activity.onCreateView, android.view.LayoutInflater.createViewFromTag, android.view.LayoutInflater.createViewFromTag, android.view.LayoutInflater.inflate, de.robv.android.xposed.XposedBridge.invokeOriginalMethodNative, de.robv.android.xposed.XposedBridge.handleHookedMethod, android.view.LayoutInflater.inflate, android.view.LayoutInflater.inflate, de.robv.android.xposed.XposedBridge.invokeOriginalMethodNative, de.robv.android.xposed.XposedBridge.handleHookedMethod, android.view.LayoutInflater.inflate, android.view.LayoutInflater.inflate, de.robv.android.xposed.XposedBridge.invokeOriginalMethodNative, de.robv.android.xposed.XposedBridge.handleHookedMethod, android.view.LayoutInflater.inflate, com.android.internal.policy.PhoneWindow.setContentView, android.app.Activity.setContentView, de.robv.android.xposed.XposedBridge.invokeOriginalMethodNative, de.robv.android.xposed.XposedBridge.handleHookedMethod, android.app.Activity.setContentView, dk.example.example_fragment_oninflate.MainActivity.onCreate, de.robv.android.xposed.XposedBridge.invokeOriginalMethodNative, de.robv.android.xposed.XposedBridge.handleHookedMethod, dk.example.example_fragment_oninflate.MainActivity.onCreate, android.app.Activity.performCreate, android.app.Instrumentation.callActivityOnCreate, android.app.ActivityThread.performLaunchActivity, android.app.ActivityThread.handleLaunchActivity, android.app.ActivityThread.-wrap11, android.app.ActivityThread$H.handleMessage, android.os.Handler.dispatchMessage, android.os.Looper.loop, android.app.ActivityThread.main, java.lang.reflect.Method.invoke, com.android.internal.os.ZygoteInit$MethodAndArgsCaller.run, com.android.internal.os.ZygoteInit.main, de.robv.android.xposed.XposedBridge.main
AFTER dk.example.example_fragment_oninflate.MainActivityFragment.onInflate, invoked by: dalvik.system.VMStack.getThreadStackTrace, java.lang.Thread.getStackTrace, it.unimib.disco.lta.unimiblogger.MyMethodHook.beforeHookedMethod, de.robv.android.xposed.XposedBridge.handleHookedMethod, dk.example.example_fragment_oninflate.MainActivityFragment.onInflate, android.app.Fragment.onInflate, android.app.FragmentManagerImpl.onCreateView, android.app.FragmentController.onCreateView, android.app.Activity.onCreateView, android.view.LayoutInflater.createViewFromTag, android.view.LayoutInflater.createViewFromTag, android.view.LayoutInflater.inflate, de.robv.android.xposed.XposedBridge.invokeOriginalMethodNative, de.robv.android.xposed.XposedBridge.handleHookedMethod, android.view.LayoutInflater.inflate, android.view.LayoutInflater.inflate, de.robv.android.xposed.XposedBridge.invokeOriginalMethodNative, de.robv.android.xposed.XposedBridge.handleHookedMethod, android.view.LayoutInflater.inflate, android.view.LayoutInflater.inflate, de.robv.android.xposed.XposedBridge.invokeOriginalMethodNative, de.robv.android.xposed.XposedBridge.handleHookedMethod, android.view.LayoutInflater.inflate, com.android.internal.policy.PhoneWindow.setContentView, android.app.Activity.setContentView, de.robv.android.xposed.XposedBridge.invokeOriginalMethodNative, de.robv.android.xposed.XposedBridge.handleHookedMethod, android.app.Activity.setContentView, dk.example.example_fragment_oninflate.MainActivity.onCreate, de.robv.android.xposed.XposedBridge.invokeOriginalMethodNative, de.robv.android.xposed.XposedBridge.handleHookedMethod, dk.example.example_fragment_oninflate.MainActivity.onCreate, android.app.Activity.performCreate, android.app.Instrumentation.callActivityOnCreate, android.app.ActivityThread.performLaunchActivity, android.app.ActivityThread.handleLaunchActivity, android.app.ActivityThread.-wrap11, android.app.ActivityThread$H.handleMessage, android.os.Handler.dispatchMessage, android.os.Looper.loop, android.app.ActivityThread.main, java.lang.reflect.Method.invoke, com.android.internal.os.ZygoteInit$MethodAndArgsCaller.run, com.android.internal.os.ZygoteInit.main, de.robv.android.xposed.XposedBridge.main
AFTER dk.example.example_fragment_oninflate.MainActivityFragment.onInflate, invoked by: dalvik.system.VMStack.getThreadStackTrace, java.lang.Thread.getStackTrace, it.unimib.disco.lta.unimiblogger.MyMethodHook.beforeHookedMethod, de.robv.android.xposed.XposedBridge.handleHookedMethod, dk.example.example_fragment_oninflate.MainActivityFragment.onInflate, android.app.Fragment.onInflate, android.app.FragmentManagerImpl.onCreateView, android.app.FragmentController.onCreateView, android.app.Activity.onCreateView, android.view.LayoutInflater.createViewFromTag, android.view.LayoutInflater.createViewFromTag, android.view.LayoutInflater.inflate, de.robv.android.xposed.XposedBridge.invokeOriginalMethodNative, de.robv.android.xposed.XposedBridge.handleHookedMethod, android.view.LayoutInflater.inflate, android.view.LayoutInflater.inflate, de.robv.android.xposed.XposedBridge.invokeOriginalMethodNative, de.robv.android.xposed.XposedBridge.handleHookedMethod, android.view.LayoutInflater.inflate, android.view.LayoutInflater.inflate, de.robv.android.xposed.XposedBridge.invokeOriginalMethodNative, de.robv.android.xposed.XposedBridge.handleHookedMethod, android.view.LayoutInflater.inflate, com.android.internal.policy.PhoneWindow.setContentView, android.app.Activity.setContentView, de.robv.android.xposed.XposedBridge.invokeOriginalMethodNative, de.robv.android.xposed.XposedBridge.handleHookedMethod, android.app.Activity.setContentView, dk.example.example_fragment_oninflate.MainActivity.onCreate, de.robv.android.xposed.XposedBridge.invokeOriginalMethodNative, de.robv.android.xposed.XposedBridge.handleHookedMethod, dk.example.example_fragment_oninflate.MainActivity.onCreate, android.app.Activity.performCreate, android.app.Instrumentation.callActivityOnCreate, android.app.ActivityThread.performLaunchActivity, android.app.ActivityThread.handleLaunchActivity, android.app.ActivityThread.-wrap11, android.app.ActivityThread$H.handleMessage, android.os.Handler.dispatchMessage, android.os.Looper.loop, android.app.ActivityThread.main, java.lang.reflect.Method.invoke, com.android.internal.os.ZygoteInit$MethodAndArgsCaller.run, com.android.internal.os.ZygoteInit.main, de.robv.android.xposed.XposedBridge.main
BEFORE dk.example.example_fragment_oninflate.MainActivityFragment.onCreateView(com.android.internal.policy.PhoneLayoutInflater), invoked by: dalvik.system.VMStack.getThreadStackTrace, java.lang.Thread.getStackTrace, it.unimib.disco.lta.unimiblogger.MyMethodHook.beforeHookedMethod, de.robv.android.xposed.XposedBridge.handleHookedMethod, dk.example.example_fragment_oninflate.MainActivityFragment.onCreateView, android.app.Fragment.performCreateView, android.app.FragmentManagerImpl.moveToState, android.app.FragmentManagerImpl.moveToState, android.app.FragmentManagerImpl.addFragment, android.app.FragmentManagerImpl.onCreateView, android.app.FragmentController.onCreateView, android.app.Activity.onCreateView, android.view.LayoutInflater.createViewFromTag, android.view.LayoutInflater.createViewFromTag, android.view.LayoutInflater.inflate, de.robv.android.xposed.XposedBridge.invokeOriginalMethodNative, de.robv.android.xposed.XposedBridge.handleHookedMethod, android.view.LayoutInflater.inflate, android.view.LayoutInflater.inflate, de.robv.android.xposed.XposedBridge.invokeOriginalMethodNative, de.robv.android.xposed.XposedBridge.handleHookedMethod, android.view.LayoutInflater.inflate, android.view.LayoutInflater.inflate, de.robv.android.xposed.XposedBridge.invokeOriginalMethodNative, de.robv.android.xposed.XposedBridge.handleHookedMethod, android.view.LayoutInflater.inflate, com.android.internal.policy.PhoneWindow.setContentView, android.app.Activity.setContentView, de.robv.android.xposed.XposedBridge.invokeOriginalMethodNative, de.robv.android.xposed.XposedBridge.handleHookedMethod, android.app.Activity.setContentView, dk.example.example_fragment_oninflate.MainActivity.onCreate, de.robv.android.xposed.XposedBridge.invokeOriginalMethodNative, de.robv.android.xposed.XposedBridge.handleHookedMethod, dk.example.example_fragment_oninflate.MainActivity.onCreate, android.app.Activity.performCreate, android.app.Instrumentation.callActivityOnCreate, android.app.ActivityThread.performLaunchActivity, android.app.ActivityThread.handleLaunchActivity, android.app.ActivityThread.-wrap11, android.app.ActivityThread$H.handleMessage, android.os.Handler.dispatchMessage, android.os.Looper.loop, android.app.ActivityThread.main, java.lang.reflect.Method.invoke, com.android.internal.os.ZygoteInit$MethodAndArgsCaller.run, com.android.internal.os.ZygoteInit.main, de.robv.android.xposed.XposedBridge.main
BEFORE android.view.LayoutInflater.inflate(2130968577,false), invoked by: dalvik.system.VMStack.getThreadStackTrace, java.lang.Thread.getStackTrace, it.unimib.disco.lta.unimiblogger.MyMethodHook.beforeHookedMethod, de.robv.android.xposed.XposedBridge.handleHookedMethod, android.view.LayoutInflater.inflate, dk.example.example_fragment_oninflate.MainActivityFragment.onCreateView, de.robv.android.xposed.XposedBridge.invokeOriginalMethodNative, de.robv.android.xposed.XposedBridge.handleHookedMethod, dk.example.example_fragment_oninflate.MainActivityFragment.onCreateView, android.app.Fragment.performCreateView, android.app.FragmentManagerImpl.moveToState, android.app.FragmentManagerImpl.moveToState, android.app.FragmentManagerImpl.addFragment, android.app.FragmentManagerImpl.onCreateView, android.app.FragmentController.onCreateView, android.app.Activity.onCreateView, android.view.LayoutInflater.createViewFromTag, android.view.LayoutInflater.createViewFromTag, android.view.LayoutInflater.inflate, de.robv.android.xposed.XposedBridge.invokeOriginalMethodNative, de.robv.android.xposed.XposedBridge.handleHookedMethod, android.view.LayoutInflater.inflate, android.view.LayoutInflater.inflate, de.robv.android.xposed.XposedBridge.invokeOriginalMethodNative, de.robv.android.xposed.XposedBridge.handleHookedMethod, android.view.LayoutInflater.inflate, android.view.LayoutInflater.inflate, de.robv.android.xposed.XposedBridge.invokeOriginalMethodNative, de.robv.android.xposed.XposedBridge.handleHookedMethod, android.view.LayoutInflater.inflate, com.android.internal.policy.PhoneWindow.setContentView, android.app.Activity.setContentView, de.robv.android.xposed.XposedBridge.invokeOriginalMethodNative, de.robv.android.xposed.XposedBridge.handleHookedMethod, android.app.Activity.setContentView, dk.example.example_fragment_oninflate.MainActivity.onCreate, de.robv.android.xposed.XposedBridge.invokeOriginalMethodNative, de.robv.android.xposed.XposedBridge.handleHookedMethod, dk.example.example_fragment_oninflate.MainActivity.onCreate, android.app.Activity.performCreate, android.app.Instrumentation.callActivityOnCreate, android.app.ActivityThread.performLaunchActivity, android.app.ActivityThread.handleLaunchActivity, android.app.ActivityThread.-wrap11, android.app.ActivityThread$H.handleMessage, android.os.Handler.dispatchMessage, android.os.Looper.loop, android.app.ActivityThread.main, java.lang.reflect.Method.invoke, com.android.internal.os.ZygoteInit$MethodAndArgsCaller.run, com.android.internal.os.ZygoteInit.main, de.robv.android.xposed.XposedBridge.main
AFTER android.view.LayoutInflater.inflate, returnValue: android.widget.RelativeLayout{f54de71 V.E...... ......I. 0,0-0,0}, invoked by: dalvik.system.VMStack.getThreadStackTrace, java.lang.Thread.getStackTrace, it.unimib.disco.lta.unimiblogger.MyMethodHook.beforeHookedMethod, de.robv.android.xposed.XposedBridge.handleHookedMethod, android.view.LayoutInflater.inflate, android.view.LayoutInflater.inflate, de.robv.android.xposed.XposedBridge.invokeOriginalMethodNative, de.robv.android.xposed.XposedBridge.handleHookedMethod, android.view.LayoutInflater.inflate, dk.example.example_fragment_oninflate.MainActivityFragment.onCreateView, de.robv.android.xposed.XposedBridge.invokeOriginalMethodNative, de.robv.android.xposed.XposedBridge.handleHookedMethod, dk.example.example_fragment_oninflate.MainActivityFragment.onCreateView, android.app.Fragment.performCreateView, android.app.FragmentManagerImpl.moveToState, android.app.FragmentManagerImpl.moveToState, android.app.FragmentManagerImpl.addFragment, android.app.FragmentManagerImpl.onCreateView, android.app.FragmentController.onCreateView, android.app.Activity.onCreateView, android.view.LayoutInflater.createViewFromTag, android.view.LayoutInflater.createViewFromTag, android.view.LayoutInflater.inflate, de.robv.android.xposed.XposedBridge.invokeOriginalMethodNative, de.robv.android.xposed.XposedBridge.handleHookedMethod, android.view.LayoutInflater.inflate, android.view.LayoutInflater.inflate, de.robv.android.xposed.XposedBridge.invokeOriginalMethodNative, de.robv.android.xposed.XposedBridge.handleHookedMethod, android.view.LayoutInflater.inflate, android.view.LayoutInflater.inflate, de.robv.android.xposed.XposedBridge.invokeOriginalMethodNative, de.robv.android.xposed.XposedBridge.handleHookedMethod, android.view.LayoutInflater.inflate, com.android.internal.policy.PhoneWindow.setContentView, android.app.Activity.setContentView, de.robv.android.xposed.XposedBridge.invokeOriginalMethodNative, de.robv.android.xposed.XposedBridge.handleHookedMethod, android.app.Activity.setContentView, dk.example.example_fragment_oninflate.MainActivity.onCreate, de.robv.android.xposed.XposedBridge.invokeOriginalMethodNative, de.robv.android.xposed.XposedBridge.handleHookedMethod, dk.example.example_fragment_oninflate.MainActivity.onCreate, android.app.Activity.performCreate, android.app.Instrumentation.callActivityOnCreate, android.app.ActivityThread.performLaunchActivity, android.app.ActivityThread.handleLaunchActivity, android.app.ActivityThread.-wrap11, android.app.ActivityThread$H.handleMessage, android.os.Handler.dispatchMessage, android.os.Looper.loop, android.app.ActivityThread.main, java.lang.reflect.Method.invoke, com.android.internal.os.ZygoteInit$MethodAndArgsCaller.run, com.android.internal.os.ZygoteInit.main, de.robv.android.xposed.XposedBridge.main
AFTER dk.example.example_fragment_oninflate.MainActivityFragment.onCreateView, returnValue: android.widget.RelativeLayout{f54de71 V.E...... ......I. 0,0-0,0}, invoked by: dalvik.system.VMStack.getThreadStackTrace, java.lang.Thread.getStackTrace, it.unimib.disco.lta.unimiblogger.MyMethodHook.beforeHookedMethod, de.robv.android.xposed.XposedBridge.handleHookedMethod, dk.example.example_fragment_oninflate.MainActivityFragment.onCreateView, android.app.Fragment.performCreateView, android.app.FragmentManagerImpl.moveToState, android.app.FragmentManagerImpl.moveToState, android.app.FragmentManagerImpl.addFragment, android.app.FragmentManagerImpl.onCreateView, android.app.FragmentController.onCreateView, android.app.Activity.onCreateView, android.view.LayoutInflater.createViewFromTag, android.view.LayoutInflater.createViewFromTag, android.view.LayoutInflater.inflate, de.robv.android.xposed.XposedBridge.invokeOriginalMethodNative, de.robv.android.xposed.XposedBridge.handleHookedMethod, android.view.LayoutInflater.inflate, android.view.LayoutInflater.inflate, de.robv.android.xposed.XposedBridge.invokeOriginalMethodNative, de.robv.android.xposed.XposedBridge.handleHookedMethod, android.view.LayoutInflater.inflate, android.view.LayoutInflater.inflate, de.robv.android.xposed.XposedBridge.invokeOriginalMethodNative, de.robv.android.xposed.XposedBridge.handleHookedMethod, android.view.LayoutInflater.inflate, com.android.internal.policy.PhoneWindow.setContentView, android.app.Activity.setContentView, de.robv.android.xposed.XposedBridge.invokeOriginalMethodNative, de.robv.android.xposed.XposedBridge.handleHookedMethod, android.app.Activity.setContentView, dk.example.example_fragment_oninflate.MainActivity.onCreate, de.robv.android.xposed.XposedBridge.invokeOriginalMethodNative, de.robv.android.xposed.XposedBridge.handleHookedMethod, dk.example.example_fragment_oninflate.MainActivity.onCreate, android.app.Activity.performCreate, android.app.Instrumentation.callActivityOnCreate, android.app.ActivityThread.performLaunchActivity, android.app.ActivityThread.handleLaunchActivity, android.app.ActivityThread.-wrap11, android.app.ActivityThread$H.handleMessage, android.os.Handler.dispatchMessage, android.os.Looper.loop, android.app.ActivityThread.main, java.lang.reflect.Method.invoke, com.android.internal.os.ZygoteInit$MethodAndArgsCaller.run, com.android.internal.os.ZygoteInit.main, de.robv.android.xposed.XposedBridge.main
AFTER android.app.Activity.setContentView, invoked by: dalvik.system.VMStack.getThreadStackTrace, java.lang.Thread.getStackTrace, it.unimib.disco.lta.unimiblogger.MyMethodHook.beforeHookedMethod, de.robv.android.xposed.XposedBridge.handleHookedMethod, android.app.Activity.setContentView, dk.example.example_fragment_oninflate.MainActivity.onCreate, de.robv.android.xposed.XposedBridge.invokeOriginalMethodNative, de.robv.android.xposed.XposedBridge.handleHookedMethod, dk.example.example_fragment_oninflate.MainActivity.onCreate, android.app.Activity.performCreate, android.app.Instrumentation.callActivityOnCreate, android.app.ActivityThread.performLaunchActivity, android.app.ActivityThread.handleLaunchActivity, android.app.ActivityThread.-wrap11, android.app.ActivityThread$H.handleMessage, android.os.Handler.dispatchMessage, android.os.Looper.loop, android.app.ActivityThread.main, java.lang.reflect.Method.invoke, com.android.internal.os.ZygoteInit$MethodAndArgsCaller.run, com.android.internal.os.ZygoteInit.main, de.robv.android.xposed.XposedBridge.main
AFTER dk.example.example_fragment_oninflate.MainActivity.onCreate, invoked by: dalvik.system.VMStack.getThreadStackTrace, java.lang.Thread.getStackTrace, it.unimib.disco.lta.unimiblogger.MyMethodHook.beforeHookedMethod, de.robv.android.xposed.XposedBridge.handleHookedMethod, dk.example.example_fragment_oninflate.MainActivity.onCreate, android.app.Activity.performCreate, android.app.Instrumentation.callActivityOnCreate, android.app.ActivityThread.performLaunchActivity, android.app.ActivityThread.handleLaunchActivity, android.app.ActivityThread.-wrap11, android.app.ActivityThread$H.handleMessage, android.os.Handler.dispatchMessage, android.os.Looper.loop, android.app.ActivityThread.main, java.lang.reflect.Method.invoke, com.android.internal.os.ZygoteInit$MethodAndArgsCaller.run, com.android.internal.os.ZygoteInit.main, de.robv.android.xposed.XposedBridge.main
BEFORE dk.example.example_fragment_oninflate.MainActivity.onCreateOptionsMenu(com.android.internal.view.menu.MenuBuilder), invoked by: dalvik.system.VMStack.getThreadStackTrace, java.lang.Thread.getStackTrace, it.unimib.disco.lta.unimiblogger.MyMethodHook.beforeHookedMethod, de.robv.android.xposed.XposedBridge.handleHookedMethod, dk.example.example_fragment_oninflate.MainActivity.onCreateOptionsMenu, android.app.Activity.onCreatePanelMenu, com.android.internal.policy.PhoneWindow.preparePanel, com.android.internal.policy.PhoneWindow.doInvalidatePanelMenu, com.android.internal.policy.PhoneWindow$1.run, android.os.Handler.handleCallback, android.os.Handler.dispatchMessage, android.os.Looper.loop, android.app.ActivityThread.main, java.lang.reflect.Method.invoke, com.android.internal.os.ZygoteInit$MethodAndArgsCaller.run, com.android.internal.os.ZygoteInit.main, de.robv.android.xposed.XposedBridge.main
BEFORE android.app.Activity.getMenuInflater(), invoked by: dalvik.system.VMStack.getThreadStackTrace, java.lang.Thread.getStackTrace, it.unimib.disco.lta.unimiblogger.MyMethodHook.beforeHookedMethod, de.robv.android.xposed.XposedBridge.handleHookedMethod, android.app.Activity.getMenuInflater, dk.example.example_fragment_oninflate.MainActivity.onCreateOptionsMenu, de.robv.android.xposed.XposedBridge.invokeOriginalMethodNative, de.robv.android.xposed.XposedBridge.handleHookedMethod, dk.example.example_fragment_oninflate.MainActivity.onCreateOptionsMenu, android.app.Activity.onCreatePanelMenu, com.android.internal.policy.PhoneWindow.preparePanel, com.android.internal.policy.PhoneWindow.doInvalidatePanelMenu, com.android.internal.policy.PhoneWindow$1.run, android.os.Handler.handleCallback, android.os.Handler.dispatchMessage, android.os.Looper.loop, android.app.ActivityThread.main, java.lang.reflect.Method.invoke, com.android.internal.os.ZygoteInit$MethodAndArgsCaller.run, com.android.internal.os.ZygoteInit.main, de.robv.android.xposed.XposedBridge.main
AFTER android.app.Activity.getMenuInflater, returnValue: android.view.MenuInflater, invoked by: dalvik.system.VMStack.getThreadStackTrace, java.lang.Thread.getStackTrace, it.unimib.disco.lta.unimiblogger.MyMethodHook.beforeHookedMethod, de.robv.android.xposed.XposedBridge.handleHookedMethod, android.app.Activity.getMenuInflater, dk.example.example_fragment_oninflate.MainActivity.onCreateOptionsMenu, de.robv.android.xposed.XposedBridge.invokeOriginalMethodNative, de.robv.android.xposed.XposedBridge.handleHookedMethod, dk.example.example_fragment_oninflate.MainActivity.onCreateOptionsMenu, android.app.Activity.onCreatePanelMenu, com.android.internal.policy.PhoneWindow.preparePanel, com.android.internal.policy.PhoneWindow.doInvalidatePanelMenu, com.android.internal.policy.PhoneWindow$1.run, android.os.Handler.handleCallback, android.os.Handler.dispatchMessage, android.os.Looper.loop, android.app.ActivityThread.main, java.lang.reflect.Method.invoke, com.android.internal.os.ZygoteInit$MethodAndArgsCaller.run, com.android.internal.os.ZygoteInit.main, de.robv.android.xposed.XposedBridge.main
BEFORE android.view.MenuInflater.inflate(2131034112,com.android.internal.view.menu.MenuBuilder), invoked by: dalvik.system.VMStack.getThreadStackTrace, java.lang.Thread.getStackTrace, it.unimib.disco.lta.unimiblogger.MyMethodHook.beforeHookedMethod, de.robv.android.xposed.XposedBridge.handleHookedMethod, android.view.MenuInflater.inflate, dk.example.example_fragment_oninflate.MainActivity.onCreateOptionsMenu, de.robv.android.xposed.XposedBridge.invokeOriginalMethodNative, de.robv.android.xposed.XposedBridge.handleHookedMethod, dk.example.example_fragment_oninflate.MainActivity.onCreateOptionsMenu, android.app.Activity.onCreatePanelMenu, com.android.internal.policy.PhoneWindow.preparePanel, com.android.internal.policy.PhoneWindow.doInvalidatePanelMenu, com.android.internal.policy.PhoneWindow$1.run, android.os.Handler.handleCallback, android.os.Handler.dispatchMessage, android.os.Looper.loop, android.app.ActivityThread.main, java.lang.reflect.Method.invoke, com.android.internal.os.ZygoteInit$MethodAndArgsCaller.run, com.android.internal.os.ZygoteInit.main, de.robv.android.xposed.XposedBridge.main
AFTER android.view.MenuInflater.inflate, invoked by: dalvik.system.VMStack.getThreadStackTrace, java.lang.Thread.getStackTrace, it.unimib.disco.lta.unimiblogger.MyMethodHook.beforeHookedMethod, de.robv.android.xposed.XposedBridge.handleHookedMethod, android.view.MenuInflater.inflate, dk.example.example_fragment_oninflate.MainActivity.onCreateOptionsMenu, de.robv.android.xposed.XposedBridge.invokeOriginalMethodNative, de.robv.android.xposed.XposedBridge.handleHookedMethod, dk.example.example_fragment_oninflate.MainActivity.onCreateOptionsMenu, android.app.Activity.onCreatePanelMenu, com.android.internal.policy.PhoneWindow.preparePanel, com.android.internal.policy.PhoneWindow.doInvalidatePanelMenu, com.android.internal.policy.PhoneWindow$1.run, android.os.Handler.handleCallback, android.os.Handler.dispatchMessage, android.os.Looper.loop, android.app.ActivityThread.main, java.lang.reflect.Method.invoke, com.android.internal.os.ZygoteInit$MethodAndArgsCaller.run, com.android.internal.os.ZygoteInit.main, de.robv.android.xposed.XposedBridge.main
AFTER dk.example.example_fragment_oninflate.MainActivity.onCreateOptionsMenu, returnValue: true, invoked by: dalvik.system.VMStack.getThreadStackTrace, java.lang.Thread.getStackTrace, it.unimib.disco.lta.unimiblogger.MyMethodHook.beforeHookedMethod, de.robv.android.xposed.XposedBridge.handleHookedMethod, dk.example.example_fragment_oninflate.MainActivity.onCreateOptionsMenu, android.app.Activity.onCreatePanelMenu, com.android.internal.policy.PhoneWindow.preparePanel, com.android.internal.policy.PhoneWindow.doInvalidatePanelMenu, com.android.internal.policy.PhoneWindow$1.run, android.os.Handler.handleCallback, android.os.Handler.dispatchMessage, android.os.Looper.loop, android.app.ActivityThread.main, java.lang.reflect.Method.invoke, com.android.internal.os.ZygoteInit$MethodAndArgsCaller.run, com.android.internal.os.ZygoteInit.main, de.robv.android.xposed.XposedBridge.main
BEFORE dk.example.example_fragment_oninflate.MainActivity.onPause(), invoked by: dalvik.system.VMStack.getThreadStackTrace, java.lang.Thread.getStackTrace, it.unimib.disco.lta.unimiblogger.MyMethodHook.beforeHookedMethod, de.robv.android.xposed.XposedBridge.handleHookedMethod, dk.example.example_fragment_oninflate.MainActivity.onPause, android.app.Activity.performPause, android.app.Instrumentation.callActivityOnPause, android.app.ActivityThread.performPauseActivity, android.app.ActivityThread.performPauseActivity, android.app.ActivityThread.handleRelaunchActivity, android.app.ActivityThread.-wrap15, android.app.ActivityThread$H.handleMessage, android.os.Handler.dispatchMessage, android.os.Looper.loop, android.app.ActivityThread.main, java.lang.reflect.Method.invoke, com.android.internal.os.ZygoteInit$MethodAndArgsCaller.run, com.android.internal.os.ZygoteInit.main, de.robv.android.xposed.XposedBridge.main
BEFORE android.app.Activity.onPause(), invoked by: dalvik.system.VMStack.getThreadStackTrace, java.lang.Thread.getStackTrace, it.unimib.disco.lta.unimiblogger.MyMethodHook.beforeHookedMethod, de.robv.android.xposed.XposedBridge.handleHookedMethod, android.app.Activity.onPause, dk.example.example_fragment_oninflate.MainActivity.onPause, de.robv.android.xposed.XposedBridge.invokeOriginalMethodNative, de.robv.android.xposed.XposedBridge.handleHookedMethod, dk.example.example_fragment_oninflate.MainActivity.onPause, android.app.Activity.performPause, android.app.Instrumentation.callActivityOnPause, android.app.ActivityThread.performPauseActivity, android.app.ActivityThread.performPauseActivity, android.app.ActivityThread.handleRelaunchActivity, android.app.ActivityThread.-wrap15, android.app.ActivityThread$H.handleMessage, android.os.Handler.dispatchMessage, android.os.Looper.loop, android.app.ActivityThread.main, java.lang.reflect.Method.invoke, com.android.internal.os.ZygoteInit$MethodAndArgsCaller.run, com.android.internal.os.ZygoteInit.main, de.robv.android.xposed.XposedBridge.main
AFTER android.app.Activity.onPause, invoked by: dalvik.system.VMStack.getThreadStackTrace, java.lang.Thread.getStackTrace, it.unimib.disco.lta.unimiblogger.MyMethodHook.beforeHookedMethod, de.robv.android.xposed.XposedBridge.handleHookedMethod, android.app.Activity.onPause, dk.example.example_fragment_oninflate.MainActivity.onPause, de.robv.android.xposed.XposedBridge.invokeOriginalMethodNative, de.robv.android.xposed.XposedBridge.handleHookedMethod, dk.example.example_fragment_oninflate.MainActivity.onPause, android.app.Activity.performPause, android.app.Instrumentation.callActivityOnPause, android.app.ActivityThread.performPauseActivity, android.app.ActivityThread.performPauseActivity, android.app.ActivityThread.handleRelaunchActivity, android.app.ActivityThread.-wrap15, android.app.ActivityThread$H.handleMessage, android.os.Handler.dispatchMessage, android.os.Looper.loop, android.app.ActivityThread.main, java.lang.reflect.Method.invoke, com.android.internal.os.ZygoteInit$MethodAndArgsCaller.run, com.android.internal.os.ZygoteInit.main, de.robv.android.xposed.XposedBridge.main
AFTER dk.example.example_fragment_oninflate.MainActivity.onPause, invoked by: dalvik.system.VMStack.getThreadStackTrace, java.lang.Thread.getStackTrace, it.unimib.disco.lta.unimiblogger.MyMethodHook.beforeHookedMethod, de.robv.android.xposed.XposedBridge.handleHookedMethod, dk.example.example_fragment_oninflate.MainActivity.onPause, android.app.Activity.performPause, android.app.Instrumentation.callActivityOnPause, android.app.ActivityThread.performPauseActivity, android.app.ActivityThread.performPauseActivity, android.app.ActivityThread.handleRelaunchActivity, android.app.ActivityThread.-wrap15, android.app.ActivityThread$H.handleMessage, android.os.Handler.dispatchMessage, android.os.Looper.loop, android.app.ActivityThread.main, java.lang.reflect.Method.invoke, com.android.internal.os.ZygoteInit$MethodAndArgsCaller.run, com.android.internal.os.ZygoteInit.main, de.robv.android.xposed.XposedBridge.main
BEFORE dk.example.example_fragment_oninflate.MainActivity.onCreate(android.os.Bundle), invoked by: dalvik.system.VMStack.getThreadStackTrace, java.lang.Thread.getStackTrace, it.unimib.disco.lta.unimiblogger.MyMethodHook.beforeHookedMethod, de.robv.android.xposed.XposedBridge.handleHookedMethod, dk.example.example_fragment_oninflate.MainActivity.onCreate, android.app.Activity.performCreate, android.app.Instrumentation.callActivityOnCreate, android.app.ActivityThread.performLaunchActivity, android.app.ActivityThread.handleLaunchActivity, android.app.ActivityThread.handleRelaunchActivity, android.app.ActivityThread.-wrap15, android.app.ActivityThread$H.handleMessage, android.os.Handler.dispatchMessage, android.os.Looper.loop, android.app.ActivityThread.main, java.lang.reflect.Method.invoke, com.android.internal.os.ZygoteInit$MethodAndArgsCaller.run, com.android.internal.os.ZygoteInit.main, de.robv.android.xposed.XposedBridge.main
BEFORE android.app.Activity.onCreate(android.os.Bundle), invoked by: dalvik.system.VMStack.getThreadStackTrace, java.lang.Thread.getStackTrace, it.unimib.disco.lta.unimiblogger.MyMethodHook.beforeHookedMethod, de.robv.android.xposed.XposedBridge.handleHookedMethod, android.app.Activity.onCreate, dk.example.example_fragment_oninflate.MainActivity.onCreate, de.robv.android.xposed.XposedBridge.invokeOriginalMethodNative, de.robv.android.xposed.XposedBridge.handleHookedMethod, dk.example.example_fragment_oninflate.MainActivity.onCreate, android.app.Activity.performCreate, android.app.Instrumentation.callActivityOnCreate, android.app.ActivityThread.performLaunchActivity, android.app.ActivityThread.handleLaunchActivity, android.app.ActivityThread.handleRelaunchActivity, android.app.ActivityThread.-wrap15, android.app.ActivityThread$H.handleMessage, android.os.Handler.dispatchMessage, android.os.Looper.loop, android.app.ActivityThread.main, java.lang.reflect.Method.invoke, com.android.internal.os.ZygoteInit$MethodAndArgsCaller.run, com.android.internal.os.ZygoteInit.main, de.robv.android.xposed.XposedBridge.main
AFTER android.app.Activity.onCreate, invoked by: dalvik.system.VMStack.getThreadStackTrace, java.lang.Thread.getStackTrace, it.unimib.disco.lta.unimiblogger.MyMethodHook.beforeHookedMethod, de.robv.android.xposed.XposedBridge.handleHookedMethod, android.app.Activity.onCreate, dk.example.example_fragment_oninflate.MainActivity.onCreate, de.robv.android.xposed.XposedBridge.invokeOriginalMethodNative, de.robv.android.xposed.XposedBridge.handleHookedMethod, dk.example.example_fragment_oninflate.MainActivity.onCreate, android.app.Activity.performCreate, android.app.Instrumentation.callActivityOnCreate, android.app.ActivityThread.performLaunchActivity, android.app.ActivityThread.handleLaunchActivity, android.app.ActivityThread.handleRelaunchActivity, android.app.ActivityThread.-wrap15, android.app.ActivityThread$H.handleMessage, android.os.Handler.dispatchMessage, android.os.Looper.loop, android.app.ActivityThread.main, java.lang.reflect.Method.invoke, com.android.internal.os.ZygoteInit$MethodAndArgsCaller.run, com.android.internal.os.ZygoteInit.main, de.robv.android.xposed.XposedBridge.main
BEFORE android.app.Activity.setContentView(2130968576), invoked by: dalvik.system.VMStack.getThreadStackTrace, java.lang.Thread.getStackTrace, it.unimib.disco.lta.unimiblogger.MyMethodHook.beforeHookedMethod, de.robv.android.xposed.XposedBridge.handleHookedMethod, android.app.Activity.setContentView, dk.example.example_fragment_oninflate.MainActivity.onCreate, de.robv.android.xposed.XposedBridge.invokeOriginalMethodNative, de.robv.android.xposed.XposedBridge.handleHookedMethod, dk.example.example_fragment_oninflate.MainActivity.onCreate, android.app.Activity.performCreate, android.app.Instrumentation.callActivityOnCreate, android.app.ActivityThread.performLaunchActivity, android.app.ActivityThread.handleLaunchActivity, android.app.ActivityThread.handleRelaunchActivity, android.app.ActivityThread.-wrap15, android.app.ActivityThread$H.handleMessage, android.os.Handler.dispatchMessage, android.os.Looper.loop, android.app.ActivityThread.main, java.lang.reflect.Method.invoke, com.android.internal.os.ZygoteInit$MethodAndArgsCaller.run, com.android.internal.os.ZygoteInit.main, de.robv.android.xposed.XposedBridge.main
BEFORE dk.example.example_fragment_oninflate.MainActivityFragment.onInflate(android.content.res.XmlBlock$Parser,android.os.Bundle), invoked by: dalvik.system.VMStack.getThreadStackTrace, java.lang.Thread.getStackTrace, it.unimib.disco.lta.unimiblogger.MyMethodHook.beforeHookedMethod, de.robv.android.xposed.XposedBridge.handleHookedMethod, dk.example.example_fragment_oninflate.MainActivityFragment.onInflate, android.app.Fragment.onInflate, android.app.FragmentManagerImpl.onCreateView, android.app.FragmentController.onCreateView, android.app.Activity.onCreateView, android.view.LayoutInflater.createViewFromTag, android.view.LayoutInflater.createViewFromTag, android.view.LayoutInflater.inflate, de.robv.android.xposed.XposedBridge.invokeOriginalMethodNative, de.robv.android.xposed.XposedBridge.handleHookedMethod, android.view.LayoutInflater.inflate, android.view.LayoutInflater.inflate, de.robv.android.xposed.XposedBridge.invokeOriginalMethodNative, de.robv.android.xposed.XposedBridge.handleHookedMethod, android.view.LayoutInflater.inflate, android.view.LayoutInflater.inflate, de.robv.android.xposed.XposedBridge.invokeOriginalMethodNative, de.robv.android.xposed.XposedBridge.handleHookedMethod, android.view.LayoutInflater.inflate, com.android.internal.policy.PhoneWindow.setContentView, android.app.Activity.setContentView, de.robv.android.xposed.XposedBridge.invokeOriginalMethodNative, de.robv.android.xposed.XposedBridge.handleHookedMethod, android.app.Activity.setContentView, dk.example.example_fragment_oninflate.MainActivity.onCreate, de.robv.android.xposed.XposedBridge.invokeOriginalMethodNative, de.robv.android.xposed.XposedBridge.handleHookedMethod, dk.example.example_fragment_oninflate.MainActivity.onCreate, android.app.Activity.performCreate, android.app.Instrumentation.callActivityOnCreate, android.app.ActivityThread.performLaunchActivity, android.app.ActivityThread.handleLaunchActivity, android.app.ActivityThread.handleRelaunchActivity, android.app.ActivityThread.-wrap15, android.app.ActivityThread$H.handleMessage, android.os.Handler.dispatchMessage, android.os.Looper.loop, android.app.ActivityThread.main, java.lang.reflect.Method.invoke, com.android.internal.os.ZygoteInit$MethodAndArgsCaller.run, com.android.internal.os.ZygoteInit.main, de.robv.android.xposed.XposedBridge.main
BEFORE dk.example.example_fragment_oninflate.MainActivityFragment.onInflate(android.content.res.XmlBlock$Parser,android.os.Bundle), invoked by: dalvik.system.VMStack.getThreadStackTrace, java.lang.Thread.getStackTrace, it.unimib.disco.lta.unimiblogger.MyMethodHook.beforeHookedMethod, de.robv.android.xposed.XposedBridge.handleHookedMethod, dk.example.example_fragment_oninflate.MainActivityFragment.onInflate, android.app.Fragment.onInflate, android.app.FragmentManagerImpl.onCreateView, android.app.FragmentController.onCreateView, android.app.Activity.onCreateView, android.view.LayoutInflater.createViewFromTag, android.view.LayoutInflater.createViewFromTag, android.view.LayoutInflater.inflate, de.robv.android.xposed.XposedBridge.invokeOriginalMethodNative, de.robv.android.xposed.XposedBridge.handleHookedMethod, android.view.LayoutInflater.inflate, android.view.LayoutInflater.inflate, de.robv.android.xposed.XposedBridge.invokeOriginalMethodNative, de.robv.android.xposed.XposedBridge.handleHookedMethod, android.view.LayoutInflater.inflate, android.view.LayoutInflater.inflate, de.robv.android.xposed.XposedBridge.invokeOriginalMethodNative, de.robv.android.xposed.XposedBridge.handleHookedMethod, android.view.LayoutInflater.inflate, com.android.internal.policy.PhoneWindow.setContentView, android.app.Activity.setContentView, de.robv.android.xposed.XposedBridge.invokeOriginalMethodNative, de.robv.android.xposed.XposedBridge.handleHookedMethod, android.app.Activity.setContentView, dk.example.example_fragment_oninflate.MainActivity.onCreate, de.robv.android.xposed.XposedBridge.invokeOriginalMethodNative, de.robv.android.xposed.XposedBridge.handleHookedMethod, dk.example.example_fragment_oninflate.MainActivity.onCreate, android.app.Activity.performCreate, android.app.Instrumentation.callActivityOnCreate, android.app.ActivityThread.performLaunchActivity, android.app.ActivityThread.handleLaunchActivity, android.app.ActivityThread.handleRelaunchActivity, android.app.ActivityThread.-wrap15, android.app.ActivityThread$H.handleMessage, android.os.Handler.dispatchMessage, android.os.Looper.loop, android.app.ActivityThread.main, java.lang.reflect.Method.invoke, com.android.internal.os.ZygoteInit$MethodAndArgsCaller.run, com.android.internal.os.ZygoteInit.main, de.robv.android.xposed.XposedBridge.main
AFTER dk.example.example_fragment_oninflate.MainActivityFragment.onInflate, invoked by: dalvik.system.VMStack.getThreadStackTrace, java.lang.Thread.getStackTrace, it.unimib.disco.lta.unimiblogger.MyMethodHook.beforeHookedMethod, de.robv.android.xposed.XposedBridge.handleHookedMethod, dk.example.example_fragment_oninflate.MainActivityFragment.onInflate, android.app.Fragment.onInflate, android.app.FragmentManagerImpl.onCreateView, android.app.FragmentController.onCreateView, android.app.Activity.onCreateView, android.view.LayoutInflater.createViewFromTag, android.view.LayoutInflater.createViewFromTag, android.view.LayoutInflater.inflate, de.robv.android.xposed.XposedBridge.invokeOriginalMethodNative, de.robv.android.xposed.XposedBridge.handleHookedMethod, android.view.LayoutInflater.inflate, android.view.LayoutInflater.inflate, de.robv.android.xposed.XposedBridge.invokeOriginalMethodNative, de.robv.android.xposed.XposedBridge.handleHookedMethod, android.view.LayoutInflater.inflate, android.view.LayoutInflater.inflate, de.robv.android.xposed.XposedBridge.invokeOriginalMethodNative, de.robv.android.xposed.XposedBridge.handleHookedMethod, android.view.LayoutInflater.inflate, com.android.internal.policy.PhoneWindow.setContentView, android.app.Activity.setContentView, de.robv.android.xposed.XposedBridge.invokeOriginalMethodNative, de.robv.android.xposed.XposedBridge.handleHookedMethod, android.app.Activity.setContentView, dk.example.example_fragment_oninflate.MainActivity.onCreate, de.robv.android.xposed.XposedBridge.invokeOriginalMethodNative, de.robv.android.xposed.XposedBridge.handleHookedMethod, dk.example.example_fragment_oninflate.MainActivity.onCreate, android.app.Activity.performCreate, android.app.Instrumentation.callActivityOnCreate, android.app.ActivityThread.performLaunchActivity, android.app.ActivityThread.handleLaunchActivity, android.app.ActivityThread.handleRelaunchActivity, android.app.ActivityThread.-wrap15, android.app.ActivityThread$H.handleMessage, android.os.Handler.dispatchMessage, android.os.Looper.loop, android.app.ActivityThread.main, java.lang.reflect.Method.invoke, com.android.internal.os.ZygoteInit$MethodAndArgsCaller.run, com.android.internal.os.ZygoteInit.main, de.robv.android.xposed.XposedBridge.main
AFTER dk.example.example_fragment_oninflate.MainActivityFragment.onInflate, invoked by: dalvik.system.VMStack.getThreadStackTrace, java.lang.Thread.getStackTrace, it.unimib.disco.lta.unimiblogger.MyMethodHook.beforeHookedMethod, de.robv.android.xposed.XposedBridge.handleHookedMethod, dk.example.example_fragment_oninflate.MainActivityFragment.onInflate, android.app.Fragment.onInflate, android.app.FragmentManagerImpl.onCreateView, android.app.FragmentController.onCreateView, android.app.Activity.onCreateView, android.view.LayoutInflater.createViewFromTag, android.view.LayoutInflater.createViewFromTag, android.view.LayoutInflater.inflate, de.robv.android.xposed.XposedBridge.invokeOriginalMethodNative, de.robv.android.xposed.XposedBridge.handleHookedMethod, android.view.LayoutInflater.inflate, android.view.LayoutInflater.inflate, de.robv.android.xposed.XposedBridge.invokeOriginalMethodNative, de.robv.android.xposed.XposedBridge.handleHookedMethod, android.view.LayoutInflater.inflate, android.view.LayoutInflater.inflate, de.robv.android.xposed.XposedBridge.invokeOriginalMethodNative, de.robv.android.xposed.XposedBridge.handleHookedMethod, android.view.LayoutInflater.inflate, com.android.internal.policy.PhoneWindow.setContentView, android.app.Activity.setContentView, de.robv.android.xposed.XposedBridge.invokeOriginalMethodNative, de.robv.android.xposed.XposedBridge.handleHookedMethod, android.app.Activity.setContentView, dk.example.example_fragment_oninflate.MainActivity.onCreate, de.robv.android.xposed.XposedBridge.invokeOriginalMethodNative, de.robv.android.xposed.XposedBridge.handleHookedMethod, dk.example.example_fragment_oninflate.MainActivity.onCreate, android.app.Activity.performCreate, android.app.Instrumentation.callActivityOnCreate, android.app.ActivityThread.performLaunchActivity, android.app.ActivityThread.handleLaunchActivity, android.app.ActivityThread.handleRelaunchActivity, android.app.ActivityThread.-wrap15, android.app.ActivityThread$H.handleMessage, android.os.Handler.dispatchMessage, android.os.Looper.loop, android.app.ActivityThread.main, java.lang.reflect.Method.invoke, com.android.internal.os.ZygoteInit$MethodAndArgsCaller.run, com.android.internal.os.ZygoteInit.main, de.robv.android.xposed.XposedBridge.main
BEFORE dk.example.example_fragment_oninflate.MainActivityFragment.onCreateView(com.android.internal.policy.PhoneLayoutInflater,android.os.Bundle), invoked by: dalvik.system.VMStack.getThreadStackTrace, java.lang.Thread.getStackTrace, it.unimib.disco.lta.unimiblogger.MyMethodHook.beforeHookedMethod, de.robv.android.xposed.XposedBridge.handleHookedMethod, dk.example.example_fragment_oninflate.MainActivityFragment.onCreateView, android.app.Fragment.performCreateView, android.app.FragmentManagerImpl.moveToState, android.app.FragmentManagerImpl.moveToState, android.app.FragmentManagerImpl.onCreateView, android.app.FragmentController.onCreateView, android.app.Activity.onCreateView, android.view.LayoutInflater.createViewFromTag, android.view.LayoutInflater.createViewFromTag, android.view.LayoutInflater.inflate, de.robv.android.xposed.XposedBridge.invokeOriginalMethodNative, de.robv.android.xposed.XposedBridge.handleHookedMethod, android.view.LayoutInflater.inflate, android.view.LayoutInflater.inflate, de.robv.android.xposed.XposedBridge.invokeOriginalMethodNative, de.robv.android.xposed.XposedBridge.handleHookedMethod, android.view.LayoutInflater.inflate, android.view.LayoutInflater.inflate, de.robv.android.xposed.XposedBridge.invokeOriginalMethodNative, de.robv.android.xposed.XposedBridge.handleHookedMethod, android.view.LayoutInflater.inflate, com.android.internal.policy.PhoneWindow.setContentView, android.app.Activity.setContentView, de.robv.android.xposed.XposedBridge.invokeOriginalMethodNative, de.robv.android.xposed.XposedBridge.handleHookedMethod, android.app.Activity.setContentView, dk.example.example_fragment_oninflate.MainActivity.onCreate, de.robv.android.xposed.XposedBridge.invokeOriginalMethodNative, de.robv.android.xposed.XposedBridge.handleHookedMethod, dk.example.example_fragment_oninflate.MainActivity.onCreate, android.app.Activity.performCreate, android.app.Instrumentation.callActivityOnCreate, android.app.ActivityThread.performLaunchActivity, android.app.ActivityThread.handleLaunchActivity, android.app.ActivityThread.handleRelaunchActivity, android.app.ActivityThread.-wrap15, android.app.ActivityThread$H.handleMessage, android.os.Handler.dispatchMessage, android.os.Looper.loop, android.app.ActivityThread.main, java.lang.reflect.Method.invoke, com.android.internal.os.ZygoteInit$MethodAndArgsCaller.run, com.android.internal.os.ZygoteInit.main, de.robv.android.xposed.XposedBridge.main
BEFORE android.view.LayoutInflater.inflate(2130968577,false), invoked by: dalvik.system.VMStack.getThreadStackTrace, java.lang.Thread.getStackTrace, it.unimib.disco.lta.unimiblogger.MyMethodHook.beforeHookedMethod, de.robv.android.xposed.XposedBridge.handleHookedMethod, android.view.LayoutInflater.inflate, dk.example.example_fragment_oninflate.MainActivityFragment.onCreateView, de.robv.android.xposed.XposedBridge.invokeOriginalMethodNative, de.robv.android.xposed.XposedBridge.handleHookedMethod, dk.example.example_fragment_oninflate.MainActivityFragment.onCreateView, android.app.Fragment.performCreateView, android.app.FragmentManagerImpl.moveToState, android.app.FragmentManagerImpl.moveToState, android.app.FragmentManagerImpl.onCreateView, android.app.FragmentController.onCreateView, android.app.Activity.onCreateView, android.view.LayoutInflater.createViewFromTag, android.view.LayoutInflater.createViewFromTag, android.view.LayoutInflater.inflate, de.robv.android.xposed.XposedBridge.invokeOriginalMethodNative, de.robv.android.xposed.XposedBridge.handleHookedMethod, android.view.LayoutInflater.inflate, android.view.LayoutInflater.inflate, de.robv.android.xposed.XposedBridge.invokeOriginalMethodNative, de.robv.android.xposed.XposedBridge.handleHookedMethod, android.view.LayoutInflater.inflate, android.view.LayoutInflater.inflate, de.robv.android.xposed.XposedBridge.invokeOriginalMethodNative, de.robv.android.xposed.XposedBridge.handleHookedMethod, android.view.LayoutInflater.inflate, com.android.internal.policy.PhoneWindow.setContentView, android.app.Activity.setContentView, de.robv.android.xposed.XposedBridge.invokeOriginalMethodNative, de.robv.android.xposed.XposedBridge.handleHookedMethod, android.app.Activity.setContentView, dk.example.example_fragment_oninflate.MainActivity.onCreate, de.robv.android.xposed.XposedBridge.invokeOriginalMethodNative, de.robv.android.xposed.XposedBridge.handleHookedMethod, dk.example.example_fragment_oninflate.MainActivity.onCreate, android.app.Activity.performCreate, android.app.Instrumentation.callActivityOnCreate, android.app.ActivityThread.performLaunchActivity, android.app.ActivityThread.handleLaunchActivity, android.app.ActivityThread.handleRelaunchActivity, android.app.ActivityThread.-wrap15, android.app.ActivityThread$H.handleMessage, android.os.Handler.dispatchMessage, android.os.Looper.loop, android.app.ActivityThread.main, java.lang.reflect.Method.invoke, com.android.internal.os.ZygoteInit$MethodAndArgsCaller.run, com.android.internal.os.ZygoteInit.main, de.robv.android.xposed.XposedBridge.main
AFTER android.view.LayoutInflater.inflate, returnValue: android.widget.RelativeLayout{f22ac9a V.E...... ......I. 0,0-0,0}, invoked by: dalvik.system.VMStack.getThreadStackTrace, java.lang.Thread.getStackTrace, it.unimib.disco.lta.unimiblogger.MyMethodHook.beforeHookedMethod, de.robv.android.xposed.XposedBridge.handleHookedMethod, android.view.LayoutInflater.inflate, android.view.LayoutInflater.inflate, de.robv.android.xposed.XposedBridge.invokeOriginalMethodNative, de.robv.android.xposed.XposedBridge.handleHookedMethod, android.view.LayoutInflater.inflate, dk.example.example_fragment_oninflate.MainActivityFragment.onCreateView, de.robv.android.xposed.XposedBridge.invokeOriginalMethodNative, de.robv.android.xposed.XposedBridge.handleHookedMethod, dk.example.example_fragment_oninflate.MainActivityFragment.onCreateView, android.app.Fragment.performCreateView, android.app.FragmentManagerImpl.moveToState, android.app.FragmentManagerImpl.moveToState, android.app.FragmentManagerImpl.onCreateView, android.app.FragmentController.onCreateView, android.app.Activity.onCreateView, android.view.LayoutInflater.createViewFromTag, android.view.LayoutInflater.createViewFromTag, android.view.LayoutInflater.inflate, de.robv.android.xposed.XposedBridge.invokeOriginalMethodNative, de.robv.android.xposed.XposedBridge.handleHookedMethod, android.view.LayoutInflater.inflate, android.view.LayoutInflater.inflate, de.robv.android.xposed.XposedBridge.invokeOriginalMethodNative, de.robv.android.xposed.XposedBridge.handleHookedMethod, android.view.LayoutInflater.inflate, android.view.LayoutInflater.inflate, de.robv.android.xposed.XposedBridge.invokeOriginalMethodNative, de.robv.android.xposed.XposedBridge.handleHookedMethod, android.view.LayoutInflater.inflate, com.android.internal.policy.PhoneWindow.setContentView, android.app.Activity.setContentView, de.robv.android.xposed.XposedBridge.invokeOriginalMethodNative, de.robv.android.xposed.XposedBridge.handleHookedMethod, android.app.Activity.setContentView, dk.example.example_fragment_oninflate.MainActivity.onCreate, de.robv.android.xposed.XposedBridge.invokeOriginalMethodNative, de.robv.android.xposed.XposedBridge.handleHookedMethod, dk.example.example_fragment_oninflate.MainActivity.onCreate, android.app.Activity.performCreate, android.app.Instrumentation.callActivityOnCreate, android.app.ActivityThread.performLaunchActivity, android.app.ActivityThread.handleLaunchActivity, android.app.ActivityThread.handleRelaunchActivity, android.app.ActivityThread.-wrap15, android.app.ActivityThread$H.handleMessage, android.os.Handler.dispatchMessage, android.os.Looper.loop, android.app.ActivityThread.main, java.lang.reflect.Method.invoke, com.android.internal.os.ZygoteInit$MethodAndArgsCaller.run, com.android.internal.os.ZygoteInit.main, de.robv.android.xposed.XposedBridge.main
AFTER dk.example.example_fragment_oninflate.MainActivityFragment.onCreateView, returnValue: android.widget.RelativeLayout{f22ac9a V.E...... ......I. 0,0-0,0}, invoked by: dalvik.system.VMStack.getThreadStackTrace, java.lang.Thread.getStackTrace, it.unimib.disco.lta.unimiblogger.MyMethodHook.beforeHookedMethod, de.robv.android.xposed.XposedBridge.handleHookedMethod, dk.example.example_fragment_oninflate.MainActivityFragment.onCreateView, android.app.Fragment.performCreateView, android.app.FragmentManagerImpl.moveToState, android.app.FragmentManagerImpl.moveToState, android.app.FragmentManagerImpl.onCreateView, android.app.FragmentController.onCreateView, android.app.Activity.onCreateView, android.view.LayoutInflater.createViewFromTag, android.view.LayoutInflater.createViewFromTag, android.view.LayoutInflater.inflate, de.robv.android.xposed.XposedBridge.invokeOriginalMethodNative, de.robv.android.xposed.XposedBridge.handleHookedMethod, android.view.LayoutInflater.inflate, android.view.LayoutInflater.inflate, de.robv.android.xposed.XposedBridge.invokeOriginalMethodNative, de.robv.android.xposed.XposedBridge.handleHookedMethod, android.view.LayoutInflater.inflate, android.view.LayoutInflater.inflate, de.robv.android.xposed.XposedBridge.invokeOriginalMethodNative, de.robv.android.xposed.XposedBridge.handleHookedMethod, android.view.LayoutInflater.inflate, com.android.internal.policy.PhoneWindow.setContentView, android.app.Activity.setContentView, de.robv.android.xposed.XposedBridge.invokeOriginalMethodNative, de.robv.android.xposed.XposedBridge.handleHookedMethod, android.app.Activity.setContentView, dk.example.example_fragment_oninflate.MainActivity.onCreate, de.robv.android.xposed.XposedBridge.invokeOriginalMethodNative, de.robv.android.xposed.XposedBridge.handleHookedMethod, dk.example.example_fragment_oninflate.MainActivity.onCreate, android.app.Activity.performCreate, android.app.Instrumentation.callActivityOnCreate, android.app.ActivityThread.performLaunchActivity, android.app.ActivityThread.handleLaunchActivity, android.app.ActivityThread.handleRelaunchActivity, android.app.ActivityThread.-wrap15, android.app.ActivityThread$H.handleMessage, android.os.Handler.dispatchMessage, android.os.Looper.loop, android.app.ActivityThread.main, java.lang.reflect.Method.invoke, com.android.internal.os.ZygoteInit$MethodAndArgsCaller.run, com.android.internal.os.ZygoteInit.main, de.robv.android.xposed.XposedBridge.main
AFTER android.app.Activity.setContentView, invoked by: dalvik.system.VMStack.getThreadStackTrace, java.lang.Thread.getStackTrace, it.unimib.disco.lta.unimiblogger.MyMethodHook.beforeHookedMethod, de.robv.android.xposed.XposedBridge.handleHookedMethod, android.app.Activity.setContentView, dk.example.example_fragment_oninflate.MainActivity.onCreate, de.robv.android.xposed.XposedBridge.invokeOriginalMethodNative, de.robv.android.xposed.XposedBridge.handleHookedMethod, dk.example.example_fragment_oninflate.MainActivity.onCreate, android.app.Activity.performCreate, android.app.Instrumentation.callActivityOnCreate, android.app.ActivityThread.performLaunchActivity, android.app.ActivityThread.handleLaunchActivity, android.app.ActivityThread.handleRelaunchActivity, android.app.ActivityThread.-wrap15, android.app.ActivityThread$H.handleMessage, android.os.Handler.dispatchMessage, android.os.Looper.loop, android.app.ActivityThread.main, java.lang.reflect.Method.invoke, com.android.internal.os.ZygoteInit$MethodAndArgsCaller.run, com.android.internal.os.ZygoteInit.main, de.robv.android.xposed.XposedBridge.main
AFTER dk.example.example_fragment_oninflate.MainActivity.onCreate, invoked by: dalvik.system.VMStack.getThreadStackTrace, java.lang.Thread.getStackTrace, it.unimib.disco.lta.unimiblogger.MyMethodHook.beforeHookedMethod, de.robv.android.xposed.XposedBridge.handleHookedMethod, dk.example.example_fragment_oninflate.MainActivity.onCreate, android.app.Activity.performCreate, android.app.Instrumentation.callActivityOnCreate, android.app.ActivityThread.performLaunchActivity, android.app.ActivityThread.handleLaunchActivity, android.app.ActivityThread.handleRelaunchActivity, android.app.ActivityThread.-wrap15, android.app.ActivityThread$H.handleMessage, android.os.Handler.dispatchMessage, android.os.Looper.loop, android.app.ActivityThread.main, java.lang.reflect.Method.invoke, com.android.internal.os.ZygoteInit$MethodAndArgsCaller.run, com.android.internal.os.ZygoteInit.main, de.robv.android.xposed.XposedBridge.main
BEFORE dk.example.example_fragment_oninflate.MainActivity.onCreateOptionsMenu(com.android.internal.view.menu.MenuBuilder), invoked by: dalvik.system.VMStack.getThreadStackTrace, java.lang.Thread.getStackTrace, it.unimib.disco.lta.unimiblogger.MyMethodHook.beforeHookedMethod, de.robv.android.xposed.XposedBridge.handleHookedMethod, dk.example.example_fragment_oninflate.MainActivity.onCreateOptionsMenu, android.app.Activity.onCreatePanelMenu, com.android.internal.policy.PhoneWindow.preparePanel, com.android.internal.policy.PhoneWindow.doInvalidatePanelMenu, com.android.internal.policy.PhoneWindow$1.run, com.android.internal.policy.PhoneWindow.doPendingInvalidatePanelMenu, com.android.internal.policy.PhoneWindow.restoreHierarchyState, android.app.Activity.onRestoreInstanceState, android.app.Activity.performRestoreInstanceState, android.app.Instrumentation.callActivityOnRestoreInstanceState, android.app.ActivityThread.performLaunchActivity, android.app.ActivityThread.handleLaunchActivity, android.app.ActivityThread.handleRelaunchActivity, android.app.ActivityThread.-wrap15, android.app.ActivityThread$H.handleMessage, android.os.Handler.dispatchMessage, android.os.Looper.loop, android.app.ActivityThread.main, java.lang.reflect.Method.invoke, com.android.internal.os.ZygoteInit$MethodAndArgsCaller.run, com.android.internal.os.ZygoteInit.main, de.robv.android.xposed.XposedBridge.main
BEFORE android.app.Activity.getMenuInflater(), invoked by: dalvik.system.VMStack.getThreadStackTrace, java.lang.Thread.getStackTrace, it.unimib.disco.lta.unimiblogger.MyMethodHook.beforeHookedMethod, de.robv.android.xposed.XposedBridge.handleHookedMethod, android.app.Activity.getMenuInflater, dk.example.example_fragment_oninflate.MainActivity.onCreateOptionsMenu, de.robv.android.xposed.XposedBridge.invokeOriginalMethodNative, de.robv.android.xposed.XposedBridge.handleHookedMethod, dk.example.example_fragment_oninflate.MainActivity.onCreateOptionsMenu, android.app.Activity.onCreatePanelMenu, com.android.internal.policy.PhoneWindow.preparePanel, com.android.internal.policy.PhoneWindow.doInvalidatePanelMenu, com.android.internal.policy.PhoneWindow$1.run, com.android.internal.policy.PhoneWindow.doPendingInvalidatePanelMenu, com.android.internal.policy.PhoneWindow.restoreHierarchyState, android.app.Activity.onRestoreInstanceState, android.app.Activity.performRestoreInstanceState, android.app.Instrumentation.callActivityOnRestoreInstanceState, android.app.ActivityThread.performLaunchActivity, android.app.ActivityThread.handleLaunchActivity, android.app.ActivityThread.handleRelaunchActivity, android.app.ActivityThread.-wrap15, android.app.ActivityThread$H.handleMessage, android.os.Handler.dispatchMessage, android.os.Looper.loop, android.app.ActivityThread.main, java.lang.reflect.Method.invoke, com.android.internal.os.ZygoteInit$MethodAndArgsCaller.run, com.android.internal.os.ZygoteInit.main, de.robv.android.xposed.XposedBridge.main
AFTER android.app.Activity.getMenuInflater, returnValue: android.view.MenuInflater, invoked by: dalvik.system.VMStack.getThreadStackTrace, java.lang.Thread.getStackTrace, it.unimib.disco.lta.unimiblogger.MyMethodHook.beforeHookedMethod, de.robv.android.xposed.XposedBridge.handleHookedMethod, android.app.Activity.getMenuInflater, dk.example.example_fragment_oninflate.MainActivity.onCreateOptionsMenu, de.robv.android.xposed.XposedBridge.invokeOriginalMethodNative, de.robv.android.xposed.XposedBridge.handleHookedMethod, dk.example.example_fragment_oninflate.MainActivity.onCreateOptionsMenu, android.app.Activity.onCreatePanelMenu, com.android.internal.policy.PhoneWindow.preparePanel, com.android.internal.policy.PhoneWindow.doInvalidatePanelMenu, com.android.internal.policy.PhoneWindow$1.run, com.android.internal.policy.PhoneWindow.doPendingInvalidatePanelMenu, com.android.internal.policy.PhoneWindow.restoreHierarchyState, android.app.Activity.onRestoreInstanceState, android.app.Activity.performRestoreInstanceState, android.app.Instrumentation.callActivityOnRestoreInstanceState, android.app.ActivityThread.performLaunchActivity, android.app.ActivityThread.handleLaunchActivity, android.app.ActivityThread.handleRelaunchActivity, android.app.ActivityThread.-wrap15, android.app.ActivityThread$H.handleMessage, android.os.Handler.dispatchMessage, android.os.Looper.loop, android.app.ActivityThread.main, java.lang.reflect.Method.invoke, com.android.internal.os.ZygoteInit$MethodAndArgsCaller.run, com.android.internal.os.ZygoteInit.main, de.robv.android.xposed.XposedBridge.main
BEFORE android.view.MenuInflater.inflate(2131034112,com.android.internal.view.menu.MenuBuilder), invoked by: dalvik.system.VMStack.getThreadStackTrace, java.lang.Thread.getStackTrace, it.unimib.disco.lta.unimiblogger.MyMethodHook.beforeHookedMethod, de.robv.android.xposed.XposedBridge.handleHookedMethod, android.view.MenuInflater.inflate, dk.example.example_fragment_oninflate.MainActivity.onCreateOptionsMenu, de.robv.android.xposed.XposedBridge.invokeOriginalMethodNative, de.robv.android.xposed.XposedBridge.handleHookedMethod, dk.example.example_fragment_oninflate.MainActivity.onCreateOptionsMenu, android.app.Activity.onCreatePanelMenu, com.android.internal.policy.PhoneWindow.preparePanel, com.android.internal.policy.PhoneWindow.doInvalidatePanelMenu, com.android.internal.policy.PhoneWindow$1.run, com.android.internal.policy.PhoneWindow.doPendingInvalidatePanelMenu, com.android.internal.policy.PhoneWindow.restoreHierarchyState, android.app.Activity.onRestoreInstanceState, android.app.Activity.performRestoreInstanceState, android.app.Instrumentation.callActivityOnRestoreInstanceState, android.app.ActivityThread.performLaunchActivity, android.app.ActivityThread.handleLaunchActivity, android.app.ActivityThread.handleRelaunchActivity, android.app.ActivityThread.-wrap15, android.app.ActivityThread$H.handleMessage, android.os.Handler.dispatchMessage, android.os.Looper.loop, android.app.ActivityThread.main, java.lang.reflect.Method.invoke, com.android.internal.os.ZygoteInit$MethodAndArgsCaller.run, com.android.internal.os.ZygoteInit.main, de.robv.android.xposed.XposedBridge.main
AFTER android.view.MenuInflater.inflate, invoked by: dalvik.system.VMStack.getThreadStackTrace, java.lang.Thread.getStackTrace, it.unimib.disco.lta.unimiblogger.MyMethodHook.beforeHookedMethod, de.robv.android.xposed.XposedBridge.handleHookedMethod, android.view.MenuInflater.inflate, dk.example.example_fragment_oninflate.MainActivity.onCreateOptionsMenu, de.robv.android.xposed.XposedBridge.invokeOriginalMethodNative, de.robv.android.xposed.XposedBridge.handleHookedMethod, dk.example.example_fragment_oninflate.MainActivity.onCreateOptionsMenu, android.app.Activity.onCreatePanelMenu, com.android.internal.policy.PhoneWindow.preparePanel, com.android.internal.policy.PhoneWindow.doInvalidatePanelMenu, com.android.internal.policy.PhoneWindow$1.run, com.android.internal.policy.PhoneWindow.doPendingInvalidatePanelMenu, com.android.internal.policy.PhoneWindow.restoreHierarchyState, android.app.Activity.onRestoreInstanceState, android.app.Activity.performRestoreInstanceState, android.app.Instrumentation.callActivityOnRestoreInstanceState, android.app.ActivityThread.performLaunchActivity, android.app.ActivityThread.handleLaunchActivity, android.app.ActivityThread.handleRelaunchActivity, android.app.ActivityThread.-wrap15, android.app.ActivityThread$H.handleMessage, android.os.Handler.dispatchMessage, android.os.Looper.loop, android.app.ActivityThread.main, java.lang.reflect.Method.invoke, com.android.internal.os.ZygoteInit$MethodAndArgsCaller.run, com.android.internal.os.ZygoteInit.main, de.robv.android.xposed.XposedBridge.main
AFTER dk.example.example_fragment_oninflate.MainActivity.onCreateOptionsMenu, returnValue: true, invoked by: dalvik.system.VMStack.getThreadStackTrace, java.lang.Thread.getStackTrace, it.unimib.disco.lta.unimiblogger.MyMethodHook.beforeHookedMethod, de.robv.android.xposed.XposedBridge.handleHookedMethod, dk.example.example_fragment_oninflate.MainActivity.onCreateOptionsMenu, android.app.Activity.onCreatePanelMenu, com.android.internal.policy.PhoneWindow.preparePanel, com.android.internal.policy.PhoneWindow.doInvalidatePanelMenu, com.android.internal.policy.PhoneWindow$1.run, com.android.internal.policy.PhoneWindow.doPendingInvalidatePanelMenu, com.android.internal.policy.PhoneWindow.restoreHierarchyState, android.app.Activity.onRestoreInstanceState, android.app.Activity.performRestoreInstanceState, android.app.Instrumentation.callActivityOnRestoreInstanceState, android.app.ActivityThread.performLaunchActivity, android.app.ActivityThread.handleLaunchActivity, android.app.ActivityThread.handleRelaunchActivity, android.app.ActivityThread.-wrap15, android.app.ActivityThread$H.handleMessage, android.os.Handler.dispatchMessage, android.os.Looper.loop, android.app.ActivityThread.main, java.lang.reflect.Method.invoke, com.android.internal.os.ZygoteInit$MethodAndArgsCaller.run, com.android.internal.os.ZygoteInit.main, de.robv.android.xposed.XposedBridge.main
BEFORE dk.example.example_fragment_oninflate.MainActivity.onPause(), invoked by: dalvik.system.VMStack.getThreadStackTrace, java.lang.Thread.getStackTrace, it.unimib.disco.lta.unimiblogger.MyMethodHook.beforeHookedMethod, de.robv.android.xposed.XposedBridge.handleHookedMethod, dk.example.example_fragment_oninflate.MainActivity.onPause, android.app.Activity.performPause, android.app.Instrumentation.callActivityOnPause, android.app.ActivityThread.performPauseActivity, android.app.ActivityThread.performPauseActivity, android.app.ActivityThread.handlePauseActivity, android.app.ActivityThread.-wrap13, android.app.ActivityThread$H.handleMessage, android.os.Handler.dispatchMessage, android.os.Looper.loop, android.app.ActivityThread.main, java.lang.reflect.Method.invoke, com.android.internal.os.ZygoteInit$MethodAndArgsCaller.run, com.android.internal.os.ZygoteInit.main, de.robv.android.xposed.XposedBridge.main
BEFORE android.app.Activity.onPause(), invoked by: dalvik.system.VMStack.getThreadStackTrace, java.lang.Thread.getStackTrace, it.unimib.disco.lta.unimiblogger.MyMethodHook.beforeHookedMethod, de.robv.android.xposed.XposedBridge.handleHookedMethod, android.app.Activity.onPause, dk.example.example_fragment_oninflate.MainActivity.onPause, de.robv.android.xposed.XposedBridge.invokeOriginalMethodNative, de.robv.android.xposed.XposedBridge.handleHookedMethod, dk.example.example_fragment_oninflate.MainActivity.onPause, android.app.Activity.performPause, android.app.Instrumentation.callActivityOnPause, android.app.ActivityThread.performPauseActivity, android.app.ActivityThread.performPauseActivity, android.app.ActivityThread.handlePauseActivity, android.app.ActivityThread.-wrap13, android.app.ActivityThread$H.handleMessage, android.os.Handler.dispatchMessage, android.os.Looper.loop, android.app.ActivityThread.main, java.lang.reflect.Method.invoke, com.android.internal.os.ZygoteInit$MethodAndArgsCaller.run, com.android.internal.os.ZygoteInit.main, de.robv.android.xposed.XposedBridge.main
AFTER android.app.Activity.onPause, invoked by: dalvik.system.VMStack.getThreadStackTrace, java.lang.Thread.getStackTrace, it.unimib.disco.lta.unimiblogger.MyMethodHook.beforeHookedMethod, de.robv.android.xposed.XposedBridge.handleHookedMethod, android.app.Activity.onPause, dk.example.example_fragment_oninflate.MainActivity.onPause, de.robv.android.xposed.XposedBridge.invokeOriginalMethodNative, de.robv.android.xposed.XposedBridge.handleHookedMethod, dk.example.example_fragment_oninflate.MainActivity.onPause, android.app.Activity.performPause, android.app.Instrumentation.callActivityOnPause, android.app.ActivityThread.performPauseActivity, android.app.ActivityThread.performPauseActivity, android.app.ActivityThread.handlePauseActivity, android.app.ActivityThread.-wrap13, android.app.ActivityThread$H.handleMessage, android.os.Handler.dispatchMessage, android.os.Looper.loop, android.app.ActivityThread.main, java.lang.reflect.Method.invoke, com.android.internal.os.ZygoteInit$MethodAndArgsCaller.run, com.android.internal.os.ZygoteInit.main, de.robv.android.xposed.XposedBridge.main
AFTER dk.example.example_fragment_oninflate.MainActivity.onPause, invoked by: dalvik.system.VMStack.getThreadStackTrace, java.lang.Thread.getStackTrace, it.unimib.disco.lta.unimiblogger.MyMethodHook.beforeHookedMethod, de.robv.android.xposed.XposedBridge.handleHookedMethod, dk.example.example_fragment_oninflate.MainActivity.onPause, android.app.Activity.performPause, android.app.Instrumentation.callActivityOnPause, android.app.ActivityThread.performPauseActivity, android.app.ActivityThread.performPauseActivity, android.app.ActivityThread.handlePauseActivity, android.app.ActivityThread.-wrap13, android.app.ActivityThread$H.handleMessage, android.os.Handler.dispatchMessage, android.os.Looper.loop, android.app.ActivityThread.main, java.lang.reflect.Method.invoke, com.android.internal.os.ZygoteInit$MethodAndArgsCaller.run, com.android.internal.os.ZygoteInit.main, de.robv.android.xposed.XposedBridge.main
