Position |MethodName|Relevancy
0.07692307692307693|com.furkantektas.braingames.ui.AspectRatioCardView.onMeasure|0.28523038605230383
0.15384615384615385|com.furkantektas.braingames.ui.games.GameColorMatchActivity.onCreate|0.2479555832295558
0.23076923076923078|com.furkantektas.braingames.ui.games.AbstractGameActivity.showReadyScreen|0.07854296388542964
0.3076923076923077|com.furkantektas.braingames.ui.MainActivity.onCreate|0.06384599418845993
0.38461538461538464|com.furkantektas.braingames.ui.games.AbstractGameActivity.onStart|0.052330842673308425
0.46153846153846156|com.furkantektas.braingames.ui.games.AbstractCountDownTimerGameActivity.onResume|0.05205894562058945
0.5384615384615384|com.furkantektas.braingames.ui.CountDownTimerWidget$1.onTick|0.04558841843088418
0.6153846153846154|com.furkantektas.braingames.ui.ReadyScreenFragment.onCreateView|0.0419074304690743
0.6923076923076923|com.furkantektas.braingames.ui.games.AbstractCountDownTimerGameActivity.startTimer|0.04027189705271897
0.7692307692307693|com.furkantektas.braingames.ui.MainActivity.init|0.038908260689082604
0.8461538461538461|com.furkantektas.braingames.ui.CountDownTimerWidget.extractAttrs|0.03284765462847654
0.9230769230769231|com.furkantektas.braingames.ui.CountDownTimerWidget.<init>|0.032165836446658366
1.0|com.furkantektas.braingames.ui.games.AbstractCountDownTimerGameActivity.findTimer|0.02149958488999585
