digraph Braingames {
"b3ae40c6-579b-46af-9f7b-fe290940c435" [style=filled, fillcolor="#5E5E5E",fontcolor=white, label="de.robv.android.xposed.XposedBridge.main\n Susp=0.9667"];
"b3ae40c6-579b-46af-9f7b-fe290940c435" -> "442177c5-b12e-46ba-99d0-3b43d94089b1";
"442177c5-b12e-46ba-99d0-3b43d94089b1" [style=filled, fillcolor="#919191", label="com.android.internal.os.ZygoteInit.main\n Susp=0.4702"];
"442177c5-b12e-46ba-99d0-3b43d94089b1" -> "2f00641b-9855-42cb-ad49-c52a1125a7c2";
"2f00641b-9855-42cb-ad49-c52a1125a7c2" [style=filled, fillcolor="#919191", label="com.android.internal.os.ZygoteInit$MethodAndArgsCaller.run\n Susp=0.4709"];
"2f00641b-9855-42cb-ad49-c52a1125a7c2" -> "b3e43e7c-c771-407b-b748-87b827dc8482";
"b3e43e7c-c771-407b-b748-87b827dc8482" [style=filled, fillcolor="#919191", label="java.lang.reflect.Method.invoke\n Susp=0.4715"];
"b3e43e7c-c771-407b-b748-87b827dc8482" -> "457a674d-bd5f-48a3-a37b-4c16203e35fb";
"457a674d-bd5f-48a3-a37b-4c16203e35fb" [style=filled, fillcolor="#919191", label="android.app.ActivityThread.main\n Susp=0.4722"];
"457a674d-bd5f-48a3-a37b-4c16203e35fb" -> "f6e222e2-99ec-4bc8-866f-6815296ea4cf";
"f6e222e2-99ec-4bc8-866f-6815296ea4cf" [style=filled, fillcolor="#919191", label="android.os.Looper.loop\n Susp=0.4729"];
"f6e222e2-99ec-4bc8-866f-6815296ea4cf" -> "05e27dc7-af9d-4dda-b915-e2188ed481ca";
"05e27dc7-af9d-4dda-b915-e2188ed481ca" [style=filled, fillcolor="#919191", label="android.os.Handler.dispatchMessage\n Susp=0.4769"];
"05e27dc7-af9d-4dda-b915-e2188ed481ca" -> "ead7be6e-3147-4f3e-b872-4a6d65a26a31";
"ead7be6e-3147-4f3e-b872-4a6d65a26a31" [style=filled, fillcolor="#EBEBEB", label="android.app.ActivityThread$H.handleMessage\n Susp=0.2178"];
"ead7be6e-3147-4f3e-b872-4a6d65a26a31" -> "704970df-1e53-47d1-892e-a48ad2b4a7cb";
"704970df-1e53-47d1-892e-a48ad2b4a7cb" [style=filled, fillcolor="#EBEBEB", label="android.app.ActivityThread.access$800\n Susp=0.2185"];
"704970df-1e53-47d1-892e-a48ad2b4a7cb" -> "5ac79e41-8d07-439a-b8e7-d3de05fa0788";
"5ac79e41-8d07-439a-b8e7-d3de05fa0788" [style=filled, fillcolor="#EBEBEB", label="android.app.ActivityThread.handleLaunchActivity\n Susp=0.2225"];
"5ac79e41-8d07-439a-b8e7-d3de05fa0788" -> "01f3905a-e23f-4aa0-bca6-106bd73203ab";
"01f3905a-e23f-4aa0-bca6-106bd73203ab" [style=filled, fillcolor="#FFFFFF", label="android.app.ActivityThread.performLaunchActivity\n Susp=0.1838"];
"01f3905a-e23f-4aa0-bca6-106bd73203ab" -> "5f63c639-00e3-421f-a198-6da1fad1c261";
"5f63c639-00e3-421f-a198-6da1fad1c261" [style=filled, fillcolor="#FFFFFF", label="android.app.Instrumentation.callActivityOnCreate\n Susp=0.1417"];
"5f63c639-00e3-421f-a198-6da1fad1c261" -> "f67a928c-46bf-43f7-9f09-b9ba5c928e14";
"f67a928c-46bf-43f7-9f09-b9ba5c928e14" [style=filled, fillcolor="#FFFFFF", label="android.app.Activity.performCreate\n Susp=0.1457"];
"f67a928c-46bf-43f7-9f09-b9ba5c928e14" -> "7690befa-0c73-4e72-894c-fe9b78571b5b";
"7690befa-0c73-4e72-894c-fe9b78571b5b" [style=filled, fillcolor="#FFFFFF", label="com.furkantektas.braingames.ui.MainActivity.onCreate\n Susp=0.0312"];
"7690befa-0c73-4e72-894c-fe9b78571b5b" -> "ed8d881d-8a17-4451-aaed-42273c556e7f";
"ed8d881d-8a17-4451-aaed-42273c556e7f" [style=filled, fillcolor="#FFFFFF", label="com.furkantektas.braingames.ui.MainActivity.init\n Susp=0.0188"];
"ed8d881d-8a17-4451-aaed-42273c556e7f" -> "d5ac1b4d-f4b4-49df-b302-d504d81cc876";
"d5ac1b4d-f4b4-49df-b302-d504d81cc876" [style=filled, fillcolor="#FFFFFF", label="android.app.Activity.findViewById\n Susp=0.0161"];
"f67a928c-46bf-43f7-9f09-b9ba5c928e14" -> "2952d622-c10a-4e56-87c9-a0b407bf3ced";
"2952d622-c10a-4e56-87c9-a0b407bf3ced" [style=filled, fillcolor="#FFFFFF", label="com.furkantektas.braingames.ui.games.GameColorMatchActivity.onCreate\n Susp=0.1233"];
"2952d622-c10a-4e56-87c9-a0b407bf3ced" -> "702b6c63-10ca-41e3-b26c-bdbc4d076990";
"702b6c63-10ca-41e3-b26c-bdbc4d076990" [style=filled, fillcolor="#FFFFFF", label="android.app.Activity.setContentView\n Susp=0.0516"];
"702b6c63-10ca-41e3-b26c-bdbc4d076990" -> "8d99b381-5081-4754-aa5a-0c4d6b5bd5a6";
"8d99b381-5081-4754-aa5a-0c4d6b5bd5a6" [style=filled, fillcolor="#FFFFFF", label="com.android.internal.policy.impl.PhoneWindow.setContentView\n Susp=0.0392"];
"8d99b381-5081-4754-aa5a-0c4d6b5bd5a6" -> "880934e7-87de-4df5-a66b-0d618059b0c9";
"880934e7-87de-4df5-a66b-0d618059b0c9" [style=filled, fillcolor="#FFFFFF", label="android.view.LayoutInflater.inflate\n Susp=0.0399"];
"880934e7-87de-4df5-a66b-0d618059b0c9" -> "7e5a2f76-69d8-49b4-a678-d73e2cc4e387";
"7e5a2f76-69d8-49b4-a678-d73e2cc4e387" [style=filled, fillcolor="#FFFFFF", label="android.view.LayoutInflater.rInflate\n Susp=0.0274"];
"7e5a2f76-69d8-49b4-a678-d73e2cc4e387" -> "b2cb70c8-38b9-47e9-a184-c94c1e99d834";
"b2cb70c8-38b9-47e9-a184-c94c1e99d834" [style=filled, fillcolor="#FFFFFF", label="android.view.LayoutInflater.createViewFromTag\n Susp=0.0281"];
"b2cb70c8-38b9-47e9-a184-c94c1e99d834" -> "61ac8ad0-b0a9-4b0b-929f-c27c171a91ef";
"61ac8ad0-b0a9-4b0b-929f-c27c171a91ef" [style=filled, fillcolor="#FFFFFF", label="android.view.LayoutInflater.createView\n Susp=0.0288"];
"61ac8ad0-b0a9-4b0b-929f-c27c171a91ef" -> "0b99a921-4324-4dab-81d9-276a3dc0a432";
"0b99a921-4324-4dab-81d9-276a3dc0a432" [style=filled, fillcolor="#FFFFFF", label="java.lang.reflect.Constructor.newInstance\n Susp=0.0294"];
"0b99a921-4324-4dab-81d9-276a3dc0a432" -> "d0773220-1d36-4031-8425-cb6f079f9fed";
"d0773220-1d36-4031-8425-cb6f079f9fed" [style=filled, fillcolor="#FFFFFF", label="com.furkantektas.braingames.ui.CountDownTimerWidget.<init>\n Susp=0.0301"];
"d0773220-1d36-4031-8425-cb6f079f9fed" -> "b63862ac-f530-49b1-8d33-30d15c947047";
"b63862ac-f530-49b1-8d33-30d15c947047" [style=filled, fillcolor="#FFFFFF", label="com.furkantektas.braingames.ui.CountDownTimerWidget.extractAttrs\n Susp=0.0308"];
"b63862ac-f530-49b1-8d33-30d15c947047" -> "c37a10ac-d30b-4926-ad87-25163d5acc7c";
"c37a10ac-d30b-4926-ad87-25163d5acc7c" [style=filled, fillcolor="#FFFFFF", label="android.content.res.Resources$Theme.obtainStyledAttributes\n Susp=0.0282"];
"01f3905a-e23f-4aa0-bca6-106bd73203ab" -> "f1fc538e-7467-4b39-abdc-e997b6380a1a";
"f1fc538e-7467-4b39-abdc-e997b6380a1a" [style=filled, fillcolor="#FFFFFF", label="android.app.Activity.performStart\n Susp=0.0496"];
"f1fc538e-7467-4b39-abdc-e997b6380a1a" -> "16d7784d-8b6c-4ef6-949b-c16c3bdfc29e";
"16d7784d-8b6c-4ef6-949b-c16c3bdfc29e" [style=filled, fillcolor="#FFFFFF", label="android.app.Instrumentation.callActivityOnStart\n Susp=0.0503"];
"16d7784d-8b6c-4ef6-949b-c16c3bdfc29e" -> "ebbe31d2-1791-4602-97c3-015a7988192a";
"ebbe31d2-1791-4602-97c3-015a7988192a" [style=filled, fillcolor="#FFFFFF", label="com.furkantektas.braingames.ui.games.AbstractGameActivity.onStart\n Susp=0.051"];
"ebbe31d2-1791-4602-97c3-015a7988192a" -> "ff23207a-68af-4958-9771-8cd910ab05a8";
"ff23207a-68af-4958-9771-8cd910ab05a8" [style=filled, fillcolor="#FFFFFF", label="com.furkantektas.braingames.ui.games.AbstractGameActivity.showReadyScreen\n Susp=0.0386"];
"ff23207a-68af-4958-9771-8cd910ab05a8" -> "7cc6e2f6-5bd6-4c31-8cb6-f9cb83088b73";
"7cc6e2f6-5bd6-4c31-8cb6-f9cb83088b73" [style=filled, fillcolor="#FFFFFF", label="android.app.Activity.getFragmentManager\n Susp=0.0161"];
"ff23207a-68af-4958-9771-8cd910ab05a8" -> "e0e39f79-d510-4efd-8c60-3b5d6043e052";
"e0e39f79-d510-4efd-8c60-3b5d6043e052" [style=filled, fillcolor="#FFFFFF", label="android.app.FragmentManagerImpl.beginTransaction\n Susp=0.0161"];
"ff23207a-68af-4958-9771-8cd910ab05a8" -> "aa3c33ea-a757-4146-936e-d8421b28e6df";
"aa3c33ea-a757-4146-936e-d8421b28e6df" [style=filled, fillcolor="#FFFFFF", label="android.app.BackStackRecord.add\n Susp=0.0161"];
"5ac79e41-8d07-439a-b8e7-d3de05fa0788" -> "a1f81477-1595-45e9-8537-48d92f921038";
"a1f81477-1595-45e9-8537-48d92f921038" [style=filled, fillcolor="#FFFFFF", label="android.app.ActivityThread.handleResumeActivity\n Susp=0.0489"];
"a1f81477-1595-45e9-8537-48d92f921038" -> "61c2b35e-3793-4ca8-ba56-aa96a3ae5799";
"61c2b35e-3793-4ca8-ba56-aa96a3ae5799" [style=filled, fillcolor="#FFFFFF", label="android.app.ActivityThread.performResumeActivity\n Susp=0.0496"];
"61c2b35e-3793-4ca8-ba56-aa96a3ae5799" -> "3fd91b5f-3cd0-4bd8-aef9-7476f01679ca";
"3fd91b5f-3cd0-4bd8-aef9-7476f01679ca" [style=filled, fillcolor="#FFFFFF", label="android.app.Activity.performResume\n Susp=0.0536"];
"3fd91b5f-3cd0-4bd8-aef9-7476f01679ca" -> "d1058445-2277-4db9-bdf7-7e9b39017da2";
"d1058445-2277-4db9-bdf7-7e9b39017da2" [style=filled, fillcolor="#FFFFFF", label="android.app.FragmentManagerImpl.execPendingActions\n Susp=0.0378"];
"d1058445-2277-4db9-bdf7-7e9b39017da2" -> "37035e60-1dd9-410c-a950-761267c4f690";
"37035e60-1dd9-410c-a950-761267c4f690" [style=filled, fillcolor="#FFFFFF", label="android.app.BackStackRecord.run\n Susp=0.0385"];
"37035e60-1dd9-410c-a950-761267c4f690" -> "c4ff0d4d-4803-4787-a45d-ca9a4c8534d5";
"c4ff0d4d-4803-4787-a45d-ca9a4c8534d5" [style=filled, fillcolor="#FFFFFF", label="android.app.FragmentManagerImpl.moveToState\n Susp=0.0392"];
"c4ff0d4d-4803-4787-a45d-ca9a4c8534d5" -> "45fe7f1b-56c8-4463-ac8c-9c9a2e4298ac";
"45fe7f1b-56c8-4463-ac8c-9c9a2e4298ac" [style=filled, fillcolor="#FFFFFF", label="android.app.Fragment.performCreateView\n Susp=0.0399"];
"45fe7f1b-56c8-4463-ac8c-9c9a2e4298ac" -> "b81333aa-5899-4081-94d1-f841b04a1c73";
"b81333aa-5899-4081-94d1-f841b04a1c73" [style=filled, fillcolor="#FFFFFF", label="com.furkantektas.braingames.ui.ReadyScreenFragment.onCreateView\n Susp=0.0405"];
"b81333aa-5899-4081-94d1-f841b04a1c73" -> "3b1511cd-cd1e-45dc-9275-0043f1948e56";
"3b1511cd-cd1e-45dc-9275-0043f1948e56" [style=filled, fillcolor="#FFFFFF", label="android.view.LayoutInflater.inflate\n Susp=0.0247"];
"3fd91b5f-3cd0-4bd8-aef9-7476f01679ca" -> "19fe08c6-d943-4cdb-aa11-d354267b2fa7";
"19fe08c6-d943-4cdb-aa11-d354267b2fa7" [style=filled, fillcolor="#FFFFFF", label="android.app.Instrumentation.callActivityOnResume\n Susp=0.0247"];
"19fe08c6-d943-4cdb-aa11-d354267b2fa7" -> "b6da3aa4-668c-4191-a357-7aa419010c32";
"b6da3aa4-668c-4191-a357-7aa419010c32" [style=filled, fillcolor="#FFFFFF", label="com.furkantektas.braingames.ui.games.AbstractCountDownTimerGameActivity.onResume\n Susp=0.0253"];
"b6da3aa4-668c-4191-a357-7aa419010c32" -> "9c7a8241-29e5-4689-b33f-02b09d6b9777";
"9c7a8241-29e5-4689-b33f-02b09d6b9777" [style=filled, fillcolor="#FFFFFF", label="com.furkantektas.braingames.ui.games.AbstractCountDownTimerGameActivity.startTimer\n Susp=0.0195"];
"9c7a8241-29e5-4689-b33f-02b09d6b9777" -> "2117d1b6-9c4f-4126-bd84-37c4e1e6d89a";
"2117d1b6-9c4f-4126-bd84-37c4e1e6d89a" [style=filled, fillcolor="#FFFFFF", label="com.furkantektas.braingames.ui.games.AbstractCountDownTimerGameActivity.findTimer\n Susp=0.0201"];
"2117d1b6-9c4f-4126-bd84-37c4e1e6d89a" -> "ad467ec5-a686-4061-8d6b-20b39668635d";
"ad467ec5-a686-4061-8d6b-20b39668635d" [style=filled, fillcolor="#FFFFFF", label="android.app.Activity.findViewById\n Susp=0.0175"];
"05e27dc7-af9d-4dda-b915-e2188ed481ca" -> "33b85cb1-b722-4ef9-9f80-ab44b28185c1";
"33b85cb1-b722-4ef9-9f80-ab44b28185c1" [style=filled, fillcolor="#C0C0C0", label="android.os.Handler.handleCallback\n Susp=0.2639"];
"33b85cb1-b722-4ef9-9f80-ab44b28185c1" -> "24dcf896-c45c-46f7-b112-b2707fd8624f";
"24dcf896-c45c-46f7-b112-b2707fd8624f" [style=filled, fillcolor="#C0C0C0", label="android.view.Choreographer$FrameDisplayEventReceiver.run\n Susp=0.2645"];
"24dcf896-c45c-46f7-b112-b2707fd8624f" -> "b2d88b96-0d64-4872-ad8d-deb7c4ebc9d3";
"b2d88b96-0d64-4872-ad8d-deb7c4ebc9d3" [style=filled, fillcolor="#C0C0C0", label="android.view.Choreographer.doFrame\n Susp=0.2652"];
"b2d88b96-0d64-4872-ad8d-deb7c4ebc9d3" -> "c6311ea1-dde7-489d-af8a-3d21556b558f";
"c6311ea1-dde7-489d-af8a-3d21556b558f" [style=filled, fillcolor="#C0C0C0", label="android.view.Choreographer.doCallbacks\n Susp=0.2659"];
"c6311ea1-dde7-489d-af8a-3d21556b558f" -> "e2819c77-31fa-4df3-8221-b78f6624a432";
"e2819c77-31fa-4df3-8221-b78f6624a432" [style=filled, fillcolor="#C0C0C0", label="android.view.Choreographer$CallbackRecord.run\n Susp=0.2666"];
"e2819c77-31fa-4df3-8221-b78f6624a432" -> "9d7ce227-523a-4333-8b38-5313c9a728aa";
"9d7ce227-523a-4333-8b38-5313c9a728aa" [style=filled, fillcolor="#C0C0C0", label="android.view.ViewRootImpl$TraversalRunnable.run\n Susp=0.2673"];
"9d7ce227-523a-4333-8b38-5313c9a728aa" -> "01b5af68-d629-4b1f-964b-842674c6398b";
"01b5af68-d629-4b1f-964b-842674c6398b" [style=filled, fillcolor="#C0C0C0", label="android.view.ViewRootImpl.doTraversal\n Susp=0.268"];
"01b5af68-d629-4b1f-964b-842674c6398b" -> "32c9846f-a068-4ad2-96fb-55fda26cc802";
"32c9846f-a068-4ad2-96fb-55fda26cc802" [style=filled, fillcolor="#C0C0C0", label="android.view.ViewRootImpl.performTraversals\n Susp=0.272"];
"32c9846f-a068-4ad2-96fb-55fda26cc802" -> "cb37f850-d09a-4b27-bc94-8158d1838f17";
"cb37f850-d09a-4b27-bc94-8158d1838f17" [style=filled, fillcolor="#EBEBEB", label="android.view.ViewRootImpl.measureHierarchy\n Susp=0.2167"];
"cb37f850-d09a-4b27-bc94-8158d1838f17" -> "ea3f4f7d-be27-47b0-a008-b86532ada711";
"ea3f4f7d-be27-47b0-a008-b86532ada711" [style=filled, fillcolor="#EBEBEB", label="android.view.ViewRootImpl.performMeasure\n Susp=0.2174"];
"ea3f4f7d-be27-47b0-a008-b86532ada711" -> "0b974e7a-5c90-4029-be65-f62fec246e54";
"0b974e7a-5c90-4029-be65-f62fec246e54" [style=filled, fillcolor="#EBEBEB", label="android.view.View.measure\n Susp=0.2181"];
"0b974e7a-5c90-4029-be65-f62fec246e54" -> "9b131166-55d8-4ab8-9b9e-56e120f0e4f1";
"9b131166-55d8-4ab8-9b9e-56e120f0e4f1" [style=filled, fillcolor="#EBEBEB", label="com.android.internal.policy.impl.PhoneWindow$DecorView.onMeasure\n Susp=0.2188"];
"9b131166-55d8-4ab8-9b9e-56e120f0e4f1" -> "cc0523a1-5b06-42cf-9545-2b05a0d0fb42";
"cc0523a1-5b06-42cf-9545-2b05a0d0fb42" [style=filled, fillcolor="#EBEBEB", label="android.widget.FrameLayout.onMeasure\n Susp=0.2194"];
"cc0523a1-5b06-42cf-9545-2b05a0d0fb42" -> "2ad4b4c3-d036-4dde-a0e5-893f07b3f793";
"2ad4b4c3-d036-4dde-a0e5-893f07b3f793" [style=filled, fillcolor="#EBEBEB", label="android.view.ViewGroup.measureChildWithMargins\n Susp=0.2201"];
"2ad4b4c3-d036-4dde-a0e5-893f07b3f793" -> "b345d449-ebbf-447d-8b52-925ee41e2064";
"b345d449-ebbf-447d-8b52-925ee41e2064" [style=filled, fillcolor="#EBEBEB", label="android.view.View.measure\n Susp=0.2208"];
"b345d449-ebbf-447d-8b52-925ee41e2064" -> "9ed88419-219f-45cf-82f7-3052c9b72e27";
"9ed88419-219f-45cf-82f7-3052c9b72e27" [style=filled, fillcolor="#EBEBEB", label="android.widget.LinearLayout.onMeasure\n Susp=0.2215"];
"9ed88419-219f-45cf-82f7-3052c9b72e27" -> "b5c952f5-0e30-4832-a567-c18b4ea19bd7";
"b5c952f5-0e30-4832-a567-c18b4ea19bd7" [style=filled, fillcolor="#EBEBEB", label="android.widget.LinearLayout.measureVertical\n Susp=0.2222"];
"b5c952f5-0e30-4832-a567-c18b4ea19bd7" -> "c2dea677-8df0-46d3-980f-52709772fa05";
"c2dea677-8df0-46d3-980f-52709772fa05" [style=filled, fillcolor="#EBEBEB", label="android.widget.LinearLayout.measureChildBeforeLayout\n Susp=0.2229"];
"c2dea677-8df0-46d3-980f-52709772fa05" -> "665437ae-dda2-44eb-a659-e635a7b75bd2";
"665437ae-dda2-44eb-a659-e635a7b75bd2" [style=filled, fillcolor="#EBEBEB", label="android.view.ViewGroup.measureChildWithMargins\n Susp=0.2235"];
"665437ae-dda2-44eb-a659-e635a7b75bd2" -> "3730b0e8-3f2e-4e07-8aa8-e9ac80223a00";
"3730b0e8-3f2e-4e07-8aa8-e9ac80223a00" [style=filled, fillcolor="#EBEBEB", label="android.view.View.measure\n Susp=0.2242"];
"3730b0e8-3f2e-4e07-8aa8-e9ac80223a00" -> "177a138b-738d-4d07-bda1-256a06e44bac";
"177a138b-738d-4d07-bda1-256a06e44bac" [style=filled, fillcolor="#EBEBEB", label="android.widget.FrameLayout.onMeasure\n Susp=0.2249"];
"177a138b-738d-4d07-bda1-256a06e44bac" -> "88f4ea52-dfd9-4beb-8ac9-5de6663824d0";
"88f4ea52-dfd9-4beb-8ac9-5de6663824d0" [style=filled, fillcolor="#EBEBEB", label="android.view.ViewGroup.measureChildWithMargins\n Susp=0.2256"];
"88f4ea52-dfd9-4beb-8ac9-5de6663824d0" -> "aece8158-8255-4833-b13b-67ff465e45f3";
"aece8158-8255-4833-b13b-67ff465e45f3" [style=filled, fillcolor="#EBEBEB", label="android.view.View.measure\n Susp=0.2263"];
"aece8158-8255-4833-b13b-67ff465e45f3" -> "c08578ef-2961-46fa-8f2e-c3430e63dcb4";
"c08578ef-2961-46fa-8f2e-c3430e63dcb4" [style=filled, fillcolor="#EBEBEB", label="android.widget.RelativeLayout.onMeasure\n Susp=0.2303"];
"c08578ef-2961-46fa-8f2e-c3430e63dcb4" -> "92804195-bd96-437c-98db-2fab95217716";
"92804195-bd96-437c-98db-2fab95217716" [style=filled, fillcolor="#EBEBEB", label="android.widget.RelativeLayout.measureChildHorizontal\n Susp=0.2013"];
"92804195-bd96-437c-98db-2fab95217716" -> "b2402393-ca1d-4784-9029-d9337844ca02";
"b2402393-ca1d-4784-9029-d9337844ca02" [style=filled, fillcolor="#EBEBEB", label="android.view.View.measure\n Susp=0.202"];
"b2402393-ca1d-4784-9029-d9337844ca02" -> "e3db6ae6-0fdb-47e1-b6a9-c5f058cf49fe";
"e3db6ae6-0fdb-47e1-b6a9-c5f058cf49fe" [style=filled, fillcolor="#EBEBEB", label="android.widget.AdapterViewAnimator.onMeasure\n Susp=0.2027"];
"e3db6ae6-0fdb-47e1-b6a9-c5f058cf49fe" -> "63bcbda4-7b96-4a31-9733-8ce009e63a84";
"63bcbda4-7b96-4a31-9733-8ce009e63a84" [style=filled, fillcolor="#EBEBEB", label="android.widget.AdapterViewAnimator.measureChildren\n Susp=0.2034"];
"63bcbda4-7b96-4a31-9733-8ce009e63a84" -> "2f49624c-c0ca-4458-b2b2-20fcc9fc4d1e";
"2f49624c-c0ca-4458-b2b2-20fcc9fc4d1e" [style=filled, fillcolor="#EBEBEB", label="android.view.View.measure\n Susp=0.204"];
"2f49624c-c0ca-4458-b2b2-20fcc9fc4d1e" -> "b92d05f7-79a1-4ebd-9b9a-67ae71e4c850";
"b92d05f7-79a1-4ebd-9b9a-67ae71e4c850" [style=filled, fillcolor="#EBEBEB", label="android.widget.FrameLayout.onMeasure\n Susp=0.2047"];
"b92d05f7-79a1-4ebd-9b9a-67ae71e4c850" -> "5fb15e2d-e973-4294-b2a6-c7a899ee0fa3";
"5fb15e2d-e973-4294-b2a6-c7a899ee0fa3" [style=filled, fillcolor="#EBEBEB", label="android.view.ViewGroup.measureChildWithMargins\n Susp=0.2054"];
"5fb15e2d-e973-4294-b2a6-c7a899ee0fa3" -> "6a315184-b2d0-4fd0-abaa-20624f322a20";
"6a315184-b2d0-4fd0-abaa-20624f322a20" [style=filled, fillcolor="#EBEBEB", label="android.view.View.measure\n Susp=0.2061"];
"6a315184-b2d0-4fd0-abaa-20624f322a20" -> "77219361-82fe-4a8b-8053-5a7f9f6be83e";
"77219361-82fe-4a8b-8053-5a7f9f6be83e" [style=filled, fillcolor="#EBEBEB", label="android.widget.RelativeLayout.onMeasure\n Susp=0.2101"];
"77219361-82fe-4a8b-8053-5a7f9f6be83e" -> "fdeeea62-6096-4819-bd15-0fa440aac536";
"fdeeea62-6096-4819-bd15-0fa440aac536" [style=filled, fillcolor="#FFFFFF", label="android.widget.RelativeLayout.measureChildHorizontal\n Susp=0.1943"];
"fdeeea62-6096-4819-bd15-0fa440aac536" -> "fa854acc-da11-4215-975f-3251bb68299a";
"fa854acc-da11-4215-975f-3251bb68299a" [style=filled, fillcolor="#FFFFFF", label="android.view.View.measure\n Susp=0.195"];
"fa854acc-da11-4215-975f-3251bb68299a" -> "2a5de658-256c-47bc-880e-ff3af1aaded9";
"2a5de658-256c-47bc-880e-ff3af1aaded9" [style=filled, fillcolor="#FFFFFF", label="com.furkantektas.braingames.ui.AspectRatioCardView.onMeasure\n Susp=0.1957"];
"2a5de658-256c-47bc-880e-ff3af1aaded9" -> "3df5b0da-71a2-4e3e-8305-6d9a62d3aad6";
"3df5b0da-71a2-4e3e-8305-6d9a62d3aad6" [style=filled, fillcolor="#FFFFFF", label="android.support.v7.widget.CardView.onMeasure\n Susp=0.0352"];
"77219361-82fe-4a8b-8053-5a7f9f6be83e" -> "5e9fcc6e-4d55-43fe-b379-f68152f7b404";
"5e9fcc6e-4d55-43fe-b379-f68152f7b404" [style=filled, fillcolor="#FFFFFF", label="android.widget.RelativeLayout.measureChild\n Susp=0.0431"];
"5e9fcc6e-4d55-43fe-b379-f68152f7b404" -> "b424173d-f4c5-4d2a-9b86-c6692548f87e";
"b424173d-f4c5-4d2a-9b86-c6692548f87e" [style=filled, fillcolor="#FFFFFF", label="android.view.View.measure\n Susp=0.0438"];
"b424173d-f4c5-4d2a-9b86-c6692548f87e" -> "14d4472c-20c0-4aa9-9073-bbeeb5e349d6";
"14d4472c-20c0-4aa9-9073-bbeeb5e349d6" [style=filled, fillcolor="#FFFFFF", label="com.furkantektas.braingames.ui.AspectRatioCardView.onMeasure\n Susp=0.0444"];
"14d4472c-20c0-4aa9-9073-bbeeb5e349d6" -> "bc4a7a97-6cbe-4e1a-b71e-1816872433c0";
"bc4a7a97-6cbe-4e1a-b71e-1816872433c0" [style=filled, fillcolor="#FFFFFF", label="android.support.v7.widget.CardView.onMeasure\n Susp=0.0352"];
"c08578ef-2961-46fa-8f2e-c3430e63dcb4" -> "2d79fa46-66bc-4556-bc7c-64a2761df73d";
"2d79fa46-66bc-4556-bc7c-64a2761df73d" [style=filled, fillcolor="#FFFFFF", label="android.widget.RelativeLayout.measureChild\n Susp=0.0501"];
"2d79fa46-66bc-4556-bc7c-64a2761df73d" -> "2795c1a8-89aa-4cab-ab38-65901cf38f25";
"2795c1a8-89aa-4cab-ab38-65901cf38f25" [style=filled, fillcolor="#FFFFFF", label="android.view.View.measure\n Susp=0.0508"];
"2795c1a8-89aa-4cab-ab38-65901cf38f25" -> "8d770a6c-d2d6-4357-82a9-fd8520dfc190";
"8d770a6c-d2d6-4357-82a9-fd8520dfc190" [style=filled, fillcolor="#FFFFFF", label="android.widget.AdapterViewAnimator.onMeasure\n Susp=0.0515"];
"8d770a6c-d2d6-4357-82a9-fd8520dfc190" -> "3cf9d2b0-b357-4411-a79c-b68b730ba6c4";
"3cf9d2b0-b357-4411-a79c-b68b730ba6c4" [style=filled, fillcolor="#FFFFFF", label="android.widget.AdapterViewAnimator.measureChildren\n Susp=0.0521"];
"3cf9d2b0-b357-4411-a79c-b68b730ba6c4" -> "2aed64cb-c961-453b-a545-62482dc5f30f";
"2aed64cb-c961-453b-a545-62482dc5f30f" [style=filled, fillcolor="#FFFFFF", label="android.view.View.measure\n Susp=0.0528"];
"2aed64cb-c961-453b-a545-62482dc5f30f" -> "c26ffe38-03ab-4842-a3b3-61e6a31a4c86";
"c26ffe38-03ab-4842-a3b3-61e6a31a4c86" [style=filled, fillcolor="#FFFFFF", label="android.widget.FrameLayout.onMeasure\n Susp=0.0535"];
"c26ffe38-03ab-4842-a3b3-61e6a31a4c86" -> "fe6fc636-7f2b-4cc8-a476-52a8f3e9fc2d";
"fe6fc636-7f2b-4cc8-a476-52a8f3e9fc2d" [style=filled, fillcolor="#FFFFFF", label="android.view.ViewGroup.measureChildWithMargins\n Susp=0.0542"];
"fe6fc636-7f2b-4cc8-a476-52a8f3e9fc2d" -> "32b74803-1d8d-4948-aaeb-cdb22691ea6d";
"32b74803-1d8d-4948-aaeb-cdb22691ea6d" [style=filled, fillcolor="#FFFFFF", label="android.view.View.measure\n Susp=0.0549"];
"32b74803-1d8d-4948-aaeb-cdb22691ea6d" -> "80eccd36-cda4-4eae-919e-2844f20645ac";
"80eccd36-cda4-4eae-919e-2844f20645ac" [style=filled, fillcolor="#FFFFFF", label="android.widget.RelativeLayout.onMeasure\n Susp=0.0589"];
"80eccd36-cda4-4eae-919e-2844f20645ac" -> "ab742eea-20ad-4e9a-8d0a-14fbf83c3758";
"ab742eea-20ad-4e9a-8d0a-14fbf83c3758" [style=filled, fillcolor="#FFFFFF", label="android.widget.RelativeLayout.measureChildHorizontal\n Susp=0.0431"];
"ab742eea-20ad-4e9a-8d0a-14fbf83c3758" -> "5bbf3766-a746-402e-968d-3f515d9d1113";
"5bbf3766-a746-402e-968d-3f515d9d1113" [style=filled, fillcolor="#FFFFFF", label="android.view.View.measure\n Susp=0.0438"];
"5bbf3766-a746-402e-968d-3f515d9d1113" -> "29116d4c-c0d4-4292-bc23-4748e6b72e83";
"29116d4c-c0d4-4292-bc23-4748e6b72e83" [style=filled, fillcolor="#FFFFFF", label="com.furkantektas.braingames.ui.AspectRatioCardView.onMeasure\n Susp=0.0444"];
"29116d4c-c0d4-4292-bc23-4748e6b72e83" -> "bf6e9ed5-70db-4b83-bda7-add1a5d05ff5";
"bf6e9ed5-70db-4b83-bda7-add1a5d05ff5" [style=filled, fillcolor="#FFFFFF", label="android.support.v7.widget.CardView.onMeasure\n Susp=0.0352"];
"80eccd36-cda4-4eae-919e-2844f20645ac" -> "6b7a0a58-0cfb-476a-a8d8-8091bf15fb78";
"6b7a0a58-0cfb-476a-a8d8-8091bf15fb78" [style=filled, fillcolor="#FFFFFF", label="android.widget.RelativeLayout.measureChild\n Susp=0.0431"];
"6b7a0a58-0cfb-476a-a8d8-8091bf15fb78" -> "b22e57c5-a62a-4733-8fda-1dbd240d5287";
"b22e57c5-a62a-4733-8fda-1dbd240d5287" [style=filled, fillcolor="#FFFFFF", label="android.view.View.measure\n Susp=0.0438"];
"b22e57c5-a62a-4733-8fda-1dbd240d5287" -> "d4bd9d91-052c-4d4b-8cda-640d4a50d09d";
"d4bd9d91-052c-4d4b-8cda-640d4a50d09d" [style=filled, fillcolor="#FFFFFF", label="com.furkantektas.braingames.ui.AspectRatioCardView.onMeasure\n Susp=0.0444"];
"d4bd9d91-052c-4d4b-8cda-640d4a50d09d" -> "3a850b12-8716-44cb-954b-728c7f23b045";
"3a850b12-8716-44cb-954b-728c7f23b045" [style=filled, fillcolor="#FFFFFF", label="android.support.v7.widget.CardView.onMeasure\n Susp=0.0352"];
"32c9846f-a068-4ad2-96fb-55fda26cc802" -> "61732ceb-be90-4a91-965f-096422548609";
"61732ceb-be90-4a91-965f-096422548609" [style=filled, fillcolor="#FFFFFF", label="android.view.ViewRootImpl.performMeasure\n Susp=0.0655"];
"61732ceb-be90-4a91-965f-096422548609" -> "f2f7de62-7710-4e2d-883e-2f1cd01c7e64";
"f2f7de62-7710-4e2d-883e-2f1cd01c7e64" [style=filled, fillcolor="#FFFFFF", label="android.view.View.measure\n Susp=0.0662"];
"f2f7de62-7710-4e2d-883e-2f1cd01c7e64" -> "2fb65e55-a818-4d27-b90f-a55832c839e1";
"2fb65e55-a818-4d27-b90f-a55832c839e1" [style=filled, fillcolor="#FFFFFF", label="com.android.internal.policy.impl.PhoneWindow$DecorView.onMeasure\n Susp=0.0668"];
"2fb65e55-a818-4d27-b90f-a55832c839e1" -> "66660e89-47ef-4261-a633-c1a2a18280c8";
"66660e89-47ef-4261-a633-c1a2a18280c8" [style=filled, fillcolor="#FFFFFF", label="android.widget.FrameLayout.onMeasure\n Susp=0.0675"];
"66660e89-47ef-4261-a633-c1a2a18280c8" -> "22d388fc-ab0b-4ff1-a782-15db8c0123ea";
"22d388fc-ab0b-4ff1-a782-15db8c0123ea" [style=filled, fillcolor="#FFFFFF", label="android.view.ViewGroup.measureChildWithMargins\n Susp=0.0682"];
"22d388fc-ab0b-4ff1-a782-15db8c0123ea" -> "5aa89255-748c-4bea-9871-3f9938ad3ff1";
"5aa89255-748c-4bea-9871-3f9938ad3ff1" [style=filled, fillcolor="#FFFFFF", label="android.view.View.measure\n Susp=0.0689"];
"5aa89255-748c-4bea-9871-3f9938ad3ff1" -> "08373840-97f4-4e52-96dd-9a0506b39cba";
"08373840-97f4-4e52-96dd-9a0506b39cba" [style=filled, fillcolor="#FFFFFF", label="android.widget.LinearLayout.onMeasure\n Susp=0.0696"];
"08373840-97f4-4e52-96dd-9a0506b39cba" -> "4a4ff54e-3be8-4d42-ac84-cbf5f3765125";
"4a4ff54e-3be8-4d42-ac84-cbf5f3765125" [style=filled, fillcolor="#FFFFFF", label="android.widget.LinearLayout.measureVertical\n Susp=0.0703"];
"4a4ff54e-3be8-4d42-ac84-cbf5f3765125" -> "c54038ee-2eac-4758-a4ca-fe2b5c95de8b";
"c54038ee-2eac-4758-a4ca-fe2b5c95de8b" [style=filled, fillcolor="#FFFFFF", label="android.widget.LinearLayout.measureChildBeforeLayout\n Susp=0.0709"];
"c54038ee-2eac-4758-a4ca-fe2b5c95de8b" -> "b8850b37-767d-4d21-b2bf-32f47dad64c0";
"b8850b37-767d-4d21-b2bf-32f47dad64c0" [style=filled, fillcolor="#FFFFFF", label="android.view.ViewGroup.measureChildWithMargins\n Susp=0.0716"];
"b8850b37-767d-4d21-b2bf-32f47dad64c0" -> "c0fe77b5-40f2-4cd6-b1cd-a9c77825f847";
"c0fe77b5-40f2-4cd6-b1cd-a9c77825f847" [style=filled, fillcolor="#FFFFFF", label="android.view.View.measure\n Susp=0.0723"];
"c0fe77b5-40f2-4cd6-b1cd-a9c77825f847" -> "caf5935e-84d0-4de3-9241-018898ec7fea";
"caf5935e-84d0-4de3-9241-018898ec7fea" [style=filled, fillcolor="#FFFFFF", label="android.widget.FrameLayout.onMeasure\n Susp=0.073"];
"caf5935e-84d0-4de3-9241-018898ec7fea" -> "1ec606ba-5fcf-4549-a28a-31578d3bfaa0";
"1ec606ba-5fcf-4549-a28a-31578d3bfaa0" [style=filled, fillcolor="#FFFFFF", label="android.view.ViewGroup.measureChildWithMargins\n Susp=0.0737"];
"1ec606ba-5fcf-4549-a28a-31578d3bfaa0" -> "d4289e4e-98e0-425b-bca9-690a4825a17c";
"d4289e4e-98e0-425b-bca9-690a4825a17c" [style=filled, fillcolor="#FFFFFF", label="android.view.View.measure\n Susp=0.0743"];
"d4289e4e-98e0-425b-bca9-690a4825a17c" -> "2d43ddc1-3b0c-4197-a292-19172cd25fb5";
"2d43ddc1-3b0c-4197-a292-19172cd25fb5" [style=filled, fillcolor="#FFFFFF", label="android.widget.RelativeLayout.onMeasure\n Susp=0.0784"];
"2d43ddc1-3b0c-4197-a292-19172cd25fb5" -> "59a230d5-42cc-4f14-941f-6df99a91f14a";
"59a230d5-42cc-4f14-941f-6df99a91f14a" [style=filled, fillcolor="#FFFFFF", label="android.widget.RelativeLayout.measureChildHorizontal\n Susp=0.0494"];
"59a230d5-42cc-4f14-941f-6df99a91f14a" -> "03926831-87dc-4e77-8953-8ed6b8bda7db";
"03926831-87dc-4e77-8953-8ed6b8bda7db" [style=filled, fillcolor="#FFFFFF", label="android.view.View.measure\n Susp=0.0501"];
"03926831-87dc-4e77-8953-8ed6b8bda7db" -> "8cf57c14-614a-4a14-abb2-8dd3e9ead377";
"8cf57c14-614a-4a14-abb2-8dd3e9ead377" [style=filled, fillcolor="#FFFFFF", label="android.widget.AdapterViewAnimator.onMeasure\n Susp=0.0508"];
"8cf57c14-614a-4a14-abb2-8dd3e9ead377" -> "ca3d47e0-0348-40b2-b0bb-57f68aec236a";
"ca3d47e0-0348-40b2-b0bb-57f68aec236a" [style=filled, fillcolor="#FFFFFF", label="android.widget.AdapterViewAnimator.measureChildren\n Susp=0.0515"];
"ca3d47e0-0348-40b2-b0bb-57f68aec236a" -> "74e801e6-f30d-4032-b265-8d3d664a70b5";
"74e801e6-f30d-4032-b265-8d3d664a70b5" [style=filled, fillcolor="#FFFFFF", label="android.view.View.measure\n Susp=0.0521"];
"74e801e6-f30d-4032-b265-8d3d664a70b5" -> "d9ca26a4-bd7f-4cc7-b2a3-5a23be13f7be";
"d9ca26a4-bd7f-4cc7-b2a3-5a23be13f7be" [style=filled, fillcolor="#FFFFFF", label="android.widget.FrameLayout.onMeasure\n Susp=0.0528"];
"d9ca26a4-bd7f-4cc7-b2a3-5a23be13f7be" -> "5e50adf8-46c1-4aed-b608-7d9b0e32ca51";
"5e50adf8-46c1-4aed-b608-7d9b0e32ca51" [style=filled, fillcolor="#FFFFFF", label="android.view.ViewGroup.measureChildWithMargins\n Susp=0.0535"];
"5e50adf8-46c1-4aed-b608-7d9b0e32ca51" -> "4f75d264-daaa-49ef-9609-faf3038fc51c";
"4f75d264-daaa-49ef-9609-faf3038fc51c" [style=filled, fillcolor="#FFFFFF", label="android.view.View.measure\n Susp=0.0542"];
"4f75d264-daaa-49ef-9609-faf3038fc51c" -> "7f41c67c-0c38-45d0-97c0-de21bf96e96f";
"7f41c67c-0c38-45d0-97c0-de21bf96e96f" [style=filled, fillcolor="#FFFFFF", label="android.widget.RelativeLayout.onMeasure\n Susp=0.0582"];
"7f41c67c-0c38-45d0-97c0-de21bf96e96f" -> "8e5d914a-978e-4067-ad7a-b16ba58d1cc4";
"8e5d914a-978e-4067-ad7a-b16ba58d1cc4" [style=filled, fillcolor="#FFFFFF", label="android.widget.RelativeLayout.measureChildHorizontal\n Susp=0.0424"];
"8e5d914a-978e-4067-ad7a-b16ba58d1cc4" -> "1b045276-b87c-44af-9868-68a1f03824ef";
"1b045276-b87c-44af-9868-68a1f03824ef" [style=filled, fillcolor="#FFFFFF", label="android.view.View.measure\n Susp=0.0431"];
"1b045276-b87c-44af-9868-68a1f03824ef" -> "945c0ce6-3663-4f38-bf78-da8391df9568";
"945c0ce6-3663-4f38-bf78-da8391df9568" [style=filled, fillcolor="#FFFFFF", label="com.furkantektas.braingames.ui.AspectRatioCardView.onMeasure\n Susp=0.0438"];
"945c0ce6-3663-4f38-bf78-da8391df9568" -> "fec9cd8f-997f-45d3-badb-abdd6a5b9475";
"fec9cd8f-997f-45d3-badb-abdd6a5b9475" [style=filled, fillcolor="#FFFFFF", label="android.support.v7.widget.CardView.onMeasure\n Susp=0.0345"];
"7f41c67c-0c38-45d0-97c0-de21bf96e96f" -> "ef2569fe-f0e3-43ad-861a-ae9e9058c582";
"ef2569fe-f0e3-43ad-861a-ae9e9058c582" [style=filled, fillcolor="#FFFFFF", label="android.widget.RelativeLayout.measureChild\n Susp=0.0424"];
"ef2569fe-f0e3-43ad-861a-ae9e9058c582" -> "3babf2c5-2b56-4b1f-bcb9-34b1399024fb";
"3babf2c5-2b56-4b1f-bcb9-34b1399024fb" [style=filled, fillcolor="#FFFFFF", label="android.view.View.measure\n Susp=0.0431"];
"3babf2c5-2b56-4b1f-bcb9-34b1399024fb" -> "dc38bed4-2a6d-447b-9c29-9f0aed993d1e";
"dc38bed4-2a6d-447b-9c29-9f0aed993d1e" [style=filled, fillcolor="#FFFFFF", label="com.furkantektas.braingames.ui.AspectRatioCardView.onMeasure\n Susp=0.0438"];
"dc38bed4-2a6d-447b-9c29-9f0aed993d1e" -> "1563599e-15bb-4f5e-89f8-a2b5f39018bf";
"1563599e-15bb-4f5e-89f8-a2b5f39018bf" [style=filled, fillcolor="#FFFFFF", label="android.support.v7.widget.CardView.onMeasure\n Susp=0.0345"];
"2d43ddc1-3b0c-4197-a292-19172cd25fb5" -> "9e51fec1-5b36-407b-a46d-060661d87647";
"9e51fec1-5b36-407b-a46d-060661d87647" [style=filled, fillcolor="#FFFFFF", label="android.widget.RelativeLayout.measureChild\n Susp=0.0494"];
"9e51fec1-5b36-407b-a46d-060661d87647" -> "63a1d0f2-5d21-40ad-adcd-b8c236d8129c";
"63a1d0f2-5d21-40ad-adcd-b8c236d8129c" [style=filled, fillcolor="#FFFFFF", label="android.view.View.measure\n Susp=0.0501"];
"63a1d0f2-5d21-40ad-adcd-b8c236d8129c" -> "ab3b3beb-9133-4e58-9122-fb2f9432c130";
"ab3b3beb-9133-4e58-9122-fb2f9432c130" [style=filled, fillcolor="#FFFFFF", label="android.widget.AdapterViewAnimator.onMeasure\n Susp=0.0508"];
"ab3b3beb-9133-4e58-9122-fb2f9432c130" -> "995b833d-f036-47cc-901a-b60a3fca37d8";
"995b833d-f036-47cc-901a-b60a3fca37d8" [style=filled, fillcolor="#FFFFFF", label="android.widget.AdapterViewAnimator.measureChildren\n Susp=0.0515"];
"995b833d-f036-47cc-901a-b60a3fca37d8" -> "da7759e7-7ca0-4b79-92c7-e581a6e660b2";
"da7759e7-7ca0-4b79-92c7-e581a6e660b2" [style=filled, fillcolor="#FFFFFF", label="android.view.View.measure\n Susp=0.0521"];
"da7759e7-7ca0-4b79-92c7-e581a6e660b2" -> "fc3f6bc9-f708-4fa2-8cc4-88ea81640b71";
"fc3f6bc9-f708-4fa2-8cc4-88ea81640b71" [style=filled, fillcolor="#FFFFFF", label="android.widget.FrameLayout.onMeasure\n Susp=0.0528"];
"fc3f6bc9-f708-4fa2-8cc4-88ea81640b71" -> "cffe5fae-317b-4561-87c2-b25e4e4b6dbb";
"cffe5fae-317b-4561-87c2-b25e4e4b6dbb" [style=filled, fillcolor="#FFFFFF", label="android.view.ViewGroup.measureChildWithMargins\n Susp=0.0535"];
"cffe5fae-317b-4561-87c2-b25e4e4b6dbb" -> "c3b12ae7-de8c-4571-ac85-e54fc20370df";
"c3b12ae7-de8c-4571-ac85-e54fc20370df" [style=filled, fillcolor="#FFFFFF", label="android.view.View.measure\n Susp=0.0542"];
"c3b12ae7-de8c-4571-ac85-e54fc20370df" -> "3f817de9-bdd0-41c9-b185-bd3d925c9cd9";
"3f817de9-bdd0-41c9-b185-bd3d925c9cd9" [style=filled, fillcolor="#FFFFFF", label="android.widget.RelativeLayout.onMeasure\n Susp=0.0582"];
"3f817de9-bdd0-41c9-b185-bd3d925c9cd9" -> "8f6ac351-06a7-4c89-b102-7eecefdd642b";
"8f6ac351-06a7-4c89-b102-7eecefdd642b" [style=filled, fillcolor="#FFFFFF", label="android.widget.RelativeLayout.measureChildHorizontal\n Susp=0.0424"];
"8f6ac351-06a7-4c89-b102-7eecefdd642b" -> "7d90d74b-668c-457f-b836-9b1f03ad1e11";
"7d90d74b-668c-457f-b836-9b1f03ad1e11" [style=filled, fillcolor="#FFFFFF", label="android.view.View.measure\n Susp=0.0431"];
"7d90d74b-668c-457f-b836-9b1f03ad1e11" -> "252ed79d-943b-4675-a97b-7c4cdff53a81";
"252ed79d-943b-4675-a97b-7c4cdff53a81" [style=filled, fillcolor="#FFFFFF", label="com.furkantektas.braingames.ui.AspectRatioCardView.onMeasure\n Susp=0.0438"];
"252ed79d-943b-4675-a97b-7c4cdff53a81" -> "13e0f41c-69cc-4b6e-8869-a09c2d60a00b";
"13e0f41c-69cc-4b6e-8869-a09c2d60a00b" [style=filled, fillcolor="#FFFFFF", label="android.support.v7.widget.CardView.onMeasure\n Susp=0.0345"];
"3f817de9-bdd0-41c9-b185-bd3d925c9cd9" -> "0dff9ffa-53a2-4cc6-aa29-8bfbfcc2343b";
"0dff9ffa-53a2-4cc6-aa29-8bfbfcc2343b" [style=filled, fillcolor="#FFFFFF", label="android.widget.RelativeLayout.measureChild\n Susp=0.0424"];
"0dff9ffa-53a2-4cc6-aa29-8bfbfcc2343b" -> "999cd3b9-d635-492f-8084-aefbdb4760ff";
"999cd3b9-d635-492f-8084-aefbdb4760ff" [style=filled, fillcolor="#FFFFFF", label="android.view.View.measure\n Susp=0.0431"];
"999cd3b9-d635-492f-8084-aefbdb4760ff" -> "c039410c-26f7-4bb2-b5e4-f2ed5fe3a187";
"c039410c-26f7-4bb2-b5e4-f2ed5fe3a187" [style=filled, fillcolor="#FFFFFF", label="com.furkantektas.braingames.ui.AspectRatioCardView.onMeasure\n Susp=0.0438"];
"c039410c-26f7-4bb2-b5e4-f2ed5fe3a187" -> "87c507dc-4bed-413f-a223-e70cc5683c66";
"87c507dc-4bed-413f-a223-e70cc5683c66" [style=filled, fillcolor="#FFFFFF", label="android.support.v7.widget.CardView.onMeasure\n Susp=0.0345"];
"b3ae40c6-579b-46af-9f7b-fe290940c435" -> "2c8206e6-c63c-4a4d-8771-fd02403a29dc";
"2c8206e6-c63c-4a4d-8771-fd02403a29dc" [style=filled, fillcolor="#919191", label="dalvik.system.NativeStart.main\n Susp=0.4965"];
"2c8206e6-c63c-4a4d-8771-fd02403a29dc" -> "16d0d45c-85a0-4273-8032-504994b8ba4b";
"16d0d45c-85a0-4273-8032-504994b8ba4b" [style=filled, fillcolor="#A9A9A9", label="com.android.internal.os.ZygoteInit.main\n Susp=0.3065"];
"16d0d45c-85a0-4273-8032-504994b8ba4b" -> "5b7ec1a6-3886-4d42-b782-fdc75d1da4c6";
"5b7ec1a6-3886-4d42-b782-fdc75d1da4c6" [style=filled, fillcolor="#A9A9A9", label="com.android.internal.os.ZygoteInit$MethodAndArgsCaller.run\n Susp=0.3072"];
"5b7ec1a6-3886-4d42-b782-fdc75d1da4c6" -> "2f44b9ea-ea90-40e8-8df8-1afa91d41321";
"2f44b9ea-ea90-40e8-8df8-1afa91d41321" [style=filled, fillcolor="#A9A9A9", label="java.lang.reflect.Method.invoke\n Susp=0.3078"];
"2f44b9ea-ea90-40e8-8df8-1afa91d41321" -> "634062a2-fdf8-4da1-901d-3e2aa7ecbd73";
"634062a2-fdf8-4da1-901d-3e2aa7ecbd73" [style=filled, fillcolor="#A9A9A9", label="java.lang.reflect.Method.invokeNative\n Susp=0.3085"];
"634062a2-fdf8-4da1-901d-3e2aa7ecbd73" -> "35b75af3-e18d-4899-9bd2-8508bdf559c4";
"35b75af3-e18d-4899-9bd2-8508bdf559c4" [style=filled, fillcolor="#A9A9A9", label="android.app.ActivityThread.main\n Susp=0.3092"];
"35b75af3-e18d-4899-9bd2-8508bdf559c4" -> "57f18c20-65c5-4a7b-8397-f0f125f525de";
"57f18c20-65c5-4a7b-8397-f0f125f525de" [style=filled, fillcolor="#A9A9A9", label="android.os.Looper.loop\n Susp=0.3099"];
"57f18c20-65c5-4a7b-8397-f0f125f525de" -> "f5300af4-0ead-49b7-b95a-9ebf4331ff45";
"f5300af4-0ead-49b7-b95a-9ebf4331ff45" [style=filled, fillcolor="#A9A9A9", label="android.os.Handler.dispatchMessage\n Susp=0.3172"];
"f5300af4-0ead-49b7-b95a-9ebf4331ff45" -> "cc3d3f15-3f0f-46e6-9d51-3a6a0224104a";
"cc3d3f15-3f0f-46e6-9d51-3a6a0224104a" [style=filled, fillcolor="#EBEBEB", label="android.app.ActivityThread$H.handleMessage\n Susp=0.2192"];
"cc3d3f15-3f0f-46e6-9d51-3a6a0224104a" -> "9a1b44c3-091b-462c-a6f2-d944911a560c";
"9a1b44c3-091b-462c-a6f2-d944911a560c" [style=filled, fillcolor="#EBEBEB", label="android.app.ActivityThread.access$800\n Susp=0.2199"];
"9a1b44c3-091b-462c-a6f2-d944911a560c" -> "bbf47227-359e-466d-91c3-63605f54e85d";
"bbf47227-359e-466d-91c3-63605f54e85d" [style=filled, fillcolor="#EBEBEB", label="android.app.ActivityThread.handleLaunchActivity\n Susp=0.2239"];
"bbf47227-359e-466d-91c3-63605f54e85d" -> "5331cb36-1117-4483-9a63-b0cc615f818b";
"5331cb36-1117-4483-9a63-b0cc615f818b" [style=filled, fillcolor="#FFFFFF", label="android.app.ActivityThread.performLaunchActivity\n Susp=0.1851"];
"5331cb36-1117-4483-9a63-b0cc615f818b" -> "95373bf6-d9d7-44bc-b4d7-39503de8f768";
"95373bf6-d9d7-44bc-b4d7-39503de8f768" [style=filled, fillcolor="#FFFFFF", label="android.app.Instrumentation.callActivityOnCreate\n Susp=0.143"];
"95373bf6-d9d7-44bc-b4d7-39503de8f768" -> "66a2dc03-9d2b-4c10-8c74-cf81ea963d68";
"66a2dc03-9d2b-4c10-8c74-cf81ea963d68" [style=filled, fillcolor="#FFFFFF", label="android.app.Activity.performCreate\n Susp=0.147"];
"66a2dc03-9d2b-4c10-8c74-cf81ea963d68" -> "722bef63-34e4-4270-a4a4-afa9af28f029";
"722bef63-34e4-4270-a4a4-afa9af28f029" [style=filled, fillcolor="#FFFFFF", label="com.furkantektas.braingames.ui.MainActivity.onCreate\n Susp=0.0326"];
"722bef63-34e4-4270-a4a4-afa9af28f029" -> "892d41bd-30f4-4b85-a43f-5a6813dc677d";
"892d41bd-30f4-4b85-a43f-5a6813dc677d" [style=filled, fillcolor="#FFFFFF", label="com.furkantektas.braingames.ui.MainActivity.init\n Susp=0.0201"];
"892d41bd-30f4-4b85-a43f-5a6813dc677d" -> "8d75d50b-0cf9-4b92-856c-ec0a58ccf408";
"8d75d50b-0cf9-4b92-856c-ec0a58ccf408" [style=filled, fillcolor="#FFFFFF", label="android.app.Activity.findViewById\n Susp=0.0175"];
"66a2dc03-9d2b-4c10-8c74-cf81ea963d68" -> "c2ea5947-cbf3-4555-87a1-825590514b84";
"c2ea5947-cbf3-4555-87a1-825590514b84" [style=filled, fillcolor="#FFFFFF", label="com.furkantektas.braingames.ui.games.GameColorMatchActivity.onCreate\n Susp=0.1247"];
"c2ea5947-cbf3-4555-87a1-825590514b84" -> "7e36d6f6-d970-412c-ab63-ba95042cf40f";
"7e36d6f6-d970-412c-ab63-ba95042cf40f" [style=filled, fillcolor="#FFFFFF", label="android.app.Activity.setContentView\n Susp=0.053"];
"7e36d6f6-d970-412c-ab63-ba95042cf40f" -> "3367ffac-58d8-4ca8-b120-0100c7851f46";
"3367ffac-58d8-4ca8-b120-0100c7851f46" [style=filled, fillcolor="#FFFFFF", label="com.android.internal.policy.impl.PhoneWindow.setContentView\n Susp=0.0405"];
"3367ffac-58d8-4ca8-b120-0100c7851f46" -> "c49cf5f7-f2e3-4395-af3a-8e954d9c0e3c";
"c49cf5f7-f2e3-4395-af3a-8e954d9c0e3c" [style=filled, fillcolor="#FFFFFF", label="android.view.LayoutInflater.inflate\n Susp=0.0412"];
"c49cf5f7-f2e3-4395-af3a-8e954d9c0e3c" -> "59897b54-eb43-4933-acf7-521328faf464";
"59897b54-eb43-4933-acf7-521328faf464" [style=filled, fillcolor="#FFFFFF", label="android.view.LayoutInflater.rInflate\n Susp=0.0288"];
"59897b54-eb43-4933-acf7-521328faf464" -> "35d9b0b8-0821-47b8-b3c3-c83b43563894";
"35d9b0b8-0821-47b8-b3c3-c83b43563894" [style=filled, fillcolor="#FFFFFF", label="android.view.LayoutInflater.createViewFromTag\n Susp=0.0294"];
"35d9b0b8-0821-47b8-b3c3-c83b43563894" -> "e7f8c308-fa5f-4da7-8112-2999d2f8bbf7";
"e7f8c308-fa5f-4da7-8112-2999d2f8bbf7" [style=filled, fillcolor="#FFFFFF", label="android.view.LayoutInflater.createView\n Susp=0.0301"];
"e7f8c308-fa5f-4da7-8112-2999d2f8bbf7" -> "c1d1d9e2-a61f-463b-a5f1-2607f92ad2b0";
"c1d1d9e2-a61f-463b-a5f1-2607f92ad2b0" [style=filled, fillcolor="#FFFFFF", label="java.lang.reflect.Constructor.newInstance\n Susp=0.0308"];
"c1d1d9e2-a61f-463b-a5f1-2607f92ad2b0" -> "137835fd-862b-4781-be3d-f98dbd1da7a6";
"137835fd-862b-4781-be3d-f98dbd1da7a6" [style=filled, fillcolor="#FFFFFF", label="java.lang.reflect.Constructor.constructNative\n Susp=0.0315"];
"137835fd-862b-4781-be3d-f98dbd1da7a6" -> "7127a197-1289-4f10-8212-1105d74aef6a";
"7127a197-1289-4f10-8212-1105d74aef6a" [style=filled, fillcolor="#FFFFFF", label="com.furkantektas.braingames.ui.CountDownTimerWidget.<init>\n Susp=0.0322"];
"7127a197-1289-4f10-8212-1105d74aef6a" -> "eadd6c1f-b069-4306-9192-cc30d0511469";
"eadd6c1f-b069-4306-9192-cc30d0511469" [style=filled, fillcolor="#FFFFFF", label="com.furkantektas.braingames.ui.CountDownTimerWidget.extractAttrs\n Susp=0.0328"];
"eadd6c1f-b069-4306-9192-cc30d0511469" -> "37f79938-03e2-44c6-bf5e-b907ca70626e";
"37f79938-03e2-44c6-bf5e-b907ca70626e" [style=filled, fillcolor="#FFFFFF", label="android.content.res.Resources$Theme.obtainStyledAttributes\n Susp=0.0302"];
"5331cb36-1117-4483-9a63-b0cc615f818b" -> "0683c552-7eb0-4f2f-a42b-08f80325c7a4";
"0683c552-7eb0-4f2f-a42b-08f80325c7a4" [style=filled, fillcolor="#FFFFFF", label="android.app.Activity.performStart\n Susp=0.051"];
"0683c552-7eb0-4f2f-a42b-08f80325c7a4" -> "c2660767-2031-4138-b122-1bd412cc169a";
"c2660767-2031-4138-b122-1bd412cc169a" [style=filled, fillcolor="#FFFFFF", label="android.app.Instrumentation.callActivityOnStart\n Susp=0.0516"];
"c2660767-2031-4138-b122-1bd412cc169a" -> "094cf553-2aec-40f3-994e-ba6ce47fefc3";
"094cf553-2aec-40f3-994e-ba6ce47fefc3" [style=filled, fillcolor="#FFFFFF", label="com.furkantektas.braingames.ui.games.AbstractGameActivity.onStart\n Susp=0.0523"];
"094cf553-2aec-40f3-994e-ba6ce47fefc3" -> "325879e3-218b-4421-8cd8-ae1c0a4e3fb0";
"325879e3-218b-4421-8cd8-ae1c0a4e3fb0" [style=filled, fillcolor="#FFFFFF", label="com.furkantektas.braingames.ui.games.AbstractGameActivity.showReadyScreen\n Susp=0.04"];
"325879e3-218b-4421-8cd8-ae1c0a4e3fb0" -> "00a242e8-0361-4101-8037-e016fb61921c";
"00a242e8-0361-4101-8037-e016fb61921c" [style=filled, fillcolor="#FFFFFF", label="android.app.Activity.getFragmentManager\n Susp=0.0175"];
"325879e3-218b-4421-8cd8-ae1c0a4e3fb0" -> "bf4c83a6-90a3-41b2-a90b-0be1b2c915be";
"bf4c83a6-90a3-41b2-a90b-0be1b2c915be" [style=filled, fillcolor="#FFFFFF", label="android.app.FragmentManagerImpl.beginTransaction\n Susp=0.0175"];
"325879e3-218b-4421-8cd8-ae1c0a4e3fb0" -> "e236d4de-9ff3-4ef6-bda4-0957f4e40ee2";
"e236d4de-9ff3-4ef6-bda4-0957f4e40ee2" [style=filled, fillcolor="#FFFFFF", label="android.app.BackStackRecord.add\n Susp=0.0175"];
"bbf47227-359e-466d-91c3-63605f54e85d" -> "68fcb16c-9a0a-443c-ab62-07eacd7978aa";
"68fcb16c-9a0a-443c-ab62-07eacd7978aa" [style=filled, fillcolor="#FFFFFF", label="android.app.ActivityThread.handleResumeActivity\n Susp=0.0503"];
"68fcb16c-9a0a-443c-ab62-07eacd7978aa" -> "770bdbd3-07ec-4db3-b4ad-0721c3ea59ce";
"770bdbd3-07ec-4db3-b4ad-0721c3ea59ce" [style=filled, fillcolor="#FFFFFF", label="android.app.ActivityThread.performResumeActivity\n Susp=0.051"];
"770bdbd3-07ec-4db3-b4ad-0721c3ea59ce" -> "4589acba-8edc-45ff-bf45-6434e7dbd372";
"4589acba-8edc-45ff-bf45-6434e7dbd372" [style=filled, fillcolor="#FFFFFF", label="android.app.Activity.performResume\n Susp=0.055"];
"4589acba-8edc-45ff-bf45-6434e7dbd372" -> "b86a4375-c307-451f-a337-f376a57d55e1";
"b86a4375-c307-451f-a337-f376a57d55e1" [style=filled, fillcolor="#FFFFFF", label="android.app.FragmentManagerImpl.execPendingActions\n Susp=0.0392"];
"b86a4375-c307-451f-a337-f376a57d55e1" -> "60e6bdb3-cd9a-45cb-a5c4-c7ee518bfe83";
"60e6bdb3-cd9a-45cb-a5c4-c7ee518bfe83" [style=filled, fillcolor="#FFFFFF", label="android.app.BackStackRecord.run\n Susp=0.0399"];
"60e6bdb3-cd9a-45cb-a5c4-c7ee518bfe83" -> "5cc14707-e6c8-4167-b495-cd86643f1bf1";
"5cc14707-e6c8-4167-b495-cd86643f1bf1" [style=filled, fillcolor="#FFFFFF", label="android.app.FragmentManagerImpl.moveToState\n Susp=0.0405"];
"5cc14707-e6c8-4167-b495-cd86643f1bf1" -> "03b7c556-8efc-4734-8129-e92f46a5e262";
"03b7c556-8efc-4734-8129-e92f46a5e262" [style=filled, fillcolor="#FFFFFF", label="android.app.Fragment.performCreateView\n Susp=0.0412"];
"03b7c556-8efc-4734-8129-e92f46a5e262" -> "178c4ccd-a822-4e45-ac12-bbcfb214a9ef";
"178c4ccd-a822-4e45-ac12-bbcfb214a9ef" [style=filled, fillcolor="#FFFFFF", label="com.furkantektas.braingames.ui.ReadyScreenFragment.onCreateView\n Susp=0.0419"];
"178c4ccd-a822-4e45-ac12-bbcfb214a9ef" -> "468f301e-d228-4378-8df9-8ad5ae9696d4";
"468f301e-d228-4378-8df9-8ad5ae9696d4" [style=filled, fillcolor="#FFFFFF", label="android.view.LayoutInflater.inflate\n Susp=0.0261"];
"4589acba-8edc-45ff-bf45-6434e7dbd372" -> "dcacf415-abbf-43b1-bc9f-2e5175631eac";
"dcacf415-abbf-43b1-bc9f-2e5175631eac" [style=filled, fillcolor="#FFFFFF", label="android.app.Instrumentation.callActivityOnResume\n Susp=0.026"];
"dcacf415-abbf-43b1-bc9f-2e5175631eac" -> "31fbe2b6-5bf8-4e44-9ab2-35a13c623808";
"31fbe2b6-5bf8-4e44-9ab2-35a13c623808" [style=filled, fillcolor="#FFFFFF", label="com.furkantektas.braingames.ui.games.AbstractCountDownTimerGameActivity.onResume\n Susp=0.0267"];
"31fbe2b6-5bf8-4e44-9ab2-35a13c623808" -> "1b710eb3-1fb6-4400-985a-70b4aaee1a7d";
"1b710eb3-1fb6-4400-985a-70b4aaee1a7d" [style=filled, fillcolor="#FFFFFF", label="com.furkantektas.braingames.ui.games.AbstractCountDownTimerGameActivity.startTimer\n Susp=0.0208"];
"1b710eb3-1fb6-4400-985a-70b4aaee1a7d" -> "cbaa85d1-1987-4225-adc1-866d8f727c1d";
"cbaa85d1-1987-4225-adc1-866d8f727c1d" [style=filled, fillcolor="#FFFFFF", label="com.furkantektas.braingames.ui.games.AbstractCountDownTimerGameActivity.findTimer\n Susp=0.0215"];
"cbaa85d1-1987-4225-adc1-866d8f727c1d" -> "c09f5bd9-b427-4c02-aa23-78e86de15cd6";
"c09f5bd9-b427-4c02-aa23-78e86de15cd6" [style=filled, fillcolor="#FFFFFF", label="android.app.Activity.findViewById\n Susp=0.0188"];
"f5300af4-0ead-49b7-b95a-9ebf4331ff45" -> "0d87d69b-6138-4ce8-b76f-a44e14a92e74";
"0d87d69b-6138-4ce8-b76f-a44e14a92e74" [style=filled, fillcolor="#FFFFFF", label="android.os.Handler.handleCallback\n Susp=0.0614"];
"0d87d69b-6138-4ce8-b76f-a44e14a92e74" -> "6cf79e90-2343-4d4a-aac6-2866c940649d";
"6cf79e90-2343-4d4a-aac6-2866c940649d" [style=filled, fillcolor="#FFFFFF", label="android.view.Choreographer$FrameDisplayEventReceiver.run\n Susp=0.0621"];
"6cf79e90-2343-4d4a-aac6-2866c940649d" -> "07d137d1-8119-47b4-a4f9-b8afa8af6a6f";
"07d137d1-8119-47b4-a4f9-b8afa8af6a6f" [style=filled, fillcolor="#FFFFFF", label="android.view.Choreographer.doFrame\n Susp=0.0628"];
"07d137d1-8119-47b4-a4f9-b8afa8af6a6f" -> "a2ac0af4-214d-4f56-aae1-c4f99d7ff2e4";
"a2ac0af4-214d-4f56-aae1-c4f99d7ff2e4" [style=filled, fillcolor="#FFFFFF", label="android.view.Choreographer.doCallbacks\n Susp=0.0634"];
"a2ac0af4-214d-4f56-aae1-c4f99d7ff2e4" -> "d50079d6-ea99-44fd-a136-f6d39a027787";
"d50079d6-ea99-44fd-a136-f6d39a027787" [style=filled, fillcolor="#FFFFFF", label="android.view.Choreographer$CallbackRecord.run\n Susp=0.0641"];
"d50079d6-ea99-44fd-a136-f6d39a027787" -> "8da8c5ce-fdc7-4180-b1db-3ac54713b6cd";
"8da8c5ce-fdc7-4180-b1db-3ac54713b6cd" [style=filled, fillcolor="#FFFFFF", label="android.view.ViewRootImpl$TraversalRunnable.run\n Susp=0.0648"];
"8da8c5ce-fdc7-4180-b1db-3ac54713b6cd" -> "b12fd489-1e58-4e3e-8e46-30bbe8d3e824";
"b12fd489-1e58-4e3e-8e46-30bbe8d3e824" [style=filled, fillcolor="#FFFFFF", label="android.view.ViewRootImpl.doTraversal\n Susp=0.0655"];
"b12fd489-1e58-4e3e-8e46-30bbe8d3e824" -> "5b4ded9d-0c09-43cb-96c3-d7ae125bfd9e";
"5b4ded9d-0c09-43cb-96c3-d7ae125bfd9e" [style=filled, fillcolor="#FFFFFF", label="android.view.ViewRootImpl.performTraversals\n Susp=0.0662"];
"5b4ded9d-0c09-43cb-96c3-d7ae125bfd9e" -> "68c60355-0524-4c84-8c6e-31a454ba6088";
"68c60355-0524-4c84-8c6e-31a454ba6088" [style=filled, fillcolor="#FFFFFF", label="android.view.ViewRootImpl.measureHierarchy\n Susp=0.0668"];
"68c60355-0524-4c84-8c6e-31a454ba6088" -> "06047e4a-609c-47ec-98e8-d1f0823e118d";
"06047e4a-609c-47ec-98e8-d1f0823e118d" [style=filled, fillcolor="#FFFFFF", label="android.view.ViewRootImpl.performMeasure\n Susp=0.0675"];
"06047e4a-609c-47ec-98e8-d1f0823e118d" -> "31dff2ce-2055-43d8-8943-fb7aacd678a5";
"31dff2ce-2055-43d8-8943-fb7aacd678a5" [style=filled, fillcolor="#FFFFFF", label="android.view.View.measure\n Susp=0.0682"];
"31dff2ce-2055-43d8-8943-fb7aacd678a5" -> "297dd991-e0ef-438d-87b2-67bdf954c8e1";
"297dd991-e0ef-438d-87b2-67bdf954c8e1" [style=filled, fillcolor="#FFFFFF", label="com.android.internal.policy.impl.PhoneWindow$DecorView.onMeasure\n Susp=0.0689"];
"297dd991-e0ef-438d-87b2-67bdf954c8e1" -> "e623d3de-cce9-4be9-ab12-806f690357c4";
"e623d3de-cce9-4be9-ab12-806f690357c4" [style=filled, fillcolor="#FFFFFF", label="android.widget.FrameLayout.onMeasure\n Susp=0.0696"];
"e623d3de-cce9-4be9-ab12-806f690357c4" -> "e9ff0054-1fa6-49b0-8779-bba030f648b4";
"e9ff0054-1fa6-49b0-8779-bba030f648b4" [style=filled, fillcolor="#FFFFFF", label="android.view.ViewGroup.measureChildWithMargins\n Susp=0.0703"];
"e9ff0054-1fa6-49b0-8779-bba030f648b4" -> "e65503f0-966d-40b8-90d5-2993fc374f71";
"e65503f0-966d-40b8-90d5-2993fc374f71" [style=filled, fillcolor="#FFFFFF", label="android.view.View.measure\n Susp=0.0709"];
"e65503f0-966d-40b8-90d5-2993fc374f71" -> "894a5671-c915-4219-bd59-c2ef30fc6c41";
"894a5671-c915-4219-bd59-c2ef30fc6c41" [style=filled, fillcolor="#FFFFFF", label="android.widget.LinearLayout.onMeasure\n Susp=0.0716"];
"894a5671-c915-4219-bd59-c2ef30fc6c41" -> "b2618847-b1ad-4285-a214-42691b876aed";
"b2618847-b1ad-4285-a214-42691b876aed" [style=filled, fillcolor="#FFFFFF", label="android.widget.LinearLayout.measureVertical\n Susp=0.0723"];
"b2618847-b1ad-4285-a214-42691b876aed" -> "d6231630-9706-40a9-9b88-2cda376078c0";
"d6231630-9706-40a9-9b88-2cda376078c0" [style=filled, fillcolor="#FFFFFF", label="android.widget.LinearLayout.measureChildBeforeLayout\n Susp=0.073"];
"d6231630-9706-40a9-9b88-2cda376078c0" -> "139b4878-4056-48f6-b70a-20a0dcbc62c8";
"139b4878-4056-48f6-b70a-20a0dcbc62c8" [style=filled, fillcolor="#FFFFFF", label="android.view.ViewGroup.measureChildWithMargins\n Susp=0.0737"];
"139b4878-4056-48f6-b70a-20a0dcbc62c8" -> "e5d3da07-4f86-481f-b257-3a08fc6475c5";
"e5d3da07-4f86-481f-b257-3a08fc6475c5" [style=filled, fillcolor="#FFFFFF", label="android.view.View.measure\n Susp=0.0743"];
"e5d3da07-4f86-481f-b257-3a08fc6475c5" -> "209b5272-cb2b-40a9-a8d7-9b5d3d0899aa";
"209b5272-cb2b-40a9-a8d7-9b5d3d0899aa" [style=filled, fillcolor="#FFFFFF", label="android.widget.FrameLayout.onMeasure\n Susp=0.075"];
"209b5272-cb2b-40a9-a8d7-9b5d3d0899aa" -> "81096618-666e-4966-95a5-a20635186d35";
"81096618-666e-4966-95a5-a20635186d35" [style=filled, fillcolor="#FFFFFF", label="android.view.ViewGroup.measureChildWithMargins\n Susp=0.0757"];
"81096618-666e-4966-95a5-a20635186d35" -> "de0e22b5-de78-4ae9-a993-c0813023d4d8";
"de0e22b5-de78-4ae9-a993-c0813023d4d8" [style=filled, fillcolor="#FFFFFF", label="android.view.View.measure\n Susp=0.0764"];
"de0e22b5-de78-4ae9-a993-c0813023d4d8" -> "0c1446d9-e52a-4421-b2e6-021b0db50e32";
"0c1446d9-e52a-4421-b2e6-021b0db50e32" [style=filled, fillcolor="#FFFFFF", label="android.widget.RelativeLayout.onMeasure\n Susp=0.0804"];
"0c1446d9-e52a-4421-b2e6-021b0db50e32" -> "ee5fa07a-ea3b-4661-a32c-12f10683f46d";
"ee5fa07a-ea3b-4661-a32c-12f10683f46d" [style=filled, fillcolor="#FFFFFF", label="android.widget.RelativeLayout.measureChildHorizontal\n Susp=0.0515"];
"ee5fa07a-ea3b-4661-a32c-12f10683f46d" -> "6febe533-3dea-4c67-9e70-d01319010ed7";
"6febe533-3dea-4c67-9e70-d01319010ed7" [style=filled, fillcolor="#FFFFFF", label="android.view.View.measure\n Susp=0.0521"];
"6febe533-3dea-4c67-9e70-d01319010ed7" -> "9dbf61ef-b21f-447a-b0cf-6d9e9e8a81c0";
"9dbf61ef-b21f-447a-b0cf-6d9e9e8a81c0" [style=filled, fillcolor="#FFFFFF", label="android.widget.AdapterViewAnimator.onMeasure\n Susp=0.0528"];
"9dbf61ef-b21f-447a-b0cf-6d9e9e8a81c0" -> "89f0e201-d693-4ed2-bb72-e2837ce0449e";
"89f0e201-d693-4ed2-bb72-e2837ce0449e" [style=filled, fillcolor="#FFFFFF", label="android.widget.AdapterViewAnimator.measureChildren\n Susp=0.0535"];
"89f0e201-d693-4ed2-bb72-e2837ce0449e" -> "afdbc645-58b2-4ad2-806f-b7fcbb31da3c";
"afdbc645-58b2-4ad2-806f-b7fcbb31da3c" [style=filled, fillcolor="#FFFFFF", label="android.view.View.measure\n Susp=0.0542"];
"afdbc645-58b2-4ad2-806f-b7fcbb31da3c" -> "b00de5bf-22d5-4da8-9382-21ae25123d9a";
"b00de5bf-22d5-4da8-9382-21ae25123d9a" [style=filled, fillcolor="#FFFFFF", label="android.widget.FrameLayout.onMeasure\n Susp=0.0549"];
"b00de5bf-22d5-4da8-9382-21ae25123d9a" -> "5e112be1-89e4-4235-8462-2ec74bd3afe8";
"5e112be1-89e4-4235-8462-2ec74bd3afe8" [style=filled, fillcolor="#FFFFFF", label="android.view.ViewGroup.measureChildWithMargins\n Susp=0.0555"];
"5e112be1-89e4-4235-8462-2ec74bd3afe8" -> "274c1860-5fe1-4102-a236-955d38f8395e";
"274c1860-5fe1-4102-a236-955d38f8395e" [style=filled, fillcolor="#FFFFFF", label="android.view.View.measure\n Susp=0.0562"];
"274c1860-5fe1-4102-a236-955d38f8395e" -> "f1fd7097-6374-47c8-a277-da016262618b";
"f1fd7097-6374-47c8-a277-da016262618b" [style=filled, fillcolor="#FFFFFF", label="android.widget.RelativeLayout.onMeasure\n Susp=0.0602"];
"f1fd7097-6374-47c8-a277-da016262618b" -> "879f3ffa-a7ab-4ec6-8020-72873700e7a1";
"879f3ffa-a7ab-4ec6-8020-72873700e7a1" [style=filled, fillcolor="#FFFFFF", label="android.widget.RelativeLayout.measureChildHorizontal\n Susp=0.0444"];
"879f3ffa-a7ab-4ec6-8020-72873700e7a1" -> "e4b023c4-4a94-481e-9bfa-2a8c0c1c390c";
"e4b023c4-4a94-481e-9bfa-2a8c0c1c390c" [style=filled, fillcolor="#FFFFFF", label="android.view.View.measure\n Susp=0.0451"];
"e4b023c4-4a94-481e-9bfa-2a8c0c1c390c" -> "22c64d0b-94df-4b22-845e-ab32dcd3a2e8";
"22c64d0b-94df-4b22-845e-ab32dcd3a2e8" [style=filled, fillcolor="#FFFFFF", label="com.furkantektas.braingames.ui.AspectRatioCardView.onMeasure\n Susp=0.0458"];
"22c64d0b-94df-4b22-845e-ab32dcd3a2e8" -> "ed2bfd5c-3d8b-40fe-8656-3fca612e3c25";
"ed2bfd5c-3d8b-40fe-8656-3fca612e3c25" [style=filled, fillcolor="#FFFFFF", label="android.support.v7.widget.CardView.onMeasure\n Susp=0.0366"];
"f1fd7097-6374-47c8-a277-da016262618b" -> "acc292b6-24e8-412a-820e-51e998e857c5";
"acc292b6-24e8-412a-820e-51e998e857c5" [style=filled, fillcolor="#FFFFFF", label="android.widget.RelativeLayout.measureChild\n Susp=0.0444"];
"acc292b6-24e8-412a-820e-51e998e857c5" -> "2e071d05-0372-4d03-9e2e-287260a17009";
"2e071d05-0372-4d03-9e2e-287260a17009" [style=filled, fillcolor="#FFFFFF", label="android.view.View.measure\n Susp=0.0451"];
"2e071d05-0372-4d03-9e2e-287260a17009" -> "78a6af18-026f-47ab-a531-902d8ed7044d";
"78a6af18-026f-47ab-a531-902d8ed7044d" [style=filled, fillcolor="#FFFFFF", label="com.furkantektas.braingames.ui.AspectRatioCardView.onMeasure\n Susp=0.0458"];
"78a6af18-026f-47ab-a531-902d8ed7044d" -> "6545a085-db62-4b4c-8572-ccce3aef0d43";
"6545a085-db62-4b4c-8572-ccce3aef0d43" [style=filled, fillcolor="#FFFFFF", label="android.support.v7.widget.CardView.onMeasure\n Susp=0.0366"];
"0c1446d9-e52a-4421-b2e6-021b0db50e32" -> "c0c5c814-97e9-4c72-bc85-7f05477d36bf";
"c0c5c814-97e9-4c72-bc85-7f05477d36bf" [style=filled, fillcolor="#FFFFFF", label="android.widget.RelativeLayout.measureChild\n Susp=0.0515"];
"c0c5c814-97e9-4c72-bc85-7f05477d36bf" -> "42653dee-7136-4d0f-b33d-db9a0ff48616";
"42653dee-7136-4d0f-b33d-db9a0ff48616" [style=filled, fillcolor="#FFFFFF", label="android.view.View.measure\n Susp=0.0521"];
"42653dee-7136-4d0f-b33d-db9a0ff48616" -> "65bba919-4935-4c15-b94d-68504a679468";
"65bba919-4935-4c15-b94d-68504a679468" [style=filled, fillcolor="#FFFFFF", label="android.widget.AdapterViewAnimator.onMeasure\n Susp=0.0528"];
"65bba919-4935-4c15-b94d-68504a679468" -> "2843c791-71d7-448e-b05d-dd6dd7140c73";
"2843c791-71d7-448e-b05d-dd6dd7140c73" [style=filled, fillcolor="#FFFFFF", label="android.widget.AdapterViewAnimator.measureChildren\n Susp=0.0535"];
"2843c791-71d7-448e-b05d-dd6dd7140c73" -> "a6eddf9f-56b9-498c-9991-b71d03fbf624";
"a6eddf9f-56b9-498c-9991-b71d03fbf624" [style=filled, fillcolor="#FFFFFF", label="android.view.View.measure\n Susp=0.0542"];
"a6eddf9f-56b9-498c-9991-b71d03fbf624" -> "de4c5d00-f667-4578-9521-5f29ad516f59";
"de4c5d00-f667-4578-9521-5f29ad516f59" [style=filled, fillcolor="#FFFFFF", label="android.widget.FrameLayout.onMeasure\n Susp=0.0549"];
"de4c5d00-f667-4578-9521-5f29ad516f59" -> "0ce90478-73e1-41ea-af28-ab9d4c0c484a";
"0ce90478-73e1-41ea-af28-ab9d4c0c484a" [style=filled, fillcolor="#FFFFFF", label="android.view.ViewGroup.measureChildWithMargins\n Susp=0.0555"];
"0ce90478-73e1-41ea-af28-ab9d4c0c484a" -> "af1312a6-5155-4f44-b944-53fa0a0e2f66";
"af1312a6-5155-4f44-b944-53fa0a0e2f66" [style=filled, fillcolor="#FFFFFF", label="android.view.View.measure\n Susp=0.0562"];
"af1312a6-5155-4f44-b944-53fa0a0e2f66" -> "b593d3ae-6bc7-4ba5-9941-f835310b94e0";
"b593d3ae-6bc7-4ba5-9941-f835310b94e0" [style=filled, fillcolor="#FFFFFF", label="android.widget.RelativeLayout.onMeasure\n Susp=0.0602"];
"b593d3ae-6bc7-4ba5-9941-f835310b94e0" -> "b4f332a6-46c6-409d-a0cd-89b2aaf647be";
"b4f332a6-46c6-409d-a0cd-89b2aaf647be" [style=filled, fillcolor="#FFFFFF", label="android.widget.RelativeLayout.measureChildHorizontal\n Susp=0.0444"];
"b4f332a6-46c6-409d-a0cd-89b2aaf647be" -> "aa897457-7363-4762-95f1-a535ab480c71";
"aa897457-7363-4762-95f1-a535ab480c71" [style=filled, fillcolor="#FFFFFF", label="android.view.View.measure\n Susp=0.0451"];
"aa897457-7363-4762-95f1-a535ab480c71" -> "5c621971-812a-48b8-b60d-91c9ba4a5f38";
"5c621971-812a-48b8-b60d-91c9ba4a5f38" [style=filled, fillcolor="#FFFFFF", label="com.furkantektas.braingames.ui.AspectRatioCardView.onMeasure\n Susp=0.0458"];
"5c621971-812a-48b8-b60d-91c9ba4a5f38" -> "9dc75d96-acfd-43d6-a560-aed7dfec71b7";
"9dc75d96-acfd-43d6-a560-aed7dfec71b7" [style=filled, fillcolor="#FFFFFF", label="android.support.v7.widget.CardView.onMeasure\n Susp=0.0366"];
"b593d3ae-6bc7-4ba5-9941-f835310b94e0" -> "60346817-59b6-412d-b123-14adb8fa02b2";
"60346817-59b6-412d-b123-14adb8fa02b2" [style=filled, fillcolor="#FFFFFF", label="android.widget.RelativeLayout.measureChild\n Susp=0.0444"];
"60346817-59b6-412d-b123-14adb8fa02b2" -> "19748c42-e673-4607-a325-09143e00aa48";
"19748c42-e673-4607-a325-09143e00aa48" [style=filled, fillcolor="#FFFFFF", label="android.view.View.measure\n Susp=0.0451"];
"19748c42-e673-4607-a325-09143e00aa48" -> "d0c92c13-b2ac-40af-9979-6eb4851c0448";
"d0c92c13-b2ac-40af-9979-6eb4851c0448" [style=filled, fillcolor="#FFFFFF", label="com.furkantektas.braingames.ui.AspectRatioCardView.onMeasure\n Susp=0.0458"];
"d0c92c13-b2ac-40af-9979-6eb4851c0448" -> "f5658eb8-0e4e-47a8-b391-42dc29025ddb";
"f5658eb8-0e4e-47a8-b391-42dc29025ddb" [style=filled, fillcolor="#FFFFFF", label="android.support.v7.widget.CardView.onMeasure\n Susp=0.0366"];
"f5300af4-0ead-49b7-b95a-9ebf4331ff45" -> "1d169e81-4c78-459a-9515-412f830531a7";
"1d169e81-4c78-459a-9515-412f830531a7" [style=filled, fillcolor="#FFFFFF", label="android.os.CountDownTimer$1.handleMessage\n Susp=0.0482"];
"1d169e81-4c78-459a-9515-412f830531a7" -> "77f96ce6-46f1-4479-a0b6-1c067e99751e";
"77f96ce6-46f1-4479-a0b6-1c067e99751e" [style=filled, fillcolor="#FFFFFF", label="com.furkantektas.braingames.ui.CountDownTimerWidget$1.onTick\n Susp=0.0456"];
}
