digraph FULL {
"ea4794ec-3d49-4200-a8fc-bf8fed0e3c83" [label="de.robv.android.xposed.XposedBridge.main\n Susp=1"];
"ea4794ec-3d49-4200-a8fc-bf8fed0e3c83" -> "94d0ad26-216f-4394-9ee0-d32d8b5f62ba";
"94d0ad26-216f-4394-9ee0-d32d8b5f62ba" [label="com.android.internal.os.ZygoteInit.main\n Susp=1"];
"94d0ad26-216f-4394-9ee0-d32d8b5f62ba" -> "ac998b45-153c-46cd-9d35-b3f1981f80c7";
"ac998b45-153c-46cd-9d35-b3f1981f80c7" [label="com.android.internal.os.ZygoteInit$MethodAndArgsCaller.run\n Susp=1"];
"ac998b45-153c-46cd-9d35-b3f1981f80c7" -> "512730f6-cf01-4fab-82e8-243c6d166836";
"512730f6-cf01-4fab-82e8-243c6d166836" [label="java.lang.reflect.Method.invoke\n Susp=1"];
"512730f6-cf01-4fab-82e8-243c6d166836" -> "dcb0d407-c5e4-4497-ab84-9c7e90d5c163";
"dcb0d407-c5e4-4497-ab84-9c7e90d5c163" [label="android.app.ActivityThread.main\n Susp=1"];
"dcb0d407-c5e4-4497-ab84-9c7e90d5c163" -> "2efbd30b-04b8-4fda-b825-089ae835b2ae";
"2efbd30b-04b8-4fda-b825-089ae835b2ae" [label="android.os.Looper.loop\n Susp=1"];
"2efbd30b-04b8-4fda-b825-089ae835b2ae" -> "666fedf1-e84a-49de-8e6b-d71546bf2583";
"666fedf1-e84a-49de-8e6b-d71546bf2583" [label="android.os.Handler.dispatchMessage\n Susp=1"];
"666fedf1-e84a-49de-8e6b-d71546bf2583" -> "370a8d95-f1a0-4ab1-b78f-37d913a11349";
"370a8d95-f1a0-4ab1-b78f-37d913a11349" [label="android.app.ActivityThread$H.handleMessage\n Susp=1"];
"370a8d95-f1a0-4ab1-b78f-37d913a11349" -> "9b77462f-cbf6-46b2-97e7-94cfbf0356c0";
"9b77462f-cbf6-46b2-97e7-94cfbf0356c0" [label="android.app.ActivityThread.access$800\n Susp=1"];
"9b77462f-cbf6-46b2-97e7-94cfbf0356c0" -> "a1295481-ac2c-4b46-afbb-c009fe7e7a9b";
"a1295481-ac2c-4b46-afbb-c009fe7e7a9b" [label="android.app.ActivityThread.handleLaunchActivity\n Susp=1"];
"a1295481-ac2c-4b46-afbb-c009fe7e7a9b" -> "10671567-848e-4a7d-aa4b-b6ca96cea547";
"10671567-848e-4a7d-aa4b-b6ca96cea547" [label="android.app.ActivityThread.performLaunchActivity\n Susp=1"];
"10671567-848e-4a7d-aa4b-b6ca96cea547" -> "a1499b4f-a806-4d9e-88a1-ba29fc215155";
"a1499b4f-a806-4d9e-88a1-ba29fc215155" [label="android.app.Instrumentation.callActivityOnCreate\n Susp=1"];
"a1499b4f-a806-4d9e-88a1-ba29fc215155" -> "3f480500-d567-40e7-8a83-ad585c51ecb8";
"3f480500-d567-40e7-8a83-ad585c51ecb8" [label="android.app.Activity.performCreate\n Susp=1"];
"3f480500-d567-40e7-8a83-ad585c51ecb8" -> "f138691e-6d30-4b22-80dd-17642e7b7067";
"f138691e-6d30-4b22-80dd-17642e7b7067" [label="com.ascendtv.kanjifix.MainActivity.onCreate\n Susp=1"];
"f138691e-6d30-4b22-80dd-17642e7b7067" -> "2e9209fe-bf84-42d6-96fc-7d81f7b73e45";
"2e9209fe-bf84-42d6-96fc-7d81f7b73e45" [label="de.robv.android.xposed.XposedBridge.handleHookedMethod\n Susp=1"];
"2e9209fe-bf84-42d6-96fc-7d81f7b73e45" -> "3f070f5f-1dd0-471d-8e3b-b40a473d8522";
"3f070f5f-1dd0-471d-8e3b-b40a473d8522" [label="it.unimib.disco.lta.unimiblogger.MyMethodHook.beforeHookedMethod\n Susp=1"];
"3f070f5f-1dd0-471d-8e3b-b40a473d8522" -> "90314e16-00d6-45d8-a04c-ef202150d172";
"90314e16-00d6-45d8-a04c-ef202150d172" [label="java.lang.Thread.getStackTrace\n Susp=1"];
"90314e16-00d6-45d8-a04c-ef202150d172" -> "b39d3fd7-0ff0-488b-a5b2-571a7b8cfe0b";
"b39d3fd7-0ff0-488b-a5b2-571a7b8cfe0b" [label="dalvik.system.VMStack.getThreadStackTrace\n Susp=0,2"];
}
