BEFORE android.content.ContextWrapper.getAssets()
AFTER android.content.ContextWrapper.getAssets, returnValue: android.content.res.AssetManager
BEFORE android.content.ContextWrapper.getAssets()
AFTER android.content.ContextWrapper.getAssets, returnValue: android.content.res.AssetManager
BEFORE com.kamron.pogoiv.MainActivity.onCreate()
BEFORE android.support.v7.app.AppCompatActivity.onCreate()
AFTER android.support.v7.app.AppCompatActivity.onCreate
BEFORE android.content.ContextWrapper.getApplicationContext()
AFTER android.content.ContextWrapper.getApplicationContext, returnValue: com.kamron.pogoiv.PoGoApplication
BEFORE android.content.ContextWrapper.getSharedPreferences(GoIV_settings,0)
AFTER android.content.ContextWrapper.getSharedPreferences, returnValue: android.app.SharedPreferencesImpl
BEFORE android.preference.PreferenceManager.setDefaultValues(com.kamron.pogoiv.MainActivity,2131755008,false)
BEFORE android.preference.PreferenceManager.setDefaultValues(com.kamron.pogoiv.MainActivity,2131755008,false)
BEFORE android.preference.Preference.setLayoutResource(2131361858)
AFTER android.preference.Preference.setLayoutResource
BEFORE android.preference.Preference.getContext()
AFTER android.preference.Preference.getContext, returnValue: com.kamron.pogoiv.MainActivity
BEFORE android.content.Context.obtainStyledAttributes(android.content.res.XmlBlock$Parser,[I)
AFTER android.content.Context.obtainStyledAttributes, returnValue: [18, 0, -1, 0, 0, 0, 16, 50, -1, 0, 0, 0, 16, 1000, -1, 0, 0, 0, 3, 32, -1, 0, 0, 0, 16, 200, -1, 0, 0, 0, 0, 0, -1, 0, 0, 0, 0, 0, -1, 0, 0, 0, 0, 0, -1, 0, 0, 0, 0, 0, -1, 0, 0, 0, 0, 0, 2, 0, 0, 0, 0, 0, 2, 0, 0, 0, 16, 400, -1, 0, 0, 0, 0, 0, -1, 0, 0, 0, 0, 0, -1, 0, 0, 0]
BEFORE android.content.res.XmlBlock$Parser.getAttributeIntValue(http://schemas.android.com/apk/res/android,defaultValue,50)
AFTER android.content.res.XmlBlock$Parser.getAttributeIntValue, returnValue: 400
BEFORE android.content.res.TypedArray.recycle()
AFTER android.content.res.TypedArray.recycle
AFTER android.preference.PreferenceManager.setDefaultValues
AFTER android.preference.PreferenceManager.setDefaultValues
BEFORE android.app.Activity.getPreferences(0)
AFTER android.app.Activity.getPreferences, returnValue: android.app.SharedPreferencesImpl
BEFORE android.app.SharedPreferencesImpl.getInt(level,1)
AFTER android.app.SharedPreferencesImpl.getInt, returnValue: 1
BEFORE android.app.SharedPreferencesImpl.getBoolean(manualScreenshotMode,false)
AFTER android.app.SharedPreferencesImpl.getBoolean, returnValue: false
BEFORE android.support.v4.content.ContextCompat.checkSelfPermission(com.kamron.pogoiv.MainActivity,android.permission.WRITE_EXTERNAL_STORAGE)
AFTER android.support.v4.content.ContextCompat.checkSelfPermission, returnValue: -1
BEFORE android.app.SharedPreferencesImpl.getBoolean(autoUpdateEnabled,true)
AFTER android.app.SharedPreferencesImpl.getBoolean, returnValue: true
BEFORE okhttp3.internal.NamedRunnable.run()
BEFORE android.support.v7.app.AppCompatActivity.getResources()
AFTER android.support.v7.app.AppCompatActivity.getResources, returnValue: android.content.res.XResources
BEFORE android.content.res.Resources.getDisplayMetrics()
AFTER android.content.res.Resources.getDisplayMetrics, returnValue: DisplayMetrics{density=2.0, width=768, height=1184, scaledDensity=2.0, xdpi=320.0, ydpi=320.0}
BEFORE android.app.Activity.getSystemService(window)
BEFORE sun.net.spi.DefaultProxySelector.select(java.net.URI)
BEFORE android.view.WindowManagerImpl.getDefaultDisplay()
AFTER android.view.WindowManagerImpl.getDefaultDisplay, returnValue: android.view.Display
BEFORE android.view.Display.getRealMetrics(android.util.DisplayMetrics)
BEFORE okhttp3.ConnectionPool$1.run()
BEFORE android.support.v7.app.AppCompatActivity.setContentView(2131361820)
BEFORE com.android.org.conscrypt.OpenSSLSocketFactoryImpl.createSocket(java.net.Socket,api.github.com,443,true)
AFTER com.android.org.conscrypt.OpenSSLSocketFactoryImpl.createSocket, returnValue: SSL socket over Socket[address=api.github.com/140.82.121.5,port=443,localPort=37920]
BEFORE com.android.org.conscrypt.OpenSSLSocketImpl.getEnabledProtocols()
AFTER com.android.org.conscrypt.OpenSSLSocketImpl.getEnabledProtocols, returnValue: [Ljava.lang.String;
BEFORE com.android.org.conscrypt.OpenSSLSocketImpl.getEnabledCipherSuites()
AFTER com.android.org.conscrypt.OpenSSLSocketImpl.getEnabledCipherSuites, returnValue: [Ljava.lang.String;
BEFORE com.android.org.conscrypt.OpenSSLSocketImpl.getEnabledProtocols()
AFTER com.android.org.conscrypt.OpenSSLSocketImpl.getEnabledProtocols, returnValue: [Ljava.lang.String;
BEFORE com.android.org.conscrypt.OpenSSLSocketImpl.getEnabledCipherSuites()
AFTER com.android.org.conscrypt.OpenSSLSocketImpl.getEnabledCipherSuites, returnValue: [Ljava.lang.String;
BEFORE com.android.org.conscrypt.OpenSSLSocketImpl.getEnabledCipherSuites()
AFTER com.android.org.conscrypt.OpenSSLSocketImpl.getEnabledCipherSuites, returnValue: [Ljava.lang.String;
BEFORE com.android.org.conscrypt.OpenSSLSocketImpl.getEnabledProtocols()
AFTER com.android.org.conscrypt.OpenSSLSocketImpl.getEnabledProtocols, returnValue: [Ljava.lang.String;
BEFORE com.android.org.conscrypt.OpenSSLSocketImpl.setEnabledProtocols([Ljava.lang.String;)
AFTER com.android.org.conscrypt.OpenSSLSocketImpl.setEnabledProtocols
BEFORE com.android.org.conscrypt.OpenSSLSocketImpl.setEnabledCipherSuites([Ljava.lang.String;)
AFTER com.android.org.conscrypt.OpenSSLSocketImpl.setEnabledCipherSuites
BEFORE com.android.org.conscrypt.OpenSSLSocketImpl.startHandshake()
AFTER com.android.org.conscrypt.OpenSSLSocketImpl.startHandshake
BEFORE com.android.org.conscrypt.OpenSSLSocketImpl.getSession()
AFTER com.android.org.conscrypt.OpenSSLSocketImpl.getSession, returnValue: com.android.org.conscrypt.OpenSSLExtendedSessionImpl
BEFORE com.android.org.conscrypt.OpenSSLExtendedSessionImpl.getCipherSuite()
AFTER com.android.org.conscrypt.OpenSSLExtendedSessionImpl.getCipherSuite, returnValue: TLS_ECDHE_RSA_WITH_AES_128_GCM_SHA256, isEmpty: false
BEFORE com.android.org.conscrypt.OpenSSLExtendedSessionImpl.getProtocol()
AFTER com.android.org.conscrypt.OpenSSLExtendedSessionImpl.getProtocol, returnValue: TLSv1.2, isEmpty: false
BEFORE com.android.org.conscrypt.OpenSSLExtendedSessionImpl.getPeerCertificates()
AFTER com.android.org.conscrypt.OpenSSLExtendedSessionImpl.getPeerCertificates, returnValue: [Lcom.android.org.conscrypt.OpenSSLX509Certificate;
BEFORE com.android.org.conscrypt.OpenSSLExtendedSessionImpl.getLocalCertificates()
AFTER com.android.org.conscrypt.OpenSSLExtendedSessionImpl.getLocalCertificates
BEFORE com.android.org.conscrypt.OpenSSLSocketImpl.getSession()
AFTER com.android.org.conscrypt.OpenSSLSocketImpl.getSession, returnValue: com.android.org.conscrypt.OpenSSLExtendedSessionImpl
BEFORE com.android.org.conscrypt.OpenSSLExtendedSessionImpl.getPeerCertificates()
AFTER com.android.org.conscrypt.OpenSSLExtendedSessionImpl.getPeerCertificates, returnValue: [Lcom.android.org.conscrypt.OpenSSLX509Certificate;
BEFORE com.android.org.conscrypt.OpenSSLX509Certificate.getSubjectAlternativeNames()
AFTER com.android.org.conscrypt.OpenSSLX509Certificate.getSubjectAlternativeNames, returnValue: [[2, *.github.com], [2, github.com]], isEmpty: false
BEFORE com.android.org.conscrypt.OpenSSLSocketImpl.getInputStream()
AFTER com.android.org.conscrypt.OpenSSLSocketImpl.getInputStream, returnValue: com.android.org.conscrypt.OpenSSLSocketImpl$SSLInputStream
BEFORE com.android.org.conscrypt.OpenSSLSocketImpl.getOutputStream()
AFTER com.android.org.conscrypt.OpenSSLSocketImpl.getOutputStream, returnValue: com.android.org.conscrypt.OpenSSLSocketImpl$SSLOutputStream
BEFORE com.android.org.conscrypt.OpenSSLSocketImpl.setSoTimeout(0)
AFTER com.android.org.conscrypt.OpenSSLSocketImpl.setSoTimeout
BEFORE com.android.org.conscrypt.OpenSSLSocketImpl$SSLOutputStream.write([B,0,24)
AFTER com.android.org.conscrypt.OpenSSLSocketImpl$SSLOutputStream.write
BEFORE com.android.org.conscrypt.OpenSSLSocketImpl$SSLOutputStream.write([B,0,15)
AFTER com.android.org.conscrypt.OpenSSLSocketImpl$SSLOutputStream.write
BEFORE com.android.org.conscrypt.OpenSSLSocketImpl$SSLOutputStream.write([B,0,13)
AFTER com.android.org.conscrypt.OpenSSLSocketImpl$SSLOutputStream.write
BEFORE okhttp3.internal.NamedRunnable.run()
BEFORE com.android.org.conscrypt.OpenSSLSocketImpl$SSLInputStream.read([B,0,8192)
BEFORE com.android.org.conscrypt.OpenSSLSocketImpl$SSLOutputStream.write([B,0,98)
AFTER com.android.org.conscrypt.OpenSSLSocketImpl$SSLOutputStream.write
BEFORE okio.AsyncTimeout$Watchdog.run()
BEFORE com.android.org.conscrypt.OpenSSLSocketImpl$SSLInputStream.read([B,0,8192)
BEFORE okhttp3.internal.NamedRunnable.run()
AFTER okhttp3.internal.NamedRunnable.run
BEFORE okhttp3.internal.NamedRunnable.run()
BEFORE com.android.org.conscrypt.OpenSSLSocketImpl$SSLOutputStream.write([B,0,9)
AFTER com.android.org.conscrypt.OpenSSLSocketImpl$SSLOutputStream.write
AFTER okhttp3.internal.NamedRunnable.run
AFTER com.android.org.conscrypt.OpenSSLSocketImpl$SSLInputStream.read, returnValue: 1370
BEFORE com.android.org.conscrypt.OpenSSLSocketImpl$SSLInputStream.read([B,0,8192)
AFTER com.android.org.conscrypt.OpenSSLSocketImpl$SSLInputStream.read, returnValue: 806
BEFORE com.android.org.conscrypt.OpenSSLSocketImpl$SSLInputStream.read([B,0,8192)
BEFORE android.content.Intent.putExtra(update,com.kamron.pogoiv.updater.AppUpdate)
BEFORE android.content.Intent.putExtra(update,com.kamron.pogoiv.updater.AppUpdate)
AFTER android.content.Intent.putExtra, returnValue: Intent { act=com.kamron.pogoiv.SHOW_UPDATE_DIALOG (has extras) }
AFTER android.content.Intent.putExtra, returnValue: Intent { act=com.kamron.pogoiv.SHOW_UPDATE_DIALOG (has extras) }
BEFORE android.support.v4.content.LocalBroadcastManager.getInstance(com.kamron.pogoiv.MainActivity)
AFTER android.support.v4.content.LocalBroadcastManager.getInstance, returnValue: android.support.v4.content.LocalBroadcastManager
BEFORE android.support.v4.content.LocalBroadcastManager.sendBroadcast(android.content.Intent)
AFTER android.support.v4.content.LocalBroadcastManager.sendBroadcast, returnValue: false
BEFORE android.support.v7.app.AppCompatActivity.findViewById(2131230956)
AFTER android.support.v7.app.AppCompatActivity.findViewById, returnValue: android.support.v7.widget.AppCompatTextView{4f9c8cc V.ED..... ......I. 0,0-0,0 #7f0800ec app:id/version_number}
BEFORE android.content.ContextWrapper.getPackageManager()
AFTER android.content.ContextWrapper.getPackageManager, returnValue: android.app.ApplicationPackageManager
BEFORE android.content.ContextWrapper.getPackageName()
AFTER android.content.ContextWrapper.getPackageName, returnValue: com.swanberg.pogoiv, isEmpty: false
BEFORE android.app.ApplicationPackageManager.getPackageInfo(com.swanberg.pogoiv,0)
AFTER android.app.ApplicationPackageManager.getPackageInfo, returnValue: PackageInfo{350d715 com.swanberg.pogoiv}
BEFORE android.support.v7.app.AppCompatActivity.findViewById(2131230829)
AFTER android.support.v7.app.AppCompatActivity.findViewById, returnValue: android.support.v7.widget.AppCompatTextView{a322a2a VFED..CL. ......I. 0,0-0,0 #7f08006d app:id/goiv_info}
BEFORE android.support.v7.app.AppCompatActivity.findViewById(2131230949)
AFTER android.support.v7.app.AppCompatActivity.findViewById, returnValue: android.widget.NumberPicker{137eca V.ED..... ......I. 0,0-0,0 #7f0800e5 app:id/trainerLevel}
BEFORE android.widget.NumberPicker.setMaxValue(40)
AFTER android.widget.NumberPicker.setMaxValue
BEFORE android.widget.NumberPicker.setMinValue(1)
AFTER android.widget.NumberPicker.setMinValue
BEFORE android.widget.NumberPicker.setWrapSelectorWheel(false)
AFTER android.widget.NumberPicker.setWrapSelectorWheel
BEFORE android.widget.NumberPicker.setValue(1)
AFTER android.widget.NumberPicker.setValue
BEFORE android.widget.NumberPicker.setOnScrollListener(com.kamron.pogoiv.NpTrainerLevelPickerListener)
AFTER android.widget.NumberPicker.setOnScrollListener
BEFORE android.widget.NumberPicker.setOnValueChangedListener(com.kamron.pogoiv.NpTrainerLevelPickerListener)
AFTER android.widget.NumberPicker.setOnValueChangedListener
BEFORE android.support.v7.app.AppCompatActivity.findViewById(2131230933)
AFTER android.support.v7.app.AppCompatActivity.findViewById, returnValue: android.support.v7.widget.AppCompatButton{6b0f01b VFED..C.. ......I. 0,0-0,0 #7f0800d5 app:id/start}
BEFORE android.app.SharedPreferencesImpl.getBoolean(GOIV_hasWarnedUserNoScreenRec,false)
AFTER android.app.SharedPreferencesImpl.getBoolean, returnValue: false
BEFORE android.support.v4.content.LocalBroadcastManager.getInstance(com.kamron.pogoiv.MainActivity)
AFTER android.support.v4.content.LocalBroadcastManager.getInstance, returnValue: android.support.v4.content.LocalBroadcastManager
BEFORE android.support.v4.content.LocalBroadcastManager.registerReceiver(com.kamron.pogoiv.MainActivity$1,android.content.IntentFilter)
AFTER android.support.v4.content.LocalBroadcastManager.registerReceiver
BEFORE android.support.v4.content.LocalBroadcastManager.getInstance(com.kamron.pogoiv.MainActivity)
AFTER android.support.v4.content.LocalBroadcastManager.getInstance, returnValue: android.support.v4.content.LocalBroadcastManager
BEFORE android.support.v4.content.LocalBroadcastManager.registerReceiver(com.kamron.pogoiv.MainActivity$2,android.content.IntentFilter)
AFTER android.support.v4.content.LocalBroadcastManager.registerReceiver
BEFORE android.support.v4.content.LocalBroadcastManager.getInstance(com.kamron.pogoiv.MainActivity)
AFTER android.support.v4.content.LocalBroadcastManager.getInstance, returnValue: android.support.v4.content.LocalBroadcastManager
BEFORE android.support.v4.content.LocalBroadcastManager.registerReceiver(com.kamron.pogoiv.MainActivity$3,android.content.IntentFilter)
AFTER android.support.v4.content.LocalBroadcastManager.registerReceiver
BEFORE android.support.v7.app.AppCompatActivity.findViewById(2131230939)
AFTER android.support.v7.app.AppCompatActivity.findViewById, returnValue: android.support.v7.widget.AppCompatSpinner{9e472f7 V.ED..C.. ......I. 0,0-0,0 #7f0800db app:id/teamPickerSpinner}
BEFORE android.support.v7.widget.AppCompatSpinner.setAdapter(com.kamron.pogoiv.widgets.PlayerTeamAdapter)
BEFORE com.kamron.pogoiv.widgets.PlayerTeamAdapter.getCount()
AFTER com.kamron.pogoiv.widgets.PlayerTeamAdapter.getCount, returnValue: 3
BEFORE com.kamron.pogoiv.widgets.PlayerTeamAdapter.getCount()
AFTER com.kamron.pogoiv.widgets.PlayerTeamAdapter.getCount, returnValue: 3
BEFORE com.kamron.pogoiv.widgets.PlayerTeamAdapter.getItemId(0)
AFTER com.kamron.pogoiv.widgets.PlayerTeamAdapter.getItemId, returnValue: 0
BEFORE com.kamron.pogoiv.widgets.PlayerTeamAdapter.getItemId(0)
AFTER com.kamron.pogoiv.widgets.PlayerTeamAdapter.getItemId, returnValue: 0
AFTER android.support.v7.widget.AppCompatSpinner.setAdapter
BEFORE android.widget.AdapterView.setOnItemSelectedListener(com.kamron.pogoiv.MainActivity$5)
AFTER android.widget.AdapterView.setOnItemSelectedListener
BEFORE android.app.SharedPreferencesImpl.getInt(teamName,-1)
AFTER android.app.SharedPreferencesImpl.getInt, returnValue: -1
BEFORE android.widget.AbsSpinner.setSelection(-1)
AFTER android.widget.AbsSpinner.setSelection
BEFORE android.app.Activity.getIntent()
AFTER android.app.Activity.getIntent, returnValue: Intent { flg=0x10000000 cmp=com.swanberg.pogoiv/com.kamron.pogoiv.MainActivity }
BEFORE android.content.Intent.getAction()
AFTER android.content.Intent.getAction
BEFORE com.kamron.pogoiv.MainActivity.onResume()
BEFORE android.support.v4.app.FragmentActivity.onResume()
AFTER android.support.v4.app.FragmentActivity.onResume
BEFORE android.support.v4.content.LocalBroadcastManager.getInstance(com.kamron.pogoiv.MainActivity)
AFTER android.support.v4.content.LocalBroadcastManager.getInstance, returnValue: android.support.v4.content.LocalBroadcastManager
BEFORE android.support.v4.content.LocalBroadcastManager.sendBroadcast(android.content.Intent)
AFTER android.support.v4.content.LocalBroadcastManager.sendBroadcast, returnValue: true
AFTER com.kamron.pogoiv.MainActivity.onResume
BEFORE com.kamron.pogoiv.MainActivity$1.onReceive(com.kamron.pogoiv.PoGoApplication,android.content.Intent)
BEFORE android.provider.Settings.canDrawOverlays(com.kamron.pogoiv.MainActivity)
AFTER android.provider.Settings.canDrawOverlays, returnValue: false
AFTER com.kamron.pogoiv.MainActivity$1.onReceive
BEFORE com.kamron.pogoiv.widgets.PlayerTeamAdapter.getCount()
AFTER com.kamron.pogoiv.widgets.PlayerTeamAdapter.getCount, returnValue: 3
BEFORE com.kamron.pogoiv.widgets.PlayerTeamAdapter.getView(0,android.support.v7.widget.AppCompatSpinner)
BEFORE android.view.LayoutInflater.from(com.kamron.pogoiv.MainActivity)
AFTER android.view.LayoutInflater.from, returnValue: com.android.internal.policy.PhoneLayoutInflater
BEFORE android.view.LayoutInflater.inflate(17367049)
AFTER android.view.LayoutInflater.inflate, returnValue: android.support.v7.widget.AppCompatCheckedTextView{b6207e7 V.ED..... ......ID 0,0-0,0 #1020014 android:id/text1}
BEFORE android.support.v7.app.AppCompatActivity.getResources()
AFTER android.support.v7.app.AppCompatActivity.getResources, returnValue: android.content.res.XResources
AFTER com.kamron.pogoiv.widgets.PlayerTeamAdapter.getView, returnValue: android.support.v7.widget.AppCompatCheckedTextView{b6207e7 V.ED..... ......ID 0,0-0,0 #1020014 android:id/text1}
BEFORE com.kamron.pogoiv.widgets.PlayerTeamAdapter.getView(1,android.support.v7.widget.AppCompatCheckedTextView,android.support.v7.widget.AppCompatSpinner)
BEFORE android.view.LayoutInflater.from(com.kamron.pogoiv.MainActivity)
AFTER android.view.LayoutInflater.from, returnValue: com.android.internal.policy.PhoneLayoutInflater
BEFORE android.view.LayoutInflater.inflate(17367049)
AFTER android.view.LayoutInflater.inflate, returnValue: android.support.v7.widget.AppCompatCheckedTextView{b3d3b83 V.ED..... ......ID 0,0-0,0 #1020014 android:id/text1}
BEFORE android.support.v7.app.AppCompatActivity.getResources()
AFTER android.support.v7.app.AppCompatActivity.getResources, returnValue: android.content.res.XResources
AFTER com.kamron.pogoiv.widgets.PlayerTeamAdapter.getView, returnValue: android.support.v7.widget.AppCompatCheckedTextView{b3d3b83 V.ED..... ......ID 0,0-0,0 #1020014 android:id/text1}
BEFORE com.kamron.pogoiv.widgets.PlayerTeamAdapter.getView(2,android.support.v7.widget.AppCompatCheckedTextView,android.support.v7.widget.AppCompatSpinner)
BEFORE android.view.LayoutInflater.from(com.kamron.pogoiv.MainActivity)
AFTER android.view.LayoutInflater.from, returnValue: com.android.internal.policy.PhoneLayoutInflater
BEFORE android.view.LayoutInflater.inflate(17367049)
AFTER android.view.LayoutInflater.inflate, returnValue: android.support.v7.widget.AppCompatCheckedTextView{50e0cdf V.ED..... ......ID 0,0-0,0 #1020014 android:id/text1}
BEFORE android.support.v7.app.AppCompatActivity.getResources()
AFTER android.support.v7.app.AppCompatActivity.getResources, returnValue: android.content.res.XResources
AFTER com.kamron.pogoiv.widgets.PlayerTeamAdapter.getView, returnValue: android.support.v7.widget.AppCompatCheckedTextView{50e0cdf V.ED..... ......ID 0,0-0,0 #1020014 android:id/text1}
BEFORE com.kamron.pogoiv.widgets.PlayerTeamAdapter.getCount()
AFTER com.kamron.pogoiv.widgets.PlayerTeamAdapter.getCount, returnValue: 3
BEFORE com.kamron.pogoiv.widgets.PlayerTeamAdapter.getView(0,android.support.v7.widget.AppCompatSpinner)
BEFORE android.view.LayoutInflater.from(com.kamron.pogoiv.MainActivity)
AFTER android.view.LayoutInflater.from, returnValue: com.android.internal.policy.PhoneLayoutInflater
BEFORE android.view.LayoutInflater.inflate(17367049)
AFTER android.view.LayoutInflater.inflate, returnValue: android.support.v7.widget.AppCompatCheckedTextView{fcd6a71 V.ED..... ......ID 0,0-0,0 #1020014 android:id/text1}
BEFORE android.support.v7.app.AppCompatActivity.getResources()
AFTER android.support.v7.app.AppCompatActivity.getResources, returnValue: android.content.res.XResources
AFTER com.kamron.pogoiv.widgets.PlayerTeamAdapter.getView, returnValue: android.support.v7.widget.AppCompatCheckedTextView{fcd6a71 V.ED..... ......ID 0,0-0,0 #1020014 android:id/text1}
BEFORE com.kamron.pogoiv.widgets.PlayerTeamAdapter.getView(1,android.support.v7.widget.AppCompatCheckedTextView,android.support.v7.widget.AppCompatSpinner)
BEFORE android.view.LayoutInflater.from(com.kamron.pogoiv.MainActivity)
AFTER android.view.LayoutInflater.from, returnValue: com.android.internal.policy.PhoneLayoutInflater
BEFORE android.view.LayoutInflater.inflate(17367049)
AFTER android.view.LayoutInflater.inflate, returnValue: android.support.v7.widget.AppCompatCheckedTextView{77d3cad V.ED..... ......ID 0,0-0,0 #1020014 android:id/text1}
BEFORE android.support.v7.app.AppCompatActivity.getResources()
AFTER android.support.v7.app.AppCompatActivity.getResources, returnValue: android.content.res.XResources
AFTER com.kamron.pogoiv.widgets.PlayerTeamAdapter.getView, returnValue: android.support.v7.widget.AppCompatCheckedTextView{77d3cad V.ED..... ......ID 0,0-0,0 #1020014 android:id/text1}
BEFORE com.kamron.pogoiv.widgets.PlayerTeamAdapter.getView(2,android.support.v7.widget.AppCompatCheckedTextView,android.support.v7.widget.AppCompatSpinner)
BEFORE android.view.LayoutInflater.from(com.kamron.pogoiv.MainActivity)
AFTER android.view.LayoutInflater.from, returnValue: com.android.internal.policy.PhoneLayoutInflater
BEFORE android.view.LayoutInflater.inflate(17367049)
AFTER android.view.LayoutInflater.inflate, returnValue: android.support.v7.widget.AppCompatCheckedTextView{8ddf6a9 V.ED..... ......ID 0,0-0,0 #1020014 android:id/text1}
BEFORE android.support.v7.app.AppCompatActivity.getResources()
AFTER android.support.v7.app.AppCompatActivity.getResources, returnValue: android.content.res.XResources
AFTER com.kamron.pogoiv.widgets.PlayerTeamAdapter.getView, returnValue: android.support.v7.widget.AppCompatCheckedTextView{8ddf6a9 V.ED..... ......ID 0,0-0,0 #1020014 android:id/text1}
BEFORE com.kamron.pogoiv.widgets.PlayerTeamAdapter.getView(0,android.support.v7.widget.AppCompatSpinner)
BEFORE android.view.LayoutInflater.from(com.kamron.pogoiv.MainActivity)
AFTER android.view.LayoutInflater.from, returnValue: com.android.internal.policy.PhoneLayoutInflater
BEFORE android.view.LayoutInflater.inflate(17367049)
AFTER android.view.LayoutInflater.inflate, returnValue: android.support.v7.widget.AppCompatCheckedTextView{e42c7f4 V.ED..... ......ID 0,0-0,0 #1020014 android:id/text1}
BEFORE android.support.v7.app.AppCompatActivity.getResources()
AFTER android.support.v7.app.AppCompatActivity.getResources, returnValue: android.content.res.XResources
AFTER com.kamron.pogoiv.widgets.PlayerTeamAdapter.getView, returnValue: android.support.v7.widget.AppCompatCheckedTextView{e42c7f4 V.ED..... ......ID 0,0-0,0 #1020014 android:id/text1}
BEFORE com.kamron.pogoiv.widgets.PlayerTeamAdapter.getItemId(0)
AFTER com.kamron.pogoiv.widgets.PlayerTeamAdapter.getItemId, returnValue: 0
BEFORE com.kamron.pogoiv.MainActivity.onCreateOptionsMenu(android.support.v7.view.menu.MenuBuilder)
BEFORE android.support.v7.app.AppCompatActivity.getMenuInflater()
AFTER android.support.v7.app.AppCompatActivity.getMenuInflater, returnValue: android.support.v7.view.SupportMenuInflater
BEFORE android.support.v7.view.SupportMenuInflater.inflate(2131427328,android.support.v7.view.menu.MenuBuilder)
AFTER android.support.v7.view.SupportMenuInflater.inflate
AFTER com.kamron.pogoiv.MainActivity.onCreateOptionsMenu, returnValue: true
BEFORE com.kamron.pogoiv.widgets.PlayerTeamAdapter.getItemId(0)
AFTER com.kamron.pogoiv.widgets.PlayerTeamAdapter.getItemId, returnValue: 0
BEFORE com.kamron.pogoiv.MainActivity$5.onItemSelected(android.support.v7.widget.AppCompatSpinner,android.support.v7.widget.AppCompatCheckedTextView,0,java.lang.Long)
BEFORE android.app.SharedPreferencesImpl.edit()
AFTER android.app.SharedPreferencesImpl.edit, returnValue: android.app.SharedPreferencesImpl$EditorImpl
BEFORE android.app.SharedPreferencesImpl$EditorImpl.putInt(teamName,0)
AFTER android.app.SharedPreferencesImpl$EditorImpl.putInt, returnValue: android.app.SharedPreferencesImpl$EditorImpl
BEFORE android.app.SharedPreferencesImpl$EditorImpl.apply()
AFTER android.app.SharedPreferencesImpl$EditorImpl.apply
AFTER com.kamron.pogoiv.MainActivity$5.onItemSelected
BEFORE com.kamron.pogoiv.widgets.PlayerTeamAdapter.getCount()
AFTER com.kamron.pogoiv.widgets.PlayerTeamAdapter.getCount, returnValue: 3
BEFORE com.kamron.pogoiv.widgets.PlayerTeamAdapter.getCount()
AFTER com.kamron.pogoiv.widgets.PlayerTeamAdapter.getCount, returnValue: 3
BEFORE com.kamron.pogoiv.widgets.PlayerTeamAdapter.getCount()
AFTER com.kamron.pogoiv.widgets.PlayerTeamAdapter.getCount, returnValue: 3
BEFORE com.kamron.pogoiv.widgets.PlayerTeamAdapter.getCount()
AFTER com.kamron.pogoiv.widgets.PlayerTeamAdapter.getCount, returnValue: 3
BEFORE com.kamron.pogoiv.widgets.PlayerTeamAdapter.getCount()
AFTER com.kamron.pogoiv.widgets.PlayerTeamAdapter.getCount, returnValue: 3
BEFORE com.kamron.pogoiv.widgets.PlayerTeamAdapter.getCount()
AFTER com.kamron.pogoiv.widgets.PlayerTeamAdapter.getCount, returnValue: 3
BEFORE com.kamron.pogoiv.widgets.PlayerTeamAdapter.getCount()
AFTER com.kamron.pogoiv.widgets.PlayerTeamAdapter.getCount, returnValue: 3
BEFORE com.kamron.pogoiv.widgets.PlayerTeamAdapter.getCount()
AFTER com.kamron.pogoiv.widgets.PlayerTeamAdapter.getCount, returnValue: 3
BEFORE com.kamron.pogoiv.widgets.PlayerTeamAdapter.getCount()
AFTER com.kamron.pogoiv.widgets.PlayerTeamAdapter.getCount, returnValue: 3
BEFORE com.kamron.pogoiv.widgets.PlayerTeamAdapter.getCount()
AFTER com.kamron.pogoiv.widgets.PlayerTeamAdapter.getCount, returnValue: 3
BEFORE com.kamron.pogoiv.widgets.PlayerTeamAdapter.getCount()
AFTER com.kamron.pogoiv.widgets.PlayerTeamAdapter.getCount, returnValue: 3
BEFORE com.kamron.pogoiv.widgets.PlayerTeamAdapter.getCount()
AFTER com.kamron.pogoiv.widgets.PlayerTeamAdapter.getCount, returnValue: 3
BEFORE com.kamron.pogoiv.widgets.PlayerTeamAdapter.getCount()
AFTER com.kamron.pogoiv.widgets.PlayerTeamAdapter.getCount, returnValue: 3
BEFORE com.kamron.pogoiv.widgets.PlayerTeamAdapter.getCount()
AFTER com.kamron.pogoiv.widgets.PlayerTeamAdapter.getCount, returnValue: 3
BEFORE com.kamron.pogoiv.widgets.PlayerTeamAdapter.getCount()
AFTER com.kamron.pogoiv.widgets.PlayerTeamAdapter.getCount, returnValue: 3
BEFORE com.kamron.pogoiv.widgets.PlayerTeamAdapter.getCount()
AFTER com.kamron.pogoiv.widgets.PlayerTeamAdapter.getCount, returnValue: 3
BEFORE com.kamron.pogoiv.widgets.PlayerTeamAdapter.getCount()
AFTER com.kamron.pogoiv.widgets.PlayerTeamAdapter.getCount, returnValue: 3
BEFORE com.kamron.pogoiv.widgets.PlayerTeamAdapter.getCount()
AFTER com.kamron.pogoiv.widgets.PlayerTeamAdapter.getCount, returnValue: 3
BEFORE com.kamron.pogoiv.widgets.PlayerTeamAdapter.getCount()
AFTER com.kamron.pogoiv.widgets.PlayerTeamAdapter.getCount, returnValue: 3
BEFORE com.kamron.pogoiv.widgets.PlayerTeamAdapter.getCount()
AFTER com.kamron.pogoiv.widgets.PlayerTeamAdapter.getCount, returnValue: 3
BEFORE com.kamron.pogoiv.widgets.PlayerTeamAdapter.getCount()
AFTER com.kamron.pogoiv.widgets.PlayerTeamAdapter.getCount, returnValue: 3
BEFORE com.kamron.pogoiv.widgets.PlayerTeamAdapter.getCount()
AFTER com.kamron.pogoiv.widgets.PlayerTeamAdapter.getCount, returnValue: 3
BEFORE com.kamron.pogoiv.widgets.PlayerTeamAdapter.getCount()
AFTER com.kamron.pogoiv.widgets.PlayerTeamAdapter.getCount, returnValue: 3
BEFORE com.kamron.pogoiv.widgets.PlayerTeamAdapter.getCount()
AFTER com.kamron.pogoiv.widgets.PlayerTeamAdapter.getCount, returnValue: 3
BEFORE com.kamron.pogoiv.widgets.PlayerTeamAdapter.getCount()
AFTER com.kamron.pogoiv.widgets.PlayerTeamAdapter.getCount, returnValue: 3
BEFORE com.kamron.pogoiv.widgets.PlayerTeamAdapter.getCount()
AFTER com.kamron.pogoiv.widgets.PlayerTeamAdapter.getCount, returnValue: 3
BEFORE com.kamron.pogoiv.widgets.PlayerTeamAdapter.getCount()
AFTER com.kamron.pogoiv.widgets.PlayerTeamAdapter.getCount, returnValue: 3
BEFORE com.kamron.pogoiv.widgets.PlayerTeamAdapter.getCount()
AFTER com.kamron.pogoiv.widgets.PlayerTeamAdapter.getCount, returnValue: 3
BEFORE com.kamron.pogoiv.widgets.PlayerTeamAdapter.getCount()
AFTER com.kamron.pogoiv.widgets.PlayerTeamAdapter.getCount, returnValue: 3
BEFORE com.kamron.pogoiv.widgets.PlayerTeamAdapter.getCount()
AFTER com.kamron.pogoiv.widgets.PlayerTeamAdapter.getCount, returnValue: 3
BEFORE com.kamron.pogoiv.widgets.PlayerTeamAdapter.getCount()
AFTER com.kamron.pogoiv.widgets.PlayerTeamAdapter.getCount, returnValue: 3
BEFORE com.kamron.pogoiv.widgets.PlayerTeamAdapter.getCount()
AFTER com.kamron.pogoiv.widgets.PlayerTeamAdapter.getCount, returnValue: 3
BEFORE com.kamron.pogoiv.widgets.PlayerTeamAdapter.getCount()
AFTER com.kamron.pogoiv.widgets.PlayerTeamAdapter.getCount, returnValue: 3
BEFORE com.kamron.pogoiv.widgets.PlayerTeamAdapter.getCount()
AFTER com.kamron.pogoiv.widgets.PlayerTeamAdapter.getCount, returnValue: 3
BEFORE com.kamron.pogoiv.widgets.PlayerTeamAdapter.getCount()
AFTER com.kamron.pogoiv.widgets.PlayerTeamAdapter.getCount, returnValue: 3
BEFORE com.kamron.pogoiv.widgets.PlayerTeamAdapter.getCount()
AFTER com.kamron.pogoiv.widgets.PlayerTeamAdapter.getCount, returnValue: 3
BEFORE com.kamron.pogoiv.widgets.PlayerTeamAdapter.getCount()
AFTER com.kamron.pogoiv.widgets.PlayerTeamAdapter.getCount, returnValue: 3
BEFORE com.kamron.pogoiv.widgets.PlayerTeamAdapter.getCount()
AFTER com.kamron.pogoiv.widgets.PlayerTeamAdapter.getCount, returnValue: 3
BEFORE com.kamron.pogoiv.widgets.PlayerTeamAdapter.getCount()
AFTER com.kamron.pogoiv.widgets.PlayerTeamAdapter.getCount, returnValue: 3
BEFORE com.kamron.pogoiv.widgets.PlayerTeamAdapter.getCount()
AFTER com.kamron.pogoiv.widgets.PlayerTeamAdapter.getCount, returnValue: 3
BEFORE com.kamron.pogoiv.widgets.PlayerTeamAdapter.getCount()
AFTER com.kamron.pogoiv.widgets.PlayerTeamAdapter.getCount, returnValue: 3
BEFORE com.kamron.pogoiv.widgets.PlayerTeamAdapter.getCount()
AFTER com.kamron.pogoiv.widgets.PlayerTeamAdapter.getCount, returnValue: 3
BEFORE com.kamron.pogoiv.widgets.PlayerTeamAdapter.getCount()
AFTER com.kamron.pogoiv.widgets.PlayerTeamAdapter.getCount, returnValue: 3
BEFORE com.kamron.pogoiv.widgets.PlayerTeamAdapter.getCount()
AFTER com.kamron.pogoiv.widgets.PlayerTeamAdapter.getCount, returnValue: 3
BEFORE com.kamron.pogoiv.widgets.PlayerTeamAdapter.getCount()
AFTER com.kamron.pogoiv.widgets.PlayerTeamAdapter.getCount, returnValue: 3
BEFORE com.kamron.pogoiv.widgets.PlayerTeamAdapter.getCount()
AFTER com.kamron.pogoiv.widgets.PlayerTeamAdapter.getCount, returnValue: 3
BEFORE com.kamron.pogoiv.widgets.PlayerTeamAdapter.getCount()
AFTER com.kamron.pogoiv.widgets.PlayerTeamAdapter.getCount, returnValue: 3
BEFORE com.kamron.pogoiv.widgets.PlayerTeamAdapter.getCount()
AFTER com.kamron.pogoiv.widgets.PlayerTeamAdapter.getCount, returnValue: 3
BEFORE com.kamron.pogoiv.widgets.PlayerTeamAdapter.getCount()
AFTER com.kamron.pogoiv.widgets.PlayerTeamAdapter.getCount, returnValue: 3
BEFORE com.kamron.pogoiv.widgets.PlayerTeamAdapter.getCount()
AFTER com.kamron.pogoiv.widgets.PlayerTeamAdapter.getCount, returnValue: 3
BEFORE com.kamron.pogoiv.widgets.PlayerTeamAdapter.getCount()
AFTER com.kamron.pogoiv.widgets.PlayerTeamAdapter.getCount, returnValue: 3
BEFORE com.kamron.pogoiv.widgets.PlayerTeamAdapter.getCount()
AFTER com.kamron.pogoiv.widgets.PlayerTeamAdapter.getCount, returnValue: 3
BEFORE com.kamron.pogoiv.widgets.PlayerTeamAdapter.getCount()
AFTER com.kamron.pogoiv.widgets.PlayerTeamAdapter.getCount, returnValue: 3
BEFORE com.kamron.pogoiv.widgets.PlayerTeamAdapter.getCount()
AFTER com.kamron.pogoiv.widgets.PlayerTeamAdapter.getCount, returnValue: 3
BEFORE com.kamron.pogoiv.widgets.PlayerTeamAdapter.getCount()
AFTER com.kamron.pogoiv.widgets.PlayerTeamAdapter.getCount, returnValue: 3
BEFORE com.kamron.pogoiv.widgets.PlayerTeamAdapter.getCount()
AFTER com.kamron.pogoiv.widgets.PlayerTeamAdapter.getCount, returnValue: 3
BEFORE com.kamron.pogoiv.widgets.PlayerTeamAdapter.getCount()
AFTER com.kamron.pogoiv.widgets.PlayerTeamAdapter.getCount, returnValue: 3
BEFORE com.kamron.pogoiv.widgets.PlayerTeamAdapter.getCount()
AFTER com.kamron.pogoiv.widgets.PlayerTeamAdapter.getCount, returnValue: 3
BEFORE com.kamron.pogoiv.widgets.PlayerTeamAdapter.getCount()
AFTER com.kamron.pogoiv.widgets.PlayerTeamAdapter.getCount, returnValue: 3
BEFORE com.kamron.pogoiv.widgets.PlayerTeamAdapter.getCount()
AFTER com.kamron.pogoiv.widgets.PlayerTeamAdapter.getCount, returnValue: 3
BEFORE com.kamron.pogoiv.widgets.PlayerTeamAdapter.getCount()
AFTER com.kamron.pogoiv.widgets.PlayerTeamAdapter.getCount, returnValue: 3
BEFORE com.kamron.pogoiv.widgets.PlayerTeamAdapter.getCount()
AFTER com.kamron.pogoiv.widgets.PlayerTeamAdapter.getCount, returnValue: 3
BEFORE com.kamron.pogoiv.MainActivity.onOptionsItemSelected(android.support.v7.view.menu.MenuItemImpl)
BEFORE android.support.v7.view.menu.MenuItemImpl.getItemId()
AFTER android.support.v7.view.menu.MenuItemImpl.getItemId, returnValue: 2131230914
BEFORE android.app.Activity.startActivity(android.content.Intent)
AFTER android.app.Activity.startActivity
AFTER com.kamron.pogoiv.MainActivity.onOptionsItemSelected, returnValue: true
BEFORE com.kamron.pogoiv.widgets.PlayerTeamAdapter.getCount()
AFTER com.kamron.pogoiv.widgets.PlayerTeamAdapter.getCount, returnValue: 3
BEFORE com.kamron.pogoiv.SettingsActivity.onCreate()
BEFORE android.support.v7.app.AppCompatActivity.onCreate()
AFTER android.support.v7.app.AppCompatActivity.onCreate
BEFORE android.app.Activity.getFragmentManager()
AFTER android.app.Activity.getFragmentManager, returnValue: FragmentManager{5c54c4a in HostCallbacks{d7c37bb}}
BEFORE android.app.FragmentManagerImpl.beginTransaction()
AFTER android.app.FragmentManagerImpl.beginTransaction, returnValue: BackStackEntry{c80e4d8}, isEmpty: true
BEFORE android.app.BackStackRecord.replace(16908290,com.kamron.pogoiv.SettingsActivity$SettingsFragment)
BEFORE android.app.BackStackRecord.replace(16908290,com.kamron.pogoiv.SettingsActivity$SettingsFragment)
AFTER android.app.BackStackRecord.replace, returnValue: BackStackEntry{c80e4d8}, isEmpty: false
AFTER android.app.BackStackRecord.replace, returnValue: BackStackEntry{c80e4d8}, isEmpty: false
BEFORE android.app.BackStackRecord.commit()
AFTER android.app.BackStackRecord.commit, returnValue: -1
BEFORE android.support.v7.app.AppCompatActivity.getSupportActionBar()
AFTER android.support.v7.app.AppCompatActivity.getSupportActionBar, returnValue: android.support.v7.app.WindowDecorActionBar
BEFORE android.support.v7.app.AppCompatActivity.getResources()
AFTER android.support.v7.app.AppCompatActivity.getResources, returnValue: android.content.res.XResources
BEFORE android.content.res.Resources.getString(2131558587)
AFTER android.content.res.Resources.getString, returnValue: Settings, isEmpty: false
BEFORE android.support.v7.app.WindowDecorActionBar.setTitle(Settings)
AFTER android.support.v7.app.WindowDecorActionBar.setTitle
BEFORE android.support.v4.content.LocalBroadcastManager.getInstance(com.kamron.pogoiv.SettingsActivity)
AFTER android.support.v4.content.LocalBroadcastManager.getInstance, returnValue: android.support.v4.content.LocalBroadcastManager
BEFORE android.support.v4.content.LocalBroadcastManager.registerReceiver(com.kamron.pogoiv.SettingsActivity$1,android.content.IntentFilter)
AFTER android.support.v4.content.LocalBroadcastManager.registerReceiver
AFTER com.kamron.pogoiv.SettingsActivity.onCreate
BEFORE com.kamron.pogoiv.SettingsActivity$SettingsFragment.onCreate()
BEFORE android.preference.PreferenceFragment.onCreate()
AFTER android.preference.PreferenceFragment.onCreate
BEFORE android.preference.PreferenceFragment.getPreferenceManager()
AFTER android.preference.PreferenceFragment.getPreferenceManager, returnValue: android.preference.PreferenceManager
BEFORE android.preference.PreferenceManager.setSharedPreferencesName(GoIV_settings)
AFTER android.preference.PreferenceManager.setSharedPreferencesName
BEFORE android.preference.PreferenceFragment.addPreferencesFromResource(2131755008)
BEFORE android.preference.Preference.setLayoutResource(2131361858)
AFTER android.preference.Preference.setLayoutResource
BEFORE android.preference.Preference.getContext()
AFTER android.preference.Preference.getContext, returnValue: com.kamron.pogoiv.SettingsActivity
BEFORE android.content.Context.obtainStyledAttributes(android.content.res.XmlBlock$Parser,[I)
AFTER android.content.Context.obtainStyledAttributes, returnValue: [18, 0, -1, 0, 0, 0, 16, 50, -1, 0, 0, 0, 16, 1000, -1, 0, 0, 0, 3, 32, -1, 0, 0, 0, 16, 200, -1, 0, 0, 0, 0, 0, -1, 0, 0, 0, 0, 0, -1, 0, 0, 0, 0, 0, -1, 0, 0, 0, 0, 0, -1, 0, 0, 0, 0, 0, 2, 0, 0, 0, 0, 0, 2, 0, 0, 0, 16, 400, -1, 0, 0, 0, 0, 0, -1, 0, 0, 0, 0, 0, -1, 0, 0, 0, 0, 0, 1, 0, 0, 0, 3, 1371, 1, 17302242, 1073746944, 0, 0, 0, 1, 0, 0, 0, 0, 0, 1, 0, 0, 0, 0, 0, 1, 0, 0, 0, 0, 0, 1, 0, 0, 0, 0, 0, 1, 0, 0, 0, 0, 0, 1, 0, 0, 0, 1, 2131624219, 2, 2131624219, 1073742848, 0, 0, 0, 2, 0, 0, 0, 0, 0, 2, 0, 0, 0, 0, 0, 2, 0, 0, 0, 1, 2131624163, 2, 2131624163, 0, 0, 0, 0, 2, 0, 0, 0, 1, 2131624165, 2, 2131624165, 0, 0, 0, 0, 2, 0, 0, 0, 1, 16974486, 2, 16974486, 1073746944, 0, 1, 2131624265, 2, 2131624265, 1073742848, 0, 1, 2131624229, 2, 2131624229, 1073742848, 0, 0, 0, 2, 0, 0, 0, 18, 0, 2, 0, 1073742848, 0, 1, 2131623937, 2, 2131623937, 1073742848, 0, 1, 2131624218, 2, 2131624218, 1073742848, 0, 1, 2131624230, 2, 2131624230, 1073742848, 0, 1, 16974490, 2, 16974490, 1073746944, 0, 1, 2131624234, 2, 2131624234, 1073742848, 0, 1, 2131624234, 2, 2131624234, 1073742848, 0, 1, 2131624234, 2, 2131624234, 1073742848, 0, 1, 2131624234, 2, 2131624234, 1073742848, 0, 1, 2131624237, 2, 2131624237, 1073742848, 0, 1, 16974489, 2, 16974489, 1073746944, 0, 1, 16974494, 2, 16974494, 1073746944, 0, 1, 16974500, 2, 16974500, 1073746944, 0, 1, 16974499, 2, 16974499, 1073746944, 0, 29, -1153434, 2, 2131034151, 1073742848, 0, 28, -1, 1, 17170443, 1073742848, 0, 28, -2697257, 2, 2131034150, 1073742848, 0, 29, -1153434, 2, 2131034151, 1073742848, 0, 28, 520093696, 2, 2131034200, 1073742848, 0, 3, 1621, 1, 17170721, 1073746944, 0, 29, -12693325, 2, 2131034152, 1073742848, 0, 29, -13878912, 2, 2131034153, 1073742848, 0, 3, 379, 2, 2131034208, 1073742848, 0, 3, 555, 2, 2131165200, 1073742848, 0, 5, 6145, 2, 2131099682, 1073742848, 0, 1, 2131624217, 2, 2131624217, 1073742848, 0, 3, 1273, 1, 17302679, 1073746944, 0, 3, 1273, 1, 17302679, 1073746944, 0, 1, 2131624271, 1, 2131624271, 1073746944, 0, 5, 12289, 1, 0, 1073746944, 0, 3, 1454, 1, 17302165, 1073746944, 0, 3, 1598, 1, 17170705, 1073746944, 0, 1, 2131624244, 1, 2131624244, 1073742848, 0, 3, 1371, 1, 17302242, 1073746944, 0, 1, 2131624245, 1, 2131624245, 1073742848, 0, 3, 754, 2, 2131165233, 1073742848, 0, 0, 0, -1, 0, 1073742848, 0, 1, 2131624268, -1, 2131624268, 1073742848, 0, 1, 2131624269, -1, 2131624269, 1073742848, 0, 5, 16385, -1, 0, 1073742848, 0, 5, 20481, -1, 0, 1073742848, 0, 5, 12289, -1, 0, 1073746944, 0, 5, 4097, 2, 2131099648, 1073751040, 0, 5, 4097, 2, 2131099648, 1073751040, 0, 3, 585, 2, 2131165235, 1073743104, 320, 1, 2131624193, 2, 2131624193, 1073742848, 0, 5, 75777, 2, 2131099694, 1073742848, 0, 1, 2131624264, 2, 2131624264, 1073742848, 0, 0, 0, 2, 0, 0, 0, 1, 16974501, 2, 16974501, 1073746944, 0, 1, 16974527, 2, 16974527, 1073746944, 0, 1, 16974528, 2, 16974528, 1073746944, 0, 1, 16974529, 2, 16974529, 1073746944, 0, 1, 2131624266, 2, 2131624266, 1073742848, 0, 1, 2131624283, 2, 2131624283, 1073742848, 0, 3, 996, 1, 17302609, 1073746944, 0, 3, 991, 1, 17302604, 1073746944, 0, 1, 2131624243, 1, 2131624243, 1073742848, 0, 1, 16974939, 1, 16974939, 1073746944, 0, 1, 2131624241, 1, 2131624241, 1073742848, 0, 1, 16974363, 1, 16974363, 1073746944, 0, 1, 2131624158, 1, 2131624158, 1073742848, 0, 1, 2131624158, 1, 2131624158, 1073742848, 0, 1, 2131624174, 1, 2131624174, 1073742848, 0, 1, 2131624154, 1, 2131624154, 1073742848, 0, 1, 2131624155, 1, 2131624155, 1073742848, 0, 1, 16974364, 1, 16974364, 1073746944, 0, 3, 367, 2, 2131034120, 1073742848, 0, 3, 368, 2, 2131034121, 1073742848, 0, 1, 2131624291, 2, 2131624291, 1073742848, 0, 1, 2131624290, 2, 2131624290, 1073742848, 0, 18, -1, 2, 0, 1073742848, 0, 18, 0, 2, 0, 1073742848, 0, 18, 0, 2, 0, 1073742848, 0, 5, 1, 2, 0, 1073742848, 0, 5, 1, 2, 0, 1073742848, 0, 5, 1, 2, 0, 1073742848, 0, 5, 1, 2, 0, 1073742848, 0, 0, 0, 2, 0, 0, 0, 0, 0, 2, 0, 0, 0, 18, 0, 2, 0, 1073742848, 0]
BEFORE android.content.res.XmlBlock$Parser.getAttributeIntValue(http://schemas.android.com/apk/res/android,defaultValue,50)
AFTER android.content.res.XmlBlock$Parser.getAttributeIntValue, returnValue: 400
BEFORE android.content.res.TypedArray.recycle()
AFTER android.content.res.TypedArray.recycle
AFTER android.preference.PreferenceFragment.addPreferencesFromResource
BEFORE android.app.Fragment.getString(2131558457)
AFTER android.app.Fragment.getString, returnValue: clipboardButton, isEmpty: false
BEFORE android.preference.PreferenceFragment.findPreference(clipboardButton)
AFTER android.preference.PreferenceFragment.findPreference, returnValue: Edit copy to clipboard Define how you want the clipboard result to look.
BEFORE android.preference.Preference.setOnPreferenceClickListener(com.kamron.pogoiv.SettingsActivity$SettingsFragment$1)
AFTER android.preference.Preference.setOnPreferenceClickListener
BEFORE android.app.Fragment.getString(2131558625)
AFTER android.app.Fragment.getString, returnValue: viewCredits, isEmpty: false
BEFORE android.preference.PreferenceFragment.findPreference(viewCredits)
AFTER android.preference.PreferenceFragment.findPreference, returnValue: View credits View application credits, used open source projects and thanks
BEFORE android.preference.Preference.setOnPreferenceClickListener(com.kamron.pogoiv.SettingsActivity$SettingsFragment$2)
AFTER android.preference.Preference.setOnPreferenceClickListener
BEFORE android.preference.PreferenceFragment.getPreferenceManager()
AFTER android.preference.PreferenceFragment.getPreferenceManager, returnValue: android.preference.PreferenceManager
BEFORE android.preference.PreferenceManager.findPreference(checkForUpdate)
AFTER android.preference.PreferenceManager.findPreference, returnValue: Check for update now See if an update is available
BEFORE android.preference.Preference.setOnPreferenceClickListener(com.kamron.pogoiv.SettingsActivity$SettingsFragment$3)
AFTER android.preference.Preference.setOnPreferenceClickListener
BEFORE android.app.Fragment.getResources()
AFTER android.app.Fragment.getResources, returnValue: android.content.res.XResources
BEFORE android.preference.PreferenceFragment.getPreferenceManager()
AFTER android.preference.PreferenceFragment.getPreferenceManager, returnValue: android.preference.PreferenceManager
BEFORE android.preference.PreferenceManager.findPreference(showTranslatedPokemonName)
AFTER android.preference.PreferenceManager.findPreference, returnValue: Show translated monster name Display translated monster name on GoIV but use its English name for OCR. This is for when the game app is in English but user's native language is not
BEFORE android.preference.PreferenceFragment.getPreferenceScreen()
AFTER android.preference.PreferenceFragment.getPreferenceScreen, returnValue: 
BEFORE android.preference.PreferenceGroup.removePreference(android.preference.SwitchPreference)
AFTER android.preference.PreferenceGroup.removePreference, returnValue: false
AFTER com.kamron.pogoiv.SettingsActivity$SettingsFragment.onCreate
BEFORE com.kamron.pogoiv.widgets.PlayerTeamAdapter.getCount()
AFTER com.kamron.pogoiv.widgets.PlayerTeamAdapter.getCount, returnValue: 3
BEFORE com.kamron.pogoiv.widgets.PlayerTeamAdapter.getCount()
AFTER com.kamron.pogoiv.widgets.PlayerTeamAdapter.getCount, returnValue: 3
BEFORE com.kamron.pogoiv.widgets.PlayerTeamAdapter.getCount()
AFTER com.kamron.pogoiv.widgets.PlayerTeamAdapter.getCount, returnValue: 3
BEFORE com.kamron.pogoiv.SettingsActivity$SettingsFragment$3.onPreferenceClick(android.preference.Preference)
BEFORE android.app.Fragment.getActivity()
AFTER android.app.Fragment.getActivity, returnValue: com.kamron.pogoiv.SettingsActivity
BEFORE android.app.Activity.getSystemService(download)
AFTER android.app.Activity.getSystemService, returnValue: android.app.DownloadManager
BEFORE android.app.DownloadManager$Query.setFilterByStatus(2)
AFTER android.app.DownloadManager$Query.setFilterByStatus, returnValue: android.app.DownloadManager$Query
BEFORE android.app.DownloadManager.query(android.app.DownloadManager$Query)
AFTER android.app.DownloadManager.query, returnValue: android.app.DownloadManager$CursorTranslator
BEFORE android.database.CursorWrapper.moveToFirst()
AFTER android.database.CursorWrapper.moveToFirst, returnValue: false
BEFORE android.app.Fragment.getActivity()
AFTER android.app.Fragment.getActivity, returnValue: com.kamron.pogoiv.SettingsActivity
BEFORE android.app.Fragment.getResources()
AFTER android.app.Fragment.getResources, returnValue: android.content.res.XResources
BEFORE android.content.res.Resources.getString(2131558456)
AFTER android.content.res.Resources.getString, returnValue: Checking for update…, isEmpty: false
BEFORE android.widget.Toast.makeText(com.kamron.pogoiv.SettingsActivity,Checking for update…,0)
AFTER android.widget.Toast.makeText, returnValue: android.widget.Toast
BEFORE android.widget.Toast.show()
AFTER android.widget.Toast.show
BEFORE android.app.Fragment.getActivity()
AFTER android.app.Fragment.getActivity, returnValue: com.kamron.pogoiv.SettingsActivity
BEFORE okhttp3.internal.NamedRunnable.run()
BEFORE sun.net.spi.DefaultProxySelector.select(java.net.URI)
AFTER sun.net.spi.DefaultProxySelector.select, returnValue: [DIRECT], isEmpty: false
BEFORE okhttp3.ConnectionPool$1.run()
BEFORE com.android.org.conscrypt.OpenSSLSocketFactoryImpl.createSocket(java.net.Socket,api.github.com,443,true)
AFTER com.android.org.conscrypt.OpenSSLSocketFactoryImpl.createSocket, returnValue: SSL socket over Socket[address=api.github.com/140.82.121.6,port=443,localPort=60970]
BEFORE com.android.org.conscrypt.OpenSSLSocketImpl.getEnabledProtocols()
AFTER com.android.org.conscrypt.OpenSSLSocketImpl.getEnabledProtocols, returnValue: [Ljava.lang.String;
BEFORE com.android.org.conscrypt.OpenSSLSocketImpl.getEnabledCipherSuites()
AFTER com.android.org.conscrypt.OpenSSLSocketImpl.getEnabledCipherSuites, returnValue: [Ljava.lang.String;
BEFORE com.android.org.conscrypt.OpenSSLSocketImpl.getEnabledProtocols()
AFTER com.android.org.conscrypt.OpenSSLSocketImpl.getEnabledProtocols, returnValue: [Ljava.lang.String;
BEFORE com.android.org.conscrypt.OpenSSLSocketImpl.getEnabledCipherSuites()
AFTER com.android.org.conscrypt.OpenSSLSocketImpl.getEnabledCipherSuites, returnValue: [Ljava.lang.String;
BEFORE com.android.org.conscrypt.OpenSSLSocketImpl.getEnabledCipherSuites()
AFTER com.android.org.conscrypt.OpenSSLSocketImpl.getEnabledCipherSuites, returnValue: [Ljava.lang.String;
BEFORE com.android.org.conscrypt.OpenSSLSocketImpl.getEnabledProtocols()
AFTER com.android.org.conscrypt.OpenSSLSocketImpl.getEnabledProtocols, returnValue: [Ljava.lang.String;
BEFORE com.android.org.conscrypt.OpenSSLSocketImpl.setEnabledProtocols([Ljava.lang.String;)
AFTER com.android.org.conscrypt.OpenSSLSocketImpl.setEnabledProtocols
BEFORE com.android.org.conscrypt.OpenSSLSocketImpl.setEnabledCipherSuites([Ljava.lang.String;)
AFTER com.android.org.conscrypt.OpenSSLSocketImpl.setEnabledCipherSuites
BEFORE com.android.org.conscrypt.OpenSSLSocketImpl.startHandshake()
AFTER com.android.org.conscrypt.OpenSSLSocketImpl.startHandshake
BEFORE com.android.org.conscrypt.OpenSSLSocketImpl.getSession()
AFTER com.android.org.conscrypt.OpenSSLSocketImpl.getSession, returnValue: com.android.org.conscrypt.OpenSSLExtendedSessionImpl
BEFORE com.android.org.conscrypt.OpenSSLExtendedSessionImpl.getCipherSuite()
AFTER com.android.org.conscrypt.OpenSSLExtendedSessionImpl.getCipherSuite, returnValue: TLS_ECDHE_RSA_WITH_AES_128_GCM_SHA256, isEmpty: false
BEFORE com.android.org.conscrypt.OpenSSLExtendedSessionImpl.getProtocol()
AFTER com.android.org.conscrypt.OpenSSLExtendedSessionImpl.getProtocol, returnValue: TLSv1.2, isEmpty: false
BEFORE com.android.org.conscrypt.OpenSSLExtendedSessionImpl.getPeerCertificates()
AFTER com.android.org.conscrypt.OpenSSLExtendedSessionImpl.getPeerCertificates, returnValue: [Lcom.android.org.conscrypt.OpenSSLX509Certificate;
BEFORE com.android.org.conscrypt.OpenSSLExtendedSessionImpl.getLocalCertificates()
AFTER com.android.org.conscrypt.OpenSSLExtendedSessionImpl.getLocalCertificates
BEFORE com.android.org.conscrypt.OpenSSLSocketImpl.getSession()
AFTER com.android.org.conscrypt.OpenSSLSocketImpl.getSession, returnValue: com.android.org.conscrypt.OpenSSLExtendedSessionImpl
BEFORE com.android.org.conscrypt.OpenSSLExtendedSessionImpl.getPeerCertificates()
AFTER com.android.org.conscrypt.OpenSSLExtendedSessionImpl.getPeerCertificates, returnValue: [Lcom.android.org.conscrypt.OpenSSLX509Certificate;
BEFORE com.android.org.conscrypt.OpenSSLX509Certificate.getSubjectAlternativeNames()
AFTER com.android.org.conscrypt.OpenSSLX509Certificate.getSubjectAlternativeNames, returnValue: [[2, *.github.com], [2, github.com]], isEmpty: false
BEFORE com.android.org.conscrypt.OpenSSLSocketImpl.getInputStream()
AFTER com.android.org.conscrypt.OpenSSLSocketImpl.getInputStream, returnValue: com.android.org.conscrypt.OpenSSLSocketImpl$SSLInputStream
BEFORE com.android.org.conscrypt.OpenSSLSocketImpl.getOutputStream()
AFTER com.android.org.conscrypt.OpenSSLSocketImpl.getOutputStream, returnValue: com.android.org.conscrypt.OpenSSLSocketImpl$SSLOutputStream
BEFORE com.android.org.conscrypt.OpenSSLSocketImpl.setSoTimeout(0)
AFTER com.android.org.conscrypt.OpenSSLSocketImpl.setSoTimeout
BEFORE com.android.org.conscrypt.OpenSSLSocketImpl$SSLOutputStream.write([B,0,24)
AFTER com.android.org.conscrypt.OpenSSLSocketImpl$SSLOutputStream.write
BEFORE com.android.org.conscrypt.OpenSSLSocketImpl$SSLOutputStream.write([B,0,15)
AFTER com.android.org.conscrypt.OpenSSLSocketImpl$SSLOutputStream.write
BEFORE com.android.org.conscrypt.OpenSSLSocketImpl$SSLOutputStream.write([B,0,13)
AFTER com.android.org.conscrypt.OpenSSLSocketImpl$SSLOutputStream.write
BEFORE okhttp3.internal.NamedRunnable.run()
BEFORE com.android.org.conscrypt.OpenSSLSocketImpl$SSLInputStream.read([B,0,8192)
BEFORE com.android.org.conscrypt.OpenSSLSocketImpl$SSLOutputStream.write([B,0,98)
AFTER com.android.org.conscrypt.OpenSSLSocketImpl$SSLOutputStream.write
AFTER com.android.org.conscrypt.OpenSSLSocketImpl$SSLInputStream.read, returnValue: 27
BEFORE okhttp3.internal.NamedRunnable.run()
BEFORE com.android.org.conscrypt.OpenSSLSocketImpl$SSLInputStream.read([B,0,8192)
BEFORE okhttp3.internal.NamedRunnable.run()
AFTER okhttp3.internal.NamedRunnable.run
BEFORE com.android.org.conscrypt.OpenSSLSocketImpl$SSLInputStream.read([B,0,8192)
BEFORE com.android.org.conscrypt.OpenSSLSocketImpl$SSLOutputStream.write([B,0,9)
AFTER com.android.org.conscrypt.OpenSSLSocketImpl$SSLOutputStream.write
AFTER com.android.org.conscrypt.OpenSSLSocketImpl$SSLInputStream.read, returnValue: 1370
BEFORE com.android.org.conscrypt.OpenSSLSocketImpl$SSLInputStream.read([B,0,8192)
AFTER com.android.org.conscrypt.OpenSSLSocketImpl$SSLInputStream.read, returnValue: 806
BEFORE com.android.org.conscrypt.OpenSSLSocketImpl$SSLInputStream.read([B,0,8192)
BEFORE android.content.Intent.putExtra(update,com.kamron.pogoiv.updater.AppUpdate)
BEFORE android.content.Intent.putExtra(update,com.kamron.pogoiv.updater.AppUpdate)
AFTER android.content.Intent.putExtra, returnValue: Intent { act=com.kamron.pogoiv.SHOW_UPDATE_DIALOG (has extras) }
AFTER android.content.Intent.putExtra, returnValue: Intent { act=com.kamron.pogoiv.SHOW_UPDATE_DIALOG (has extras) }
BEFORE android.support.v4.content.LocalBroadcastManager.getInstance(com.kamron.pogoiv.SettingsActivity)
AFTER android.support.v4.content.LocalBroadcastManager.getInstance, returnValue: android.support.v4.content.LocalBroadcastManager
BEFORE android.support.v4.content.LocalBroadcastManager.sendBroadcast(android.content.Intent)
AFTER android.support.v4.content.LocalBroadcastManager.sendBroadcast, returnValue: true
BEFORE com.kamron.pogoiv.MainActivity$2.onReceive(com.kamron.pogoiv.PoGoApplication,android.content.Intent)
BEFORE android.content.Intent.getParcelableExtra(update)
AFTER android.content.Intent.getParcelableExtra, returnValue: com.kamron.pogoiv.updater.AppUpdate
AFTER com.kamron.pogoiv.MainActivity$2.onReceive
BEFORE com.kamron.pogoiv.SettingsActivity$1.onReceive(com.kamron.pogoiv.PoGoApplication,android.content.Intent)
BEFORE android.content.Intent.getParcelableExtra(update)
AFTER android.content.Intent.getParcelableExtra, returnValue: com.kamron.pogoiv.updater.AppUpdate
BEFORE android.support.v7.app.AlertDialog$Builder.setTitle(Update available)
AFTER android.support.v7.app.AlertDialog$Builder.setTitle, returnValue: android.support.v7.app.AlertDialog$Builder
BEFORE android.content.Context.getString(2131558436)
AFTER android.content.Context.getString, returnValue: GoIV, isEmpty: false
BEFORE android.support.v7.app.AlertDialog$Builder.setIcon(2131492864)
AFTER android.support.v7.app.AlertDialog$Builder.setIcon, returnValue: android.support.v7.app.AlertDialog$Builder
BEFORE android.support.v7.app.AlertDialog$Builder.setPositiveButton(Update,com.kamron.pogoiv.updater.AppUpdateUtil$3)
AFTER android.support.v7.app.AlertDialog$Builder.setPositiveButton, returnValue: android.support.v7.app.AlertDialog$Builder
BEFORE android.content.Context.getString(2131558450)
AFTER android.content.Context.getString, returnValue: Cancel, isEmpty: false
BEFORE android.support.v7.app.AlertDialog$Builder.setNegativeButton(Cancel,com.kamron.pogoiv.updater.AppUpdateUtil$2)
AFTER android.support.v7.app.AlertDialog$Builder.setNegativeButton, returnValue: android.support.v7.app.AlertDialog$Builder
BEFORE android.support.v7.app.AlertDialog$Builder.setCancelable(false)
AFTER android.support.v7.app.AlertDialog$Builder.setCancelable, returnValue: android.support.v7.app.AlertDialog$Builder
BEFORE android.support.v7.app.AlertDialog$Builder.create()
AFTER android.support.v7.app.AlertDialog$Builder.create, returnValue: android.support.v7.app.AlertDialog
BEFORE android.app.Dialog.show()
AFTER android.app.Dialog.show
AFTER com.kamron.pogoiv.SettingsActivity$1.onReceive
BEFORE com.kamron.pogoiv.updater.AppUpdateUtil$3.onClick(android.support.v7.app.AlertDialog,-1)
BEFORE android.app.Dialog.dismiss()
AFTER android.app.Dialog.dismiss
BEFORE android.content.Intent.putExtra(downloadURL,https://github.com/farkam135/GoIV/releases/download/5.5.3/GoIV-offline.5.5.3.apk)
BEFORE android.content.Intent.putExtra(downloadURL,https://github.com/farkam135/GoIV/releases/download/5.5.3/GoIV-offline.5.5.3.apk)
AFTER android.content.Intent.putExtra, returnValue: Intent { cmp=com.swanberg.pogoiv/com.kamron.pogoiv.updater.DownloadUpdateService (has extras) }
AFTER android.content.Intent.putExtra, returnValue: Intent { cmp=com.swanberg.pogoiv/com.kamron.pogoiv.updater.DownloadUpdateService (has extras) }
BEFORE android.content.ContextWrapper.startService(android.content.Intent)
AFTER android.content.ContextWrapper.startService, returnValue: ComponentInfo{com.swanberg.pogoiv/com.kamron.pogoiv.updater.DownloadUpdateService}
AFTER com.kamron.pogoiv.updater.AppUpdateUtil$3.onClick
BEFORE com.kamron.pogoiv.updater.DownloadUpdateService.onStartCommand(android.content.Intent,0,1)
BEFORE android.content.Intent.getStringExtra(downloadURL)
AFTER android.content.Intent.getStringExtra, returnValue: https://github.com/farkam135/GoIV/releases/download/5.5.3/GoIV-offline.5.5.3.apk, isEmpty: false
BEFORE android.content.ContextWrapper.getExternalFilesDir(Download)
AFTER android.content.ContextWrapper.getExternalFilesDir, returnValue: /storage/emulated/0/Android/data/com.swanberg.pogoiv/files/Download
BEFORE android.net.Uri.parse(file:///storage/emulated/0/Android/data/com.swanberg.pogoiv/files/Download/GoIV_new.apk)
AFTER android.net.Uri.parse, returnValue: file:///storage/emulated/0/Android/data/com.swanberg.pogoiv/files/Download/GoIV_new.apk
BEFORE android.net.Uri.parse(https://github.com/farkam135/GoIV/releases/download/5.5.3/GoIV-offline.5.5.3.apk)
AFTER android.net.Uri.parse, returnValue: https://github.com/farkam135/GoIV/releases/download/5.5.3/GoIV-offline.5.5.3.apk
BEFORE android.app.DownloadManager$Request.setTitle(Updating GoIV)
AFTER android.app.DownloadManager$Request.setTitle, returnValue: android.app.DownloadManager$Request
BEFORE android.app.DownloadManager$Request.setDestinationUri(android.net.Uri$StringUri)
AFTER android.app.DownloadManager$Request.setDestinationUri, returnValue: android.app.DownloadManager$Request
BEFORE android.content.ContextWrapper.getBaseContext()
AFTER android.content.ContextWrapper.getBaseContext, returnValue: android.app.ContextImpl
BEFORE android.app.ContextImpl.getSystemService(download)
AFTER android.app.ContextImpl.getSystemService, returnValue: android.app.DownloadManager
BEFORE android.app.DownloadManager.enqueue(android.app.DownloadManager$Request)
AFTER android.app.DownloadManager.enqueue, returnValue: 7
BEFORE android.content.ContextWrapper.registerReceiver(com.kamron.pogoiv.updater.DownloadUpdateService$1,android.content.IntentFilter)
AFTER android.content.ContextWrapper.registerReceiver
AFTER com.kamron.pogoiv.updater.DownloadUpdateService.onStartCommand, returnValue: 1
BEFORE com.kamron.pogoiv.updater.DownloadUpdateService$1.onReceive(com.kamron.pogoiv.updater.DownloadUpdateService,android.content.Intent)
BEFORE android.content.Intent.getLongExtra(extra_download_id,java.lang.Long)
AFTER android.content.Intent.getLongExtra, returnValue: 7
BEFORE android.app.DownloadManager$Query.setFilterById([J)
AFTER android.app.DownloadManager$Query.setFilterById, returnValue: android.app.DownloadManager$Query
BEFORE android.app.DownloadManager.query(android.app.DownloadManager$Query)
AFTER android.app.DownloadManager.query, returnValue: android.app.DownloadManager$CursorTranslator
BEFORE android.database.CursorWrapper.moveToFirst()
AFTER android.database.CursorWrapper.moveToFirst, returnValue: true
BEFORE android.database.CursorWrapper.getColumnIndex(status)
AFTER android.database.CursorWrapper.getColumnIndex, returnValue: 7
BEFORE android.app.DownloadManager$CursorTranslator.getInt(7)
AFTER android.app.DownloadManager$CursorTranslator.getInt, returnValue: 8
BEFORE android.content.Intent.setFlags(268435456)
AFTER android.content.Intent.setFlags, returnValue: Intent { act=android.intent.action.VIEW flg=0x10000000 }
BEFORE android.app.DownloadManager.getMimeTypeForDownloadedFile(java.lang.Long)
AFTER android.app.DownloadManager.getMimeTypeForDownloadedFile, returnValue: application/vnd.android.package-archive, isEmpty: false
BEFORE android.content.Intent.setDataAndType(android.net.Uri$StringUri,application/vnd.android.package-archive)
AFTER android.content.Intent.setDataAndType, returnValue: Intent { act=android.intent.action.VIEW dat=file:///storage/emulated/0/Android/data/com.swanberg.pogoiv/files/Download/GoIV_new.apk typ=application/vnd.android.package-archive flg=0x10000000 }
BEFORE android.content.ContextWrapper.startActivity(android.content.Intent)
AFTER android.content.ContextWrapper.startActivity
AFTER com.kamron.pogoiv.updater.DownloadUpdateService$1.onReceive
