digraph SIB_treshold_2 {
"2d79f1e8-5187-4ca8-81a5-9251089718c5" [style=filled, fillcolor="#A9A9A9", label="com.android.internal.os.ZygoteInit.main\n Susp=0,3833"];
"2d79f1e8-5187-4ca8-81a5-9251089718c5" -> "cae26983-55a5-43c5-bd82-21b2081f8925";
"cae26983-55a5-43c5-bd82-21b2081f8925" [style=filled, fillcolor="#A9A9A9", label="com.android.internal.os.ZygoteInit$MethodAndArgsCaller.run\n Susp=0,3842"];
"cae26983-55a5-43c5-bd82-21b2081f8925" -> "66f2907f-f85d-4d7f-bb65-62086f349df6";
"66f2907f-f85d-4d7f-bb65-62086f349df6" [style=filled, fillcolor="#A9A9A9", label="java.lang.reflect.Method.invoke\n Susp=0,3852"];
"66f2907f-f85d-4d7f-bb65-62086f349df6" -> "0da413dd-dd48-42c9-9019-6f2325bed2e9";
"0da413dd-dd48-42c9-9019-6f2325bed2e9" [style=filled, fillcolor="#A9A9A9", label="android.app.ActivityThread.main\n Susp=0,3861"];
"0da413dd-dd48-42c9-9019-6f2325bed2e9" -> "e10d5c0e-c8e2-4cd5-8d09-a07ce2fa8f84";
"e10d5c0e-c8e2-4cd5-8d09-a07ce2fa8f84" [style=filled, fillcolor="#A9A9A9", label="android.os.Looper.loop\n Susp=0,387"];
"e10d5c0e-c8e2-4cd5-8d09-a07ce2fa8f84" -> "d8264a0a-dab2-4ce0-b3fd-a0ed9ae5b758";
"d8264a0a-dab2-4ce0-b3fd-a0ed9ae5b758" [style=filled, fillcolor="#5E5E5E",fontcolor=white, label="android.os.Handler.dispatchMessage\n Susp=0,6145"];
"d8264a0a-dab2-4ce0-b3fd-a0ed9ae5b758" -> "28df29f7-1f97-4046-aa81-cbc37487f568";
"28df29f7-1f97-4046-aa81-cbc37487f568" [style=filled, fillcolor="#5E5E5E",fontcolor=white, label="android.app.ActivityThread$H.handleMessage\n Susp=0,8512"];
"28df29f7-1f97-4046-aa81-cbc37487f568" -> "0acc6694-fccd-4fba-a318-2e350755b9fe";
"0acc6694-fccd-4fba-a318-2e350755b9fe" [style=filled, fillcolor="#FFFFFF", label="android.app.ActivityThread.-wrap4\n Susp=0,1446"];
"0acc6694-fccd-4fba-a318-2e350755b9fe" -> "6d2f1abb-a832-4db7-89f3-e15fd2aa0776";
"6d2f1abb-a832-4db7-89f3-e15fd2aa0776" [style=filled, fillcolor="#FFFFFF", label="android.app.ActivityThread.handleCreateService\n Susp=0,1455"];
"6d2f1abb-a832-4db7-89f3-e15fd2aa0776" -> "f60c9f31-4d7c-4b7f-83c0-3c5f06002eae";
"f60c9f31-4d7c-4b7f-83c0-3c5f06002eae" [style=filled, fillcolor="#FFFFFF", label="com.github.ruleant.getback_gps.LocationService.onCreate\n Susp=0,1464"];
"f60c9f31-4d7c-4b7f-83c0-3c5f06002eae" -> "b3d6e1c0-ce58-4e08-8067-63cf7d73c5ce";
"b3d6e1c0-ce58-4e08-8067-63cf7d73c5ce" [style=filled, fillcolor="#FFFFFF", label="com.github.ruleant.getback_gps.LocationService.updateLocationProvider\n Susp=0,139"];
"b3d6e1c0-ce58-4e08-8067-63cf7d73c5ce" -> "9d1fbef3-2c06-424b-ac33-ff51364bdec5";
"9d1fbef3-2c06-424b-ac33-ff51364bdec5" [style=filled, fillcolor="#FFFFFF", label="android.location.LocationManager.getBestProvider\n Susp=0,0183"];
"28df29f7-1f97-4046-aa81-cbc37487f568" -> "3d42b99b-1703-460a-8c1b-bf981a7fee18";
"3d42b99b-1703-460a-8c1b-bf981a7fee18" [style=filled, fillcolor="#FFFFFF", label="android.app.ActivityThread.-wrap20\n Susp=0,128"];
"3d42b99b-1703-460a-8c1b-bf981a7fee18" -> "3ad84e2f-d8b8-4e13-a03e-9172620602c5";
"3ad84e2f-d8b8-4e13-a03e-9172620602c5" [style=filled, fillcolor="#FFFFFF", label="android.app.ActivityThread.handleStopActivity\n Susp=0,1289"];
"3ad84e2f-d8b8-4e13-a03e-9172620602c5" -> "2a2a5b32-2de0-4f4c-916f-8ba993dbb703";
"2a2a5b32-2de0-4f4c-916f-8ba993dbb703" [style=filled, fillcolor="#FFFFFF", label="android.app.ActivityThread.performStopActivityInner\n Susp=0,1298"];
"2a2a5b32-2de0-4f4c-916f-8ba993dbb703" -> "077012bf-8780-4100-8a65-2ee5334a3dfc";
"077012bf-8780-4100-8a65-2ee5334a3dfc" [style=filled, fillcolor="#FFFFFF", label="android.app.Activity.performStop\n Susp=0,1307"];
"077012bf-8780-4100-8a65-2ee5334a3dfc" -> "4a98a772-de55-4962-bbc2-33f556e3c620";
"4a98a772-de55-4962-bbc2-33f556e3c620" [style=filled, fillcolor="#FFFFFF", label="android.app.Instrumentation.callActivityOnStop\n Susp=0,1316"];
"4a98a772-de55-4962-bbc2-33f556e3c620" -> "84de49e0-120c-4ab7-88dd-a16cf2069744";
"84de49e0-120c-4ab7-88dd-a16cf2069744" [style=filled, fillcolor="#FFFFFF", label="com.github.ruleant.getback_gps.AbstractGetBackGpsActivity.onStop\n Susp=0,0192"];
"28df29f7-1f97-4046-aa81-cbc37487f568" -> "8f30d792-b1c3-40c5-888b-462c8fe54f33";
"8f30d792-b1c3-40c5-888b-462c8fe54f33" [style=filled, fillcolor="#FFFFFF", label="android.app.ActivityThread.-wrap22\n Susp=0,1232"];
"8f30d792-b1c3-40c5-888b-462c8fe54f33" -> "6d6721f7-41be-4dfc-ba32-762ea6763e78";
"6d6721f7-41be-4dfc-ba32-762ea6763e78" [style=filled, fillcolor="#FFFFFF", label="android.app.ActivityThread.handleUnbindService\n Susp=0,1242"];
"6d6721f7-41be-4dfc-ba32-762ea6763e78" -> "6d31b51c-0e55-440c-a9ad-d84a19ba88ca";
"6d31b51c-0e55-440c-a9ad-d84a19ba88ca" [style=filled, fillcolor="#FFFFFF", label="com.github.ruleant.getback_gps.LocationService.onUnbind\n Susp=0,0117"];
"28df29f7-1f97-4046-aa81-cbc37487f568" -> "de48e5cb-a1b6-4297-9d01-ae65cb17bfe8";
"de48e5cb-a1b6-4297-9d01-ae65cb17bfe8" [style=filled, fillcolor="#FFFFFF", label="android.app.ActivityThread.-wrap21\n Susp=0,1694"];
"de48e5cb-a1b6-4297-9d01-ae65cb17bfe8" -> "0f6c2c08-bdd7-4803-bd07-744d777d0a03";
"0f6c2c08-bdd7-4803-bd07-744d777d0a03" [style=filled, fillcolor="#FFFFFF", label="android.app.ActivityThread.handleStopService\n Susp=0,1703"];
"0f6c2c08-bdd7-4803-bd07-744d777d0a03" -> "d608e983-6234-46d1-b3a7-eceb52f25505";
"d608e983-6234-46d1-b3a7-eceb52f25505" [style=filled, fillcolor="#FFFFFF", label="com.github.ruleant.getback_gps.LocationService.onDestroy\n Susp=0,1713"];
"d608e983-6234-46d1-b3a7-eceb52f25505" -> "8704a5ed-9f1f-4b3a-87e8-fb960be4071d";
"8704a5ed-9f1f-4b3a-87e8-fb960be4071d" [style=filled, fillcolor="#FFFFFF", label="android.os.RemoteCallbackList.kill\n Susp=0,034"];
"28df29f7-1f97-4046-aa81-cbc37487f568" -> "96e72315-9d1d-43cc-b876-8c708d670d77";
"96e72315-9d1d-43cc-b876-8c708d670d77" [style=filled, fillcolor="#FFFFFF", label="android.app.ActivityThread.access$1800\n Susp=0,1872"];
"96e72315-9d1d-43cc-b876-8c708d670d77" -> "485f986a-6b23-4e84-91c5-bf0d3b696151";
"485f986a-6b23-4e84-91c5-bf0d3b696151" [style=filled, fillcolor="#FFFFFF", label="android.app.ActivityThread.handleCreateService\n Susp=0,1881"];
"485f986a-6b23-4e84-91c5-bf0d3b696151" -> "87e4c6b8-6bbf-4507-9aef-193ca3d69c61";
"87e4c6b8-6bbf-4507-9aef-193ca3d69c61" [style=filled, fillcolor="#FFFFFF", label="com.github.ruleant.getback_gps.LocationService.onCreate\n Susp=0,189"];
"87e4c6b8-6bbf-4507-9aef-193ca3d69c61" -> "15fee148-2d6c-4fa2-b7bd-0d8ac509bf57";
"15fee148-2d6c-4fa2-b7bd-0d8ac509bf57" [style=filled, fillcolor="#FFFFFF", label="com.github.ruleant.getback_gps.LocationService.updateLocationProvider\n Susp=0,1674"];
"15fee148-2d6c-4fa2-b7bd-0d8ac509bf57" -> "8664a329-8bbd-4107-b7bd-ee16ab48cbed";
"8664a329-8bbd-4107-b7bd-ee16ab48cbed" [style=filled, fillcolor="#FFFFFF", label="android.location.LocationManager.getBestProvider\n Susp=0,0325"];
"28df29f7-1f97-4046-aa81-cbc37487f568" -> "3559f904-1d8f-4109-a570-34bfb6e9acf2";
"3559f904-1d8f-4109-a570-34bfb6e9acf2" [style=filled, fillcolor="#FFFFFF", label="android.app.ActivityThread.access$2200\n Susp=0,1315"];
"3559f904-1d8f-4109-a570-34bfb6e9acf2" -> "491bb7f1-8bf7-4d6a-84da-98fca52bb488";
"491bb7f1-8bf7-4d6a-84da-98fca52bb488" [style=filled, fillcolor="#FFFFFF", label="android.app.ActivityThread.handleStopService\n Susp=0,1324"];
"491bb7f1-8bf7-4d6a-84da-98fca52bb488" -> "8c1124c7-9c11-43c4-b656-1d3902614d9c";
"8c1124c7-9c11-43c4-b656-1d3902614d9c" [style=filled, fillcolor="#FFFFFF", label="com.github.ruleant.getback_gps.LocationService.onDestroy\n Susp=0,1334"];
"8c1124c7-9c11-43c4-b656-1d3902614d9c" -> "6c9b77c6-8621-42fa-831f-409f62c4cd0d";
"6c9b77c6-8621-42fa-831f-409f62c4cd0d" [style=filled, fillcolor="#FFFFFF", label="com.github.ruleant.getback_gps.lib.StoredLocation.save\n Susp=0,1343"];
"6c9b77c6-8621-42fa-831f-409f62c4cd0d" -> "495d84c9-892d-4af5-866b-6b942ab42397";
"495d84c9-892d-4af5-866b-6b942ab42397" [style=filled, fillcolor="#FFFFFF", label="android.location.Location.hasSpeed\n Susp=0,0218"];
"d8264a0a-dab2-4ce0-b3fd-a0ed9ae5b758" -> "9c66c332-44ec-42f4-8801-01a7739b0305";
"9c66c332-44ec-42f4-8801-01a7739b0305" [style=filled, fillcolor="#A9A9A9", label="android.os.Handler.handleCallback\n Susp=0,3126"];
"9c66c332-44ec-42f4-8801-01a7739b0305" -> "0cea609d-ac3e-4c53-b8b6-2c72501e9321";
"0cea609d-ac3e-4c53-b8b6-2c72501e9321" [style=filled, fillcolor="#FFFFFF", label="android.view.Choreographer$FrameDisplayEventReceiver.run\n Susp=0,1363"];
"0cea609d-ac3e-4c53-b8b6-2c72501e9321" -> "93194930-ef0d-4f8a-9ac1-9df73203fcd8";
"93194930-ef0d-4f8a-9ac1-9df73203fcd8" [style=filled, fillcolor="#FFFFFF", label="android.view.Choreographer.doFrame\n Susp=0,1372"];
"93194930-ef0d-4f8a-9ac1-9df73203fcd8" -> "4661d70a-a4c5-42ae-94b5-366ca24eb0ad";
"4661d70a-a4c5-42ae-94b5-366ca24eb0ad" [style=filled, fillcolor="#FFFFFF", label="android.view.Choreographer.doCallbacks\n Susp=0,1381"];
"4661d70a-a4c5-42ae-94b5-366ca24eb0ad" -> "cb91d5ef-0007-474c-9319-7464e31de83d";
"cb91d5ef-0007-474c-9319-7464e31de83d" [style=filled, fillcolor="#FFFFFF", label="android.view.Choreographer$CallbackRecord.run\n Susp=0,139"];
"cb91d5ef-0007-474c-9319-7464e31de83d" -> "9338f96d-e902-470b-853b-8b358d47a90f";
"9338f96d-e902-470b-853b-8b358d47a90f" [style=filled, fillcolor="#FFFFFF", label="android.view.ViewRootImpl$TraversalRunnable.run\n Susp=0,1399"];
"9338f96d-e902-470b-853b-8b358d47a90f" -> "2c8f59b3-fe91-487b-bc2f-9c2ffc2d6a44";
"2c8f59b3-fe91-487b-bc2f-9c2ffc2d6a44" [style=filled, fillcolor="#FFFFFF", label="android.view.ViewRootImpl.doTraversal\n Susp=0,1408"];
"2c8f59b3-fe91-487b-bc2f-9c2ffc2d6a44" -> "2d7888f2-e211-4b48-b17c-bc9ebd3001cd";
"2d7888f2-e211-4b48-b17c-bc9ebd3001cd" [style=filled, fillcolor="#FFFFFF", label="android.view.ViewRootImpl.performTraversals\n Susp=0,1417"];
"2d7888f2-e211-4b48-b17c-bc9ebd3001cd" -> "d013ff75-5ca0-4dad-9f5d-f8812e9f5bcf";
"d013ff75-5ca0-4dad-9f5d-f8812e9f5bcf" [style=filled, fillcolor="#FFFFFF", label="android.view.ViewRootImpl.performDraw\n Susp=0,1426"];
"d013ff75-5ca0-4dad-9f5d-f8812e9f5bcf" -> "72de1633-1aee-4063-8a7c-4560d78b4ed0";
"72de1633-1aee-4063-8a7c-4560d78b4ed0" [style=filled, fillcolor="#FFFFFF", label="android.view.ViewRootImpl.draw\n Susp=0,1435"];
"72de1633-1aee-4063-8a7c-4560d78b4ed0" -> "2b7d63ea-9bad-47e5-b594-1a9b3d673a7d";
"2b7d63ea-9bad-47e5-b594-1a9b3d673a7d" [style=filled, fillcolor="#FFFFFF", label="android.view.ThreadedRenderer.draw\n Susp=0,1445"];
"2b7d63ea-9bad-47e5-b594-1a9b3d673a7d" -> "fe23a08f-0582-4a0a-b6a6-f00ecd5a752d";
"fe23a08f-0582-4a0a-b6a6-f00ecd5a752d" [style=filled, fillcolor="#FFFFFF", label="android.view.ThreadedRenderer.updateRootDisplayList\n Susp=0,1454"];
"fe23a08f-0582-4a0a-b6a6-f00ecd5a752d" -> "b63baa96-5ff8-4490-b431-c8025f02c9d1";
"b63baa96-5ff8-4490-b431-c8025f02c9d1" [style=filled, fillcolor="#C0C0C0", label="android.view.ThreadedRenderer.updateViewTreeDisplayList\n Susp=0,2596"];
"b63baa96-5ff8-4490-b431-c8025f02c9d1" -> "65bac896-f0f4-4f6d-b640-c3f97a72e663";
"65bac896-f0f4-4f6d-b640-c3f97a72e663" [style=filled, fillcolor="#FFFFFF", label="android.view.View.updateDisplayListIfDirty\n Susp=0,1365"];
"65bac896-f0f4-4f6d-b640-c3f97a72e663" -> "29d38252-430c-4f5d-999a-5bac606bb333";
"29d38252-430c-4f5d-999a-5bac606bb333" [style=filled, fillcolor="#FFFFFF", label="com.android.internal.policy.PhoneWindow$DecorView.draw\n Susp=0,1374"];
"29d38252-430c-4f5d-999a-5bac606bb333" -> "25b7e906-5cd6-494b-8a7f-d1ca3f37d86e";
"25b7e906-5cd6-494b-8a7f-d1ca3f37d86e" [style=filled, fillcolor="#FFFFFF", label="android.view.View.draw\n Susp=0,1383"];
"25b7e906-5cd6-494b-8a7f-d1ca3f37d86e" -> "ff6662ae-1542-4082-917f-daf20bfaa24f";
"ff6662ae-1542-4082-917f-daf20bfaa24f" [style=filled, fillcolor="#FFFFFF", label="android.view.ViewGroup.dispatchDraw\n Susp=0,1393"];
"ff6662ae-1542-4082-917f-daf20bfaa24f" -> "bd9b40d8-2108-40d5-81a9-fafc0dbeaa56";
"bd9b40d8-2108-40d5-81a9-fafc0dbeaa56" [style=filled, fillcolor="#FFFFFF", label="android.view.ViewGroup.drawChild\n Susp=0,1402"];
"bd9b40d8-2108-40d5-81a9-fafc0dbeaa56" -> "68587449-8ad2-4f2e-97e2-9c0970800029";
"68587449-8ad2-4f2e-97e2-9c0970800029" [style=filled, fillcolor="#FFFFFF", label="android.view.View.draw\n Susp=0,1411"];
"68587449-8ad2-4f2e-97e2-9c0970800029" -> "f9eae8e7-9110-4809-84c7-5c5c7cf656a4";
"f9eae8e7-9110-4809-84c7-5c5c7cf656a4" [style=filled, fillcolor="#FFFFFF", label="android.view.View.updateDisplayListIfDirty\n Susp=0,142"];
"f9eae8e7-9110-4809-84c7-5c5c7cf656a4" -> "1602a08d-5deb-421f-a338-86cc174f2b67";
"1602a08d-5deb-421f-a338-86cc174f2b67" [style=filled, fillcolor="#FFFFFF", label="com.android.internal.widget.ActionBarOverlayLayout.draw\n Susp=0,1429"];
"1602a08d-5deb-421f-a338-86cc174f2b67" -> "d43c1830-fbfe-4077-b5ff-5c1254647d86";
"d43c1830-fbfe-4077-b5ff-5c1254647d86" [style=filled, fillcolor="#FFFFFF", label="android.view.View.draw\n Susp=0,1438"];
"d43c1830-fbfe-4077-b5ff-5c1254647d86" -> "1dfb1b31-b064-4bdc-b8d2-29885bdfd300";
"1dfb1b31-b064-4bdc-b8d2-29885bdfd300" [style=filled, fillcolor="#FFFFFF", label="android.view.ViewGroup.dispatchDraw\n Susp=0,1447"];
"1dfb1b31-b064-4bdc-b8d2-29885bdfd300" -> "08140ecd-0eb6-4dfb-ac83-3e7237213db4";
"08140ecd-0eb6-4dfb-ac83-3e7237213db4" [style=filled, fillcolor="#FFFFFF", label="android.view.ViewGroup.drawChild\n Susp=0,1456"];
"08140ecd-0eb6-4dfb-ac83-3e7237213db4" -> "a2696492-1698-48d7-9b29-55948057f3f6";
"a2696492-1698-48d7-9b29-55948057f3f6" [style=filled, fillcolor="#FFFFFF", label="android.view.View.draw\n Susp=0,1465"];
"a2696492-1698-48d7-9b29-55948057f3f6" -> "14798156-364f-4c92-852e-c617cfbdb0c3";
"14798156-364f-4c92-852e-c617cfbdb0c3" [style=filled, fillcolor="#FFFFFF", label="android.view.View.updateDisplayListIfDirty\n Susp=0,1474"];
"14798156-364f-4c92-852e-c617cfbdb0c3" -> "fd4a3635-c187-4d5f-b2a0-55aefcf73b66";
"fd4a3635-c187-4d5f-b2a0-55aefcf73b66" [style=filled, fillcolor="#FFFFFF", label="android.view.ViewGroup.dispatchDraw\n Susp=0,1483"];
"fd4a3635-c187-4d5f-b2a0-55aefcf73b66" -> "8687089a-3ac7-47b3-a756-8eb3e2ae41ce";
"8687089a-3ac7-47b3-a756-8eb3e2ae41ce" [style=filled, fillcolor="#FFFFFF", label="android.view.ViewGroup.drawChild\n Susp=0,1493"];
"8687089a-3ac7-47b3-a756-8eb3e2ae41ce" -> "0c44ebe6-cd70-42fc-9fcf-b30ed87a2d0e";
"0c44ebe6-cd70-42fc-9fcf-b30ed87a2d0e" [style=filled, fillcolor="#FFFFFF", label="android.view.View.draw\n Susp=0,1502"];
"0c44ebe6-cd70-42fc-9fcf-b30ed87a2d0e" -> "0a5e71ad-0af6-4b97-b5d2-3da3061c8104";
"0a5e71ad-0af6-4b97-b5d2-3da3061c8104" [style=filled, fillcolor="#FFFFFF", label="android.view.View.updateDisplayListIfDirty\n Susp=0,1511"];
"0a5e71ad-0af6-4b97-b5d2-3da3061c8104" -> "ba15e1b0-8d3b-41d7-a36d-153776b093cb";
"ba15e1b0-8d3b-41d7-a36d-153776b093cb" [style=filled, fillcolor="#FFFFFF", label="android.widget.ScrollView.draw\n Susp=0,152"];
"ba15e1b0-8d3b-41d7-a36d-153776b093cb" -> "83bdaef0-91ad-493c-8bb4-ac83965a7a55";
"83bdaef0-91ad-493c-8bb4-ac83965a7a55" [style=filled, fillcolor="#FFFFFF", label="android.view.View.draw\n Susp=0,1529"];
"83bdaef0-91ad-493c-8bb4-ac83965a7a55" -> "87c3a1c3-063f-4b70-9198-183e31535510";
"87c3a1c3-063f-4b70-9198-183e31535510" [style=filled, fillcolor="#FFFFFF", label="android.view.ViewGroup.dispatchDraw\n Susp=0,1538"];
"87c3a1c3-063f-4b70-9198-183e31535510" -> "60687b16-00ba-4cc0-9f48-eaeb81a98cd2";
"60687b16-00ba-4cc0-9f48-eaeb81a98cd2" [style=filled, fillcolor="#FFFFFF", label="android.view.ViewGroup.drawChild\n Susp=0,1547"];
"60687b16-00ba-4cc0-9f48-eaeb81a98cd2" -> "fc0378e2-4587-4d92-9d0b-801bcbf5705d";
"fc0378e2-4587-4d92-9d0b-801bcbf5705d" [style=filled, fillcolor="#FFFFFF", label="android.view.View.draw\n Susp=0,1556"];
"fc0378e2-4587-4d92-9d0b-801bcbf5705d" -> "b4dc3917-ef2e-4361-ac73-e3cb3b032a97";
"b4dc3917-ef2e-4361-ac73-e3cb3b032a97" [style=filled, fillcolor="#FFFFFF", label="android.view.View.updateDisplayListIfDirty\n Susp=0,1565"];
"b4dc3917-ef2e-4361-ac73-e3cb3b032a97" -> "ae0f80d3-3e2a-417d-be12-724c7205e2b2";
"ae0f80d3-3e2a-417d-be12-724c7205e2b2" [style=filled, fillcolor="#FFFFFF", label="android.view.ViewGroup.dispatchDraw\n Susp=0,1574"];
"ae0f80d3-3e2a-417d-be12-724c7205e2b2" -> "09dfa573-0bc1-49fc-ac3a-1b20ebb0d9e0";
"09dfa573-0bc1-49fc-ac3a-1b20ebb0d9e0" [style=filled, fillcolor="#FFFFFF", label="android.view.ViewGroup.drawChild\n Susp=0,1583"];
"09dfa573-0bc1-49fc-ac3a-1b20ebb0d9e0" -> "2ebe548d-8c64-4855-9dfb-53cad6626229";
"2ebe548d-8c64-4855-9dfb-53cad6626229" [style=filled, fillcolor="#FFFFFF", label="android.view.View.draw\n Susp=0,1593"];
"2ebe548d-8c64-4855-9dfb-53cad6626229" -> "69b1533c-1aec-4808-a231-2921c5a97c50";
"69b1533c-1aec-4808-a231-2921c5a97c50" [style=filled, fillcolor="#FFFFFF", label="android.view.View.updateDisplayListIfDirty\n Susp=0,1602"];
"69b1533c-1aec-4808-a231-2921c5a97c50" -> "eda89364-26fc-4f3b-980d-24724a6a2e22";
"eda89364-26fc-4f3b-980d-24724a6a2e22" [style=filled, fillcolor="#FFFFFF", label="android.view.View.draw\n Susp=0,1611"];
"eda89364-26fc-4f3b-980d-24724a6a2e22" -> "dc5dba53-07e7-4dda-a918-3cef2b2bc91d";
"dc5dba53-07e7-4dda-a918-3cef2b2bc91d" [style=filled, fillcolor="#FFFFFF", label="com.github.ruleant.getback_gps.NavigationView.onDraw\n Susp=0,0486"];
"b63baa96-5ff8-4490-b431-c8025f02c9d1" -> "01bdc29c-add2-4c1a-81bc-fb87ca673e12";
"01bdc29c-add2-4c1a-81bc-fb87ca673e12" [style=filled, fillcolor="#FFFFFF", label="android.view.View.getDisplayList\n Susp=0,1413"];
"01bdc29c-add2-4c1a-81bc-fb87ca673e12" -> "4a5b71af-4cb7-48d3-a69b-36812da38fb7";
"4a5b71af-4cb7-48d3-a69b-36812da38fb7" [style=filled, fillcolor="#FFFFFF", label="android.view.View.updateDisplayListIfDirty\n Susp=0,1422"];
"4a5b71af-4cb7-48d3-a69b-36812da38fb7" -> "7146b79b-ceb1-4431-9d31-75147223a6fd";
"7146b79b-ceb1-4431-9d31-75147223a6fd" [style=filled, fillcolor="#FFFFFF", label="com.android.internal.policy.impl.PhoneWindow$DecorView.draw\n Susp=0,1431"];
"7146b79b-ceb1-4431-9d31-75147223a6fd" -> "c90f35f2-8669-4fbb-9381-fd05e4a6fea6";
"c90f35f2-8669-4fbb-9381-fd05e4a6fea6" [style=filled, fillcolor="#FFFFFF", label="android.widget.FrameLayout.draw\n Susp=0,144"];
"c90f35f2-8669-4fbb-9381-fd05e4a6fea6" -> "8e397c86-ffba-4161-bad9-e00d88b3053f";
"8e397c86-ffba-4161-bad9-e00d88b3053f" [style=filled, fillcolor="#FFFFFF", label="android.view.View.draw\n Susp=0,1449"];
"8e397c86-ffba-4161-bad9-e00d88b3053f" -> "c36b467c-d1c6-44fc-92ab-7c69bc746ca3";
"c36b467c-d1c6-44fc-92ab-7c69bc746ca3" [style=filled, fillcolor="#FFFFFF", label="android.view.ViewGroup.dispatchDraw\n Susp=0,1458"];
"c36b467c-d1c6-44fc-92ab-7c69bc746ca3" -> "a5d76155-b9bb-4c4b-a7ed-3bb2f61c3e55";
"a5d76155-b9bb-4c4b-a7ed-3bb2f61c3e55" [style=filled, fillcolor="#FFFFFF", label="android.view.ViewGroup.drawChild\n Susp=0,1467"];
"a5d76155-b9bb-4c4b-a7ed-3bb2f61c3e55" -> "604fc4b6-b1f0-4474-a887-0dd0bb4aca33";
"604fc4b6-b1f0-4474-a887-0dd0bb4aca33" [style=filled, fillcolor="#FFFFFF", label="android.view.View.draw\n Susp=0,1476"];
"604fc4b6-b1f0-4474-a887-0dd0bb4aca33" -> "bfe01d1c-8041-4eaf-a1ca-0f9f4ebb8e94";
"bfe01d1c-8041-4eaf-a1ca-0f9f4ebb8e94" [style=filled, fillcolor="#FFFFFF", label="android.view.View.getDisplayList\n Susp=0,1485"];
"bfe01d1c-8041-4eaf-a1ca-0f9f4ebb8e94" -> "4c5a462f-6cdf-4b38-b476-eee43c8d9ca7";
"4c5a462f-6cdf-4b38-b476-eee43c8d9ca7" [style=filled, fillcolor="#FFFFFF", label="android.view.View.updateDisplayListIfDirty\n Susp=0,1494"];
"4c5a462f-6cdf-4b38-b476-eee43c8d9ca7" -> "e2bb029c-2632-434c-b057-a52051836112";
"e2bb029c-2632-434c-b057-a52051836112" [style=filled, fillcolor="#FFFFFF", label="com.android.internal.widget.ActionBarOverlayLayout.draw\n Susp=0,1504"];
"e2bb029c-2632-434c-b057-a52051836112" -> "327a1adf-1d1d-4e48-ad9c-a4c34acf774e";
"327a1adf-1d1d-4e48-ad9c-a4c34acf774e" [style=filled, fillcolor="#FFFFFF", label="android.view.View.draw\n Susp=0,1513"];
"327a1adf-1d1d-4e48-ad9c-a4c34acf774e" -> "89558e99-9a70-4bb5-9164-80fd9b2ed7fa";
"89558e99-9a70-4bb5-9164-80fd9b2ed7fa" [style=filled, fillcolor="#FFFFFF", label="android.view.ViewGroup.dispatchDraw\n Susp=0,1522"];
"89558e99-9a70-4bb5-9164-80fd9b2ed7fa" -> "f4e5fba4-9b90-4b6f-a09c-cad358f53c28";
"f4e5fba4-9b90-4b6f-a09c-cad358f53c28" [style=filled, fillcolor="#FFFFFF", label="android.view.ViewGroup.drawChild\n Susp=0,1531"];
"f4e5fba4-9b90-4b6f-a09c-cad358f53c28" -> "f501b987-70a0-40d7-ad1a-016c9603156d";
"f501b987-70a0-40d7-ad1a-016c9603156d" [style=filled, fillcolor="#FFFFFF", label="android.view.View.draw\n Susp=0,154"];
"f501b987-70a0-40d7-ad1a-016c9603156d" -> "83ff71a3-764a-448e-bd10-5c474477e099";
"83ff71a3-764a-448e-bd10-5c474477e099" [style=filled, fillcolor="#FFFFFF", label="android.view.View.getDisplayList\n Susp=0,1549"];
"83ff71a3-764a-448e-bd10-5c474477e099" -> "9c81b735-bbb2-4dd7-9264-dbde2f09b5a7";
"9c81b735-bbb2-4dd7-9264-dbde2f09b5a7" [style=filled, fillcolor="#FFFFFF", label="android.view.View.updateDisplayListIfDirty\n Susp=0,1558"];
"9c81b735-bbb2-4dd7-9264-dbde2f09b5a7" -> "08eb8a7b-a9cb-4d08-9551-356cd1ef060e";
"08eb8a7b-a9cb-4d08-9551-356cd1ef060e" [style=filled, fillcolor="#FFFFFF", label="android.view.ViewGroup.dispatchDraw\n Susp=0,1567"];
"08eb8a7b-a9cb-4d08-9551-356cd1ef060e" -> "daad490d-8fca-432f-9824-dbd02299b6a0";
"daad490d-8fca-432f-9824-dbd02299b6a0" [style=filled, fillcolor="#FFFFFF", label="android.view.ViewGroup.drawChild\n Susp=0,1576"];
"daad490d-8fca-432f-9824-dbd02299b6a0" -> "5f6b806f-b1e2-48f4-9f87-329f90ff7828";
"5f6b806f-b1e2-48f4-9f87-329f90ff7828" [style=filled, fillcolor="#FFFFFF", label="android.view.View.draw\n Susp=0,1585"];
"5f6b806f-b1e2-48f4-9f87-329f90ff7828" -> "e005698c-08c1-467e-8bf8-86dc273d7a86";
"e005698c-08c1-467e-8bf8-86dc273d7a86" [style=filled, fillcolor="#FFFFFF", label="android.view.View.getDisplayList\n Susp=0,1594"];
"e005698c-08c1-467e-8bf8-86dc273d7a86" -> "cdf754db-1d7a-423b-90e5-8ef511f713c3";
"cdf754db-1d7a-423b-90e5-8ef511f713c3" [style=filled, fillcolor="#FFFFFF", label="android.view.View.updateDisplayListIfDirty\n Susp=0,1604"];
"cdf754db-1d7a-423b-90e5-8ef511f713c3" -> "a0763096-b606-4f99-9ac7-3242763b3b9b";
"a0763096-b606-4f99-9ac7-3242763b3b9b" [style=filled, fillcolor="#FFFFFF", label="android.widget.ScrollView.draw\n Susp=0,1613"];
"a0763096-b606-4f99-9ac7-3242763b3b9b" -> "3f2a1c3f-6503-4677-809d-555dbd162888";
"3f2a1c3f-6503-4677-809d-555dbd162888" [style=filled, fillcolor="#FFFFFF", label="android.widget.FrameLayout.draw\n Susp=0,1622"];
"3f2a1c3f-6503-4677-809d-555dbd162888" -> "4a92e41e-a0b8-42e7-bba8-69c8d95c9feb";
"4a92e41e-a0b8-42e7-bba8-69c8d95c9feb" [style=filled, fillcolor="#FFFFFF", label="android.view.View.draw\n Susp=0,1631"];
"4a92e41e-a0b8-42e7-bba8-69c8d95c9feb" -> "0f3e10ab-6d0e-4031-bbaa-338589a5e28d";
"0f3e10ab-6d0e-4031-bbaa-338589a5e28d" [style=filled, fillcolor="#FFFFFF", label="android.view.ViewGroup.dispatchDraw\n Susp=0,164"];
"0f3e10ab-6d0e-4031-bbaa-338589a5e28d" -> "750cefe0-c6fa-4e7b-9117-acda40760421";
"750cefe0-c6fa-4e7b-9117-acda40760421" [style=filled, fillcolor="#FFFFFF", label="android.view.ViewGroup.drawChild\n Susp=0,1649"];
"750cefe0-c6fa-4e7b-9117-acda40760421" -> "e9b916e3-73e7-4484-b375-605344aac0d5";
"e9b916e3-73e7-4484-b375-605344aac0d5" [style=filled, fillcolor="#FFFFFF", label="android.view.View.draw\n Susp=0,1658"];
"e9b916e3-73e7-4484-b375-605344aac0d5" -> "934360e8-95a4-41a2-ba5e-950c49571d77";
"934360e8-95a4-41a2-ba5e-950c49571d77" [style=filled, fillcolor="#FFFFFF", label="android.view.View.getDisplayList\n Susp=0,1667"];
"934360e8-95a4-41a2-ba5e-950c49571d77" -> "3dbc2c55-adc8-40b1-8e46-f86d48d4fae1";
"3dbc2c55-adc8-40b1-8e46-f86d48d4fae1" [style=filled, fillcolor="#FFFFFF", label="android.view.View.updateDisplayListIfDirty\n Susp=0,1676"];
"3dbc2c55-adc8-40b1-8e46-f86d48d4fae1" -> "badfc6d9-c426-4c69-bf36-270d5b4590ea";
"badfc6d9-c426-4c69-bf36-270d5b4590ea" [style=filled, fillcolor="#FFFFFF", label="android.view.ViewGroup.dispatchDraw\n Susp=0,1685"];
"badfc6d9-c426-4c69-bf36-270d5b4590ea" -> "9a9a86aa-c11c-45d4-b008-f7ab06f51ec2";
"9a9a86aa-c11c-45d4-b008-f7ab06f51ec2" [style=filled, fillcolor="#FFFFFF", label="android.view.ViewGroup.drawChild\n Susp=0,1694"];
"9a9a86aa-c11c-45d4-b008-f7ab06f51ec2" -> "4b4f39ad-a4b5-4c92-bfb8-0b1dcf366640";
"4b4f39ad-a4b5-4c92-bfb8-0b1dcf366640" [style=filled, fillcolor="#FFFFFF", label="android.view.View.draw\n Susp=0,1704"];
"4b4f39ad-a4b5-4c92-bfb8-0b1dcf366640" -> "7dad86bd-d9ce-4eb1-8816-9cd5e598fdd5";
"7dad86bd-d9ce-4eb1-8816-9cd5e598fdd5" [style=filled, fillcolor="#FFFFFF", label="android.view.View.getDisplayList\n Susp=0,1713"];
"7dad86bd-d9ce-4eb1-8816-9cd5e598fdd5" -> "43649900-aa79-4095-a222-57cd82c5f79a";
"43649900-aa79-4095-a222-57cd82c5f79a" [style=filled, fillcolor="#FFFFFF", label="android.view.View.updateDisplayListIfDirty\n Susp=0,1722"];
"43649900-aa79-4095-a222-57cd82c5f79a" -> "e56885ba-b385-47c3-9697-5906765ce273";
"e56885ba-b385-47c3-9697-5906765ce273" [style=filled, fillcolor="#FFFFFF", label="android.view.View.draw\n Susp=0,1731"];
"e56885ba-b385-47c3-9697-5906765ce273" -> "6c5bb239-cec5-492c-8785-b8e54321b919";
"6c5bb239-cec5-492c-8785-b8e54321b919" [style=filled, fillcolor="#FFFFFF", label="com.github.ruleant.getback_gps.NavigationView.onDraw\n Susp=0,0607"];
"9c66c332-44ec-42f4-8801-01a7739b0305" -> "a03ed41a-a1f5-4651-9701-cdddcf0538c7";
"a03ed41a-a1f5-4651-9701-cdddcf0538c7" [style=filled, fillcolor="#FFFFFF", label="android.app.LoadedApk$ServiceDispatcher$RunConnection.run\n Susp=0,1836"];
"a03ed41a-a1f5-4651-9701-cdddcf0538c7" -> "2346588f-2d2d-4574-9b5a-aac26fbe584e";
"2346588f-2d2d-4574-9b5a-aac26fbe584e" [style=filled, fillcolor="#FFFFFF", label="android.app.LoadedApk$ServiceDispatcher.doConnected\n Susp=0,1846"];
"2346588f-2d2d-4574-9b5a-aac26fbe584e" -> "6f48cadc-4372-4642-8f63-39e4d6479895";
"6f48cadc-4372-4642-8f63-39e4d6479895" [style=filled, fillcolor="#FFFFFF", label="com.github.ruleant.getback_gps.AbstractGetBackGpsActivity$5.onServiceConnected\n Susp=0,1855"];
"6f48cadc-4372-4642-8f63-39e4d6479895" -> "2ba33c1f-ac77-4912-bb87-0ae555b59b3a";
"2ba33c1f-ac77-4912-bb87-0ae555b59b3a" [style=filled, fillcolor="#FFFFFF", label="com.github.ruleant.getback_gps.MainActivity.refreshDisplay\n Susp=0,158"];
"2ba33c1f-ac77-4912-bb87-0ae555b59b3a" -> "bc918acb-aa66-4834-8bdb-1214396b079a";
"bc918acb-aa66-4834-8bdb-1214396b079a" [style=filled, fillcolor="#FFFFFF", label="com.github.ruleant.getback_gps.AbstractGetBackGpsActivity.refreshDisplay\n Susp=0,1304"];
"bc918acb-aa66-4834-8bdb-1214396b079a" -> "99c6e7f4-a9d4-48be-95a0-eaa442357cfb";
"99c6e7f4-a9d4-48be-95a0-eaa442357cfb" [style=filled, fillcolor="#FFFFFF", label="com.github.ruleant.getback_gps.AbstractGetBackGpsActivity.refreshCrouton\n Susp=0,1313"];
"99c6e7f4-a9d4-48be-95a0-eaa442357cfb" -> "2470cd2b-bf73-4fa5-80bb-a6e39044bcec";
"2470cd2b-bf73-4fa5-80bb-a6e39044bcec" [style=filled, fillcolor="#FFFFFF", label="com.github.ruleant.getback_gps.lib.Navigator.isLocationAccurate\n Susp=0,1323"];
"2470cd2b-bf73-4fa5-80bb-a6e39044bcec" -> "3a98cbf9-eac2-4667-bcb2-b5bb0df822b4";
"3a98cbf9-eac2-4667-bcb2-b5bb0df822b4" [style=filled, fillcolor="#FFFFFF", label="com.github.ruleant.getback_gps.lib.AriadneLocation.isRecent\n Susp=0,1332"];
"3a98cbf9-eac2-4667-bcb2-b5bb0df822b4" -> "92141eb8-0b7b-4b4c-b9cb-32d5c940184a";
"92141eb8-0b7b-4b4c-b9cb-32d5c940184a" [style=filled, fillcolor="#FFFFFF", label="android.location.Location.getElapsedRealtimeNanos\n Susp=0,0207"];
"d8264a0a-dab2-4ce0-b3fd-a0ed9ae5b758" -> "16727c75-93e0-4f6e-af84-ced419da18ef";
"16727c75-93e0-4f6e-af84-ced419da18ef" [style=filled, fillcolor="#FFFFFF", label="android.location.LocationManager$ListenerTransport$1.handleMessage\n Susp=0,1425"];
"16727c75-93e0-4f6e-af84-ced419da18ef" -> "28b8be80-1274-4d31-adae-ec330dc8650f";
"28b8be80-1274-4d31-adae-ec330dc8650f" [style=filled, fillcolor="#FFFFFF", label="android.location.LocationManager$ListenerTransport.access$000\n Susp=0,1434"];
"28b8be80-1274-4d31-adae-ec330dc8650f" -> "01a40c73-7b82-4d5b-b5d5-c587c6abb97a";
"01a40c73-7b82-4d5b-b5d5-c587c6abb97a" [style=filled, fillcolor="#FFFFFF", label="android.location.LocationManager$ListenerTransport._handleMessage\n Susp=0,1443"];
"01a40c73-7b82-4d5b-b5d5-c587c6abb97a" -> "6a0df0d4-6244-4219-8f40-f3270d422b6f";
"6a0df0d4-6244-4219-8f40-f3270d422b6f" [style=filled, fillcolor="#FFFFFF", label="com.github.ruleant.getback_gps.LocationService$1.onLocationChanged\n Susp=0,0319"];
}
