Position |MethodName|Relevancy
0.1|de.baumann.browser.View.NinjaWebView.<init>|1.082538991657599
0.2|de.baumann.browser.Activity.BrowserActivity.onResume|0.33356546971345663
0.3|de.baumann.browser.Activity.BrowserActivity.pinAlbums|0.3225389916575988
0.4|de.baumann.browser.Activity.BrowserActivity.dispatchIntent|0.26462096481682984
0.5|org.chromium.android_webview.AwContents.<init>|0.2534639100471527
0.6|org.chromium.android_webview.AwSettings.a|0.19495828799419657
0.7|de.baumann.browser.Activity.BrowserActivity.onCreate|0.15885382662314107
0.8|org.chromium.ui.base.TouchDevice.availablePointerAndHoverTypes|0.12705839680812475
0.9|org.chromium.base.ThreadUtils.d|0.12696046427276023
1.0|org.chromium.base.ThreadUtils.c|0.12673195502357634
