digraph SIB_treshold_2 {
"79764e2b-9bef-4d16-be9c-369699dc0457" [style=filled, fillcolor="#919191", label="com.android.internal.os.ZygoteInit.main\n Susp=0,4967"];
"79764e2b-9bef-4d16-be9c-369699dc0457" -> "9d6dd8b3-1bc6-4365-ad6a-cbb2ae34f36f";
"9d6dd8b3-1bc6-4365-ad6a-cbb2ae34f36f" [style=filled, fillcolor="#919191", label="com.android.internal.os.ZygoteInit$MethodAndArgsCaller.run\n Susp=0,4977"];
"9d6dd8b3-1bc6-4365-ad6a-cbb2ae34f36f" -> "0b86287e-9dd5-4889-999f-c5bc60077720";
"0b86287e-9dd5-4889-999f-c5bc60077720" [style=filled, fillcolor="#919191", label="java.lang.reflect.Method.invoke\n Susp=0,4987"];
"0b86287e-9dd5-4889-999f-c5bc60077720" -> "f2837628-571b-412a-a1bd-f04ce778832e";
"f2837628-571b-412a-a1bd-f04ce778832e" [style=filled, fillcolor="#919191", label="android.app.ActivityThread.main\n Susp=0,4997"];
"f2837628-571b-412a-a1bd-f04ce778832e" -> "a6459da5-4cc8-4524-ad21-6b6470de4517";
"a6459da5-4cc8-4524-ad21-6b6470de4517" [style=filled, fillcolor="#5E5E5E",fontcolor=white, label="android.os.Looper.loop\n Susp=0,7273"];
"a6459da5-4cc8-4524-ad21-6b6470de4517" -> "158fdad0-c673-4336-b646-cbbcf1320cb8";
"158fdad0-c673-4336-b646-cbbcf1320cb8" [style=filled, fillcolor="#5E5E5E",fontcolor=white, label="android.os.Handler.dispatchMessage\n Susp=0,7232"];
"158fdad0-c673-4336-b646-cbbcf1320cb8" -> "71bb60e4-c8e5-4d23-ba4d-7a9ac5d9b1ad";
"71bb60e4-c8e5-4d23-ba4d-7a9ac5d9b1ad" [style=filled, fillcolor="#919191", label="android.app.ActivityThread$H.handleMessage\n Susp=0,4748"];
"71bb60e4-c8e5-4d23-ba4d-7a9ac5d9b1ad" -> "293d210d-d08e-4352-8fc4-65c4985c43c3";
"293d210d-d08e-4352-8fc4-65c4985c43c3" [style=filled, fillcolor="#EBEBEB", label="android.app.ActivityThread.-wrap11\n Susp=0,2414"];
"293d210d-d08e-4352-8fc4-65c4985c43c3" -> "e58c326a-f719-4dbe-ad6e-d66e85c51dd2";
"e58c326a-f719-4dbe-ad6e-d66e85c51dd2" [style=filled, fillcolor="#EBEBEB", label="android.app.ActivityThread.handleLaunchActivity\n Susp=0,2424"];
"e58c326a-f719-4dbe-ad6e-d66e85c51dd2" -> "ab612586-ef62-43b0-a9ad-e9021b2d9552";
"ab612586-ef62-43b0-a9ad-e9021b2d9552" [style=filled, fillcolor="#EBEBEB", label="android.app.ActivityThread.performLaunchActivity\n Susp=0,2434"];
"ab612586-ef62-43b0-a9ad-e9021b2d9552" -> "c0204235-8624-4041-b2bf-6b2c1ade9cc6";
"c0204235-8624-4041-b2bf-6b2c1ade9cc6" [style=filled, fillcolor="#EBEBEB", label="android.app.Instrumentation.callActivityOnCreate\n Susp=0,2444"];
"c0204235-8624-4041-b2bf-6b2c1ade9cc6" -> "fe90a76c-3902-41df-8d0e-1a8fca089df9";
"fe90a76c-3902-41df-8d0e-1a8fca089df9" [style=filled, fillcolor="#EBEBEB", label="android.app.Activity.performCreate\n Susp=0,2454"];
"fe90a76c-3902-41df-8d0e-1a8fca089df9" -> "6317e098-ee8e-48f5-aa17-0f5b0c4679a7";
"6317e098-ee8e-48f5-aa17-0f5b0c4679a7" [style=filled, fillcolor="#EBEBEB", label="com.example.arial.bosstransfer.MainActivity.onCreate\n Susp=0,2464"];
"6317e098-ee8e-48f5-aa17-0f5b0c4679a7" -> "a363d5f2-d490-4b53-8df9-0fecf2968b77";
"a363d5f2-d490-4b53-8df9-0fecf2968b77" [style=filled, fillcolor="#FFFFFF", label="android.app.Activity.getWindow\n Susp=0,0169"];
"71bb60e4-c8e5-4d23-ba4d-7a9ac5d9b1ad" -> "23ec2983-7b19-4477-95e4-f93183280755";
"23ec2983-7b19-4477-95e4-f93183280755" [style=filled, fillcolor="#EBEBEB", label="android.app.ActivityThread.access$800\n Susp=0,2414"];
"23ec2983-7b19-4477-95e4-f93183280755" -> "10d0f06b-f615-4459-aabc-c93bcf299e78";
"10d0f06b-f615-4459-aabc-c93bcf299e78" [style=filled, fillcolor="#EBEBEB", label="android.app.ActivityThread.handleLaunchActivity\n Susp=0,2424"];
"10d0f06b-f615-4459-aabc-c93bcf299e78" -> "c72f7fbf-4299-4f14-a1ab-8cbad31cfd60";
"c72f7fbf-4299-4f14-a1ab-8cbad31cfd60" [style=filled, fillcolor="#EBEBEB", label="android.app.ActivityThread.performLaunchActivity\n Susp=0,2434"];
"c72f7fbf-4299-4f14-a1ab-8cbad31cfd60" -> "777899ec-27c7-45d1-98ab-79b25f4ff042";
"777899ec-27c7-45d1-98ab-79b25f4ff042" [style=filled, fillcolor="#EBEBEB", label="android.app.Instrumentation.callActivityOnCreate\n Susp=0,2444"];
"777899ec-27c7-45d1-98ab-79b25f4ff042" -> "7a3d2ea4-f0b6-4b40-b6f0-94fa5686a1dc";
"7a3d2ea4-f0b6-4b40-b6f0-94fa5686a1dc" [style=filled, fillcolor="#EBEBEB", label="android.app.Activity.performCreate\n Susp=0,2454"];
"7a3d2ea4-f0b6-4b40-b6f0-94fa5686a1dc" -> "caa38bf8-ea57-41d3-823a-9d577cf1b4c5";
"caa38bf8-ea57-41d3-823a-9d577cf1b4c5" [style=filled, fillcolor="#EBEBEB", label="com.example.arial.bosstransfer.MainActivity.onCreate\n Susp=0,2464"];
"caa38bf8-ea57-41d3-823a-9d577cf1b4c5" -> "45beae47-1068-4c4e-8017-8703218581c6";
"45beae47-1068-4c4e-8017-8703218581c6" [style=filled, fillcolor="#FFFFFF", label="android.app.Activity.getWindow\n Susp=0,0169"];
"158fdad0-c673-4336-b646-cbbcf1320cb8" -> "b3993042-cf81-4111-a972-43ea7cac4c96";
"b3993042-cf81-4111-a972-43ea7cac4c96" [style=filled, fillcolor="#5E5E5E",fontcolor=white, label="android.os.Handler.handleCallback\n Susp=0,7088"];
"b3993042-cf81-4111-a972-43ea7cac4c96" -> "ea50b80e-1753-4c68-8768-655c3326fb4e";
"ea50b80e-1753-4c68-8768-655c3326fb4e" [style=filled, fillcolor="#A9A9A9", label="android.view.Choreographer$FrameDisplayEventReceiver.run\n Susp=0,3211"];
"ea50b80e-1753-4c68-8768-655c3326fb4e" -> "22927ada-1fad-4cbb-a29d-0751f1739119";
"22927ada-1fad-4cbb-a29d-0751f1739119" [style=filled, fillcolor="#A9A9A9", label="android.view.Choreographer.doFrame\n Susp=0,3221"];
"22927ada-1fad-4cbb-a29d-0751f1739119" -> "be3f7ecd-b29b-4050-8888-8f790f3976d0";
"be3f7ecd-b29b-4050-8888-8f790f3976d0" [style=filled, fillcolor="#A9A9A9", label="android.view.Choreographer.doCallbacks\n Susp=0,3231"];
"be3f7ecd-b29b-4050-8888-8f790f3976d0" -> "9d598d4f-76bb-4192-b303-90dcb081371a";
"9d598d4f-76bb-4192-b303-90dcb081371a" [style=filled, fillcolor="#A9A9A9", label="android.view.Choreographer$CallbackRecord.run\n Susp=0,3241"];
"9d598d4f-76bb-4192-b303-90dcb081371a" -> "05e3b3a3-4396-461a-9d47-85c094f85074";
"05e3b3a3-4396-461a-9d47-85c094f85074" [style=filled, fillcolor="#A9A9A9", label="android.view.ViewRootImpl$TraversalRunnable.run\n Susp=0,3251"];
"05e3b3a3-4396-461a-9d47-85c094f85074" -> "b086bd56-abaa-46dc-bfc4-09b7ccf0c6bb";
"b086bd56-abaa-46dc-bfc4-09b7ccf0c6bb" [style=filled, fillcolor="#A9A9A9", label="android.view.ViewRootImpl.doTraversal\n Susp=0,3261"];
"b086bd56-abaa-46dc-bfc4-09b7ccf0c6bb" -> "38683c8c-72d0-4d59-8035-28cdc603239c";
"38683c8c-72d0-4d59-8035-28cdc603239c" [style=filled, fillcolor="#A9A9A9", label="android.view.ViewRootImpl.performTraversals\n Susp=0,3271"];
"38683c8c-72d0-4d59-8035-28cdc603239c" -> "0db8745f-285b-4310-ace3-62c8f4d25443";
"0db8745f-285b-4310-ace3-62c8f4d25443" [style=filled, fillcolor="#A9A9A9", label="android.view.ViewRootImpl.performLayout\n Susp=0,3281"];
"0db8745f-285b-4310-ace3-62c8f4d25443" -> "5317dc04-9b4d-42ff-b80e-ae6bf3207b92";
"5317dc04-9b4d-42ff-b80e-ae6bf3207b92" [style=filled, fillcolor="#A9A9A9", label="android.view.ViewGroup.layout\n Susp=0,3291"];
"5317dc04-9b4d-42ff-b80e-ae6bf3207b92" -> "08e9a768-b775-4f61-bfcb-e2147972c634";
"08e9a768-b775-4f61-bfcb-e2147972c634" [style=filled, fillcolor="#5E5E5E",fontcolor=white, label="android.view.View.layout\n Susp=0,5568"];
"08e9a768-b775-4f61-bfcb-e2147972c634" -> "cfc3a051-87ca-41a7-9e23-cb5440135e50";
"cfc3a051-87ca-41a7-9e23-cb5440135e50" [style=filled, fillcolor="#C0C0C0", label="com.android.internal.policy.PhoneWindow$DecorView.onLayout\n Susp=0,2514"];
"cfc3a051-87ca-41a7-9e23-cb5440135e50" -> "c7568fc5-290c-4677-a451-d5f7e69c77ef";
"c7568fc5-290c-4677-a451-d5f7e69c77ef" [style=filled, fillcolor="#C0C0C0", label="android.widget.FrameLayout.onLayout\n Susp=0,2524"];
"c7568fc5-290c-4677-a451-d5f7e69c77ef" -> "19df2d09-0c96-446e-b955-15e8ebe492fd";
"19df2d09-0c96-446e-b955-15e8ebe492fd" [style=filled, fillcolor="#C0C0C0", label="android.widget.FrameLayout.layoutChildren\n Susp=0,2534"];
"19df2d09-0c96-446e-b955-15e8ebe492fd" -> "fa63184f-9b87-4c45-9d0f-1435b45355ac";
"fa63184f-9b87-4c45-9d0f-1435b45355ac" [style=filled, fillcolor="#C0C0C0", label="android.view.ViewGroup.layout\n Susp=0,2544"];
"fa63184f-9b87-4c45-9d0f-1435b45355ac" -> "50ccf7fa-6146-424f-8ea4-41b31b9ef73a";
"50ccf7fa-6146-424f-8ea4-41b31b9ef73a" [style=filled, fillcolor="#C0C0C0", label="android.view.View.layout\n Susp=0,2554"];
"50ccf7fa-6146-424f-8ea4-41b31b9ef73a" -> "74a5da11-cf1a-4645-a1ea-064eb4311f39";
"74a5da11-cf1a-4645-a1ea-064eb4311f39" [style=filled, fillcolor="#C0C0C0", label="android.widget.LinearLayout.onLayout\n Susp=0,2564"];
"74a5da11-cf1a-4645-a1ea-064eb4311f39" -> "20e2ef80-8e5a-4c3a-8c76-6d2bd1580f25";
"20e2ef80-8e5a-4c3a-8c76-6d2bd1580f25" [style=filled, fillcolor="#C0C0C0", label="android.widget.LinearLayout.layoutVertical\n Susp=0,2574"];
"20e2ef80-8e5a-4c3a-8c76-6d2bd1580f25" -> "8aa62c90-5629-40de-a2a6-568c5a663ecc";
"8aa62c90-5629-40de-a2a6-568c5a663ecc" [style=filled, fillcolor="#C0C0C0", label="android.widget.LinearLayout.setChildFrame\n Susp=0,2584"];
"8aa62c90-5629-40de-a2a6-568c5a663ecc" -> "c749b190-238b-4940-bab1-75a8cccc09c7";
"c749b190-238b-4940-bab1-75a8cccc09c7" [style=filled, fillcolor="#C0C0C0", label="android.view.ViewGroup.layout\n Susp=0,2594"];
"c749b190-238b-4940-bab1-75a8cccc09c7" -> "7b36b12d-eacf-4198-b1d7-ac0f77625d90";
"7b36b12d-eacf-4198-b1d7-ac0f77625d90" [style=filled, fillcolor="#C0C0C0", label="android.view.View.layout\n Susp=0,2604"];
"7b36b12d-eacf-4198-b1d7-ac0f77625d90" -> "8c73cd32-0134-4593-803d-ccfa55d04787";
"8c73cd32-0134-4593-803d-ccfa55d04787" [style=filled, fillcolor="#C0C0C0", label="android.widget.FrameLayout.onLayout\n Susp=0,2614"];
"8c73cd32-0134-4593-803d-ccfa55d04787" -> "fa6e377f-5825-4814-a6cf-21549a721837";
"fa6e377f-5825-4814-a6cf-21549a721837" [style=filled, fillcolor="#C0C0C0", label="android.widget.FrameLayout.layoutChildren\n Susp=0,2624"];
"fa6e377f-5825-4814-a6cf-21549a721837" -> "f73de674-b133-49c4-bc91-67311ae29ac7";
"f73de674-b133-49c4-bc91-67311ae29ac7" [style=filled, fillcolor="#C0C0C0", label="android.view.ViewGroup.layout\n Susp=0,2634"];
"f73de674-b133-49c4-bc91-67311ae29ac7" -> "a1f410ba-04fa-4312-b882-af84efccba1f";
"a1f410ba-04fa-4312-b882-af84efccba1f" [style=filled, fillcolor="#C0C0C0", label="android.view.View.layout\n Susp=0,2644"];
"a1f410ba-04fa-4312-b882-af84efccba1f" -> "2d05fb91-cc41-4aa5-9d2a-cc984e04223a";
"2d05fb91-cc41-4aa5-9d2a-cc984e04223a" [style=filled, fillcolor="#C0C0C0", label="android.support.v7.widget.ActionBarOverlayLayout.onLayout\n Susp=0,2654"];
"2d05fb91-cc41-4aa5-9d2a-cc984e04223a" -> "fb37fae6-60e6-4965-af6e-fc8b04f6765d";
"fb37fae6-60e6-4965-af6e-fc8b04f6765d" [style=filled, fillcolor="#C0C0C0", label="android.view.ViewGroup.layout\n Susp=0,2664"];
"fb37fae6-60e6-4965-af6e-fc8b04f6765d" -> "649666b3-c7d9-49de-842b-330691d393ac";
"649666b3-c7d9-49de-842b-330691d393ac" [style=filled, fillcolor="#C0C0C0", label="android.view.View.layout\n Susp=0,2674"];
"649666b3-c7d9-49de-842b-330691d393ac" -> "ca831bd2-438c-44aa-b019-580152c1a5f8";
"ca831bd2-438c-44aa-b019-580152c1a5f8" [style=filled, fillcolor="#C0C0C0", label="android.widget.FrameLayout.onLayout\n Susp=0,2684"];
"ca831bd2-438c-44aa-b019-580152c1a5f8" -> "5cb42fc2-de48-4f93-b05f-f2a1a9c57570";
"5cb42fc2-de48-4f93-b05f-f2a1a9c57570" [style=filled, fillcolor="#C0C0C0", label="android.widget.FrameLayout.layoutChildren\n Susp=0,2694"];
"5cb42fc2-de48-4f93-b05f-f2a1a9c57570" -> "c57728ba-c130-4c5e-8b42-dcabf89c6ba0";
"c57728ba-c130-4c5e-8b42-dcabf89c6ba0" [style=filled, fillcolor="#C0C0C0", label="android.view.ViewGroup.layout\n Susp=0,2704"];
"c57728ba-c130-4c5e-8b42-dcabf89c6ba0" -> "18ab478d-c973-4600-890d-f600dbacff99";
"18ab478d-c973-4600-890d-f600dbacff99" [style=filled, fillcolor="#C0C0C0", label="android.view.View.layout\n Susp=0,2714"];
"18ab478d-c973-4600-890d-f600dbacff99" -> "8ac13551-8664-43bb-a29f-02f0a347f306";
"8ac13551-8664-43bb-a29f-02f0a347f306" [style=filled, fillcolor="#C0C0C0", label="android.widget.RelativeLayout.onLayout\n Susp=0,2724"];
"8ac13551-8664-43bb-a29f-02f0a347f306" -> "0e6f02db-c3cf-467e-af58-c7f6576d4d10";
"0e6f02db-c3cf-467e-af58-c7f6576d4d10" [style=filled, fillcolor="#C0C0C0", label="android.view.ViewGroup.layout\n Susp=0,2734"];
"0e6f02db-c3cf-467e-af58-c7f6576d4d10" -> "2b5f499a-d012-445c-a0a5-97493bf6d700";
"2b5f499a-d012-445c-a0a5-97493bf6d700" [style=filled, fillcolor="#C0C0C0", label="android.view.View.layout\n Susp=0,2744"];
"2b5f499a-d012-445c-a0a5-97493bf6d700" -> "718729c1-017e-47ee-9b64-2a6c329a95af";
"718729c1-017e-47ee-9b64-2a6c329a95af" [style=filled, fillcolor="#C0C0C0", label="android.widget.AbsListView.onLayout\n Susp=0,2754"];
"718729c1-017e-47ee-9b64-2a6c329a95af" -> "aa26e847-9a82-43cb-b6cb-776a3c413a8e";
"aa26e847-9a82-43cb-b6cb-776a3c413a8e" [style=filled, fillcolor="#C0C0C0", label="android.widget.ListView.layoutChildren\n Susp=0,2764"];
"aa26e847-9a82-43cb-b6cb-776a3c413a8e" -> "81606272-8aa1-4223-98e1-a53eff652ed1";
"81606272-8aa1-4223-98e1-a53eff652ed1" [style=filled, fillcolor="#C0C0C0", label="android.widget.ListView.fillFromTop\n Susp=0,2774"];
"81606272-8aa1-4223-98e1-a53eff652ed1" -> "7c8471f1-2df7-4f9d-8a2c-cbee4a10e57c";
"7c8471f1-2df7-4f9d-8a2c-cbee4a10e57c" [style=filled, fillcolor="#C0C0C0", label="android.widget.ListView.fillDown\n Susp=0,2784"];
"7c8471f1-2df7-4f9d-8a2c-cbee4a10e57c" -> "4461f233-f7c7-414c-9421-f6178eb4d985";
"4461f233-f7c7-414c-9421-f6178eb4d985" [style=filled, fillcolor="#C0C0C0", label="android.widget.ListView.makeAndAddView\n Susp=0,2794"];
"4461f233-f7c7-414c-9421-f6178eb4d985" -> "8afdb306-4d07-4adb-bc51-bb4ecdc318b1";
"8afdb306-4d07-4adb-bc51-bb4ecdc318b1" [style=filled, fillcolor="#C0C0C0", label="android.widget.AbsListView.obtainView\n Susp=0,2804"];
"8afdb306-4d07-4adb-bc51-bb4ecdc318b1" -> "0003d9e7-3f0e-4ec3-ac73-5baec27b806d";
"0003d9e7-3f0e-4ec3-ac73-5baec27b806d" [style=filled, fillcolor="#C0C0C0", label="com.example.arial.bosstransfer.core.AbsOrdinaryAdapter.getView\n Susp=0,2814"];
"0003d9e7-3f0e-4ec3-ac73-5baec27b806d" -> "023e6951-4cdf-45a1-a4d6-0f0c99684c7d";
"023e6951-4cdf-45a1-a4d6-0f0c99684c7d" [style=filled, fillcolor="#FFFFFF", label="android.view.LayoutInflater.inflate\n Susp=0,0519"];
"08e9a768-b775-4f61-bfcb-e2147972c634" -> "391e2c37-3b97-48d9-baa7-7ae104ec8b86";
"391e2c37-3b97-48d9-baa7-7ae104ec8b86" [style=filled, fillcolor="#A9A9A9", label="android.widget.FrameLayout.onLayout\n Susp=0,3234"];
"391e2c37-3b97-48d9-baa7-7ae104ec8b86" -> "31d413dd-f2a9-42b3-b8c4-f07d42000d47";
"31d413dd-f2a9-42b3-b8c4-f07d42000d47" [style=filled, fillcolor="#A9A9A9", label="android.widget.FrameLayout.layoutChildren\n Susp=0,3244"];
"31d413dd-f2a9-42b3-b8c4-f07d42000d47" -> "6fa30066-1227-4b3f-8d4f-c6e571fce53d";
"6fa30066-1227-4b3f-8d4f-c6e571fce53d" [style=filled, fillcolor="#A9A9A9", label="android.view.ViewGroup.layout\n Susp=0,3254"];
"6fa30066-1227-4b3f-8d4f-c6e571fce53d" -> "f6a7f326-174b-4b6a-91be-c2f770fa8e5e";
"f6a7f326-174b-4b6a-91be-c2f770fa8e5e" [style=filled, fillcolor="#A9A9A9", label="android.view.View.layout\n Susp=0,3264"];
"f6a7f326-174b-4b6a-91be-c2f770fa8e5e" -> "7b8ff908-b381-4ca0-8c69-b23d553b9fa4";
"7b8ff908-b381-4ca0-8c69-b23d553b9fa4" [style=filled, fillcolor="#A9A9A9", label="android.widget.LinearLayout.onLayout\n Susp=0,3274"];
"7b8ff908-b381-4ca0-8c69-b23d553b9fa4" -> "0586b66a-7f90-4a91-91d9-dab134537e38";
"0586b66a-7f90-4a91-91d9-dab134537e38" [style=filled, fillcolor="#A9A9A9", label="android.widget.LinearLayout.layoutVertical\n Susp=0,3284"];
"0586b66a-7f90-4a91-91d9-dab134537e38" -> "8ff7eac2-44a3-43ee-99d5-755c51369226";
"8ff7eac2-44a3-43ee-99d5-755c51369226" [style=filled, fillcolor="#A9A9A9", label="android.widget.LinearLayout.setChildFrame\n Susp=0,3294"];
"8ff7eac2-44a3-43ee-99d5-755c51369226" -> "cc546188-eeca-49fd-95b7-51b855611276";
"cc546188-eeca-49fd-95b7-51b855611276" [style=filled, fillcolor="#A9A9A9", label="android.view.ViewGroup.layout\n Susp=0,3304"];
"cc546188-eeca-49fd-95b7-51b855611276" -> "ad330bd5-380f-4a98-80f7-897b1b2d7e76";
"ad330bd5-380f-4a98-80f7-897b1b2d7e76" [style=filled, fillcolor="#A9A9A9", label="android.view.View.layout\n Susp=0,3314"];
"ad330bd5-380f-4a98-80f7-897b1b2d7e76" -> "be1ab0dc-0e06-4246-90d9-4d5ae80f280b";
"be1ab0dc-0e06-4246-90d9-4d5ae80f280b" [style=filled, fillcolor="#A9A9A9", label="android.widget.FrameLayout.onLayout\n Susp=0,3324"];
"be1ab0dc-0e06-4246-90d9-4d5ae80f280b" -> "382fa2c1-961b-4eb4-bccd-1b62c4b4a446";
"382fa2c1-961b-4eb4-bccd-1b62c4b4a446" [style=filled, fillcolor="#A9A9A9", label="android.widget.FrameLayout.layoutChildren\n Susp=0,3334"];
"382fa2c1-961b-4eb4-bccd-1b62c4b4a446" -> "75393f40-9e54-41ce-b9da-449a7160caee";
"75393f40-9e54-41ce-b9da-449a7160caee" [style=filled, fillcolor="#A9A9A9", label="android.view.ViewGroup.layout\n Susp=0,3344"];
"75393f40-9e54-41ce-b9da-449a7160caee" -> "70115099-3a58-48e4-9c26-edd1ae6a1e8b";
"70115099-3a58-48e4-9c26-edd1ae6a1e8b" [style=filled, fillcolor="#A9A9A9", label="android.view.View.layout\n Susp=0,3354"];
"70115099-3a58-48e4-9c26-edd1ae6a1e8b" -> "39da1676-5f8d-4f10-bada-d03d39385ee7";
"39da1676-5f8d-4f10-bada-d03d39385ee7" [style=filled, fillcolor="#A9A9A9", label="android.support.v7.widget.ActionBarOverlayLayout.onLayout\n Susp=0,3364"];
"39da1676-5f8d-4f10-bada-d03d39385ee7" -> "e446e6d1-f8ff-4295-b8ee-0de75d10e4cf";
"e446e6d1-f8ff-4295-b8ee-0de75d10e4cf" [style=filled, fillcolor="#A9A9A9", label="android.view.ViewGroup.layout\n Susp=0,3374"];
"e446e6d1-f8ff-4295-b8ee-0de75d10e4cf" -> "73c01926-d411-4711-b192-abf3d3e002dc";
"73c01926-d411-4711-b192-abf3d3e002dc" [style=filled, fillcolor="#A9A9A9", label="android.view.View.layout\n Susp=0,3384"];
"73c01926-d411-4711-b192-abf3d3e002dc" -> "ad228251-3efe-4bdb-b375-f7f0af8237fb";
"ad228251-3efe-4bdb-b375-f7f0af8237fb" [style=filled, fillcolor="#A9A9A9", label="android.widget.FrameLayout.onLayout\n Susp=0,3394"];
"ad228251-3efe-4bdb-b375-f7f0af8237fb" -> "621d6c26-c98d-49fb-b145-963796fc6266";
"621d6c26-c98d-49fb-b145-963796fc6266" [style=filled, fillcolor="#A9A9A9", label="android.widget.FrameLayout.layoutChildren\n Susp=0,3404"];
"621d6c26-c98d-49fb-b145-963796fc6266" -> "75183120-8aa4-48af-ad65-5f7bc3739360";
"75183120-8aa4-48af-ad65-5f7bc3739360" [style=filled, fillcolor="#A9A9A9", label="android.view.ViewGroup.layout\n Susp=0,3414"];
"75183120-8aa4-48af-ad65-5f7bc3739360" -> "af8d62a4-5e47-47f8-93a9-9756a7a43c14";
"af8d62a4-5e47-47f8-93a9-9756a7a43c14" [style=filled, fillcolor="#A9A9A9", label="android.view.View.layout\n Susp=0,3424"];
"af8d62a4-5e47-47f8-93a9-9756a7a43c14" -> "ce3eb748-4b67-48bf-ad04-fde68b2c5da5";
"ce3eb748-4b67-48bf-ad04-fde68b2c5da5" [style=filled, fillcolor="#A9A9A9", label="android.widget.RelativeLayout.onLayout\n Susp=0,3434"];
"ce3eb748-4b67-48bf-ad04-fde68b2c5da5" -> "c1eebdd8-9a02-4e50-9d2c-21dd83bf5cd1";
"c1eebdd8-9a02-4e50-9d2c-21dd83bf5cd1" [style=filled, fillcolor="#A9A9A9", label="android.view.ViewGroup.layout\n Susp=0,3444"];
"c1eebdd8-9a02-4e50-9d2c-21dd83bf5cd1" -> "8e51e8ca-6c66-4f86-9265-79ef07722206";
"8e51e8ca-6c66-4f86-9265-79ef07722206" [style=filled, fillcolor="#A9A9A9", label="android.view.View.layout\n Susp=0,3454"];
"8e51e8ca-6c66-4f86-9265-79ef07722206" -> "3f418c57-45fa-47b8-a9c4-1e2ce87d2e42";
"3f418c57-45fa-47b8-a9c4-1e2ce87d2e42" [style=filled, fillcolor="#A9A9A9", label="android.widget.AbsListView.onLayout\n Susp=0,3464"];
"3f418c57-45fa-47b8-a9c4-1e2ce87d2e42" -> "692d1e7a-c60a-43d8-9e94-89dcca23afda";
"692d1e7a-c60a-43d8-9e94-89dcca23afda" [style=filled, fillcolor="#A9A9A9", label="android.widget.ListView.layoutChildren\n Susp=0,3474"];
"692d1e7a-c60a-43d8-9e94-89dcca23afda" -> "02e621fc-b5ee-4b41-ba98-bc2e07c33eda";
"02e621fc-b5ee-4b41-ba98-bc2e07c33eda" [style=filled, fillcolor="#A9A9A9", label="android.widget.ListView.fillFromTop\n Susp=0,3484"];
"02e621fc-b5ee-4b41-ba98-bc2e07c33eda" -> "f4462d5a-829e-4bc6-99b8-2209d2597349";
"f4462d5a-829e-4bc6-99b8-2209d2597349" [style=filled, fillcolor="#A9A9A9", label="android.widget.ListView.fillDown\n Susp=0,3494"];
"f4462d5a-829e-4bc6-99b8-2209d2597349" -> "d4956e80-755e-45e3-93d8-380381e77c22";
"d4956e80-755e-45e3-93d8-380381e77c22" [style=filled, fillcolor="#A9A9A9", label="android.widget.ListView.makeAndAddView\n Susp=0,3504"];
"d4956e80-755e-45e3-93d8-380381e77c22" -> "5edaab40-cce4-464a-a0c8-1218ec3e1941";
"5edaab40-cce4-464a-a0c8-1218ec3e1941" [style=filled, fillcolor="#A9A9A9", label="android.widget.AbsListView.obtainView\n Susp=0,3514"];
"5edaab40-cce4-464a-a0c8-1218ec3e1941" -> "912bbbba-f9f1-4466-9cc2-1fe2c82aab76";
"912bbbba-f9f1-4466-9cc2-1fe2c82aab76" [style=filled, fillcolor="#A9A9A9", label="com.example.arial.bosstransfer.core.AbsOrdinaryAdapter.getView\n Susp=0,3524"];
"912bbbba-f9f1-4466-9cc2-1fe2c82aab76" -> "fa1b4287-eebb-47f2-9e4f-e2075f9b47c1";
"fa1b4287-eebb-47f2-9e4f-e2075f9b47c1" [style=filled, fillcolor="#FFFFFF", label="android.view.LayoutInflater.inflate\n Susp=0,0869"];
"b3993042-cf81-4111-a972-43ea7cac4c96" -> "bd9727c2-9034-4a36-b420-27072e467c13";
"bd9727c2-9034-4a36-b420-27072e467c13" [style=filled, fillcolor="#A9A9A9", label="android.widget.AbsListView$3.run\n Susp=0,3957"];
"bd9727c2-9034-4a36-b420-27072e467c13" -> "a85a7934-a14c-4539-a5b8-d2014f318592";
"a85a7934-a14c-4539-a5b8-d2014f318592" [style=filled, fillcolor="#A9A9A9", label="android.widget.AbsListView$PerformClick.run\n Susp=0,3967"];
"a85a7934-a14c-4539-a5b8-d2014f318592" -> "5388dce6-4503-4597-b43b-35ef237679dd";
"5388dce6-4503-4597-b43b-35ef237679dd" [style=filled, fillcolor="#A9A9A9", label="android.widget.AbsListView.performItemClick\n Susp=0,3977"];
"5388dce6-4503-4597-b43b-35ef237679dd" -> "e004ede8-c402-4407-8092-ffb34834d736";
"e004ede8-c402-4407-8092-ffb34834d736" [style=filled, fillcolor="#5E5E5E",fontcolor=white, label="android.widget.AdapterView.performItemClick\n Susp=0,852"];
"e004ede8-c402-4407-8092-ffb34834d736" -> "004f3f4a-dc78-4d19-8220-167f6ed59971";
"004f3f4a-dc78-4d19-8220-167f6ed59971" [style=filled, fillcolor="#C0C0C0", label="com.example.arial.bosstransfer.MainActivity$1.onItemClick\n Susp=0,2814"];
"004f3f4a-dc78-4d19-8220-167f6ed59971" -> "807d7180-619b-4d1b-b137-9980829303fb";
"807d7180-619b-4d1b-b137-9980829303fb" [style=filled, fillcolor="#C0C0C0", label="com.example.arial.bosstransfer.TurnHelp.turn\n Susp=0,2618"];
"807d7180-619b-4d1b-b137-9980829303fb" -> "8d7cd03b-b80e-4b30-89f6-394498141712";
"8d7cd03b-b80e-4b30-89f6-394498141712" [style=filled, fillcolor="#EBEBEB", label="com.example.arial.bosstransfer.boss.BossTransferView.<init>\n Susp=0,2422"];
"8d7cd03b-b80e-4b30-89f6-394498141712" -> "ef147a58-ec45-43be-a1bc-0d0eedb4bb35";
"ef147a58-ec45-43be-a1bc-0d0eedb4bb35" [style=filled, fillcolor="#EBEBEB", label="com.example.arial.bosstransfer.boss.BossTransferView.init\n Susp=0,2432"];
"ef147a58-ec45-43be-a1bc-0d0eedb4bb35" -> "ed6a6408-6115-460f-9c46-65237b6ddee6";
"ed6a6408-6115-460f-9c46-65237b6ddee6" [style=filled, fillcolor="#FFFFFF", label="android.view.LayoutInflater.inflate\n Susp=0,0176"];
"e004ede8-c402-4407-8092-ffb34834d736" -> "7908bbc2-38b9-4381-9e87-ec5910fbdc7b";
"7908bbc2-38b9-4381-9e87-ec5910fbdc7b" [style=filled, fillcolor="#A9A9A9", label="android.view.View.sendAccessibilityEvent\n Susp=0,3431"];
"7908bbc2-38b9-4381-9e87-ec5910fbdc7b" -> "208d93ab-e2c4-4a5e-8540-c8311ea034d1";
"208d93ab-e2c4-4a5e-8540-c8311ea034d1" [style=filled, fillcolor="#A9A9A9", label="android.view.View$AccessibilityDelegate.sendAccessibilityEvent\n Susp=0,3441"];
"208d93ab-e2c4-4a5e-8540-c8311ea034d1" -> "6e4325c1-bde5-4706-b8e0-c7da077e5ece";
"6e4325c1-bde5-4706-b8e0-c7da077e5ece" [style=filled, fillcolor="#A9A9A9", label="android.view.View.sendAccessibilityEventInternal\n Susp=0,3451"];
"6e4325c1-bde5-4706-b8e0-c7da077e5ece" -> "a12e28a0-e2f1-408f-b06f-3bcb92d3c105";
"a12e28a0-e2f1-408f-b06f-3bcb92d3c105" [style=filled, fillcolor="#A9A9A9", label="android.view.View.sendAccessibilityEventUnchecked\n Susp=0,3461"];
"a12e28a0-e2f1-408f-b06f-3bcb92d3c105" -> "3cd2c88d-eaa1-40c6-b801-929bfb94d7d2";
"3cd2c88d-eaa1-40c6-b801-929bfb94d7d2" [style=filled, fillcolor="#A9A9A9", label="android.view.View$AccessibilityDelegate.sendAccessibilityEventUnchecked\n Susp=0,3471"];
"3cd2c88d-eaa1-40c6-b801-929bfb94d7d2" -> "e60076df-f687-4dac-8de7-8e826ce30976";
"e60076df-f687-4dac-8de7-8e826ce30976" [style=filled, fillcolor="#A9A9A9", label="android.view.View.sendAccessibilityEventUncheckedInternal\n Susp=0,3481"];
"e60076df-f687-4dac-8de7-8e826ce30976" -> "8985b569-06f9-4c64-a7aa-e736b8fd4494";
"8985b569-06f9-4c64-a7aa-e736b8fd4494" [style=filled, fillcolor="#A9A9A9", label="android.view.ViewGroup.requestSendAccessibilityEvent\n Susp=0,3491"];
"8985b569-06f9-4c64-a7aa-e736b8fd4494" -> "9955db85-dda6-405a-a221-fc6b66cce4e6";
"9955db85-dda6-405a-a221-fc6b66cce4e6" [style=filled, fillcolor="#A9A9A9", label="android.widget.AdapterView.onRequestSendAccessibilityEvent\n Susp=0,3501"];
"9955db85-dda6-405a-a221-fc6b66cce4e6" -> "ba0009f8-418a-4df1-9345-cfbc56b9d816";
"ba0009f8-418a-4df1-9345-cfbc56b9d816" [style=filled, fillcolor="#A9A9A9", label="android.widget.ListView.onInitializeAccessibilityEvent\n Susp=0,3511"];
"ba0009f8-418a-4df1-9345-cfbc56b9d816" -> "7eaead78-67b5-4ecd-beec-27761b69cf6a";
"7eaead78-67b5-4ecd-beec-27761b69cf6a" [style=filled, fillcolor="#A9A9A9", label="android.widget.AbsListView.onInitializeAccessibilityEvent\n Susp=0,3521"];
"7eaead78-67b5-4ecd-beec-27761b69cf6a" -> "7ae4d12a-ee6b-400a-83bc-1c619583e838";
"7ae4d12a-ee6b-400a-83bc-1c619583e838" [style=filled, fillcolor="#A9A9A9", label="android.widget.AdapterView.onInitializeAccessibilityEvent\n Susp=0,3531"];
"7ae4d12a-ee6b-400a-83bc-1c619583e838" -> "ebd713f9-1721-466c-bcae-720eaf6908cb";
"ebd713f9-1721-466c-bcae-720eaf6908cb" [style=filled, fillcolor="#A9A9A9", label="android.widget.AdapterView.isScrollableForAccessibility\n Susp=0,3541"];
"ebd713f9-1721-466c-bcae-720eaf6908cb" -> "6d12ff07-a69d-4ae8-ae86-acef9623c56e";
"6d12ff07-a69d-4ae8-ae86-acef9623c56e" [style=filled, fillcolor="#FFFFFF", label="com.example.arial.bosstransfer.core.AbsOrdinaryAdapter.getCount\n Susp=0,1284"];
"e004ede8-c402-4407-8092-ffb34834d736" -> "e641032c-4f74-4ef7-b83e-7675fbef88ab";
"e641032c-4f74-4ef7-b83e-7675fbef88ab" [style=filled, fillcolor="#EBEBEB", label="com.example.arial.bosstransfer.MainActivity$1.onItemClick\n Susp=0,2454"];
"e641032c-4f74-4ef7-b83e-7675fbef88ab" -> "f74d60d0-81ee-463d-9827-45a0d74b08f2";
"f74d60d0-81ee-463d-9827-45a0d74b08f2" [style=filled, fillcolor="#FFFFFF", label="android.content.ContextWrapper.checkSelfPermission\n Susp=0,0146"];
"a6459da5-4cc8-4524-ad21-6b6470de4517" -> "f3f2ca92-3f75-4e50-ab24-eea500bb1fde";
"f3f2ca92-3f75-4e50-ab24-eea500bb1fde" [style=filled, fillcolor="#EBEBEB", label="android.os.MessageQueue.next\n Susp=0,2368"];
"f3f2ca92-3f75-4e50-ab24-eea500bb1fde" -> "fe2679ef-33b7-48aa-acbe-ef396b9f8ece";
"fe2679ef-33b7-48aa-acbe-ef396b9f8ece" [style=filled, fillcolor="#EBEBEB", label="android.os.MessageQueue.nativePollOnce\n Susp=0,2378"];
"fe2679ef-33b7-48aa-acbe-ef396b9f8ece" -> "4c1d0b30-5c7d-4d64-ba6a-9b4449df5a9f";
"4c1d0b30-5c7d-4d64-ba6a-9b4449df5a9f" [style=filled, fillcolor="#EBEBEB", label="android.view.InputEventReceiver.dispatchInputEvent\n Susp=0,2388"];
"4c1d0b30-5c7d-4d64-ba6a-9b4449df5a9f" -> "8f05d885-e97a-4a1a-85c3-61e70e653e8c";
"8f05d885-e97a-4a1a-85c3-61e70e653e8c" [style=filled, fillcolor="#EBEBEB", label="android.view.ViewRootImpl$WindowInputEventReceiver.onInputEvent\n Susp=0,2398"];
"8f05d885-e97a-4a1a-85c3-61e70e653e8c" -> "d5c3bc6e-8e9d-456f-900a-ab99b9a62f59";
"d5c3bc6e-8e9d-456f-900a-ab99b9a62f59" [style=filled, fillcolor="#EBEBEB", label="android.view.ViewRootImpl.enqueueInputEvent\n Susp=0,2408"];
"d5c3bc6e-8e9d-456f-900a-ab99b9a62f59" -> "bb014b1a-d552-4f8b-a6f8-42f81df00f1d";
"bb014b1a-d552-4f8b-a6f8-42f81df00f1d" [style=filled, fillcolor="#EBEBEB", label="android.view.ViewRootImpl.doProcessInputEvents\n Susp=0,2418"];
"bb014b1a-d552-4f8b-a6f8-42f81df00f1d" -> "0fe2d345-23a8-457f-b3f8-36c6e341f5a6";
"0fe2d345-23a8-457f-b3f8-36c6e341f5a6" [style=filled, fillcolor="#EBEBEB", label="android.view.ViewRootImpl.deliverInputEvent\n Susp=0,2428"];
"0fe2d345-23a8-457f-b3f8-36c6e341f5a6" -> "a1ec6104-e64e-4233-81e7-e7fe95936378";
"a1ec6104-e64e-4233-81e7-e7fe95936378" [style=filled, fillcolor="#EBEBEB", label="android.view.ViewRootImpl$InputStage.deliver\n Susp=0,2438"];
"a1ec6104-e64e-4233-81e7-e7fe95936378" -> "c070b525-e3b2-4497-b414-5745f85e77a2";
"c070b525-e3b2-4497-b414-5745f85e77a2" [style=filled, fillcolor="#EBEBEB", label="android.view.ViewRootImpl$InputStage.apply\n Susp=0,2448"];
"c070b525-e3b2-4497-b414-5745f85e77a2" -> "735fb63f-91a0-4054-a52f-96d3ed3f712d";
"735fb63f-91a0-4054-a52f-96d3ed3f712d" [style=filled, fillcolor="#EBEBEB", label="android.view.ViewRootImpl$InputStage.forward\n Susp=0,2458"];
"735fb63f-91a0-4054-a52f-96d3ed3f712d" -> "3b0ff3c1-e5cb-412e-8083-c2df387a5006";
"3b0ff3c1-e5cb-412e-8083-c2df387a5006" [style=filled, fillcolor="#EBEBEB", label="android.view.ViewRootImpl$InputStage.onDeliverToNext\n Susp=0,2468"];
"3b0ff3c1-e5cb-412e-8083-c2df387a5006" -> "c2553678-d1eb-491c-be59-7f7dfccb07f6";
"c2553678-d1eb-491c-be59-7f7dfccb07f6" [style=filled, fillcolor="#EBEBEB", label="android.view.ViewRootImpl$InputStage.deliver\n Susp=0,2478"];
"c2553678-d1eb-491c-be59-7f7dfccb07f6" -> "b7dcd035-e36f-4848-8787-63611f3a5797";
"b7dcd035-e36f-4848-8787-63611f3a5797" [style=filled, fillcolor="#EBEBEB", label="android.view.ViewRootImpl$AsyncInputStage.apply\n Susp=0,2488"];
"b7dcd035-e36f-4848-8787-63611f3a5797" -> "b1e664a7-5c64-4470-b6cf-592a245d0045";
"b1e664a7-5c64-4470-b6cf-592a245d0045" [style=filled, fillcolor="#EBEBEB", label="android.view.ViewRootImpl$InputStage.apply\n Susp=0,2498"];
"b1e664a7-5c64-4470-b6cf-592a245d0045" -> "6df8d83f-0c1f-458d-b40c-bcc62cc4c82f";
"6df8d83f-0c1f-458d-b40c-bcc62cc4c82f" [style=filled, fillcolor="#C0C0C0", label="android.view.ViewRootImpl$AsyncInputStage.forward\n Susp=0,2508"];
"6df8d83f-0c1f-458d-b40c-bcc62cc4c82f" -> "0467e6e9-7848-4e74-9078-e5d217d4b695";
"0467e6e9-7848-4e74-9078-e5d217d4b695" [style=filled, fillcolor="#C0C0C0", label="android.view.ViewRootImpl$InputStage.forward\n Susp=0,2518"];
"0467e6e9-7848-4e74-9078-e5d217d4b695" -> "005498ee-8a17-4789-8028-f3f4137409a2";
"005498ee-8a17-4789-8028-f3f4137409a2" [style=filled, fillcolor="#C0C0C0", label="android.view.ViewRootImpl$InputStage.onDeliverToNext\n Susp=0,2528"];
"005498ee-8a17-4789-8028-f3f4137409a2" -> "ba3d1d93-c733-4a47-b8a6-7bff0dcfc19a";
"ba3d1d93-c733-4a47-b8a6-7bff0dcfc19a" [style=filled, fillcolor="#C0C0C0", label="android.view.ViewRootImpl$InputStage.deliver\n Susp=0,2538"];
"ba3d1d93-c733-4a47-b8a6-7bff0dcfc19a" -> "124ab797-071e-4399-9147-cbc414c50404";
"124ab797-071e-4399-9147-cbc414c50404" [style=filled, fillcolor="#C0C0C0", label="android.view.ViewRootImpl$ViewPostImeInputStage.onProcess\n Susp=0,2548"];
"124ab797-071e-4399-9147-cbc414c50404" -> "67e38917-6f05-4c9c-9afa-cf6b33916709";
"67e38917-6f05-4c9c-9afa-cf6b33916709" [style=filled, fillcolor="#C0C0C0", label="android.view.ViewRootImpl$ViewPostImeInputStage.processPointerEvent\n Susp=0,2558"];
"67e38917-6f05-4c9c-9afa-cf6b33916709" -> "6db09b48-f54b-4e3a-8e08-b6931a62b93a";
"6db09b48-f54b-4e3a-8e08-b6931a62b93a" [style=filled, fillcolor="#919191", label="android.view.View.dispatchPointerEvent\n Susp=0,4835"];
"6db09b48-f54b-4e3a-8e08-b6931a62b93a" -> "6cd8985f-7a64-42d6-b539-f96ca37a79c3";
"6cd8985f-7a64-42d6-b539-f96ca37a79c3" [style=filled, fillcolor="#C0C0C0", label="com.android.internal.policy.PhoneWindow$DecorView.dispatchTouchEvent\n Susp=0,2552"];
"6cd8985f-7a64-42d6-b539-f96ca37a79c3" -> "1d078106-32be-492c-bb0f-2fb5bc6fcb8c";
"1d078106-32be-492c-bb0f-2fb5bc6fcb8c" [style=filled, fillcolor="#C0C0C0", label="android.support.v7.view.WindowCallbackWrapper.dispatchTouchEvent\n Susp=0,2562"];
"1d078106-32be-492c-bb0f-2fb5bc6fcb8c" -> "bdf702f7-dea6-47d6-b9a3-d1931833ef86";
"bdf702f7-dea6-47d6-b9a3-d1931833ef86" [style=filled, fillcolor="#C0C0C0", label="android.app.Activity.dispatchTouchEvent\n Susp=0,2572"];
"bdf702f7-dea6-47d6-b9a3-d1931833ef86" -> "b40ff8e5-3f7e-4614-8458-4d4beb6f38ef";
"b40ff8e5-3f7e-4614-8458-4d4beb6f38ef" [style=filled, fillcolor="#C0C0C0", label="com.android.internal.policy.PhoneWindow.superDispatchTouchEvent\n Susp=0,2582"];
"b40ff8e5-3f7e-4614-8458-4d4beb6f38ef" -> "ab87e169-0873-498c-9a79-06e6078a3dd8";
"ab87e169-0873-498c-9a79-06e6078a3dd8" [style=filled, fillcolor="#C0C0C0", label="com.android.internal.policy.PhoneWindow$DecorView.superDispatchTouchEvent\n Susp=0,2592"];
"ab87e169-0873-498c-9a79-06e6078a3dd8" -> "0044596f-c09b-44d1-8bb4-a9abb60992f8";
"0044596f-c09b-44d1-8bb4-a9abb60992f8" [style=filled, fillcolor="#C0C0C0", label="android.view.ViewGroup.dispatchTouchEvent\n Susp=0,2602"];
"0044596f-c09b-44d1-8bb4-a9abb60992f8" -> "f03d210a-e472-42b8-bd3d-1d4b764438b3";
"f03d210a-e472-42b8-bd3d-1d4b764438b3" [style=filled, fillcolor="#C0C0C0", label="android.view.ViewGroup.dispatchTransformedTouchEvent\n Susp=0,2612"];
"f03d210a-e472-42b8-bd3d-1d4b764438b3" -> "233dbd27-c6e8-49e5-a5c0-257ba9bdbb80";
"233dbd27-c6e8-49e5-a5c0-257ba9bdbb80" [style=filled, fillcolor="#C0C0C0", label="android.view.ViewGroup.dispatchTouchEvent\n Susp=0,2622"];
"233dbd27-c6e8-49e5-a5c0-257ba9bdbb80" -> "ac6220ea-716d-4be3-9830-dc05d955b278";
"ac6220ea-716d-4be3-9830-dc05d955b278" [style=filled, fillcolor="#C0C0C0", label="android.view.ViewGroup.dispatchTransformedTouchEvent\n Susp=0,2632"];
"ac6220ea-716d-4be3-9830-dc05d955b278" -> "aee08468-b4a6-41f5-87f0-5df2132754a3";
"aee08468-b4a6-41f5-87f0-5df2132754a3" [style=filled, fillcolor="#C0C0C0", label="android.view.ViewGroup.dispatchTouchEvent\n Susp=0,2642"];
"aee08468-b4a6-41f5-87f0-5df2132754a3" -> "9a7dbd46-afb3-4a3f-8ca6-34d9fea46a25";
"9a7dbd46-afb3-4a3f-8ca6-34d9fea46a25" [style=filled, fillcolor="#C0C0C0", label="android.view.ViewGroup.dispatchTransformedTouchEvent\n Susp=0,2652"];
"9a7dbd46-afb3-4a3f-8ca6-34d9fea46a25" -> "a6cdba8b-fb1d-4303-a42d-8b9f99404be5";
"a6cdba8b-fb1d-4303-a42d-8b9f99404be5" [style=filled, fillcolor="#C0C0C0", label="android.view.ViewGroup.dispatchTouchEvent\n Susp=0,2662"];
"a6cdba8b-fb1d-4303-a42d-8b9f99404be5" -> "9bb4a180-7c75-48eb-8405-fb0d9023b375";
"9bb4a180-7c75-48eb-8405-fb0d9023b375" [style=filled, fillcolor="#C0C0C0", label="android.view.ViewGroup.dispatchTransformedTouchEvent\n Susp=0,2672"];
"9bb4a180-7c75-48eb-8405-fb0d9023b375" -> "cc7699fe-2a0c-4449-a12f-15c0ca809708";
"cc7699fe-2a0c-4449-a12f-15c0ca809708" [style=filled, fillcolor="#C0C0C0", label="android.view.ViewGroup.dispatchTouchEvent\n Susp=0,2682"];
"cc7699fe-2a0c-4449-a12f-15c0ca809708" -> "f622986f-3e38-4a4e-86e3-0f390b68f62c";
"f622986f-3e38-4a4e-86e3-0f390b68f62c" [style=filled, fillcolor="#C0C0C0", label="android.view.ViewGroup.dispatchTransformedTouchEvent\n Susp=0,2692"];
"f622986f-3e38-4a4e-86e3-0f390b68f62c" -> "4fa56809-b4b8-46dc-8317-eb6db180ee83";
"4fa56809-b4b8-46dc-8317-eb6db180ee83" [style=filled, fillcolor="#C0C0C0", label="android.view.ViewGroup.dispatchTouchEvent\n Susp=0,2702"];
"4fa56809-b4b8-46dc-8317-eb6db180ee83" -> "628fcdab-6cec-4b4c-9a65-7397ef49fcc4";
"628fcdab-6cec-4b4c-9a65-7397ef49fcc4" [style=filled, fillcolor="#C0C0C0", label="android.view.ViewGroup.dispatchTransformedTouchEvent\n Susp=0,2712"];
"628fcdab-6cec-4b4c-9a65-7397ef49fcc4" -> "acc6b5b1-cd33-4d4b-86ec-0b09a55fd12e";
"acc6b5b1-cd33-4d4b-86ec-0b09a55fd12e" [style=filled, fillcolor="#C0C0C0", label="android.view.ViewGroup.dispatchTouchEvent\n Susp=0,2722"];
"acc6b5b1-cd33-4d4b-86ec-0b09a55fd12e" -> "108b7223-f1a3-4679-be01-cae84a9931be";
"108b7223-f1a3-4679-be01-cae84a9931be" [style=filled, fillcolor="#C0C0C0", label="android.view.ViewGroup.dispatchTransformedTouchEvent\n Susp=0,2732"];
"108b7223-f1a3-4679-be01-cae84a9931be" -> "6114eee5-3d02-4a26-b476-f110059c6d56";
"6114eee5-3d02-4a26-b476-f110059c6d56" [style=filled, fillcolor="#C0C0C0", label="android.view.View.dispatchTouchEvent\n Susp=0,2742"];
"6114eee5-3d02-4a26-b476-f110059c6d56" -> "75478248-64a3-4947-a285-5903557d7032";
"75478248-64a3-4947-a285-5903557d7032" [style=filled, fillcolor="#C0C0C0", label="android.widget.AbsListView.onTouchEvent\n Susp=0,2752"];
"75478248-64a3-4947-a285-5903557d7032" -> "0f00b735-5212-4794-96c9-e013a18154bd";
"0f00b735-5212-4794-96c9-e013a18154bd" [style=filled, fillcolor="#C0C0C0", label="android.widget.AbsListView.onTouchUp\n Susp=0,2762"];
"0f00b735-5212-4794-96c9-e013a18154bd" -> "37074176-c110-4bf0-8c93-e632f405f824";
"37074176-c110-4bf0-8c93-e632f405f824" [style=filled, fillcolor="#C0C0C0", label="android.widget.AdapterView.setSelectedPositionInt\n Susp=0,2772"];
"37074176-c110-4bf0-8c93-e632f405f824" -> "6507fc56-335c-4ff1-aec3-67754c36fe94";
"6507fc56-335c-4ff1-aec3-67754c36fe94" [style=filled, fillcolor="#C0C0C0", label="android.widget.AdapterView.getItemIdAtPosition\n Susp=0,2782"];
"6507fc56-335c-4ff1-aec3-67754c36fe94" -> "252b34c3-df2a-4c3f-bef6-114a93255eaf";
"252b34c3-df2a-4c3f-bef6-114a93255eaf" [style=filled, fillcolor="#FFFFFF", label="com.example.arial.bosstransfer.core.AbsOrdinaryAdapter.getItemId\n Susp=0,0526"];
"6db09b48-f54b-4e3a-8e08-b6931a62b93a" -> "feb114a6-ac68-4890-af17-e889b077fbfb";
"feb114a6-ac68-4890-af17-e889b077fbfb" [style=filled, fillcolor="#C0C0C0", label="com.android.internal.policy.impl.PhoneWindow$DecorView.dispatchTouchEvent\n Susp=0,2552"];
"feb114a6-ac68-4890-af17-e889b077fbfb" -> "0d5e4305-3b78-4840-8340-4e62aa236442";
"0d5e4305-3b78-4840-8340-4e62aa236442" [style=filled, fillcolor="#C0C0C0", label="android.support.v7.view.WindowCallbackWrapper.dispatchTouchEvent\n Susp=0,2562"];
"0d5e4305-3b78-4840-8340-4e62aa236442" -> "699bd59c-ae07-4992-b0be-0838fd1eac4e";
"699bd59c-ae07-4992-b0be-0838fd1eac4e" [style=filled, fillcolor="#C0C0C0", label="android.app.Activity.dispatchTouchEvent\n Susp=0,2572"];
"699bd59c-ae07-4992-b0be-0838fd1eac4e" -> "93754e95-c480-4571-8390-2173b92bdc86";
"93754e95-c480-4571-8390-2173b92bdc86" [style=filled, fillcolor="#C0C0C0", label="com.android.internal.policy.impl.PhoneWindow.superDispatchTouchEvent\n Susp=0,2582"];
"93754e95-c480-4571-8390-2173b92bdc86" -> "44867cea-d90e-4440-983b-e886ae21e7e5";
"44867cea-d90e-4440-983b-e886ae21e7e5" [style=filled, fillcolor="#C0C0C0", label="com.android.internal.policy.impl.PhoneWindow$DecorView.superDispatchTouchEvent\n Susp=0,2592"];
"44867cea-d90e-4440-983b-e886ae21e7e5" -> "69afb212-b04f-46fb-9ba6-bf71792ea0c4";
"69afb212-b04f-46fb-9ba6-bf71792ea0c4" [style=filled, fillcolor="#C0C0C0", label="android.view.ViewGroup.dispatchTouchEvent\n Susp=0,2602"];
"69afb212-b04f-46fb-9ba6-bf71792ea0c4" -> "ee071aca-2a42-4359-a8ff-bff0b3dfb9c7";
"ee071aca-2a42-4359-a8ff-bff0b3dfb9c7" [style=filled, fillcolor="#C0C0C0", label="android.view.ViewGroup.dispatchTransformedTouchEvent\n Susp=0,2612"];
"ee071aca-2a42-4359-a8ff-bff0b3dfb9c7" -> "2b26c86c-ba50-4e5e-8ea7-33b9e614ddc5";
"2b26c86c-ba50-4e5e-8ea7-33b9e614ddc5" [style=filled, fillcolor="#C0C0C0", label="android.view.ViewGroup.dispatchTouchEvent\n Susp=0,2622"];
"2b26c86c-ba50-4e5e-8ea7-33b9e614ddc5" -> "f6e75fb6-4162-4fc8-8cac-453212aa6599";
"f6e75fb6-4162-4fc8-8cac-453212aa6599" [style=filled, fillcolor="#C0C0C0", label="android.view.ViewGroup.dispatchTransformedTouchEvent\n Susp=0,2632"];
"f6e75fb6-4162-4fc8-8cac-453212aa6599" -> "ce009126-0d94-4a32-b93a-a92afd87df8c";
"ce009126-0d94-4a32-b93a-a92afd87df8c" [style=filled, fillcolor="#C0C0C0", label="android.view.ViewGroup.dispatchTouchEvent\n Susp=0,2642"];
"ce009126-0d94-4a32-b93a-a92afd87df8c" -> "49b26432-8e7b-406a-9d75-2cf47e7cb528";
"49b26432-8e7b-406a-9d75-2cf47e7cb528" [style=filled, fillcolor="#C0C0C0", label="android.view.ViewGroup.dispatchTransformedTouchEvent\n Susp=0,2652"];
"49b26432-8e7b-406a-9d75-2cf47e7cb528" -> "e7a5946d-9705-4569-9ccd-b3473090fb2c";
"e7a5946d-9705-4569-9ccd-b3473090fb2c" [style=filled, fillcolor="#C0C0C0", label="android.view.ViewGroup.dispatchTouchEvent\n Susp=0,2662"];
"e7a5946d-9705-4569-9ccd-b3473090fb2c" -> "17ffe6c0-1e40-4658-a0b3-92e9e32606fe";
"17ffe6c0-1e40-4658-a0b3-92e9e32606fe" [style=filled, fillcolor="#C0C0C0", label="android.view.ViewGroup.dispatchTransformedTouchEvent\n Susp=0,2672"];
"17ffe6c0-1e40-4658-a0b3-92e9e32606fe" -> "ea348742-7be5-4302-9e7b-9880a860e381";
"ea348742-7be5-4302-9e7b-9880a860e381" [style=filled, fillcolor="#C0C0C0", label="android.view.ViewGroup.dispatchTouchEvent\n Susp=0,2682"];
"ea348742-7be5-4302-9e7b-9880a860e381" -> "9e68d9a4-deac-4ff8-a0e8-08112110dafc";
"9e68d9a4-deac-4ff8-a0e8-08112110dafc" [style=filled, fillcolor="#C0C0C0", label="android.view.ViewGroup.dispatchTransformedTouchEvent\n Susp=0,2692"];
"9e68d9a4-deac-4ff8-a0e8-08112110dafc" -> "8f40fea3-75e4-4e00-abd9-c7aa9672607b";
"8f40fea3-75e4-4e00-abd9-c7aa9672607b" [style=filled, fillcolor="#C0C0C0", label="android.view.ViewGroup.dispatchTouchEvent\n Susp=0,2702"];
"8f40fea3-75e4-4e00-abd9-c7aa9672607b" -> "7f17317b-0487-43fc-8012-671a5e52d123";
"7f17317b-0487-43fc-8012-671a5e52d123" [style=filled, fillcolor="#C0C0C0", label="android.view.ViewGroup.dispatchTransformedTouchEvent\n Susp=0,2712"];
"7f17317b-0487-43fc-8012-671a5e52d123" -> "67efc01a-1a45-453c-8d76-c861db05353e";
"67efc01a-1a45-453c-8d76-c861db05353e" [style=filled, fillcolor="#C0C0C0", label="android.view.ViewGroup.dispatchTouchEvent\n Susp=0,2722"];
"67efc01a-1a45-453c-8d76-c861db05353e" -> "7350d393-49db-4c12-a73d-2221c72ee08e";
"7350d393-49db-4c12-a73d-2221c72ee08e" [style=filled, fillcolor="#C0C0C0", label="android.view.ViewGroup.dispatchTransformedTouchEvent\n Susp=0,2732"];
"7350d393-49db-4c12-a73d-2221c72ee08e" -> "e2a74dd3-5040-4890-b62a-b2258c9ddaca";
"e2a74dd3-5040-4890-b62a-b2258c9ddaca" [style=filled, fillcolor="#C0C0C0", label="android.view.View.dispatchTouchEvent\n Susp=0,2742"];
"e2a74dd3-5040-4890-b62a-b2258c9ddaca" -> "1ea17093-b642-4c69-9ed1-31bb73b92fcd";
"1ea17093-b642-4c69-9ed1-31bb73b92fcd" [style=filled, fillcolor="#C0C0C0", label="android.widget.AbsListView.onTouchEvent\n Susp=0,2752"];
"1ea17093-b642-4c69-9ed1-31bb73b92fcd" -> "38acf75d-a347-43f9-97c4-1aaf65f803a4";
"38acf75d-a347-43f9-97c4-1aaf65f803a4" [style=filled, fillcolor="#C0C0C0", label="android.widget.AbsListView.onTouchUp\n Susp=0,2762"];
"38acf75d-a347-43f9-97c4-1aaf65f803a4" -> "e55b7391-bd51-4e0b-bd6b-5c5e668e9d77";
"e55b7391-bd51-4e0b-bd6b-5c5e668e9d77" [style=filled, fillcolor="#C0C0C0", label="android.widget.AdapterView.setSelectedPositionInt\n Susp=0,2772"];
"e55b7391-bd51-4e0b-bd6b-5c5e668e9d77" -> "9cb2dc52-e29b-4995-91d7-ad93c7c2f914";
"9cb2dc52-e29b-4995-91d7-ad93c7c2f914" [style=filled, fillcolor="#C0C0C0", label="android.widget.AdapterView.getItemIdAtPosition\n Susp=0,2782"];
"9cb2dc52-e29b-4995-91d7-ad93c7c2f914" -> "d078b832-913e-46fd-bc93-47c3bf696c40";
"d078b832-913e-46fd-bc93-47c3bf696c40" [style=filled, fillcolor="#FFFFFF", label="com.example.arial.bosstransfer.core.AbsOrdinaryAdapter.getItemId\n Susp=0,0526"];
}
