digraph SIB_treshold_2 {
"9cb73320-e3b6-4d8e-8d94-583f9262870d" [style=filled, fillcolor="#5E5E5E",fontcolor=white, label="com.android.internal.os.ZygoteInit.main\n Susp=0,62"];
"9cb73320-e3b6-4d8e-8d94-583f9262870d" -> "a9fb2285-b724-465c-93c1-03ed94439688";
"a9fb2285-b724-465c-93c1-03ed94439688" [style=filled, fillcolor="#5E5E5E",fontcolor=white, label="com.android.internal.os.ZygoteInit$MethodAndArgsCaller.run\n Susp=0,6252"];
"a9fb2285-b724-465c-93c1-03ed94439688" -> "90b73be5-e209-4bb3-a5d3-1b19247508b2";
"90b73be5-e209-4bb3-a5d3-1b19247508b2" [style=filled, fillcolor="#5E5E5E",fontcolor=white, label="java.lang.reflect.Method.invoke\n Susp=0,6304"];
"90b73be5-e209-4bb3-a5d3-1b19247508b2" -> "cda4a9b3-722e-4f58-b874-c9a57a0be533";
"cda4a9b3-722e-4f58-b874-c9a57a0be533" [style=filled, fillcolor="#5E5E5E",fontcolor=white, label="android.app.ActivityThread.main\n Susp=0,6357"];
"cda4a9b3-722e-4f58-b874-c9a57a0be533" -> "7540ecd2-6c40-4da4-8122-a005f656da40";
"7540ecd2-6c40-4da4-8122-a005f656da40" [style=filled, fillcolor="#5E5E5E",fontcolor=white, label="android.os.Looper.loop\n Susp=0,6409"];
"7540ecd2-6c40-4da4-8122-a005f656da40" -> "28d02f0b-0c73-468a-ab32-dc246251e3b8";
"28d02f0b-0c73-468a-ab32-dc246251e3b8" [style=filled, fillcolor="#5E5E5E",fontcolor=white, label="android.os.Handler.dispatchMessage\n Susp=0,9061"];
"28d02f0b-0c73-468a-ab32-dc246251e3b8" -> "9525883b-b134-4f9f-9dc8-ac0f2804d16b";
"9525883b-b134-4f9f-9dc8-ac0f2804d16b" [style=filled, fillcolor="#A9A9A9", label="android.os.Handler.handleCallback\n Susp=0,3186"];
"9525883b-b134-4f9f-9dc8-ac0f2804d16b" -> "16500dee-155f-4bf8-b0bd-8abf189d5150";
"16500dee-155f-4bf8-b0bd-8abf189d5150" [style=filled, fillcolor="#A9A9A9", label="android.view.View$PerformClick.run\n Susp=0,3238"];
"16500dee-155f-4bf8-b0bd-8abf189d5150" -> "348c6ef3-8ae1-449f-b5e7-96d3217226e1";
"348c6ef3-8ae1-449f-b5e7-96d3217226e1" [style=filled, fillcolor="#A9A9A9", label="android.view.View.performClick\n Susp=0,3291"];
"348c6ef3-8ae1-449f-b5e7-96d3217226e1" -> "0ee4079c-dc2b-456a-8228-938a74fda2d6";
"0ee4079c-dc2b-456a-8228-938a74fda2d6" [style=filled, fillcolor="#A9A9A9", label="android.support.v7.view.menu.ActionMenuItemView.onClick\n Susp=0,3343"];
"0ee4079c-dc2b-456a-8228-938a74fda2d6" -> "a17f3c9d-041b-414c-bcbb-cffffe20ac3c";
"a17f3c9d-041b-414c-bcbb-cffffe20ac3c" [style=filled, fillcolor="#A9A9A9", label="android.support.v7.widget.ActionMenuView.invokeItem\n Susp=0,3395"];
"a17f3c9d-041b-414c-bcbb-cffffe20ac3c" -> "a81a43cb-6635-4065-97d3-932f4c8850b5";
"a81a43cb-6635-4065-97d3-932f4c8850b5" [style=filled, fillcolor="#A9A9A9", label="android.support.v7.view.menu.MenuBuilder.performItemAction\n Susp=0,3447"];
"a81a43cb-6635-4065-97d3-932f4c8850b5" -> "927a2c3f-cffd-419b-8a3e-cab87d7ee8b4";
"927a2c3f-cffd-419b-8a3e-cab87d7ee8b4" [style=filled, fillcolor="#A9A9A9", label="android.support.v7.view.menu.MenuItemImpl.invoke\n Susp=0,3499"];
"927a2c3f-cffd-419b-8a3e-cab87d7ee8b4" -> "0b726451-6bd6-4b1b-9f9c-50a5731e1dad";
"0b726451-6bd6-4b1b-9f9c-50a5731e1dad" [style=filled, fillcolor="#A9A9A9", label="android.support.v7.view.menu.MenuBuilder.dispatchMenuItemSelected\n Susp=0,3551"];
"0b726451-6bd6-4b1b-9f9c-50a5731e1dad" -> "81fb0e90-a796-4749-801e-c16ee0f3960e";
"81fb0e90-a796-4749-801e-c16ee0f3960e" [style=filled, fillcolor="#A9A9A9", label="android.support.v7.widget.ActionMenuView$MenuBuilderCallback.onMenuItemSelected\n Susp=0,3604"];
"81fb0e90-a796-4749-801e-c16ee0f3960e" -> "6e3417cd-bef5-4858-aa63-26cce4fb91b8";
"6e3417cd-bef5-4858-aa63-26cce4fb91b8" [style=filled, fillcolor="#A9A9A9", label="android.support.v7.widget.Toolbar$1.onMenuItemClick\n Susp=0,3656"];
"6e3417cd-bef5-4858-aa63-26cce4fb91b8" -> "0c1278f7-fd45-4fca-b9ee-ced24ba01bfb";
"0c1278f7-fd45-4fca-b9ee-ced24ba01bfb" [style=filled, fillcolor="#A9A9A9", label="android.support.v7.app.ToolbarActionBar$2.onMenuItemClick\n Susp=0,3708"];
"0c1278f7-fd45-4fca-b9ee-ced24ba01bfb" -> "9df8dda8-93a5-4111-8398-990cffd65c60";
"9df8dda8-93a5-4111-8398-990cffd65c60" [style=filled, fillcolor="#A9A9A9", label="android.support.v7.view.WindowCallbackWrapper.onMenuItemSelected\n Susp=0,376"];
"9df8dda8-93a5-4111-8398-990cffd65c60" -> "2ac2b3d5-64d0-46fb-9bd5-0b01e90f5c4b";
"2ac2b3d5-64d0-46fb-9bd5-0b01e90f5c4b" [style=filled, fillcolor="#A9A9A9", label="android.support.v7.app.AppCompatActivity.onMenuItemSelected\n Susp=0,3812"];
"2ac2b3d5-64d0-46fb-9bd5-0b01e90f5c4b" -> "bef8fc72-125c-4273-a53f-385df944bea3";
"bef8fc72-125c-4273-a53f-385df944bea3" [style=filled, fillcolor="#A9A9A9", label="android.support.v4.app.FragmentActivity.onMenuItemSelected\n Susp=0,3864"];
"bef8fc72-125c-4273-a53f-385df944bea3" -> "0afc7204-6391-4210-ac39-6816ed22cce8";
"0afc7204-6391-4210-ac39-6816ed22cce8" [style=filled, fillcolor="#A9A9A9", label="android.app.Activity.onMenuItemSelected\n Susp=0,3917"];
"0afc7204-6391-4210-ac39-6816ed22cce8" -> "a2191d7d-836d-4c73-ac36-a996e6ad179d";
"a2191d7d-836d-4c73-ac36-a996e6ad179d" [style=filled, fillcolor="#A9A9A9", label="org.asdtm.goodweather.MainActivity.onOptionsItemSelected\n Susp=0,3969"];
"a2191d7d-836d-4c73-ac36-a996e6ad179d" -> "c2212dd5-975d-4553-80fb-0cddf83626f5";
"c2212dd5-975d-4553-80fb-0cddf83626f5" [style=filled, fillcolor="#A9A9A9", label="org.asdtm.goodweather.MainActivity.gpsRequestLocation\n Susp=0,3865"];
"c2212dd5-975d-4553-80fb-0cddf83626f5" -> "51d68d0a-de4f-48ff-b54a-4392a16052d3";
"51d68d0a-de4f-48ff-b54a-4392a16052d3" [style=filled, fillcolor="#FFFFFF", label="android.support.v4.content.ContextCompat.checkSelfPermission\n Susp=0,1239"];
"28d02f0b-0c73-468a-ab32-dc246251e3b8" -> "00b3f7f1-9db4-4dff-9d36-23a308b2f301";
"00b3f7f1-9db4-4dff-9d36-23a308b2f301" [style=filled, fillcolor="#5E5E5E",fontcolor=white, label="android.location.LocationManager$ListenerTransport$1.handleMessage\n Susp=0,624"];
"00b3f7f1-9db4-4dff-9d36-23a308b2f301" -> "6be6ba66-3265-4305-847e-ab206d353f55";
"6be6ba66-3265-4305-847e-ab206d353f55" [style=filled, fillcolor="#5E5E5E",fontcolor=white, label="android.location.LocationManager$ListenerTransport.access$000\n Susp=0,6292"];
"6be6ba66-3265-4305-847e-ab206d353f55" -> "320f0fa2-654b-4d19-a634-0bad158e10ca";
"320f0fa2-654b-4d19-a634-0bad158e10ca" [style=filled, fillcolor="#5E5E5E",fontcolor=white, label="android.location.LocationManager$ListenerTransport._handleMessage\n Susp=0,6344"];
"320f0fa2-654b-4d19-a634-0bad158e10ca" -> "5709d471-8756-466f-bd43-07ba93858afe";
"5709d471-8756-466f-bd43-07ba93858afe" [style=filled, fillcolor="#A9A9A9", label="org.asdtm.goodweather.MainActivity$1.onLocationChanged\n Susp=0,3796"];
}
