digraph FULL {
"52a21592-eced-44ff-b0e2-7c90ab383f25" [label="de.robv.android.xposed.XposedBridge.main\n Susp=0,6"];
"52a21592-eced-44ff-b0e2-7c90ab383f25" -> "47d46a33-4f02-4b73-aec4-1218f82da688";
"47d46a33-4f02-4b73-aec4-1218f82da688" [label="com.android.internal.os.ZygoteInit.main\n Susp=0,6"];
"47d46a33-4f02-4b73-aec4-1218f82da688" -> "9f905a8e-f63b-426d-ba69-857026ec142d";
"9f905a8e-f63b-426d-ba69-857026ec142d" [label="com.android.internal.os.ZygoteInit$MethodAndArgsCaller.run\n Susp=0,6"];
"9f905a8e-f63b-426d-ba69-857026ec142d" -> "53bb6403-538e-467b-ba43-d7bd1fa0378c";
"53bb6403-538e-467b-ba43-d7bd1fa0378c" [label="java.lang.reflect.Method.invoke\n Susp=0,6"];
"53bb6403-538e-467b-ba43-d7bd1fa0378c" -> "4351a77e-13b7-4232-96c1-37a39a0c0c1c";
"4351a77e-13b7-4232-96c1-37a39a0c0c1c" [label="android.app.ActivityThread.main\n Susp=0,6"];
"4351a77e-13b7-4232-96c1-37a39a0c0c1c" -> "1ff3ccdf-9e40-441d-b148-d27445f103b3";
"1ff3ccdf-9e40-441d-b148-d27445f103b3" [label="android.os.Looper.loop\n Susp=0,6"];
"1ff3ccdf-9e40-441d-b148-d27445f103b3" -> "dd395d6d-99ba-4821-84be-a3a46b939660";
"dd395d6d-99ba-4821-84be-a3a46b939660" [label="android.os.Handler.dispatchMessage\n Susp=1"];
"dd395d6d-99ba-4821-84be-a3a46b939660" -> "97938495-56af-4c93-992e-3202228bd564";
"97938495-56af-4c93-992e-3202228bd564" [label="com.google.android.gms.common.internal.zzj$zzb.handleMessage\n Susp=0,5143"];
"97938495-56af-4c93-992e-3202228bd564" -> "1b56a4c2-d922-4c85-b624-8ded1ad71840";
"1b56a4c2-d922-4c85-b624-8ded1ad71840" [label="com.google.android.gms.common.internal.zzj$zzc.zzph\n Susp=0,5143"];
"1b56a4c2-d922-4c85-b624-8ded1ad71840" -> "05be7863-4e28-48a7-8846-a26eb2bba9c1";
"05be7863-4e28-48a7-8846-a26eb2bba9c1" [label="com.google.android.gms.common.internal.zzj$zza.zzt\n Susp=0,5143"];
"05be7863-4e28-48a7-8846-a26eb2bba9c1" -> "3fcc2ed1-16d2-4b69-9b06-ec8c7131f0d9";
"3fcc2ed1-16d2-4b69-9b06-ec8c7131f0d9" [label="com.google.android.gms.common.internal.zzj$zza.zzc\n Susp=0,5143"];
"3fcc2ed1-16d2-4b69-9b06-ec8c7131f0d9" -> "62ef7f34-3e5f-43e3-a439-d110c15c7bf2";
"62ef7f34-3e5f-43e3-a439-d110c15c7bf2" [label="com.google.android.gms.common.internal.zzj$zzg.zzpf\n Susp=0,5143"];
"62ef7f34-3e5f-43e3-a439-d110c15c7bf2" -> "2ef2ae6a-7749-45ed-8e07-fa790c383622";
"2ef2ae6a-7749-45ed-8e07-fa790c383622" [label="com.google.android.gms.internal.zzli$2.onConnected\n Susp=0,5143"];
"2ef2ae6a-7749-45ed-8e07-fa790c383622" -> "8b110f47-d592-4e7a-93c0-378c3b68a58a";
"8b110f47-d592-4e7a-93c0-378c3b68a58a" [label="com.google.android.gms.internal.zzlg.onConnected\n Susp=0,5143"];
"8b110f47-d592-4e7a-93c0-378c3b68a58a" -> "bad563f2-e2b3-4743-af27-0267a76c18d8";
"bad563f2-e2b3-4743-af27-0267a76c18d8" [label="com.google.android.gms.internal.zzlg.zznU\n Susp=0,5143"];
"bad563f2-e2b3-4743-af27-0267a76c18d8" -> "cb8f3be3-7674-48c9-bbf0-d036605a98d7";
"cb8f3be3-7674-48c9-bbf0-d036605a98d7" [label="com.google.android.gms.common.internal.zzk.zzh\n Susp=0,5143"];
"cb8f3be3-7674-48c9-bbf0-d036605a98d7" -> "4f9bcbc5-9390-4e2c-b384-c5b400645ba5";
"4f9bcbc5-9390-4e2c-b384-c5b400645ba5" [label="com.example.mapdemo.MapDemoActivity.onConnected\n Susp=0,5143"];
"4f9bcbc5-9390-4e2c-b384-c5b400645ba5" -> "6c70dc8d-578e-4ca9-8646-1abe9ec9e52e";
"6c70dc8d-578e-4ca9-8646-1abe9ec9e52e" [label="de.robv.android.xposed.XposedBridge.handleHookedMethod\n Susp=0,5143"];
"6c70dc8d-578e-4ca9-8646-1abe9ec9e52e" -> "6b343be6-1e01-4266-921e-e4f1618ead1d";
"6b343be6-1e01-4266-921e-e4f1618ead1d" [label="de.robv.android.xposed.XposedBridge.invokeOriginalMethodNative\n Susp=0,5143"];
"6b343be6-1e01-4266-921e-e4f1618ead1d" -> "36734823-df8f-4084-a239-54c1e73d29d6";
"36734823-df8f-4084-a239-54c1e73d29d6" [label="com.example.mapdemo.MapDemoActivity.onConnected\n Susp=0,5143"];
"36734823-df8f-4084-a239-54c1e73d29d6" -> "d2086011-4abf-4bd6-b72f-297c4501cbe7";
"d2086011-4abf-4bd6-b72f-297c4501cbe7" [label="android.location.Location.getLatitude\n Susp=0,5143"];
"d2086011-4abf-4bd6-b72f-297c4501cbe7" -> "cf16b6ab-18f5-47eb-bdcc-68bdaf73528e";
"cf16b6ab-18f5-47eb-bdcc-68bdaf73528e" [label="de.robv.android.xposed.XposedBridge.handleHookedMethod\n Susp=0,5143"];
"cf16b6ab-18f5-47eb-bdcc-68bdaf73528e" -> "93eb1393-1d23-4070-8f08-7841e2a6440b";
"93eb1393-1d23-4070-8f08-7841e2a6440b" [label="it.unimib.disco.lta.unimiblogger.MyMethodHook.beforeHookedMethod\n Susp=0,5143"];
"93eb1393-1d23-4070-8f08-7841e2a6440b" -> "19a57707-304b-4d8a-8f41-6ed29af3027d";
"19a57707-304b-4d8a-8f41-6ed29af3027d" [label="java.lang.Thread.getStackTrace\n Susp=0,5143"];
"19a57707-304b-4d8a-8f41-6ed29af3027d" -> "ca8f3f58-0972-4124-b15e-8e7db93ecb9f";
"ca8f3f58-0972-4124-b15e-8e7db93ecb9f" [label="dalvik.system.VMStack.getThreadStackTrace\n Susp=0,1143"];
"dd395d6d-99ba-4821-84be-a3a46b939660" -> "50bf4f95-ff2d-48ac-880c-bbb335621576";
"50bf4f95-ff2d-48ac-880c-bbb335621576" [label="android.os.Handler.handleCallback\n Susp=0,4857"];
"50bf4f95-ff2d-48ac-880c-bbb335621576" -> "0872a7be-ef12-4a47-b1d1-ccea2dc74ed3";
"0872a7be-ef12-4a47-b1d1-ccea2dc74ed3" [label="android.view.View$PerformClick.run\n Susp=0,4857"];
"0872a7be-ef12-4a47-b1d1-ccea2dc74ed3" -> "73384181-b021-4662-873b-a739aa420311";
"73384181-b021-4662-873b-a739aa420311" [label="android.view.View.performClick\n Susp=0,4857"];
"73384181-b021-4662-873b-a739aa420311" -> "d6fabba1-eefd-4ef3-9699-007045e76069";
"d6fabba1-eefd-4ef3-9699-007045e76069" [label="com.example.mapdemo.MapDemoActivity$2.onClick\n Susp=0,4857"];
"d6fabba1-eefd-4ef3-9699-007045e76069" -> "23fb2239-dcf8-40f8-8992-c7984f84a857";
"23fb2239-dcf8-40f8-8992-c7984f84a857" [label="de.robv.android.xposed.XposedBridge.handleHookedMethod\n Susp=0,4857"];
"23fb2239-dcf8-40f8-8992-c7984f84a857" -> "4473d41a-b593-469d-9b50-b2ac5b73ae55";
"4473d41a-b593-469d-9b50-b2ac5b73ae55" [label="de.robv.android.xposed.XposedBridge.invokeOriginalMethodNative\n Susp=0,4857"];
"4473d41a-b593-469d-9b50-b2ac5b73ae55" -> "b0eb815e-39d2-4bcc-a2a5-3567731a359f";
"b0eb815e-39d2-4bcc-a2a5-3567731a359f" [label="com.example.mapdemo.MapDemoActivity$2.onClick\n Susp=0,4857"];
"b0eb815e-39d2-4bcc-a2a5-3567731a359f" -> "934f9ddd-f7eb-4d17-bada-09ea529251d8";
"934f9ddd-f7eb-4d17-bada-09ea529251d8" [label="android.location.Location.getLatitude\n Susp=0,4857"];
"934f9ddd-f7eb-4d17-bada-09ea529251d8" -> "6e413d21-7b4d-43af-8afd-7173f8f46101";
"6e413d21-7b4d-43af-8afd-7173f8f46101" [label="de.robv.android.xposed.XposedBridge.handleHookedMethod\n Susp=0,4857"];
"6e413d21-7b4d-43af-8afd-7173f8f46101" -> "01344ce7-de2d-41c9-81e3-2df33b4b4cc9";
"01344ce7-de2d-41c9-81e3-2df33b4b4cc9" [label="it.unimib.disco.lta.unimiblogger.MyMethodHook.beforeHookedMethod\n Susp=0,4857"];
"01344ce7-de2d-41c9-81e3-2df33b4b4cc9" -> "ed101c8c-08ea-45f4-9061-bcd6115013fa";
"ed101c8c-08ea-45f4-9061-bcd6115013fa" [label="java.lang.Thread.getStackTrace\n Susp=0,4857"];
"ed101c8c-08ea-45f4-9061-bcd6115013fa" -> "d7ebcf5e-8d33-4e49-b172-26d5c5bd205a";
"d7ebcf5e-8d33-4e49-b172-26d5c5bd205a" [label="dalvik.system.VMStack.getThreadStackTrace\n Susp=0,0857"];
}
