Position |MethodName|Relevancy
0.125|android.os.Handler.dispatchMessage|1.0
0.25|org.asdtm.goodweather.MainActivity.gpsRequestLocation|0.7640793201133145
0.375|android.os.Looper.loop|0.62
0.5|android.location.LocationManager$ListenerTransport._handleMessage|0.6118413597733711
0.625|org.asdtm.goodweather.MainActivity.onOptionsItemSelected|0.3881586402266289
0.75|org.asdtm.goodweather.MainActivity$1.onLocationChanged|0.2318413597733711
0.875|android.support.v4.content.ContextCompat.checkSelfPermission|0.0027195467422096316
1.0|android.location.LocationManager.requestLocationUpdates|0.0013597733711048158
