digraph FULL {
"d9bacf57-9a98-4c22-89ed-e74a923450c3" [label="de.robv.android.xposed.XposedBridge.main\n Susp=1"];
"d9bacf57-9a98-4c22-89ed-e74a923450c3" -> "b36400f9-ea34-4369-8989-97e031217d27";
"b36400f9-ea34-4369-8989-97e031217d27" [label="com.android.internal.os.ZygoteInit.main\n Susp=1"];
"b36400f9-ea34-4369-8989-97e031217d27" -> "0b4ef023-419f-4d69-ae10-64e51b0d1f7e";
"0b4ef023-419f-4d69-ae10-64e51b0d1f7e" [label="com.android.internal.os.ZygoteInit$MethodAndArgsCaller.run\n Susp=1"];
"0b4ef023-419f-4d69-ae10-64e51b0d1f7e" -> "21e1aa48-b891-44de-a547-767c690547fd";
"21e1aa48-b891-44de-a547-767c690547fd" [label="java.lang.reflect.Method.invoke\n Susp=1"];
"21e1aa48-b891-44de-a547-767c690547fd" -> "f0907155-0cc9-43cb-abd9-0b0fc9639a66";
"f0907155-0cc9-43cb-abd9-0b0fc9639a66" [label="android.app.ActivityThread.main\n Susp=1"];
"f0907155-0cc9-43cb-abd9-0b0fc9639a66" -> "c9f71f12-ee04-4581-b3e5-845ca5e54de1";
"c9f71f12-ee04-4581-b3e5-845ca5e54de1" [label="android.os.Looper.loop\n Susp=1"];
"c9f71f12-ee04-4581-b3e5-845ca5e54de1" -> "a02cb634-c3c1-4009-8fd1-23fec5362968";
"a02cb634-c3c1-4009-8fd1-23fec5362968" [label="android.os.Handler.dispatchMessage\n Susp=1"];
"a02cb634-c3c1-4009-8fd1-23fec5362968" -> "e2be6510-d7dc-42fc-8966-dc414c0c696e";
"e2be6510-d7dc-42fc-8966-dc414c0c696e" [label="android.app.ActivityThread$H.handleMessage\n Susp=1"];
"e2be6510-d7dc-42fc-8966-dc414c0c696e" -> "1166b478-3360-4fa6-928b-b629fe0adcc9";
"1166b478-3360-4fa6-928b-b629fe0adcc9" [label="android.app.ActivityThread.access$800\n Susp=1"];
"1166b478-3360-4fa6-928b-b629fe0adcc9" -> "f392d915-0e5f-45a9-bbd0-7600106e57c0";
"f392d915-0e5f-45a9-bbd0-7600106e57c0" [label="android.app.ActivityThread.handleLaunchActivity\n Susp=1"];
"f392d915-0e5f-45a9-bbd0-7600106e57c0" -> "c2532b19-65ce-40b7-802a-59189f34e859";
"c2532b19-65ce-40b7-802a-59189f34e859" [label="android.app.ActivityThread.performLaunchActivity\n Susp=1"];
"c2532b19-65ce-40b7-802a-59189f34e859" -> "6e43e65c-5287-4412-990d-e5ac8f9a4f42";
"6e43e65c-5287-4412-990d-e5ac8f9a4f42" [label="android.app.Instrumentation.callActivityOnCreate\n Susp=1"];
"6e43e65c-5287-4412-990d-e5ac8f9a4f42" -> "191df8ae-f6e0-4fa5-b770-b4040b2f72e3";
"191df8ae-f6e0-4fa5-b770-b4040b2f72e3" [label="android.app.Activity.performCreate\n Susp=1"];
"191df8ae-f6e0-4fa5-b770-b4040b2f72e3" -> "86b504cd-5c5c-4737-ad99-d48454eebd5f";
"86b504cd-5c5c-4737-ad99-d48454eebd5f" [label="com.furkantektas.braingames.ui.MainActivity.onCreate\n Susp=1"];
"86b504cd-5c5c-4737-ad99-d48454eebd5f" -> "9418d4af-e930-40ba-936c-574461b71d0f";
"9418d4af-e930-40ba-936c-574461b71d0f" [label="de.robv.android.xposed.XposedBridge.handleHookedMethod\n Susp=1"];
"9418d4af-e930-40ba-936c-574461b71d0f" -> "ba66e84b-28e5-4e9e-9c97-f10b7b0bacbe";
"ba66e84b-28e5-4e9e-9c97-f10b7b0bacbe" [label="it.unimib.disco.lta.unimiblogger.MyMethodHook.beforeHookedMethod\n Susp=1"];
"ba66e84b-28e5-4e9e-9c97-f10b7b0bacbe" -> "d3f92c19-7501-4895-9dbd-a063297a910f";
"d3f92c19-7501-4895-9dbd-a063297a910f" [label="java.lang.Thread.getStackTrace\n Susp=1"];
"d3f92c19-7501-4895-9dbd-a063297a910f" -> "af9ef7d0-4e03-49ac-bd39-8a70a47437ce";
"af9ef7d0-4e03-49ac-bd39-8a70a47437ce" [label="dalvik.system.VMStack.getThreadStackTrace\n Susp=0,2"];
}
