Position |MethodName|Relevancy
0.00641025641025641|android.widget.AdapterView.performItemClick|0.8520000000000001
0.01282051282051282|android.os.Looper.loop|0.7273333333333334
0.019230769230769232|android.os.Handler.dispatchMessage|0.7231904761904763
0.02564102564102564|android.os.Handler.handleCallback|0.7087619047619048
0.03205128205128205|android.view.View.layout|0.5567619047619048
0.038461538461538464|android.app.ActivityThread.main|0.4996666666666667
0.04487179487179487|java.lang.reflect.Method.invoke|0.4986666666666667
0.05128205128205128|com.android.internal.os.ZygoteInit$MethodAndArgsCaller.run|0.4976666666666667
0.057692307692307696|com.android.internal.os.ZygoteInit.main|0.4966666666666667
0.0641025641025641|android.view.View.dispatchPointerEvent|0.4834761904761905
0.07051282051282051|android.app.ActivityThread$H.handleMessage|0.4747619047619048
0.07692307692307693|android.widget.AbsListView.performItemClick|0.3976666666666667
0.08333333333333333|android.widget.AbsListView$PerformClick.run|0.3966666666666667
0.08974358974358974|android.widget.AbsListView$3.run|0.3956666666666667
0.09615384615384616|android.widget.AdapterView.isScrollableForAccessibility|0.35409523809523813
0.10256410256410256|android.widget.AdapterView.onInitializeAccessibilityEvent|0.35309523809523813
0.10897435897435898|com.example.arial.bosstransfer.core.AbsOrdinaryAdapter.getView|0.3523809523809524
0.11538461538461539|android.widget.AbsListView.onInitializeAccessibilityEvent|0.35209523809523813
0.12179487179487179|android.widget.AbsListView.obtainView|0.3513809523809524
0.1282051282051282|android.widget.ListView.onInitializeAccessibilityEvent|0.3510952380952381
0.1346153846153846|android.widget.ListView.makeAndAddView|0.3503809523809524
0.14102564102564102|android.widget.AdapterView.onRequestSendAccessibilityEvent|0.3500952380952381
0.14743589743589744|android.widget.ListView.fillDown|0.3493809523809524
0.15384615384615385|android.view.ViewGroup.requestSendAccessibilityEvent|0.3490952380952381
0.16025641025641027|android.widget.ListView.fillFromTop|0.3483809523809524
0.16666666666666666|android.view.View.sendAccessibilityEventUncheckedInternal|0.3480952380952381
0.17307692307692307|android.widget.ListView.layoutChildren|0.3473809523809524
0.1794871794871795|android.view.View$AccessibilityDelegate.sendAccessibilityEventUnchecked|0.3470952380952381
0.1858974358974359|android.widget.AbsListView.onLayout|0.34638095238095246
0.19230769230769232|android.view.View.sendAccessibilityEventUnchecked|0.3460952380952381
0.1987179487179487|android.view.View.layout|0.34538095238095246
0.20512820512820512|android.view.View.sendAccessibilityEventInternal|0.3450952380952381
0.21153846153846154|android.view.ViewGroup.layout|0.34438095238095245
0.21794871794871795|android.view.View$AccessibilityDelegate.sendAccessibilityEvent|0.3440952380952381
0.22435897435897437|android.widget.RelativeLayout.onLayout|0.3433809523809524
0.23076923076923078|android.view.View.sendAccessibilityEvent|0.3430952380952381
0.23717948717948717|android.view.View.layout|0.3423809523809524
0.24358974358974358|android.view.ViewGroup.layout|0.3413809523809524
0.25|android.widget.FrameLayout.layoutChildren|0.34038095238095245
0.2564102564102564|android.widget.FrameLayout.onLayout|0.33938095238095245
0.26282051282051283|android.view.View.layout|0.33838095238095245
0.2692307692307692|android.view.ViewGroup.layout|0.33738095238095245
0.27564102564102566|android.support.v7.widget.ActionBarOverlayLayout.onLayout|0.33638095238095245
0.28205128205128205|android.view.View.layout|0.33538095238095245
0.28846153846153844|android.view.ViewGroup.layout|0.33438095238095245
0.2948717948717949|android.widget.FrameLayout.layoutChildren|0.33338095238095244
0.30128205128205127|android.widget.FrameLayout.onLayout|0.33238095238095244
0.3076923076923077|android.view.View.layout|0.33138095238095244
0.3141025641025641|android.view.ViewGroup.layout|0.33038095238095244
0.32051282051282054|android.widget.LinearLayout.setChildFrame|0.32938095238095244
0.3269230769230769|android.view.ViewGroup.layout|0.3290952380952381
0.3333333333333333|android.widget.LinearLayout.layoutVertical|0.32838095238095244
0.33974358974358976|android.view.ViewRootImpl.performLayout|0.3280952380952381
0.34615384615384615|android.widget.LinearLayout.onLayout|0.32738095238095244
0.3525641025641026|android.view.ViewRootImpl.performTraversals|0.3270952380952381
0.358974358974359|android.view.View.layout|0.32638095238095244
0.36538461538461536|android.view.ViewRootImpl.doTraversal|0.3260952380952381
0.3717948717948718|android.view.ViewGroup.layout|0.32538095238095244
0.3782051282051282|android.view.ViewRootImpl$TraversalRunnable.run|0.3250952380952381
0.38461538461538464|android.widget.FrameLayout.layoutChildren|0.32438095238095244
0.391025641025641|android.view.Choreographer$CallbackRecord.run|0.3240952380952381
0.3974358974358974|android.widget.FrameLayout.onLayout|0.32338095238095244
0.40384615384615385|android.view.Choreographer.doCallbacks|0.3230952380952381
0.41025641025641024|android.view.Choreographer.doFrame|0.3220952380952381
0.4166666666666667|android.view.Choreographer$FrameDisplayEventReceiver.run|0.3210952380952381
0.4230769230769231|com.example.arial.bosstransfer.MainActivity$1.onItemClick|0.2813809523809524
0.42948717948717946|android.widget.AbsListView.obtainView|0.2803809523809524
0.4358974358974359|android.widget.ListView.makeAndAddView|0.2793809523809524
0.4423076923076923|android.widget.ListView.fillDown|0.2783809523809524
0.44871794871794873|android.widget.AdapterView.getItemIdAtPosition|0.27823809523809523
0.4551282051282051|android.widget.ListView.fillFromTop|0.2773809523809524
0.46153846153846156|android.widget.AdapterView.setSelectedPositionInt|0.27723809523809523
0.46794871794871795|android.widget.ListView.layoutChildren|0.2763809523809524
0.47435897435897434|android.widget.AbsListView.onTouchUp|0.2762380952380952
0.4807692307692308|android.widget.AbsListView.onLayout|0.2753809523809524
0.48717948717948717|android.widget.AbsListView.onTouchEvent|0.2752380952380952
0.4935897435897436|android.view.View.layout|0.2743809523809524
0.5|android.view.View.dispatchTouchEvent|0.2742380952380952
0.5064102564102564|android.view.ViewGroup.layout|0.2733809523809524
0.5128205128205128|android.view.ViewGroup.dispatchTransformedTouchEvent|0.2732380952380952
0.5192307692307693|android.widget.RelativeLayout.onLayout|0.2723809523809524
0.5256410256410257|android.view.ViewGroup.dispatchTouchEvent|0.2722380952380952
0.532051282051282|android.view.View.layout|0.2713809523809524
0.5384615384615384|android.view.ViewGroup.dispatchTransformedTouchEvent|0.2712380952380952
0.5448717948717948|android.view.ViewGroup.layout|0.2703809523809524
0.5512820512820513|android.view.ViewGroup.dispatchTouchEvent|0.2702380952380952
0.5576923076923077|android.widget.FrameLayout.layoutChildren|0.2693809523809524
0.5641025641025641|android.view.ViewGroup.dispatchTransformedTouchEvent|0.2692380952380953
0.5705128205128205|android.widget.FrameLayout.onLayout|0.2683809523809524
0.5769230769230769|android.view.ViewGroup.dispatchTouchEvent|0.2682380952380953
0.5833333333333334|android.view.View.layout|0.2673809523809524
0.5897435897435898|android.view.ViewGroup.dispatchTransformedTouchEvent|0.2672380952380953
0.5961538461538461|android.view.ViewGroup.layout|0.2663809523809524
0.6025641025641025|android.view.ViewGroup.dispatchTouchEvent|0.2662380952380952
0.6089743589743589|android.support.v7.widget.ActionBarOverlayLayout.onLayout|0.2653809523809524
0.6153846153846154|android.view.ViewGroup.dispatchTransformedTouchEvent|0.2652380952380952
0.6217948717948718|android.view.View.layout|0.2643809523809524
0.6282051282051282|android.view.ViewGroup.dispatchTouchEvent|0.2642380952380952
0.6346153846153846|android.view.ViewGroup.layout|0.2633809523809524
0.6410256410256411|android.view.ViewGroup.dispatchTransformedTouchEvent|0.26323809523809527
0.6474358974358975|android.widget.FrameLayout.layoutChildren|0.2623809523809524
0.6538461538461539|android.view.ViewGroup.dispatchTouchEvent|0.26223809523809527
0.6602564102564102|com.example.arial.bosstransfer.TurnHelp.turn|0.2618095238095238
0.6666666666666666|android.widget.FrameLayout.onLayout|0.2613809523809524
0.6730769230769231|android.view.ViewGroup.dispatchTransformedTouchEvent|0.26123809523809527
0.6794871794871795|android.view.View.layout|0.2603809523809524
0.6858974358974359|android.view.ViewGroup.dispatchTouchEvent|0.26023809523809527
0.6923076923076923|android.view.ViewGroup.layout|0.2593809523809524
0.6987179487179487|com.android.internal.policy.impl.PhoneWindow$DecorView.superDispatchTouchEvent|0.25923809523809527
0.7051282051282052|android.widget.LinearLayout.setChildFrame|0.2583809523809524
0.7115384615384616|com.android.internal.policy.impl.PhoneWindow.superDispatchTouchEvent|0.25823809523809527
0.717948717948718|android.widget.LinearLayout.layoutVertical|0.2573809523809524
0.7243589743589743|android.app.Activity.dispatchTouchEvent|0.25723809523809527
0.7307692307692307|android.widget.LinearLayout.onLayout|0.2563809523809524
0.7371794871794872|android.support.v7.view.WindowCallbackWrapper.dispatchTouchEvent|0.25623809523809526
0.7435897435897436|android.view.ViewRootImpl$ViewPostImeInputStage.processPointerEvent|0.2558095238095238
0.75|android.view.View.layout|0.2553809523809524
0.7564102564102564|com.android.internal.policy.impl.PhoneWindow$DecorView.dispatchTouchEvent|0.25523809523809526
0.7628205128205128|android.view.ViewRootImpl$ViewPostImeInputStage.onProcess|0.2548095238095238
0.7692307692307693|android.view.ViewGroup.layout|0.2543809523809524
0.7756410256410257|android.view.ViewRootImpl$InputStage.deliver|0.2538095238095238
0.782051282051282|android.widget.FrameLayout.layoutChildren|0.2533809523809524
0.7884615384615384|android.view.ViewRootImpl$InputStage.onDeliverToNext|0.2528095238095238
0.7948717948717948|android.widget.FrameLayout.onLayout|0.2523809523809524
0.8012820512820513|android.view.ViewRootImpl$InputStage.forward|0.2518095238095238
0.8076923076923077|com.android.internal.policy.PhoneWindow$DecorView.onLayout|0.25138095238095237
0.8141025641025641|android.view.ViewRootImpl$AsyncInputStage.forward|0.2508095238095238
0.8205128205128205|android.view.ViewRootImpl$InputStage.apply|0.24980952380952381
0.8269230769230769|android.view.ViewRootImpl$AsyncInputStage.apply|0.2488095238095238
0.8333333333333334|android.view.ViewRootImpl$InputStage.deliver|0.2478095238095238
0.8397435897435898|android.view.ViewRootImpl$InputStage.onDeliverToNext|0.2468095238095238
0.8461538461538461|com.example.arial.bosstransfer.MainActivity.onCreate|0.2463809523809524
0.8525641025641025|android.view.ViewRootImpl$InputStage.forward|0.24580952380952384
0.8589743589743589|com.example.arial.bosstransfer.MainActivity$1.onItemClick|0.2453809523809524
0.8653846153846154|android.view.ViewRootImpl$InputStage.apply|0.24480952380952384
0.8717948717948718|android.app.Instrumentation.callActivityOnCreate|0.2443809523809524
0.8782051282051282|android.view.ViewRootImpl$InputStage.deliver|0.24380952380952384
0.8846153846153846|android.app.ActivityThread.performLaunchActivity|0.2433809523809524
0.8910256410256411|com.example.arial.bosstransfer.boss.BossTransferView.init|0.24323809523809525
0.8974358974358975|android.view.ViewRootImpl.deliverInputEvent|0.24280952380952384
0.9038461538461539|android.app.ActivityThread.handleLaunchActivity|0.2423809523809524
0.9102564102564102|com.example.arial.bosstransfer.boss.BossTransferView.<init>|0.24223809523809525
0.9166666666666666|android.view.ViewRootImpl.doProcessInputEvents|0.24180952380952384
0.9230769230769231|android.app.ActivityThread.access$800|0.2413809523809524
0.9294871794871795|android.view.ViewRootImpl.enqueueInputEvent|0.24080952380952383
0.9358974358974359|android.view.ViewRootImpl$WindowInputEventReceiver.onInputEvent|0.23980952380952383
0.9423076923076923|android.view.InputEventReceiver.dispatchInputEvent|0.23880952380952383
0.9487179487179487|android.os.MessageQueue.nativePollOnce|0.23780952380952383
0.9551282051282052|android.os.MessageQueue.next|0.23680952380952383
0.9615384615384616|com.example.arial.bosstransfer.core.AbsOrdinaryAdapter.getCount|0.12842857142857145
0.967948717948718|android.view.LayoutInflater.inflate|0.08685714285714285
0.9743589743589743|com.example.arial.bosstransfer.core.AbsOrdinaryAdapter.getItemId|0.052571428571428575
0.9807692307692307|android.view.LayoutInflater.inflate|0.05185714285714286
0.9871794871794872|android.view.LayoutInflater.inflate|0.01757142857142857
0.9935897435897436|android.app.Activity.getWindow|0.01685714285714286
1.0|android.content.ContextWrapper.checkSelfPermission|0.014571428571428572
