Position |MethodName|Relevancy
0.007936507936507936|android.app.ActivityThread$H.handleMessage|0.8512440191387561
0.015873015873015872|android.os.Handler.dispatchMessage|0.6145454545454546
0.023809523809523808|android.os.Looper.loop|0.386969696969697
0.031746031746031744|android.app.ActivityThread.main|0.3860606060606061
0.03968253968253968|java.lang.reflect.Method.invoke|0.3851515151515152
0.047619047619047616|com.android.internal.os.ZygoteInit$MethodAndArgsCaller.run|0.3842424242424243
0.05555555555555555|com.android.internal.os.ZygoteInit.main|0.38333333333333336
0.06349206349206349|android.os.Handler.handleCallback|0.3126475279106858
0.07142857142857142|android.view.ThreadedRenderer.updateViewTreeDisplayList|0.2596092503987241
0.07936507936507936|com.github.ruleant.getback_gps.LocationService.onCreate|0.18901515151515152
0.0873015873015873|android.app.ActivityThread.handleCreateService|0.1881060606060606
0.09523809523809523|android.app.ActivityThread.access$1800|0.1871969696969697
0.10317460317460317|com.github.ruleant.getback_gps.AbstractGetBackGpsActivity$5.onServiceConnected|0.18546251993620416
0.1111111111111111|android.app.LoadedApk$ServiceDispatcher.doConnected|0.18455342902711325
0.11904761904761904|android.app.LoadedApk$ServiceDispatcher$RunConnection.run|0.18364433811802233
0.12698412698412698|android.view.View.draw|0.17308213716108453
0.1349206349206349|android.view.View.updateDisplayListIfDirty|0.17217304625199364
0.14285714285714285|android.view.View.getDisplayList|0.17126395534290273
0.15079365079365079|com.github.ruleant.getback_gps.LocationService.onDestroy|0.17125199362041468
0.15873015873015872|android.view.View.draw|0.17035486443381181
0.16666666666666666|android.app.ActivityThread.handleStopService|0.17034290271132377
0.1746031746031746|android.view.ViewGroup.drawChild|0.1694457735247209
0.18253968253968253|android.app.ActivityThread.-wrap21|0.16943381180223288
0.19047619047619047|android.view.ViewGroup.dispatchDraw|0.16853668261562998
0.1984126984126984|android.view.View.updateDisplayListIfDirty|0.16762759170653907
0.20634920634920634|com.github.ruleant.getback_gps.LocationService.updateLocationProvider|0.16742424242424242
0.21428571428571427|android.view.View.getDisplayList|0.16671850079744815
0.2222222222222222|android.view.View.draw|0.16580940988835727
0.23015873015873015|android.view.ViewGroup.drawChild|0.16490031897926635
0.23809523809523808|android.view.ViewGroup.dispatchDraw|0.16399122807017547
0.24603174603174602|android.view.View.draw|0.16308213716108455
0.25396825396825395|android.widget.FrameLayout.draw|0.16217304625199364
0.2619047619047619|android.widget.ScrollView.draw|0.16126395534290272
0.2698412698412698|android.view.View.draw|0.16107256778309412
0.2777777777777778|android.view.View.updateDisplayListIfDirty|0.1603548644338118
0.2857142857142857|android.view.View.updateDisplayListIfDirty|0.1601634768740032
0.29365079365079366|android.view.View.getDisplayList|0.1594457735247209
0.30158730158730157|android.view.View.draw|0.15925438596491232
0.30952380952380953|android.view.View.draw|0.15853668261562998
0.31746031746031744|android.view.ViewGroup.drawChild|0.1583452950558214
0.3253968253968254|com.github.ruleant.getback_gps.MainActivity.refreshDisplay|0.15795055821371612
0.3333333333333333|android.view.ViewGroup.drawChild|0.1576275917065391
0.3412698412698413|android.view.ViewGroup.dispatchDraw|0.15743620414673049
0.3492063492063492|android.view.ViewGroup.dispatchDraw|0.15671850079744817
0.35714285714285715|android.view.View.updateDisplayListIfDirty|0.15652711323763957
0.36507936507936506|android.view.View.updateDisplayListIfDirty|0.15580940988835726
0.373015873015873|android.view.View.draw|0.15561802232854866
0.38095238095238093|android.view.View.getDisplayList|0.15490031897926634
0.3888888888888889|android.view.ViewGroup.drawChild|0.15470893141945774
0.3968253968253968|android.view.View.draw|0.15399122807017546
0.40476190476190477|android.view.ViewGroup.dispatchDraw|0.15379984051036683
0.4126984126984127|android.view.ViewGroup.drawChild|0.15308213716108454
0.42063492063492064|android.view.View.draw|0.15289074960127594
0.42857142857142855|android.view.ViewGroup.dispatchDraw|0.15217304625199363
0.4365079365079365|android.widget.ScrollView.draw|0.15198165869218502
0.4444444444444444|android.view.View.draw|0.1512639553429027
0.4523809523809524|android.view.View.updateDisplayListIfDirty|0.1510725677830941
0.4603174603174603|com.android.internal.widget.ActionBarOverlayLayout.draw|0.1503548644338118
0.46825396825396826|android.view.View.draw|0.1501634768740032
0.47619047619047616|android.view.View.updateDisplayListIfDirty|0.14944577352472088
0.48412698412698413|android.view.ViewGroup.drawChild|0.1492543859649123
0.49206349206349204|android.view.View.getDisplayList|0.14853668261563
0.5|android.view.ViewGroup.dispatchDraw|0.1483452950558214
0.5079365079365079|android.view.View.draw|0.14762759170653908
0.5158730158730159|android.view.View.updateDisplayListIfDirty|0.14743620414673048
0.5238095238095238|android.view.ViewGroup.drawChild|0.14671850079744816
0.5317460317460317|android.view.View.draw|0.14652711323763956
0.5396825396825397|com.github.ruleant.getback_gps.LocationService.onCreate|0.1463835725677831
0.5476190476190477|android.view.ViewGroup.dispatchDraw|0.14580940988835728
0.5555555555555556|android.view.ViewGroup.drawChild|0.14561802232854865
0.5634920634920635|android.app.ActivityThread.handleCreateService|0.14547448165869217
0.5714285714285714|android.view.ThreadedRenderer.updateRootDisplayList|0.14536682615629984
0.5793650793650794|android.view.View.draw|0.14490031897926636
0.5873015873015873|android.view.ViewGroup.dispatchDraw|0.14470893141945773
0.5952380952380952|android.app.ActivityThread.-wrap4|0.14456539074960129
0.6031746031746031|android.view.ThreadedRenderer.draw|0.14445773524720895
0.6111111111111112|android.location.LocationManager$ListenerTransport._handleMessage|0.14429027113237639
0.6190476190476191|android.widget.FrameLayout.draw|0.14399122807017545
0.626984126984127|android.view.View.draw|0.14379984051036684
0.6349206349206349|android.view.ViewRootImpl.draw|0.14354864433811804
0.6428571428571429|android.location.LocationManager$ListenerTransport.access$000|0.1433811802232855
0.6507936507936508|com.android.internal.policy.impl.PhoneWindow$DecorView.draw|0.14308213716108453
0.6587301587301587|com.android.internal.widget.ActionBarOverlayLayout.draw|0.14289074960127593
0.6666666666666666|android.view.ViewRootImpl.performDraw|0.14263955342902712
0.6746031746031746|android.location.LocationManager$ListenerTransport$1.handleMessage|0.14247208931419458
0.6825396825396826|android.view.View.updateDisplayListIfDirty|0.14217304625199362
0.6904761904761905|android.view.View.updateDisplayListIfDirty|0.14198165869218501
0.6984126984126984|android.view.ViewRootImpl.performTraversals|0.1417304625199362
0.7063492063492064|android.view.View.getDisplayList|0.1412639553429027
0.7142857142857143|android.view.View.draw|0.14107256778309413
0.7222222222222222|android.view.ViewRootImpl.doTraversal|0.1408213716108453
0.7301587301587301|android.view.ViewGroup.drawChild|0.1401634768740032
0.7380952380952381|android.view.ViewRootImpl$TraversalRunnable.run|0.1399122807017544
0.746031746031746|android.view.ViewGroup.dispatchDraw|0.1392543859649123
0.753968253968254|android.view.Choreographer$CallbackRecord.run|0.1390031897926635
0.7619047619047619|android.view.View.draw|0.13834529505582138
0.7698412698412699|android.view.Choreographer.doCallbacks|0.13809409888357257
0.7777777777777778|com.android.internal.policy.PhoneWindow$DecorView.draw|0.13743620414673047
0.7857142857142857|android.view.Choreographer.doFrame|0.13718500797448166
0.7936507936507936|android.view.View.updateDisplayListIfDirty|0.13652711323763955
0.8015873015873016|android.view.Choreographer$FrameDisplayEventReceiver.run|0.13627591706539077
0.8095238095238095|com.github.ruleant.getback_gps.lib.StoredLocation.save|0.13426634768740034
0.8174603174603174|com.github.ruleant.getback_gps.LocationService.onDestroy|0.13335725677830942
0.8253968253968254|com.github.ruleant.getback_gps.lib.AriadneLocation.isRecent|0.13316586921850082
0.8333333333333334|android.app.ActivityThread.handleStopService|0.1324481658692185
0.8412698412698413|com.github.ruleant.getback_gps.lib.Navigator.isLocationAccurate|0.1322567783094099
0.8492063492063492|android.app.Instrumentation.callActivityOnStop|0.13162280701754386
0.8571428571428571|android.app.ActivityThread.access$2200|0.13153907496012762
0.8650793650793651|com.github.ruleant.getback_gps.AbstractGetBackGpsActivity.refreshCrouton|0.131347687400319
0.873015873015873|android.app.Activity.performStop|0.13071371610845295
0.8809523809523809|com.github.ruleant.getback_gps.AbstractGetBackGpsActivity.refreshDisplay|0.13043859649122808
0.8888888888888888|android.app.ActivityThread.performStopActivityInner|0.12980462519936206
0.8968253968253969|android.app.ActivityThread.handleStopActivity|0.12889553429027115
0.9047619047619048|android.app.ActivityThread.-wrap20|0.12798644338118023
0.9126984126984127|android.app.ActivityThread.handleUnbindService|0.12415869218500798
0.9206349206349206|android.app.ActivityThread.-wrap22|0.12324960127591707
0.9285714285714286|com.github.ruleant.getback_gps.NavigationView.onDraw|0.060657894736842105
0.9365079365079365|com.github.ruleant.getback_gps.NavigationView.onDraw|0.04864832535885167
0.9444444444444444|android.os.RemoteCallbackList.kill|0.03395933014354067
0.9523809523809523|android.location.LocationManager.getBestProvider|0.0325
0.9603174603174603|com.github.ruleant.getback_gps.LocationService$1.onLocationChanged|0.03186602870813397
0.9682539682539683|android.location.Location.hasSpeed|0.0218421052631579
0.9761904761904762|android.location.Location.getElapsedRealtimeNanos|0.020741626794258373
0.9841269841269841|com.github.ruleant.getback_gps.AbstractGetBackGpsActivity.onStop|0.019198564593301437
0.9920634920634921|android.location.LocationManager.getBestProvider|0.01828947368421053
1.0|com.github.ruleant.getback_gps.LocationService.onUnbind|0.01173444976076555
