Position |MethodName|Relevancy
0.008928571428571428|androidx.appcompat.widget.SearchView.<init>|0.9697562091814844
0.017857142857142856|androidx.fragment.app.FragmentManagerImpl.moveToState|0.9056993850407589
0.026785714285714284|com.genonbeta.TrebleShot.app.EditableListFragment.onViewCreated|0.8299634838156076
0.03571428571428571|com.genonbeta.TrebleShot.activity.HomeActivity.onCreate|0.7733571054011537
0.044642857142857144|com.genonbeta.TrebleShot.adapter.FileListAdapter.onLoad|0.5533229727797111
0.05357142857142857|androidx.appcompat.app.ToolbarActionBar.populateOptionsMenu|0.41903418029270156
0.0625|androidx.fragment.app.FragmentManagerImpl.execSingleAction|0.35195690518186584
0.07142857142857142|androidx.appcompat.app.AppCompatViewInflater.createView|0.3462935596129093
0.08035714285714286|com.genonbeta.TrebleShot.adapter.FileListAdapter$DirectoryHolder.<init>|0.34568946941888734
0.08928571428571429|androidx.drawerlayout.widget.DrawerLayout.onMeasure|0.2921706631072127
0.09821428571428571|androidx.appcompat.app.AppCompatDelegateImpl.setContentView|0.28889011774800977
0.10714285714285714|androidx.viewpager.widget.ViewPager.populate|0.2853326977165467
0.11607142857142858|androidx.appcompat.view.menu.MenuAdapter.getView|0.28173332697716547
0.125|androidx.recyclerview.widget.GridLayoutManager.layoutChunk|0.2795938408733375
0.13392857142857142|androidx.fragment.app.Fragment.performCreateOptionsMenu|0.2789981408208991
0.14285714285714285|androidx.recyclerview.widget.RecyclerView$Recycler.tryGetViewHolderForPositionByDeadline|0.2787044858654717
0.15178571428571427|androidx.core.view.AccessibilityDelegateCompat$AccessibilityDelegateAdapter.sendAccessibilityEventUnchecked|0.2779661534061114
0.16071428571428573|androidx.appcompat.widget.ListPopupWindow.buildDropDown|0.277697668875435
0.16964285714285715|com.genonbeta.TrebleShot.app.EditableListFragment.onCreateOptionsMenu|0.27738723363684037
0.17857142857142858|com.genonbeta.TrebleShot.fragment.TextStreamListFragment.onViewCreated|0.2773201125041712
0.1875|com.genonbeta.TrebleShot.util.AppUtils.isLatestChangeLogSeen|0.27649787862897457
0.19642857142857142|androidx.coordinatorlayout.widget.CoordinatorLayout.onLayout|0.23928950755589457
0.20535714285714285|androidx.appcompat.view.menu.StandardMenuPopup.tryShow|0.2098065500309863
0.21428571428571427|androidx.core.view.AccessibilityDelegateCompat$AccessibilityDelegateAdapter.sendAccessibilityEvent|0.20943738380130622
0.22321428571428573|androidx.appcompat.view.SupportMenuInflater.parseMenu|0.20921924012013157
0.23214285714285715|com.genonbeta.TrebleShot.fragment.FileListFragment.onViewCreated|0.20791876817466748
0.24107142857142858|com.genonbeta.TrebleShot.fragment.TransferGroupListFragment.onViewCreated|0.20786842732516564
0.25|com.genonbeta.TrebleShot.service.CommunicationService.onCreate|0.2076251132192401
0.25892857142857145|com.genonbeta.TrebleShot.app.Activity.onCreate|0.2075160413786528
0.26785714285714285|com.genonbeta.TrebleShot.adapter.FileListAdapter$PublicDirectoryHolder.<init>|0.2074321399628164
0.2767857142857143|com.genonbeta.TrebleShot.app.EditableListFragment.onPrepareOptionsMenu|0.20742374982123277
0.2857142857142857|androidx.appcompat.app.AppCompatActivity.onCreate|0.20738179911331456
0.29464285714285715|androidx.appcompat.widget.ContentFrameLayout.onMeasure|0.16073451875864042
0.30357142857142855|androidx.coordinatorlayout.widget.CoordinatorLayout.onMeasure|0.15969414120226916
0.3125|androidx.appcompat.app.AppCompatActivity.setContentView|0.15070829956619153
0.32142857142857145|androidx.appcompat.view.menu.MenuAdapter.getCount|0.14619821709491349
0.33035714285714285|androidx.appcompat.app.ToolbarActionBar$1.run|0.14551480192591887
0.3392857142857143|androidx.viewpager.widget.ViewPager.onMeasure|0.14481003003289317
0.3482142857142857|androidx.fragment.app.BackStackRecord.commitNowAllowingStateLoss|0.14468417790913857
0.35714285714285715|androidx.fragment.app.FragmentManagerImpl.moveFragmentToExpectedState|0.14441569337846213
0.36607142857142855|androidx.viewpager.widget.ViewPager.setCurrentItemInternal|0.1424020593983887
0.375|androidx.fragment.app.FragmentManagerImpl.executeOpsTogether|0.14170567764694667
0.38392857142857145|androidx.appcompat.widget.ActionMenuPresenter$OpenOverflowRunnable.run|0.1411183677360919
0.39285714285714285|androidx.appcompat.view.menu.MenuPopupHelper.showPopup|0.14084988320541544
0.4017857142857143|androidx.fragment.app.FragmentManagerImpl.dispatchCreateOptionsMenu|0.1408163226390809
0.4107142857142857|androidx.recyclerview.widget.RecyclerView$Recycler.getViewForPosition|0.1405226676836535
0.41964285714285715|com.genonbeta.TrebleShot.util.AppUtils.getLocalDeviceName|0.14024579301139342
0.42857142857142855|com.genonbeta.TrebleShot.util.AppUtils.getDefaultPreferences|0.14021223244505887
0.4375|androidx.appcompat.view.SupportMenuInflater$MenuState.addItem|0.13966687324212232
0.44642857142857145|androidx.appcompat.widget.ListPopupWindow.show|0.13954102111836775
0.45535714285714285|androidx.appcompat.view.menu.BaseMenuPresenter.updateMenuView|0.13940677885302952
0.4642857142857143|androidx.fragment.app.FragmentManagerImpl.ensureInflatedFragmentView|0.13928931687085855
0.4732142857142857|androidx.appcompat.widget.DropDownListView.measureHeightOfChildrenCompat|0.13921380559660582
0.48214285714285715|com.genonbeta.TrebleShot.adapter.SmartFragmentPagerAdapter.createTabs|0.13912151403918577
0.49107142857142855|androidx.loader.app.LoaderManagerImpl.restartLoader|0.13908795347285122
0.5|com.genonbeta.TrebleShot.adapter.FileListAdapter.onCreateViewHolder|0.13907117318968393
0.5089285714285714|androidx.appcompat.widget.TintTypedArray.getColorStateList|0.13898727177384756
0.5178571428571429|com.genonbeta.TrebleShot.adapter.PathResolverRecyclerAdapter.onCreateViewHolder|0.138953711207513
0.5267857142857143|com.genonbeta.TrebleShot.widget.GroupEditableListAdapter.onLoad|0.13884463936692568
0.5357142857142857|androidx.fragment.app.Fragment.performPrepareOptionsMenu|0.13875234780950566
0.5446428571428571|com.genonbeta.TrebleShot.app.GroupEditableListFragment.onViewCreated|0.13870200696000382
0.5535714285714286|androidx.core.view.AccessibilityDelegateCompat$AccessibilityDelegateAdapter.onInitializeAccessibilityNodeInfo|0.1385929351194165
0.5625|com.genonbeta.TrebleShot.view.LongTextBubbleFastScrollViewProvider.provideBubbleView|0.1385509844114983
0.5714285714285714|androidx.appcompat.content.res.AppCompatResources.getCachedColorStateList|0.13847547313724556
0.5803571428571429|com.genonbeta.TrebleShot.fragment.FileListFragment.onPrepareOptionsMenu|0.13845030271249464
0.5892857142857143|androidx.fragment.app.Fragment.performCreate|0.1383580111550746
0.5982142857142857|com.genonbeta.TrebleShot.app.EditableListFragment.onCreate|0.13830767030557278
0.6071428571428571|androidx.viewpager.widget.ViewPager.setCurrentItem|0.07331115030747962
0.6160714285714286|androidx.fragment.app.FragmentManagerImpl.removeRedundantOperationsAndExecute|0.07261476855603756
0.625|androidx.recyclerview.widget.LinearLayoutManager.fill|0.07232111360061019
0.6339285714285714|androidx.appcompat.view.menu.MenuPopupHelper.tryShow|0.07175897411450637
0.6428571428571429|androidx.appcompat.view.menu.StandardMenuPopup.show|0.07162473184916814
0.6517857142857143|androidx.fragment.app.FragmentManagerImpl.onCreateView|0.07144014873432808
0.6607142857142857|androidx.loader.content.ModernAsyncTask$InternalHandler.handleMessage|0.07139819802640988
0.6696428571428571|androidx.loader.app.LoaderManagerImpl$LoaderObserver.onChanged|0.07136463746007532
0.6785714285714286|com.genonbeta.TrebleShot.util.AppUtils.getLocalDevice|0.07115488392048434
0.6875|androidx.appcompat.view.menu.MenuPopup.onItemClick|0.07100386137197884
0.6964285714285714|androidx.appcompat.widget.ActionMenuPresenter.updateMenuView|0.07031586976212043
0.7053571428571429|androidx.appcompat.widget.MenuPopupWindow$MenuDropDownListView.measureHeightOfChildrenCompat|0.07012289650569671
0.7142857142857143|com.genonbeta.TrebleShot.fragment.FileListFragment$5.onCreateViewHolder|0.06998026409877485
0.7232142857142857|androidx.viewpager.widget.ViewPager.onRequestFocusInDescendants|0.06996348381560757
0.7321428571428571|androidx.loader.content.ModernAsyncTask$2.call|0.06978729084235115
0.7410714285714286|com.genonbeta.TrebleShot.fragment.FileExplorerFragment.onViewCreated|0.06973694999284931
0.75|androidx.appcompat.app.AppCompatDelegateImpl.createView|0.06967821900176384
0.7589285714285714|androidx.appcompat.widget.MenuPopupWindow$MenuDropDownListView.onTouchEvent|0.06966143871859656
0.7678571428571429|com.genonbeta.TrebleShot.app.GroupEditableListFragment.onCreateOptionsMenu|0.06961948801067837
0.7767857142857143|androidx.appcompat.view.SupportMenuInflater.inflate|0.06955236687800925
0.7857142857142857|com.genonbeta.TrebleShot.util.AppUtils$2.onPreferenceUpdate|0.06950202602850741
0.7946428571428571|androidx.appcompat.view.WindowCallbackWrapper.dispatchTouchEvent|0.0694768556037565
0.8035714285714286|androidx.drawerlayout.widget.DrawerLayout.onDraw|0.06940134432950375
0.8125|androidx.core.view.AccessibilityDelegateCompat$AccessibilityDelegateAdapter.onInitializeAccessibilityEvent|0.06934261333841826
0.8214285714285714|androidx.appcompat.content.res.AppCompatResources.isColorInt|0.06932583305525099
0.8303571428571429|androidx.fragment.app.Fragment.onGetLayoutInflater|0.06925032178099824
0.8392857142857143|androidx.appcompat.view.menu.MenuPopupHelper.getPopup|0.06922515135624732
0.8482142857142857|androidx.core.view.accessibility.AccessibilityNodeInfoCompat.clearExtrasSpans|0.0691999809314964
0.8571428571428571|androidx.appcompat.widget.AppCompatPopupWindow.init|0.06917481050674548
0.8660714285714286|com.genonbeta.TrebleShot.adapter.FileListAdapter$StorageHolder.<init>|0.0691580302235782
0.875|androidx.recyclerview.widget.RecyclerView$ViewFlinger.run|0.0026009438909281595
0.8839285714285714|androidx.core.view.AccessibilityDelegateCompat$AccessibilityDelegateAdapter.getAccessibilityNodeProvider|0.0017787100157315157
0.8928571428571429|androidx.vectordrawable.graphics.drawable.VectorDrawableCompat.jumpToCurrentState|0.0011494493969585735
0.9017857142857143|androidx.vectordrawable.graphics.drawable.VectorDrawableCompat.isStateful|0.0011410592553749343
0.9107142857142857|androidx.collection.SimpleArrayMap.put|0.001006816990036707
0.9196428571428571|androidx.vectordrawable.graphics.drawable.VectorDrawableCompat.getOpacity|8.725747246984793E-4
0.9285714285714286|androidx.recyclerview.widget.RecyclerView$Adapter.notifyDataSetChanged|8.641845831148401E-4
0.9375|androidx.appcompat.widget.MenuPopupWindow$MenuDropDownListView.isFocused|4.950183534347142E-4
0.9464285714285714|androidx.appcompat.view.menu.ListMenuItemView.onFinishInflate|3.775563712637651E-4
0.9553571428571429|androidx.vectordrawable.graphics.drawable.VectorDrawableCompat.setVisible|2.5170424750917673E-4
0.9642857142857143|com.genonbeta.TrebleShot.widget.EditableListAdapter.getItemCount|1.5941269008914525E-4
0.9732142857142857|androidx.vectordrawable.graphics.drawable.VectorDrawableCompat.setHotspot|1.5102254850550602E-4
0.9821428571428571|androidx.appcompat.widget.MenuPopupWindow$MenuDropDownListView.isInTouchMode|1.1746198217094914E-4
0.9910714285714286|androidx.loader.content.ModernAsyncTask$3.done|3.356056633455689E-5
1.0|androidx.collection.SimpleArrayMap.get|2.517042475091767E-5
