digraph GoodWeather {
"a6591cf6-6eeb-41ed-a999-58e7066f953c" [style=filled, fillcolor="#5E5E5E",fontcolor=white, label="com.android.internal.os.ZygoteInit.main\n Susp=0.9612"];
"a6591cf6-6eeb-41ed-a999-58e7066f953c" -> "e6c32b82-d49d-43a7-8fd9-5d8a5537aa83";
"e6c32b82-d49d-43a7-8fd9-5d8a5537aa83" [style=filled, fillcolor="#5E5E5E",fontcolor=white, label="com.android.internal.os.ZygoteInit$MethodAndArgsCaller.run\n Susp=0.9626"];
"e6c32b82-d49d-43a7-8fd9-5d8a5537aa83" -> "32e78445-b68c-4b95-9ae2-ea2c646551fd";
"32e78445-b68c-4b95-9ae2-ea2c646551fd" [style=filled, fillcolor="#5E5E5E",fontcolor=white, label="java.lang.reflect.Method.invoke\n Susp=0.9639"];
"32e78445-b68c-4b95-9ae2-ea2c646551fd" -> "a5ca5a2b-ea17-464d-83ff-a188ccf1bfad";
"a5ca5a2b-ea17-464d-83ff-a188ccf1bfad" [style=filled, fillcolor="#5E5E5E",fontcolor=white, label="android.app.ActivityThread.main\n Susp=0.9652"];
"a5ca5a2b-ea17-464d-83ff-a188ccf1bfad" -> "599a0537-50bd-42ba-8034-ccca34d2520e";
"599a0537-50bd-42ba-8034-ccca34d2520e" [style=filled, fillcolor="#5E5E5E",fontcolor=white, label="android.os.Looper.loop\n Susp=0.9665"];
"599a0537-50bd-42ba-8034-ccca34d2520e" -> "288f07fa-a5ce-40da-b3b0-7856e56fa624";
"288f07fa-a5ce-40da-b3b0-7856e56fa624" [style=filled, fillcolor="#5E5E5E",fontcolor=white, label="android.os.Handler.dispatchMessage\n Susp=0.9703"];
"288f07fa-a5ce-40da-b3b0-7856e56fa624" -> "33392dba-e82c-455a-bdd4-a5b1963a7849";
"33392dba-e82c-455a-bdd4-a5b1963a7849" [style=filled, fillcolor="#FFFFFF", label="android.app.ActivityThread$H.handleMessage\n Susp=0.0563"];
"33392dba-e82c-455a-bdd4-a5b1963a7849" -> "8e690434-0a9a-48e9-8a8a-5d40415cda4f";
"8e690434-0a9a-48e9-8a8a-5d40415cda4f" [style=filled, fillcolor="#FFFFFF", label="android.app.ActivityThread.-wrap11\n Susp=0.0317"];
"8e690434-0a9a-48e9-8a8a-5d40415cda4f" -> "0d7b1659-6cd5-47c0-8ff0-75dd328de1cd";
"0d7b1659-6cd5-47c0-8ff0-75dd328de1cd" [style=filled, fillcolor="#FFFFFF", label="android.app.ActivityThread.handleLaunchActivity\n Susp=0.0343"];
"0d7b1659-6cd5-47c0-8ff0-75dd328de1cd" -> "59e8eaf3-ab21-464d-93d0-f4263f9e091c";
"59e8eaf3-ab21-464d-93d0-f4263f9e091c" [style=filled, fillcolor="#FFFFFF", label="android.app.ActivityThread.performLaunchActivity\n Susp=0.0211"];
"59e8eaf3-ab21-464d-93d0-f4263f9e091c" -> "f1720293-f389-4876-95c3-f1ea27ac29da";
"f1720293-f389-4876-95c3-f1ea27ac29da" [style=filled, fillcolor="#FFFFFF", label="android.app.Instrumentation.callActivityOnCreate\n Susp=0.0164"];
"f1720293-f389-4876-95c3-f1ea27ac29da" -> "8e004778-1576-4408-a2aa-dcadcb1fdc42";
"8e004778-1576-4408-a2aa-dcadcb1fdc42" [style=filled, fillcolor="#FFFFFF", label="android.app.Activity.performCreate\n Susp=0.0177"];
"8e004778-1576-4408-a2aa-dcadcb1fdc42" -> "08cb2f7e-0f2a-4e84-819d-6962f56dcec3";
"08cb2f7e-0f2a-4e84-819d-6962f56dcec3" [style=filled, fillcolor="#FFFFFF", label="org.asdtm.goodweather.MainActivity.onCreate\n Susp=0.019"];
"08cb2f7e-0f2a-4e84-819d-6962f56dcec3" -> "c7927005-83ec-4739-90ae-f3aa6ab6ce9c";
"c7927005-83ec-4739-90ae-f3aa6ab6ce9c" [style=filled, fillcolor="#FFFFFF", label="org.asdtm.goodweather.BaseActivity.setContentView\n Susp=0.0186"];
"c7927005-83ec-4739-90ae-f3aa6ab6ce9c" -> "0dafe12c-afdc-419d-a523-91cc1b753430";
"0dafe12c-afdc-419d-a523-91cc1b753430" [style=filled, fillcolor="#FFFFFF", label="org.asdtm.goodweather.BaseActivity.getToolbar\n Susp=0.0199"];
"0dafe12c-afdc-419d-a523-91cc1b753430" -> "d65e8760-3db0-4ebe-af55-8afa5166e9fa";
"d65e8760-3db0-4ebe-af55-8afa5166e9fa" [style=filled, fillcolor="#FFFFFF", label="android.support.v7.app.AppCompatActivity.findViewById\n Susp=0.0199"];
"59e8eaf3-ab21-464d-93d0-f4263f9e091c" -> "e56bf2bd-cae5-420b-8be1-c45fb779206a";
"e56bf2bd-cae5-420b-8be1-c45fb779206a" [style=filled, fillcolor="#FFFFFF", label="android.app.Instrumentation.callActivityOnPostCreate\n Susp=0.0191"];
"e56bf2bd-cae5-420b-8be1-c45fb779206a" -> "7dc57d8d-6190-4261-b0f3-8490dd99692d";
"7dc57d8d-6190-4261-b0f3-8490dd99692d" [style=filled, fillcolor="#FFFFFF", label="org.asdtm.goodweather.BaseActivity.onPostCreate\n Susp=0.0204"];
"7dc57d8d-6190-4261-b0f3-8490dd99692d" -> "defae489-31da-4220-8e47-6c2d4e120e38";
"defae489-31da-4220-8e47-6c2d4e120e38" [style=filled, fillcolor="#FFFFFF", label="org.asdtm.goodweather.BaseActivity.setupNavDrawer\n Susp=0.0206"];
"defae489-31da-4220-8e47-6c2d4e120e38" -> "588378a5-0f18-458e-abbc-55a5184e450e";
"588378a5-0f18-458e-abbc-55a5184e450e" [style=filled, fillcolor="#FFFFFF", label="android.support.v7.app.AppCompatActivity.findViewById\n Susp=0.0173"];
"defae489-31da-4220-8e47-6c2d4e120e38" -> "29de1ac9-ce58-4177-ac37-e5d509105223";
"29de1ac9-ce58-4177-ac37-e5d509105223" [style=filled, fillcolor="#FFFFFF", label="org.asdtm.goodweather.BaseActivity.configureNavView\n Susp=0.0228"];
"29de1ac9-ce58-4177-ac37-e5d509105223" -> "e3f63a56-6437-4b10-98f1-6ea4d88a89fb";
"e3f63a56-6437-4b10-98f1-6ea4d88a89fb" [style=filled, fillcolor="#FFFFFF", label="android.support.v7.app.AppCompatActivity.findViewById\n Susp=0.0186"];
"29de1ac9-ce58-4177-ac37-e5d509105223" -> "d95dac53-a8fc-4993-a6c4-8e6b80fdbd43";
"d95dac53-a8fc-4993-a6c4-8e6b80fdbd43" [style=filled, fillcolor="#FFFFFF", label="org.asdtm.goodweather.utils.AppPreference.getCityAndCode\n Susp=0.0199"];
"d95dac53-a8fc-4993-a6c4-8e6b80fdbd43" -> "5f8a1ea7-9705-4243-93ce-7653df3e75e0";
"5f8a1ea7-9705-4243-93ce-7653df3e75e0" [style=filled, fillcolor="#FFFFFF", label="android.app.SharedPreferencesImpl.getString\n Susp=0.0199"];
"29de1ac9-ce58-4177-ac37-e5d509105223" -> "f31c7367-13c9-4712-ac57-e9e4d5bfa09e";
"f31c7367-13c9-4712-ac57-e9e4d5bfa09e" [style=filled, fillcolor="#FFFFFF", label="android.support.design.widget.NavigationView.getHeaderView\n Susp=0.0196"];
"0d7b1659-6cd5-47c0-8ff0-75dd328de1cd" -> "26156825-af41-4d69-8ee2-48a8ca6f54ef";
"26156825-af41-4d69-8ee2-48a8ca6f54ef" [style=filled, fillcolor="#FFFFFF", label="android.app.ActivityThread.handleResumeActivity\n Susp=0.0274"];
"26156825-af41-4d69-8ee2-48a8ca6f54ef" -> "7c595489-de3a-4413-9f1c-35307ea3e784";
"7c595489-de3a-4413-9f1c-35307ea3e784" [style=filled, fillcolor="#FFFFFF", label="android.app.ActivityThread.performResumeActivity\n Susp=0.0288"];
"7c595489-de3a-4413-9f1c-35307ea3e784" -> "eb99e8a3-38e7-4219-baf9-08dc4801720a";
"eb99e8a3-38e7-4219-baf9-08dc4801720a" [style=filled, fillcolor="#FFFFFF", label="android.app.Activity.performResume\n Susp=0.0301"];
"eb99e8a3-38e7-4219-baf9-08dc4801720a" -> "2a4dc822-2fa5-436b-93bb-def0f99c396b";
"2a4dc822-2fa5-436b-93bb-def0f99c396b" [style=filled, fillcolor="#FFFFFF", label="android.app.Instrumentation.callActivityOnResume\n Susp=0.0314"];
"2a4dc822-2fa5-436b-93bb-def0f99c396b" -> "4d22256b-3498-46ee-a826-9f6c8eba0dda";
"4d22256b-3498-46ee-a826-9f6c8eba0dda" [style=filled, fillcolor="#FFFFFF", label="org.asdtm.goodweather.MainActivity.onResume\n Susp=0.0327"];
"4d22256b-3498-46ee-a826-9f6c8eba0dda" -> "7427e780-dcb1-423a-81e2-4faf8fc2adab";
"7427e780-dcb1-423a-81e2-4faf8fc2adab" [style=filled, fillcolor="#FFFFFF", label="org.asdtm.goodweather.MainActivity.preLoadWeather\n Susp=0.0355"];
"7427e780-dcb1-423a-81e2-4faf8fc2adab" -> "8f715900-b815-4206-b053-d1878a4f4279";
"8f715900-b815-4206-b053-d1878a4f4279" [style=filled, fillcolor="#FFFFFF", label="org.asdtm.goodweather.utils.AppPreference.getLastUpdateTimeMillis\n Susp=0.0212"];
"8f715900-b815-4206-b053-d1878a4f4279" -> "44d01a53-a142-4dc8-92f0-8274ef3e9945";
"44d01a53-a142-4dc8-92f0-8274ef3e9945" [style=filled, fillcolor="#FFFFFF", label="android.app.SharedPreferencesImpl.getLong\n Susp=0.0212"];
"7427e780-dcb1-423a-81e2-4faf8fc2adab" -> "0afa0c6f-98b0-4bcf-8323-6209c574aa45";
"0afa0c6f-98b0-4bcf-8323-6209c574aa45" [style=filled, fillcolor="#FFFFFF", label="android.app.SharedPreferencesImpl.getString\n Susp=0.0199"];
"7427e780-dcb1-423a-81e2-4faf8fc2adab" -> "5b54672e-9203-4285-ad30-5a26763b145c";
"5b54672e-9203-4285-ad30-5a26763b145c" [style=filled, fillcolor="#FFFFFF", label="android.app.SharedPreferencesImpl.getFloat\n Susp=0.0199"];
"7427e780-dcb1-423a-81e2-4faf8fc2adab" -> "00702a01-2b44-4b37-9edd-aa334fdacce3";
"00702a01-2b44-4b37-9edd-aa334fdacce3" [style=filled, fillcolor="#FFFFFF", label="android.app.SharedPreferencesImpl.getInt\n Susp=0.0199"];
"7427e780-dcb1-423a-81e2-4faf8fc2adab" -> "b145d6cc-19f9-4db1-ad44-0b6ad32595a1";
"b145d6cc-19f9-4db1-ad44-0b6ad32595a1" [style=filled, fillcolor="#FFFFFF", label="android.app.SharedPreferencesImpl.getLong\n Susp=0.0223"];
"7427e780-dcb1-423a-81e2-4faf8fc2adab" -> "6440cbe3-3556-4205-a864-914fb9747ca7";
"6440cbe3-3556-4205-a864-914fb9747ca7" [style=filled, fillcolor="#FFFFFF", label="android.content.Context.getString\n Susp=0.0213"];
"7427e780-dcb1-423a-81e2-4faf8fc2adab" -> "6a7cc90e-f32e-405f-a707-460d5dcc5e0e";
"6a7cc90e-f32e-405f-a707-460d5dcc5e0e" [style=filled, fillcolor="#FFFFFF", label="android.widget.TextView.setText\n Susp=0.0206"];
"7427e780-dcb1-423a-81e2-4faf8fc2adab" -> "3b3f0825-aacc-4a29-824e-22a521c2dc87";
"3b3f0825-aacc-4a29-824e-22a521c2dc87" [style=filled, fillcolor="#FFFFFF", label="android.app.Activity.setTitle\n Susp=0.0199"];
"33392dba-e82c-455a-bdd4-a5b1963a7849" -> "f015418a-77c9-44dd-861a-27813a5bc335";
"f015418a-77c9-44dd-861a-27813a5bc335" [style=filled, fillcolor="#FFFFFF", label="android.app.ActivityThread.-wrap13\n Susp=0.0124"];
"f015418a-77c9-44dd-861a-27813a5bc335" -> "3a6245ae-d839-4591-aa76-6f797ebdfc9d";
"3a6245ae-d839-4591-aa76-6f797ebdfc9d" [style=filled, fillcolor="#FFFFFF", label="android.app.ActivityThread.handlePauseActivity\n Susp=0.0138"];
"3a6245ae-d839-4591-aa76-6f797ebdfc9d" -> "1b6e0769-4678-4879-885f-91bfe649062c";
"1b6e0769-4678-4879-885f-91bfe649062c" [style=filled, fillcolor="#FFFFFF", label="android.app.ActivityThread.performPauseActivity\n Susp=0.0151"];
"1b6e0769-4678-4879-885f-91bfe649062c" -> "87508a15-9704-4dbf-a144-5a175924dee4";
"87508a15-9704-4dbf-a144-5a175924dee4" [style=filled, fillcolor="#FFFFFF", label="android.app.Instrumentation.callActivityOnPause\n Susp=0.0164"];
"87508a15-9704-4dbf-a144-5a175924dee4" -> "b4280512-51d7-465d-8570-6a6889a3e503";
"b4280512-51d7-465d-8570-6a6889a3e503" [style=filled, fillcolor="#FFFFFF", label="android.app.Activity.performPause\n Susp=0.0177"];
"b4280512-51d7-465d-8570-6a6889a3e503" -> "87d46aa7-7dbb-4a2f-8800-228f668f4898";
"87d46aa7-7dbb-4a2f-8800-228f668f4898" [style=filled, fillcolor="#FFFFFF", label="org.asdtm.goodweather.MainActivity.onPause\n Susp=0.0177"];
"33392dba-e82c-455a-bdd4-a5b1963a7849" -> "b2ba1e1a-600c-4d09-8222-2ee4c8c6bb32";
"b2ba1e1a-600c-4d09-8222-2ee4c8c6bb32" [style=filled, fillcolor="#FFFFFF", label="android.app.ActivityThread.access$800\n Susp=0.0317"];
"b2ba1e1a-600c-4d09-8222-2ee4c8c6bb32" -> "21060005-2074-4c75-8267-1d59e0028bf3";
"21060005-2074-4c75-8267-1d59e0028bf3" [style=filled, fillcolor="#FFFFFF", label="android.app.ActivityThread.handleLaunchActivity\n Susp=0.0343"];
"21060005-2074-4c75-8267-1d59e0028bf3" -> "6e3ce687-77c0-4c6f-bef8-1db46d3965a6";
"6e3ce687-77c0-4c6f-bef8-1db46d3965a6" [style=filled, fillcolor="#FFFFFF", label="android.app.ActivityThread.performLaunchActivity\n Susp=0.0211"];
"6e3ce687-77c0-4c6f-bef8-1db46d3965a6" -> "4db0ce5a-9edc-404b-a81d-03f84ab18ae0";
"4db0ce5a-9edc-404b-a81d-03f84ab18ae0" [style=filled, fillcolor="#FFFFFF", label="android.app.Instrumentation.callActivityOnCreate\n Susp=0.0164"];
"4db0ce5a-9edc-404b-a81d-03f84ab18ae0" -> "09c87c41-672e-4a3f-9285-c311e9add811";
"09c87c41-672e-4a3f-9285-c311e9add811" [style=filled, fillcolor="#FFFFFF", label="android.app.Activity.performCreate\n Susp=0.0177"];
"09c87c41-672e-4a3f-9285-c311e9add811" -> "9601a0dc-e565-4f71-a175-2a68fefdc20c";
"9601a0dc-e565-4f71-a175-2a68fefdc20c" [style=filled, fillcolor="#FFFFFF", label="org.asdtm.goodweather.MainActivity.onCreate\n Susp=0.019"];
"9601a0dc-e565-4f71-a175-2a68fefdc20c" -> "389f2eef-5cd0-4b40-a0ca-6530d560bfc0";
"389f2eef-5cd0-4b40-a0ca-6530d560bfc0" [style=filled, fillcolor="#FFFFFF", label="org.asdtm.goodweather.BaseActivity.setContentView\n Susp=0.0186"];
"389f2eef-5cd0-4b40-a0ca-6530d560bfc0" -> "67cc7fb8-8207-4b51-a7a4-dafff86c1399";
"67cc7fb8-8207-4b51-a7a4-dafff86c1399" [style=filled, fillcolor="#FFFFFF", label="org.asdtm.goodweather.BaseActivity.getToolbar\n Susp=0.0199"];
"67cc7fb8-8207-4b51-a7a4-dafff86c1399" -> "4919563d-5bf3-4b85-aff1-6148f13cf5eb";
"4919563d-5bf3-4b85-aff1-6148f13cf5eb" [style=filled, fillcolor="#FFFFFF", label="android.support.v7.app.AppCompatActivity.findViewById\n Susp=0.0199"];
"6e3ce687-77c0-4c6f-bef8-1db46d3965a6" -> "c4cbc4b4-b314-4369-830b-871e7c0e2548";
"c4cbc4b4-b314-4369-830b-871e7c0e2548" [style=filled, fillcolor="#FFFFFF", label="android.app.Instrumentation.callActivityOnPostCreate\n Susp=0.0191"];
"c4cbc4b4-b314-4369-830b-871e7c0e2548" -> "8e331e7d-c36d-46c5-a60b-f98441bac5b3";
"8e331e7d-c36d-46c5-a60b-f98441bac5b3" [style=filled, fillcolor="#FFFFFF", label="org.asdtm.goodweather.BaseActivity.onPostCreate\n Susp=0.0204"];
"8e331e7d-c36d-46c5-a60b-f98441bac5b3" -> "57e37882-2040-4504-9908-5c2e7e682579";
"57e37882-2040-4504-9908-5c2e7e682579" [style=filled, fillcolor="#FFFFFF", label="org.asdtm.goodweather.BaseActivity.setupNavDrawer\n Susp=0.0206"];
"57e37882-2040-4504-9908-5c2e7e682579" -> "87499d02-ac9d-4b40-bd53-47d22d4ce461";
"87499d02-ac9d-4b40-bd53-47d22d4ce461" [style=filled, fillcolor="#FFFFFF", label="android.support.v7.app.AppCompatActivity.findViewById\n Susp=0.0173"];
"57e37882-2040-4504-9908-5c2e7e682579" -> "5f3f5512-359c-4168-8660-345a6ae8c7fb";
"5f3f5512-359c-4168-8660-345a6ae8c7fb" [style=filled, fillcolor="#FFFFFF", label="org.asdtm.goodweather.BaseActivity.configureNavView\n Susp=0.0228"];
"5f3f5512-359c-4168-8660-345a6ae8c7fb" -> "70ecfe46-031b-4350-8c82-df2756205fbb";
"70ecfe46-031b-4350-8c82-df2756205fbb" [style=filled, fillcolor="#FFFFFF", label="android.support.v7.app.AppCompatActivity.findViewById\n Susp=0.0186"];
"5f3f5512-359c-4168-8660-345a6ae8c7fb" -> "5a608ab3-b6f6-4799-9740-c71acf1fb54c";
"5a608ab3-b6f6-4799-9740-c71acf1fb54c" [style=filled, fillcolor="#FFFFFF", label="org.asdtm.goodweather.utils.AppPreference.getCityAndCode\n Susp=0.0199"];
"5a608ab3-b6f6-4799-9740-c71acf1fb54c" -> "20466ab0-e1b6-40aa-8d52-e5bc537589a1";
"20466ab0-e1b6-40aa-8d52-e5bc537589a1" [style=filled, fillcolor="#FFFFFF", label="android.app.SharedPreferencesImpl.getString\n Susp=0.0199"];
"5f3f5512-359c-4168-8660-345a6ae8c7fb" -> "c490b48b-ed52-404c-af03-a72da5c4bcf5";
"c490b48b-ed52-404c-af03-a72da5c4bcf5" [style=filled, fillcolor="#FFFFFF", label="android.support.design.widget.NavigationView.getHeaderView\n Susp=0.0196"];
"21060005-2074-4c75-8267-1d59e0028bf3" -> "82fb8e24-f110-4114-8909-e49e00a7d4ce";
"82fb8e24-f110-4114-8909-e49e00a7d4ce" [style=filled, fillcolor="#FFFFFF", label="android.app.ActivityThread.handleResumeActivity\n Susp=0.0274"];
"82fb8e24-f110-4114-8909-e49e00a7d4ce" -> "b9a949d6-023d-4f5b-bc47-42f605bc25cb";
"b9a949d6-023d-4f5b-bc47-42f605bc25cb" [style=filled, fillcolor="#FFFFFF", label="android.app.ActivityThread.performResumeActivity\n Susp=0.0288"];
"b9a949d6-023d-4f5b-bc47-42f605bc25cb" -> "e664ce17-c921-44e9-a9c2-27f7e12536a2";
"e664ce17-c921-44e9-a9c2-27f7e12536a2" [style=filled, fillcolor="#FFFFFF", label="android.app.Activity.performResume\n Susp=0.0301"];
"e664ce17-c921-44e9-a9c2-27f7e12536a2" -> "231d34d8-d29f-4b4a-a451-bd8b07c2c77a";
"231d34d8-d29f-4b4a-a451-bd8b07c2c77a" [style=filled, fillcolor="#FFFFFF", label="android.app.Instrumentation.callActivityOnResume\n Susp=0.0314"];
"231d34d8-d29f-4b4a-a451-bd8b07c2c77a" -> "19c4a567-bf41-4739-90c8-78aff4aeaa79";
"19c4a567-bf41-4739-90c8-78aff4aeaa79" [style=filled, fillcolor="#FFFFFF", label="org.asdtm.goodweather.MainActivity.onResume\n Susp=0.0327"];
"19c4a567-bf41-4739-90c8-78aff4aeaa79" -> "08e6e2f3-8421-4071-a38b-34872c8bc534";
"08e6e2f3-8421-4071-a38b-34872c8bc534" [style=filled, fillcolor="#FFFFFF", label="org.asdtm.goodweather.MainActivity.preLoadWeather\n Susp=0.0355"];
"08e6e2f3-8421-4071-a38b-34872c8bc534" -> "02e4e5ce-c612-406d-9110-2c9dbb6cf589";
"02e4e5ce-c612-406d-9110-2c9dbb6cf589" [style=filled, fillcolor="#FFFFFF", label="org.asdtm.goodweather.utils.AppPreference.getLastUpdateTimeMillis\n Susp=0.0212"];
"02e4e5ce-c612-406d-9110-2c9dbb6cf589" -> "b93c1aa5-9464-42f7-a361-f5cd94d3a21b";
"b93c1aa5-9464-42f7-a361-f5cd94d3a21b" [style=filled, fillcolor="#FFFFFF", label="android.app.SharedPreferencesImpl.getLong\n Susp=0.0212"];
"08e6e2f3-8421-4071-a38b-34872c8bc534" -> "045b9c63-2822-44dc-81cb-2e258849d72c";
"045b9c63-2822-44dc-81cb-2e258849d72c" [style=filled, fillcolor="#FFFFFF", label="android.app.SharedPreferencesImpl.getString\n Susp=0.0199"];
"08e6e2f3-8421-4071-a38b-34872c8bc534" -> "99634c1c-6d01-458f-8096-0461956672e1";
"99634c1c-6d01-458f-8096-0461956672e1" [style=filled, fillcolor="#FFFFFF", label="android.app.SharedPreferencesImpl.getFloat\n Susp=0.0199"];
"08e6e2f3-8421-4071-a38b-34872c8bc534" -> "a6de477e-97d5-480d-9af6-852b1b64fee8";
"a6de477e-97d5-480d-9af6-852b1b64fee8" [style=filled, fillcolor="#FFFFFF", label="android.app.SharedPreferencesImpl.getInt\n Susp=0.0199"];
"08e6e2f3-8421-4071-a38b-34872c8bc534" -> "aa2027f6-b352-41e2-8066-058af9f46e47";
"aa2027f6-b352-41e2-8066-058af9f46e47" [style=filled, fillcolor="#FFFFFF", label="android.app.SharedPreferencesImpl.getLong\n Susp=0.0223"];
"08e6e2f3-8421-4071-a38b-34872c8bc534" -> "61fef76c-c2b0-416a-9eca-96f30fb6800c";
"61fef76c-c2b0-416a-9eca-96f30fb6800c" [style=filled, fillcolor="#FFFFFF", label="android.content.Context.getString\n Susp=0.0213"];
"08e6e2f3-8421-4071-a38b-34872c8bc534" -> "da05a8b3-4782-40b2-845d-d2cb8827499b";
"da05a8b3-4782-40b2-845d-d2cb8827499b" [style=filled, fillcolor="#FFFFFF", label="android.widget.TextView.setText\n Susp=0.0206"];
"08e6e2f3-8421-4071-a38b-34872c8bc534" -> "0fad7261-62f8-4cc5-8964-c33cb0607280";
"0fad7261-62f8-4cc5-8964-c33cb0607280" [style=filled, fillcolor="#FFFFFF", label="android.app.Activity.setTitle\n Susp=0.0199"];
"288f07fa-a5ce-40da-b3b0-7856e56fa624" -> "73a38eee-21e8-403f-a444-ea0e05fa6199";
"73a38eee-21e8-403f-a444-ea0e05fa6199" [style=filled, fillcolor="#FFFFFF", label="android.os.Handler.handleCallback\n Susp=0.0132"];
"73a38eee-21e8-403f-a444-ea0e05fa6199" -> "cad37682-0d40-435b-bece-ed337e7dafba";
"cad37682-0d40-435b-bece-ed337e7dafba" [style=filled, fillcolor="#FFFFFF", label="android.view.View$PerformClick.run\n Susp=0.0145"];
"cad37682-0d40-435b-bece-ed337e7dafba" -> "328b5a2b-8cb4-4b84-864c-b667e408c98d";
"328b5a2b-8cb4-4b84-864c-b667e408c98d" [style=filled, fillcolor="#FFFFFF", label="android.view.View.performClick\n Susp=0.0158"];
"328b5a2b-8cb4-4b84-864c-b667e408c98d" -> "09d6385c-be3f-4ca5-9017-bfa9936e5994";
"09d6385c-be3f-4ca5-9017-bfa9936e5994" [style=filled, fillcolor="#FFFFFF", label="android.support.v7.view.menu.ActionMenuItemView.onClick\n Susp=0.0171"];
"09d6385c-be3f-4ca5-9017-bfa9936e5994" -> "f9446517-1d81-41f2-b039-8c434f155747";
"f9446517-1d81-41f2-b039-8c434f155747" [style=filled, fillcolor="#FFFFFF", label="android.support.v7.widget.ActionMenuView.invokeItem\n Susp=0.0184"];
"f9446517-1d81-41f2-b039-8c434f155747" -> "bcb1a950-5ef0-44cd-a6ef-56f7628c9376";
"bcb1a950-5ef0-44cd-a6ef-56f7628c9376" [style=filled, fillcolor="#FFFFFF", label="android.support.v7.view.menu.MenuBuilder.performItemAction\n Susp=0.0197"];
"bcb1a950-5ef0-44cd-a6ef-56f7628c9376" -> "7ed8c0ba-79a9-4415-82c4-5e491ed53bbc";
"7ed8c0ba-79a9-4415-82c4-5e491ed53bbc" [style=filled, fillcolor="#FFFFFF", label="android.support.v7.view.menu.MenuItemImpl.invoke\n Susp=0.021"];
"7ed8c0ba-79a9-4415-82c4-5e491ed53bbc" -> "dff8e9b5-6bec-4f2e-bd81-19f4120bfde1";
"dff8e9b5-6bec-4f2e-bd81-19f4120bfde1" [style=filled, fillcolor="#FFFFFF", label="android.support.v7.view.menu.MenuBuilder.dispatchMenuItemSelected\n Susp=0.0223"];
"dff8e9b5-6bec-4f2e-bd81-19f4120bfde1" -> "2109b164-2fda-48f6-b2b7-bac134d7e284";
"2109b164-2fda-48f6-b2b7-bac134d7e284" [style=filled, fillcolor="#FFFFFF", label="android.support.v7.widget.ActionMenuView$MenuBuilderCallback.onMenuItemSelected\n Susp=0.0236"];
"2109b164-2fda-48f6-b2b7-bac134d7e284" -> "66651784-fa3d-4de5-8182-62afa417d522";
"66651784-fa3d-4de5-8182-62afa417d522" [style=filled, fillcolor="#FFFFFF", label="android.support.v7.widget.Toolbar$1.onMenuItemClick\n Susp=0.0249"];
"66651784-fa3d-4de5-8182-62afa417d522" -> "34b8aa86-5f11-4578-8e13-33b7db7e2e7f";
"34b8aa86-5f11-4578-8e13-33b7db7e2e7f" [style=filled, fillcolor="#FFFFFF", label="android.support.v7.app.ToolbarActionBar$2.onMenuItemClick\n Susp=0.0263"];
"34b8aa86-5f11-4578-8e13-33b7db7e2e7f" -> "d116c02d-6c70-48cb-ab55-23df8ce00bec";
"d116c02d-6c70-48cb-ab55-23df8ce00bec" [style=filled, fillcolor="#FFFFFF", label="android.support.v7.view.WindowCallbackWrapper.onMenuItemSelected\n Susp=0.0276"];
"d116c02d-6c70-48cb-ab55-23df8ce00bec" -> "9d8caec7-596e-4ad5-bc62-be40257e7d5f";
"9d8caec7-596e-4ad5-bc62-be40257e7d5f" [style=filled, fillcolor="#FFFFFF", label="android.support.v7.app.AppCompatActivity.onMenuItemSelected\n Susp=0.0289"];
"9d8caec7-596e-4ad5-bc62-be40257e7d5f" -> "2eda115b-1cf2-4b83-b970-0629e100f93e";
"2eda115b-1cf2-4b83-b970-0629e100f93e" [style=filled, fillcolor="#FFFFFF", label="android.support.v4.app.FragmentActivity.onMenuItemSelected\n Susp=0.0302"];
"2eda115b-1cf2-4b83-b970-0629e100f93e" -> "e1108239-59fb-41ba-bc7f-bb7f51ff39d0";
"e1108239-59fb-41ba-bc7f-bb7f51ff39d0" [style=filled, fillcolor="#FFFFFF", label="android.app.Activity.onMenuItemSelected\n Susp=0.0315"];
"e1108239-59fb-41ba-bc7f-bb7f51ff39d0" -> "c0245648-d802-4320-8350-989b2cdaec85";
"c0245648-d802-4320-8350-989b2cdaec85" [style=filled, fillcolor="#FFFFFF", label="org.asdtm.goodweather.MainActivity.onOptionsItemSelected\n Susp=0.0328"];
"c0245648-d802-4320-8350-989b2cdaec85" -> "096316a3-93ed-49a8-b3c1-f35946e286be";
"096316a3-93ed-49a8-b3c1-f35946e286be" [style=filled, fillcolor="#FFFFFF", label="org.asdtm.goodweather.MainActivity.gpsRequestLocation\n Susp=0.0333"];
"096316a3-93ed-49a8-b3c1-f35946e286be" -> "8e194ff0-f5ea-4d89-8dcf-6c6386f4047e";
"8e194ff0-f5ea-4d89-8dcf-6c6386f4047e" [style=filled, fillcolor="#FFFFFF", label="android.support.v4.content.ContextCompat.checkSelfPermission\n Susp=0.0314"];
"096316a3-93ed-49a8-b3c1-f35946e286be" -> "2532c1e8-5266-42aa-9a01-133c8fa08918";
"2532c1e8-5266-42aa-9a01-133c8fa08918" [style=filled, fillcolor="#FFFFFF", label="android.location.LocationManager.requestLocationUpdates\n Susp=0.0307"];
"288f07fa-a5ce-40da-b3b0-7856e56fa624" -> "890e31f8-25c9-47eb-b279-e3c58c75411d";
"890e31f8-25c9-47eb-b279-e3c58c75411d" [style=filled, fillcolor="#5E5E5E",fontcolor=white, label="android.location.LocationManager$ListenerTransport$1.handleMessage\n Susp=0.9202"];
"890e31f8-25c9-47eb-b279-e3c58c75411d" -> "defb82e5-a0c4-403c-bc78-05078d8282f8";
"defb82e5-a0c4-403c-bc78-05078d8282f8" [style=filled, fillcolor="#5E5E5E",fontcolor=white, label="android.location.LocationManager$ListenerTransport.access$000\n Susp=0.9215"];
"defb82e5-a0c4-403c-bc78-05078d8282f8" -> "5bfe1016-93f8-4acf-a459-cf4a9ae5d860";
"5bfe1016-93f8-4acf-a459-cf4a9ae5d860" [style=filled, fillcolor="#5E5E5E",fontcolor=white, label="android.location.LocationManager$ListenerTransport._handleMessage\n Susp=0.9228"];
"5bfe1016-93f8-4acf-a459-cf4a9ae5d860" -> "18eeca5e-dc1e-46dc-8063-1bb0ba74bb72";
"18eeca5e-dc1e-46dc-8063-1bb0ba74bb72" [style=filled, fillcolor="#5E5E5E",fontcolor=white, label="org.asdtm.goodweather.MainActivity$1.onLocationChanged\n Susp=0.9229"];
}
