digraph FULL {
"b8a9daee-c86f-4d99-b658-69216f1ba6df" [label="de.robv.android.xposed.XposedBridge.main\n Susp=1"];
"b8a9daee-c86f-4d99-b658-69216f1ba6df" -> "b33e8a24-acfe-4730-9ada-4d874d9db6a1";
"b33e8a24-acfe-4730-9ada-4d874d9db6a1" [label="com.android.internal.os.ZygoteInit.main\n Susp=0,8004"];
"b33e8a24-acfe-4730-9ada-4d874d9db6a1" -> "43c56f6e-ebb4-41b4-abcc-6f324ff5e0df";
"43c56f6e-ebb4-41b4-abcc-6f324ff5e0df" [label="com.android.internal.os.Zygote$MethodAndArgsCaller.run\n Susp=0,4001"];
"43c56f6e-ebb4-41b4-abcc-6f324ff5e0df" -> "f7c9debb-9880-4e2c-aca5-4d92fe6f408a";
"f7c9debb-9880-4e2c-aca5-4d92fe6f408a" [label="java.lang.reflect.Method.invoke\n Susp=0,4001"];
"f7c9debb-9880-4e2c-aca5-4d92fe6f408a" -> "47ea5da9-54b4-43dd-b5d3-1d236730eec7";
"47ea5da9-54b4-43dd-b5d3-1d236730eec7" [label="android.app.ActivityThread.main\n Susp=0,4001"];
"47ea5da9-54b4-43dd-b5d3-1d236730eec7" -> "e0e81ca2-5a8b-4c11-a964-25071be93c31";
"e0e81ca2-5a8b-4c11-a964-25071be93c31" [label="android.os.Looper.loop\n Susp=0,4001"];
"e0e81ca2-5a8b-4c11-a964-25071be93c31" -> "d8cf5ec9-4578-47aa-bbfc-2ef7c51442f8";
"d8cf5ec9-4578-47aa-bbfc-2ef7c51442f8" [label="android.os.Handler.dispatchMessage\n Susp=0,4001"];
"d8cf5ec9-4578-47aa-bbfc-2ef7c51442f8" -> "5189c354-61a8-40c8-8717-4eb5286fb78c";
"5189c354-61a8-40c8-8717-4eb5286fb78c" [label="android.app.ActivityThread$H.handleMessage\n Susp=0,4001"];
"5189c354-61a8-40c8-8717-4eb5286fb78c" -> "26e4723e-6eca-4dc2-8374-402d1e05113a";
"26e4723e-6eca-4dc2-8374-402d1e05113a" [label="android.app.ActivityThread.-wrap11\n Susp=0,4001"];
"26e4723e-6eca-4dc2-8374-402d1e05113a" -> "6f5d312d-191f-4cb8-bf3a-118854bd1c92";
"6f5d312d-191f-4cb8-bf3a-118854bd1c92" [label="android.app.ActivityThread.handleLaunchActivity\n Susp=0,4001"];
"6f5d312d-191f-4cb8-bf3a-118854bd1c92" -> "556dad56-1f1b-4e34-810b-c8f4e117412b";
"556dad56-1f1b-4e34-810b-c8f4e117412b" [label="android.app.ActivityThread.performLaunchActivity\n Susp=0,4001"];
"556dad56-1f1b-4e34-810b-c8f4e117412b" -> "010fff46-c730-4e81-8c23-4915b5e73c0e";
"010fff46-c730-4e81-8c23-4915b5e73c0e" [label="android.app.Instrumentation.callActivityOnCreate\n Susp=0,4001"];
"010fff46-c730-4e81-8c23-4915b5e73c0e" -> "cef9def8-fcd7-4d15-8e06-49dc41d69add";
"cef9def8-fcd7-4d15-8e06-49dc41d69add" [label="android.app.Activity.performCreate\n Susp=0,4001"];
"cef9def8-fcd7-4d15-8e06-49dc41d69add" -> "c63ae989-a03d-438e-9d0c-2a2c2777808d";
"c63ae989-a03d-438e-9d0c-2a2c2777808d" [label="com.cunnj.activities.MainActivity.onCreate\n Susp=0,4001"];
"c63ae989-a03d-438e-9d0c-2a2c2777808d" -> "a397dac8-3853-464b-b5d6-dbb49c034396";
"a397dac8-3853-464b-b5d6-dbb49c034396" [label="de.robv.android.xposed.XposedBridge.handleHookedMethod\n Susp=0,4001"];
"a397dac8-3853-464b-b5d6-dbb49c034396" -> "34d561d2-3f9e-4c77-8f80-72c2616087e3";
"34d561d2-3f9e-4c77-8f80-72c2616087e3" [label="de.robv.android.xposed.XposedBridge.invokeOriginalMethodNative\n Susp=0,4001"];
"34d561d2-3f9e-4c77-8f80-72c2616087e3" -> "6f0bcd0c-c61c-4cb2-b0a8-57a4e3398e05";
"6f0bcd0c-c61c-4cb2-b0a8-57a4e3398e05" [label="com.cunnj.activities.MainActivity.onCreate\n Susp=0,4001"];
"6f0bcd0c-c61c-4cb2-b0a8-57a4e3398e05" -> "6c01d32a-a441-4ed1-9080-928655314c78";
"6c01d32a-a441-4ed1-9080-928655314c78" [label="android.support.v4.app.BackStackRecord.replace\n Susp=0,4001"];
"6c01d32a-a441-4ed1-9080-928655314c78" -> "d2714d85-fe76-451e-8534-c47788c35cb5";
"d2714d85-fe76-451e-8534-c47788c35cb5" [label="de.robv.android.xposed.XposedBridge.handleHookedMethod\n Susp=0,4001"];
"d2714d85-fe76-451e-8534-c47788c35cb5" -> "a9c126bc-14f5-49d9-9c4b-ba6708fce851";
"a9c126bc-14f5-49d9-9c4b-ba6708fce851" [label="de.robv.android.xposed.XposedBridge.invokeOriginalMethodNative\n Susp=0,4001"];
"a9c126bc-14f5-49d9-9c4b-ba6708fce851" -> "394ea41b-95c7-4e97-aab3-8bbce207c799";
"394ea41b-95c7-4e97-aab3-8bbce207c799" [label="android.support.v4.app.BackStackRecord.replace\n Susp=0,4001"];
"394ea41b-95c7-4e97-aab3-8bbce207c799" -> "4ed309fd-f1c6-44e6-ba01-993b8e70d18c";
"4ed309fd-f1c6-44e6-ba01-993b8e70d18c" [label="de.robv.android.xposed.XposedBridge.handleHookedMethod\n Susp=0,4001"];
"4ed309fd-f1c6-44e6-ba01-993b8e70d18c" -> "c78f1967-3692-4897-82d4-6fbcc74e101e";
"c78f1967-3692-4897-82d4-6fbcc74e101e" [label="it.unimib.disco.lta.unimiblogger.MyMethodHook.beforeHookedMethod\n Susp=0,4001"];
"c78f1967-3692-4897-82d4-6fbcc74e101e" -> "b72b7c61-960a-4153-86b7-831931b494fd";
"b72b7c61-960a-4153-86b7-831931b494fd" [label="java.lang.Thread.getStackTrace\n Susp=0,4001"];
"b72b7c61-960a-4153-86b7-831931b494fd" -> "e7b1a568-c4e1-4e5f-bc38-9818b334a6c0";
"e7b1a568-c4e1-4e5f-bc38-9818b334a6c0" [label="dalvik.system.VMStack.getThreadStackTrace\n Susp=0,0001"];
"b33e8a24-acfe-4730-9ada-4d874d9db6a1" -> "6325f3af-2e38-4c74-8588-9c33f9432550";
"6325f3af-2e38-4c74-8588-9c33f9432550" [label="com.android.internal.os.ZygoteInit$MethodAndArgsCaller.run\n Susp=0,4003"];
"6325f3af-2e38-4c74-8588-9c33f9432550" -> "e89d2965-b353-488b-aac3-1bfcbe5c374a";
"e89d2965-b353-488b-aac3-1bfcbe5c374a" [label="java.lang.reflect.Method.invoke\n Susp=0,4003"];
"e89d2965-b353-488b-aac3-1bfcbe5c374a" -> "41753330-cd07-466c-ad92-45bece9be2c7";
"41753330-cd07-466c-ad92-45bece9be2c7" [label="android.app.ActivityThread.main\n Susp=0,4003"];
"41753330-cd07-466c-ad92-45bece9be2c7" -> "b51debdc-6a50-4ada-a0bb-7b8da8c2a575";
"b51debdc-6a50-4ada-a0bb-7b8da8c2a575" [label="android.os.Looper.loop\n Susp=0,4003"];
"b51debdc-6a50-4ada-a0bb-7b8da8c2a575" -> "e2005be7-cb50-474e-83f6-b77454760e82";
"e2005be7-cb50-474e-83f6-b77454760e82" [label="android.os.Handler.dispatchMessage\n Susp=0,8003"];
"e2005be7-cb50-474e-83f6-b77454760e82" -> "0987e69f-5ec0-4e02-acf2-df14969920e1";
"0987e69f-5ec0-4e02-acf2-df14969920e1" [label="android.app.ActivityThread$H.handleMessage\n Susp=0,4001"];
"0987e69f-5ec0-4e02-acf2-df14969920e1" -> "e3b66542-1bd9-47b6-8534-37d1ff5e04fa";
"e3b66542-1bd9-47b6-8534-37d1ff5e04fa" [label="android.app.ActivityThread.-wrap12\n Susp=0,4001"];
"e3b66542-1bd9-47b6-8534-37d1ff5e04fa" -> "898a3c0e-0372-4fd8-9746-ac3917e7ddc4";
"898a3c0e-0372-4fd8-9746-ac3917e7ddc4" [label="android.app.ActivityThread.handleLaunchActivity\n Susp=0,4001"];
"898a3c0e-0372-4fd8-9746-ac3917e7ddc4" -> "8bc99e9a-b871-4bf0-9ee0-59f24c15626a";
"8bc99e9a-b871-4bf0-9ee0-59f24c15626a" [label="android.app.ActivityThread.performLaunchActivity\n Susp=0,4001"];
"8bc99e9a-b871-4bf0-9ee0-59f24c15626a" -> "07ef3aa2-1b19-4972-abff-c5e60700fd5c";
"07ef3aa2-1b19-4972-abff-c5e60700fd5c" [label="android.app.Instrumentation.callActivityOnCreate\n Susp=0,4001"];
"07ef3aa2-1b19-4972-abff-c5e60700fd5c" -> "b769d3f4-fb18-4c47-b5b1-78548a0e3d37";
"b769d3f4-fb18-4c47-b5b1-78548a0e3d37" [label="android.app.Activity.performCreate\n Susp=0,4001"];
"b769d3f4-fb18-4c47-b5b1-78548a0e3d37" -> "0db85056-db2b-457a-a24c-674b4f289334";
"0db85056-db2b-457a-a24c-674b4f289334" [label="com.cunnj.activities.MainActivity.onCreate\n Susp=0,4001"];
"0db85056-db2b-457a-a24c-674b4f289334" -> "5cb60fd0-fcea-4d5d-b525-c859a98617ad";
"5cb60fd0-fcea-4d5d-b525-c859a98617ad" [label="de.robv.android.xposed.XposedBridge.handleHookedMethod\n Susp=0,4001"];
"5cb60fd0-fcea-4d5d-b525-c859a98617ad" -> "e4f6c48f-de30-43cd-8ebc-31cc6d2a1c6f";
"e4f6c48f-de30-43cd-8ebc-31cc6d2a1c6f" [label="de.robv.android.xposed.XposedBridge.invokeOriginalMethodNative\n Susp=0,4001"];
"e4f6c48f-de30-43cd-8ebc-31cc6d2a1c6f" -> "b85ac4d1-6a45-49aa-8938-7dcc3a2ee245";
"b85ac4d1-6a45-49aa-8938-7dcc3a2ee245" [label="com.cunnj.activities.MainActivity.onCreate\n Susp=0,4001"];
"b85ac4d1-6a45-49aa-8938-7dcc3a2ee245" -> "466fe22a-78e4-45b7-8d92-e144bb96bd5f";
"466fe22a-78e4-45b7-8d92-e144bb96bd5f" [label="android.support.v4.app.BackStackRecord.replace\n Susp=0,4001"];
"466fe22a-78e4-45b7-8d92-e144bb96bd5f" -> "a3868e4e-56de-48a9-a7ee-497c39567e7d";
"a3868e4e-56de-48a9-a7ee-497c39567e7d" [label="de.robv.android.xposed.XposedBridge.handleHookedMethod\n Susp=0,4001"];
"a3868e4e-56de-48a9-a7ee-497c39567e7d" -> "25582a8d-187b-43e1-8af9-5b1323378021";
"25582a8d-187b-43e1-8af9-5b1323378021" [label="de.robv.android.xposed.XposedBridge.invokeOriginalMethodNative\n Susp=0,4001"];
"25582a8d-187b-43e1-8af9-5b1323378021" -> "2ada774e-2005-42e3-b4ea-be581341fa8d";
"2ada774e-2005-42e3-b4ea-be581341fa8d" [label="android.support.v4.app.BackStackRecord.replace\n Susp=0,4001"];
"2ada774e-2005-42e3-b4ea-be581341fa8d" -> "33bd807f-f3f4-41da-8d88-7ebdf7fff191";
"33bd807f-f3f4-41da-8d88-7ebdf7fff191" [label="de.robv.android.xposed.XposedBridge.handleHookedMethod\n Susp=0,4001"];
"33bd807f-f3f4-41da-8d88-7ebdf7fff191" -> "89e7b222-f672-4555-87a7-fe95be1495c6";
"89e7b222-f672-4555-87a7-fe95be1495c6" [label="it.unimib.disco.lta.unimiblogger.MyMethodHook.beforeHookedMethod\n Susp=0,4001"];
"89e7b222-f672-4555-87a7-fe95be1495c6" -> "0b1f6965-90da-4f7f-8e49-e21e1cd35f34";
"0b1f6965-90da-4f7f-8e49-e21e1cd35f34" [label="java.lang.Thread.getStackTrace\n Susp=0,4001"];
"0b1f6965-90da-4f7f-8e49-e21e1cd35f34" -> "1200e154-a556-4418-bdd1-e489af141cfb";
"1200e154-a556-4418-bdd1-e489af141cfb" [label="dalvik.system.VMStack.getThreadStackTrace\n Susp=0,0001"];
"e2005be7-cb50-474e-83f6-b77454760e82" -> "b5e86ad6-5363-4b9c-8273-276b57ae04ab";
"b5e86ad6-5363-4b9c-8273-276b57ae04ab" [label="android.os.AsyncTask$InternalHandler.handleMessage\n Susp=0,4003"];
"b5e86ad6-5363-4b9c-8273-276b57ae04ab" -> "d2ecb0c9-c588-43e9-bf35-0a34bcdbc8f8";
"d2ecb0c9-c588-43e9-bf35-0a34bcdbc8f8" [label="com.cunnj.activities.AsyncProvider.onProgressUpdate\n Susp=0,4003"];
"d2ecb0c9-c588-43e9-bf35-0a34bcdbc8f8" -> "cd8d2abf-f93d-4292-a93f-19995b91fd13";
"cd8d2abf-f93d-4292-a93f-19995b91fd13" [label="de.robv.android.xposed.XposedBridge.handleHookedMethod\n Susp=0,4003"];
"cd8d2abf-f93d-4292-a93f-19995b91fd13" -> "290ebf32-23e4-4733-b821-e50352fa4603";
"290ebf32-23e4-4733-b821-e50352fa4603" [label="it.unimib.disco.lta.unimiblogger.MyMethodHook.beforeHookedMethod\n Susp=0,4003"];
"290ebf32-23e4-4733-b821-e50352fa4603" -> "43781ed3-854c-45db-8579-281cae2fe3c3";
"43781ed3-854c-45db-8579-281cae2fe3c3" [label="java.lang.Thread.getStackTrace\n Susp=0,4003"];
"43781ed3-854c-45db-8579-281cae2fe3c3" -> "fb2e8d57-468b-4291-a1b1-1e6bfab559a0";
"fb2e8d57-468b-4291-a1b1-1e6bfab559a0" [label="dalvik.system.VMStack.getThreadStackTrace\n Susp=0,0003"];
"b8a9daee-c86f-4d99-b658-69216f1ba6df" -> "799a7787-35fc-45c4-aa9a-f9f161349667";
"799a7787-35fc-45c4-aa9a-f9f161349667" [label="java.lang.Thread.run\n Susp=0,5996"];
"799a7787-35fc-45c4-aa9a-f9f161349667" -> "ccbc083f-b913-41e3-b2d9-1062bb53db28";
"ccbc083f-b913-41e3-b2d9-1062bb53db28" [label="java.util.concurrent.ThreadPoolExecutor$Worker.run\n Susp=0,5996"];
"ccbc083f-b913-41e3-b2d9-1062bb53db28" -> "991f1bb3-4482-4c9d-9051-7c016c6af995";
"991f1bb3-4482-4c9d-9051-7c016c6af995" [label="java.util.concurrent.ThreadPoolExecutor.runWorker\n Susp=0,5996"];
"991f1bb3-4482-4c9d-9051-7c016c6af995" -> "b1eb39da-4312-432b-8bf2-759e334ee074";
"b1eb39da-4312-432b-8bf2-759e334ee074" [label="android.os.AsyncTask$SerialExecutor$1.run\n Susp=0,5996"];
"b1eb39da-4312-432b-8bf2-759e334ee074" -> "d6de634e-5910-4956-a7ee-42f404da4fa1";
"d6de634e-5910-4956-a7ee-42f404da4fa1" [label="java.util.concurrent.FutureTask.run\n Susp=0,5996"];
"d6de634e-5910-4956-a7ee-42f404da4fa1" -> "d7db09e9-4387-4400-bc3a-7dea6926c77b";
"d7db09e9-4387-4400-bc3a-7dea6926c77b" [label="android.os.AsyncTask$2.call\n Susp=0,9996"];
"d7db09e9-4387-4400-bc3a-7dea6926c77b" -> "c2e50329-d28b-4088-88cc-b6560a7af544";
"c2e50329-d28b-4088-88cc-b6560a7af544" [label="de.robv.android.xposed.XposedBridge.handleHookedMethod\n Susp=0,4003"];
"c2e50329-d28b-4088-88cc-b6560a7af544" -> "a5d4a517-7170-413b-8e5f-4a9b5b24320c";
"a5d4a517-7170-413b-8e5f-4a9b5b24320c" [label="de.robv.android.xposed.XposedBridge.invokeOriginalMethodNative\n Susp=0,4003"];
"a5d4a517-7170-413b-8e5f-4a9b5b24320c" -> "e32fea7d-e741-47b2-8bc1-c81dfe1d8bde";
"e32fea7d-e741-47b2-8bc1-c81dfe1d8bde" [label="android.os.AsyncTask$2.call\n Susp=0,4003"];
"e32fea7d-e741-47b2-8bc1-c81dfe1d8bde" -> "be1e88f1-75cf-4845-8f80-8917b7ecc714";
"be1e88f1-75cf-4845-8f80-8917b7ecc714" [label="com.cunnj.activities.AsyncProvider.doInBackground\n Susp=0,4003"];
"be1e88f1-75cf-4845-8f80-8917b7ecc714" -> "58c61f9b-3e42-4105-b4f4-c64c0119cbcf";
"58c61f9b-3e42-4105-b4f4-c64c0119cbcf" [label="de.robv.android.xposed.XposedBridge.handleHookedMethod\n Susp=0,4003"];
"58c61f9b-3e42-4105-b4f4-c64c0119cbcf" -> "844755de-90df-4c32-a7c8-d1bbbb85b94f";
"844755de-90df-4c32-a7c8-d1bbbb85b94f" [label="de.robv.android.xposed.XposedBridge.invokeOriginalMethodNative\n Susp=0,4003"];
"844755de-90df-4c32-a7c8-d1bbbb85b94f" -> "2b1acc83-d439-43ea-8326-4ef716cefcdf";
"2b1acc83-d439-43ea-8326-4ef716cefcdf" [label="com.cunnj.activities.AsyncProvider.doInBackground\n Susp=0,4003"];
"2b1acc83-d439-43ea-8326-4ef716cefcdf" -> "00ad2a32-adb1-4893-9a98-d4a8065c8f90";
"00ad2a32-adb1-4893-9a98-d4a8065c8f90" [label="de.robv.android.xposed.XposedBridge.handleHookedMethod\n Susp=0,4003"];
"00ad2a32-adb1-4893-9a98-d4a8065c8f90" -> "2871a88d-e3c0-4d19-a523-0a5961781f55";
"2871a88d-e3c0-4d19-a523-0a5961781f55" [label="de.robv.android.xposed.XposedBridge.invokeOriginalMethodNative\n Susp=0,4003"];
"2871a88d-e3c0-4d19-a523-0a5961781f55" -> "9042a7be-1efe-4a27-954d-b91097a0aea9";
"9042a7be-1efe-4a27-954d-b91097a0aea9" [label="com.cunnj.activities.AsyncProvider.doInBackground\n Susp=0,4003"];
"9042a7be-1efe-4a27-954d-b91097a0aea9" -> "9cb1bb72-a4a5-4264-8e97-47e4726fa045";
"9cb1bb72-a4a5-4264-8e97-47e4726fa045" [label="com.cunnj.activities.AllTasksListAsyncProvider.run\n Susp=0,4003"];
"9cb1bb72-a4a5-4264-8e97-47e4726fa045" -> "73a2f3fa-b680-4ce8-8a0f-a94605412786";
"73a2f3fa-b680-4ce8-8a0f-a94605412786" [label="com.cunnj.activities.AllTasksListAdapter.<init>\n Susp=0,8003"];
"73a2f3fa-b680-4ce8-8a0f-a94605412786" -> "9376f9ed-d3d1-401f-94c1-2c6de1139be5";
"9376f9ed-d3d1-401f-94c1-2c6de1139be5" [label="android.content.ContextWrapper.getPackageManager\n Susp=0,4001"];
"9376f9ed-d3d1-401f-94c1-2c6de1139be5" -> "866d0c40-6ab0-4958-83cb-95207185c021";
"866d0c40-6ab0-4958-83cb-95207185c021" [label="de.robv.android.xposed.XposedBridge.handleHookedMethod\n Susp=0,4001"];
"866d0c40-6ab0-4958-83cb-95207185c021" -> "569e7d11-b4e0-4d04-810a-7da6e3208c66";
"569e7d11-b4e0-4d04-810a-7da6e3208c66" [label="it.unimib.disco.lta.unimiblogger.MyMethodHook.beforeHookedMethod\n Susp=0,4001"];
"569e7d11-b4e0-4d04-810a-7da6e3208c66" -> "82b6d8bb-52a0-4b0f-8bd6-72c89d9c75f4";
"82b6d8bb-52a0-4b0f-8bd6-72c89d9c75f4" [label="java.lang.Thread.getStackTrace\n Susp=0,4001"];
"82b6d8bb-52a0-4b0f-8bd6-72c89d9c75f4" -> "4496473a-fc83-4301-80d4-05cd48d68cff";
"4496473a-fc83-4301-80d4-05cd48d68cff" [label="dalvik.system.VMStack.getThreadStackTrace\n Susp=0,0001"];
"73a2f3fa-b680-4ce8-8a0f-a94605412786" -> "f1680a81-5a23-46b7-bcbe-3970ef9bede0";
"f1680a81-5a23-46b7-bcbe-3970ef9bede0" [label="com.cunnj.activities.PackageManagerCache.getPackageInfo\n Susp=0,8002"];
"f1680a81-5a23-46b7-bcbe-3970ef9bede0" -> "b81def95-e8ce-4ab1-9c50-322963f92a8b";
"b81def95-e8ce-4ab1-9c50-322963f92a8b" [label="android.app.ApplicationPackageManager.getPackageInfo\n Susp=0,4001"];
"b81def95-e8ce-4ab1-9c50-322963f92a8b" -> "3af52577-f865-4bf7-a3e1-96b2d2de5665";
"3af52577-f865-4bf7-a3e1-96b2d2de5665" [label="de.robv.android.xposed.XposedBridge.handleHookedMethod\n Susp=0,4001"];
"3af52577-f865-4bf7-a3e1-96b2d2de5665" -> "5c62c8e6-32f5-42e8-a829-e58099128882";
"5c62c8e6-32f5-42e8-a829-e58099128882" [label="it.unimib.disco.lta.unimiblogger.MyMethodHook.beforeHookedMethod\n Susp=0,4001"];
"5c62c8e6-32f5-42e8-a829-e58099128882" -> "5319a001-b5a9-495f-8a8d-f5563d6c296a";
"5319a001-b5a9-495f-8a8d-f5563d6c296a" [label="java.lang.Thread.getStackTrace\n Susp=0,4001"];
"5319a001-b5a9-495f-8a8d-f5563d6c296a" -> "6517c600-d90d-4dfa-8343-b15e05df11f4";
"6517c600-d90d-4dfa-8343-b15e05df11f4" [label="dalvik.system.VMStack.getThreadStackTrace\n Susp=0,0001"];
"f1680a81-5a23-46b7-bcbe-3970ef9bede0" -> "cfca0211-7c6e-406a-a99d-a2b9ceca2d62";
"cfca0211-7c6e-406a-a99d-a2b9ceca2d62" [label="com.cunnj.activities.MyPackageInfo.<init>\n Susp=0,4001"];
"cfca0211-7c6e-406a-a99d-a2b9ceca2d62" -> "3d022dc8-a942-463e-8bfc-9a804fa42074";
"3d022dc8-a942-463e-8bfc-9a804fa42074" [label="android.app.ApplicationPackageManager.getDefaultActivityIcon\n Susp=0,4001"];
"3d022dc8-a942-463e-8bfc-9a804fa42074" -> "896d9113-6b4f-440f-9844-695d5f3421a3";
"896d9113-6b4f-440f-9844-695d5f3421a3" [label="de.robv.android.xposed.XposedBridge.handleHookedMethod\n Susp=0,4001"];
"896d9113-6b4f-440f-9844-695d5f3421a3" -> "43528b8d-878d-4ecf-824c-a8a5237384f2";
"43528b8d-878d-4ecf-824c-a8a5237384f2" [label="it.unimib.disco.lta.unimiblogger.MyMethodHook.beforeHookedMethod\n Susp=0,4001"];
"43528b8d-878d-4ecf-824c-a8a5237384f2" -> "26f267f2-03bf-4b40-872e-1c842b1e0022";
"26f267f2-03bf-4b40-872e-1c842b1e0022" [label="java.lang.Thread.getStackTrace\n Susp=0,4001"];
"26f267f2-03bf-4b40-872e-1c842b1e0022" -> "0e3dcff1-ece0-4aba-93ba-3b6a06f7e099";
"0e3dcff1-ece0-4aba-93ba-3b6a06f7e099" [label="dalvik.system.VMStack.getThreadStackTrace\n Susp=0,0001"];
"d7db09e9-4387-4400-bc3a-7dea6926c77b" -> "a1c88ffb-ff60-497d-94a4-8eb53eb8e64d";
"a1c88ffb-ff60-497d-94a4-8eb53eb8e64d" [label="com.cunnj.activities.AsyncProvider.doInBackground\n Susp=0,5993"];
"a1c88ffb-ff60-497d-94a4-8eb53eb8e64d" -> "4947c0c8-e42d-4da6-8b96-41b3a88e1ff7";
"4947c0c8-e42d-4da6-8b96-41b3a88e1ff7" [label="de.robv.android.xposed.XposedBridge.handleHookedMethod\n Susp=0,5993"];
"4947c0c8-e42d-4da6-8b96-41b3a88e1ff7" -> "1ca84e37-0fbe-4d9c-8c23-0d55855a4b28";
"1ca84e37-0fbe-4d9c-8c23-0d55855a4b28" [label="de.robv.android.xposed.XposedBridge.invokeOriginalMethodNative\n Susp=0,5993"];
"1ca84e37-0fbe-4d9c-8c23-0d55855a4b28" -> "4b2822c1-c507-4043-96dc-9415c49c5ea6";
"4b2822c1-c507-4043-96dc-9415c49c5ea6" [label="com.cunnj.activities.AsyncProvider.doInBackground\n Susp=0,5993"];
"4b2822c1-c507-4043-96dc-9415c49c5ea6" -> "3f2856fb-6584-4c89-a429-5b1a36180640";
"3f2856fb-6584-4c89-a429-5b1a36180640" [label="de.robv.android.xposed.XposedBridge.handleHookedMethod\n Susp=0,5993"];
"3f2856fb-6584-4c89-a429-5b1a36180640" -> "743066b9-a1c1-430a-b6d1-93437c2f36a3";
"743066b9-a1c1-430a-b6d1-93437c2f36a3" [label="de.robv.android.xposed.XposedBridge.invokeOriginalMethodNative\n Susp=0,5993"];
"743066b9-a1c1-430a-b6d1-93437c2f36a3" -> "af13b1c4-7c22-4fd3-a681-372ca604bca9";
"af13b1c4-7c22-4fd3-a681-372ca604bca9" [label="com.cunnj.activities.AsyncProvider.doInBackground\n Susp=0,5993"];
"af13b1c4-7c22-4fd3-a681-372ca604bca9" -> "6fd52bf9-dd3a-4adf-b6ea-e93b6ea2b2e0";
"6fd52bf9-dd3a-4adf-b6ea-e93b6ea2b2e0" [label="com.cunnj.activities.AllTasksListAsyncProvider.run\n Susp=0,5993"];
"6fd52bf9-dd3a-4adf-b6ea-e93b6ea2b2e0" -> "779a2f84-16ad-4044-953f-523397ef3e2b";
"779a2f84-16ad-4044-953f-523397ef3e2b" [label="com.cunnj.activities.AllTasksListAdapter.<init>\n Susp=0,9993"];
"779a2f84-16ad-4044-953f-523397ef3e2b" -> "60130edd-93c0-4cf5-bb30-2aecd57e77b4";
"60130edd-93c0-4cf5-bb30-2aecd57e77b4" [label="android.content.ContextWrapper.getPackageManager\n Susp=0,416"];
"60130edd-93c0-4cf5-bb30-2aecd57e77b4" -> "34c62f53-e130-4a5a-b4d7-e88d43703e47";
"34c62f53-e130-4a5a-b4d7-e88d43703e47" [label="de.robv.android.xposed.XposedBridge.handleHookedMethod\n Susp=0,416"];
"34c62f53-e130-4a5a-b4d7-e88d43703e47" -> "5e3d05bf-df3f-442a-82da-a7cc99e197ed";
"5e3d05bf-df3f-442a-82da-a7cc99e197ed" [label="it.unimib.disco.lta.unimiblogger.MyMethodHook.beforeHookedMethod\n Susp=0,416"];
"5e3d05bf-df3f-442a-82da-a7cc99e197ed" -> "426331f4-f224-4b3c-83b1-924616e54804";
"426331f4-f224-4b3c-83b1-924616e54804" [label="java.lang.Thread.getStackTrace\n Susp=0,416"];
"426331f4-f224-4b3c-83b1-924616e54804" -> "32446d5f-0d80-4bcf-8320-74791bf064d5";
"32446d5f-0d80-4bcf-8320-74791bf064d5" [label="dalvik.system.VMStack.getThreadStackTrace\n Susp=0,016"];
"779a2f84-16ad-4044-953f-523397ef3e2b" -> "f879eae8-bdf2-403a-8aa5-247c336d5df2";
"f879eae8-bdf2-403a-8aa5-247c336d5df2" [label="com.cunnj.activities.PackageManagerCache.getPackageInfo\n Susp=0,9833"];
"f879eae8-bdf2-403a-8aa5-247c336d5df2" -> "b447c591-f716-4936-9259-092e9af39551";
"b447c591-f716-4936-9259-092e9af39551" [label="android.app.ApplicationPackageManager.getPackageInfo\n Susp=0,5471"];
"b447c591-f716-4936-9259-092e9af39551" -> "f532a545-e630-47f0-99d6-1996afc884f4";
"f532a545-e630-47f0-99d6-1996afc884f4" [label="de.robv.android.xposed.XposedBridge.handleHookedMethod\n Susp=0,5471"];
"f532a545-e630-47f0-99d6-1996afc884f4" -> "42834655-028c-4c96-99e8-758582a550d4";
"42834655-028c-4c96-99e8-758582a550d4" [label="it.unimib.disco.lta.unimiblogger.MyMethodHook.beforeHookedMethod\n Susp=0,5471"];
"42834655-028c-4c96-99e8-758582a550d4" -> "eb938a34-7d91-4a02-8a2a-4f21f166bb6d";
"eb938a34-7d91-4a02-8a2a-4f21f166bb6d" [label="java.lang.Thread.getStackTrace\n Susp=0,5471"];
"eb938a34-7d91-4a02-8a2a-4f21f166bb6d" -> "c322fc8c-deb3-4b94-a83c-37e85328d49f";
"c322fc8c-deb3-4b94-a83c-37e85328d49f" [label="dalvik.system.VMStack.getThreadStackTrace\n Susp=0,1471"];
"f879eae8-bdf2-403a-8aa5-247c336d5df2" -> "d1acb36d-1d24-4602-a42b-786130b21068";
"d1acb36d-1d24-4602-a42b-786130b21068" [label="com.cunnj.activities.MyPackageInfo.<init>\n Susp=0,8362"];
"d1acb36d-1d24-4602-a42b-786130b21068" -> "1dd18f29-c17e-4eab-9d3a-c24185f28725";
"1dd18f29-c17e-4eab-9d3a-c24185f28725" [label="android.app.ApplicationPackageManager.getApplicationIcon\n Susp=0,4346"];
"1dd18f29-c17e-4eab-9d3a-c24185f28725" -> "c76a4564-1a76-4303-9cb2-68469cbe351b";
"c76a4564-1a76-4303-9cb2-68469cbe351b" [label="de.robv.android.xposed.XposedBridge.handleHookedMethod\n Susp=0,4346"];
"c76a4564-1a76-4303-9cb2-68469cbe351b" -> "c3796261-1606-432e-a4c7-8628b3c6bab2";
"c3796261-1606-432e-a4c7-8628b3c6bab2" [label="it.unimib.disco.lta.unimiblogger.MyMethodHook.beforeHookedMethod\n Susp=0,4346"];
"c3796261-1606-432e-a4c7-8628b3c6bab2" -> "d8d23752-4dc6-4f4a-b81e-098bf80dd3d8";
"d8d23752-4dc6-4f4a-b81e-098bf80dd3d8" [label="java.lang.Thread.getStackTrace\n Susp=0,4346"];
"d8d23752-4dc6-4f4a-b81e-098bf80dd3d8" -> "315ca915-5bcc-40ab-bbcb-c129d64a8527";
"315ca915-5bcc-40ab-bbcb-c129d64a8527" [label="dalvik.system.VMStack.getThreadStackTrace\n Susp=0,0346"];
"d1acb36d-1d24-4602-a42b-786130b21068" -> "75f1362b-bcf6-4c32-b7d0-f0a1177e2922";
"75f1362b-bcf6-4c32-b7d0-f0a1177e2922" [label="com.cunnj.activities.PackageManagerCache.getActivityInfo\n Susp=0,4017"];
"75f1362b-bcf6-4c32-b7d0-f0a1177e2922" -> "24be3380-304f-4896-8d23-cc574339f63e";
"24be3380-304f-4896-8d23-cc574339f63e" [label="com.cunnj.activities.MyActivityInfo.<init>\n Susp=0,4017"];
"24be3380-304f-4896-8d23-cc574339f63e" -> "00021c6d-43ba-494a-93f0-2ef0d41a520c";
"00021c6d-43ba-494a-93f0-2ef0d41a520c" [label="android.app.ApplicationPackageManager.getDefaultActivityIcon\n Susp=0,4017"];
"00021c6d-43ba-494a-93f0-2ef0d41a520c" -> "af1ec132-fe46-4a60-baa3-ffb85b0514b6";
"af1ec132-fe46-4a60-baa3-ffb85b0514b6" [label="de.robv.android.xposed.XposedBridge.handleHookedMethod\n Susp=0,4017"];
"af1ec132-fe46-4a60-baa3-ffb85b0514b6" -> "1ff87b9c-53d7-44d8-bf2f-a3e3f0ade5f2";
"1ff87b9c-53d7-44d8-bf2f-a3e3f0ade5f2" [label="it.unimib.disco.lta.unimiblogger.MyMethodHook.beforeHookedMethod\n Susp=0,4017"];
"1ff87b9c-53d7-44d8-bf2f-a3e3f0ade5f2" -> "3f2cd240-9959-49e1-8888-a64babda9b6c";
"3f2cd240-9959-49e1-8888-a64babda9b6c" [label="java.lang.Thread.getStackTrace\n Susp=0,4017"];
"3f2cd240-9959-49e1-8888-a64babda9b6c" -> "91b15298-9e86-4069-935d-5118b74008db";
"91b15298-9e86-4069-935d-5118b74008db" [label="dalvik.system.VMStack.getThreadStackTrace\n Susp=0,0017"];
}
