BEFORE com.example.arial.bosstransfer.MainActivity.onCreate()
BEFORE android.support.v7.app.AppCompatActivity.onCreate()
AFTER android.support.v7.app.AppCompatActivity.onCreate
BEFORE android.support.v7.app.AppCompatActivity.setContentView(2130968602)
AFTER android.support.v7.app.AppCompatActivity.setContentView
BEFORE android.app.Activity.getWindow()
AFTER android.app.Activity.getWindow, returnValue: com.android.internal.policy.impl.PhoneWindow
BEFORE com.android.internal.policy.impl.PhoneWindow.setBackgroundDrawable(android.graphics.drawable.ColorDrawable)
AFTER com.android.internal.policy.impl.PhoneWindow.setBackgroundDrawable
BEFORE android.app.Activity.findViewById(2131492944)
AFTER android.app.Activity.findViewById, returnValue: android.widget.ListView{39b444f2 V.ED.VC. ......I. 0,0-0,0 #7f0c0050 app:id/list}
BEFORE android.view.LayoutInflater.from(com.example.arial.bosstransfer.MainActivity)
AFTER android.view.LayoutInflater.from, returnValue: com.android.internal.policy.impl.PhoneLayoutInflater
BEFORE android.widget.ListView.setAdapter(com.example.arial.bosstransfer.boss.BossAdapter)
BEFORE com.example.arial.bosstransfer.core.AbsOrdinaryAdapter.getCount()
AFTER com.example.arial.bosstransfer.core.AbsOrdinaryAdapter.getCount, returnValue: 5
BEFORE com.example.arial.bosstransfer.core.AbsOrdinaryAdapter.getCount()
AFTER com.example.arial.bosstransfer.core.AbsOrdinaryAdapter.getCount, returnValue: 5
BEFORE com.example.arial.bosstransfer.core.AbsOrdinaryAdapter.getCount()
AFTER com.example.arial.bosstransfer.core.AbsOrdinaryAdapter.getCount, returnValue: 5
BEFORE com.example.arial.bosstransfer.core.AbsOrdinaryAdapter.getItemId(0)
AFTER com.example.arial.bosstransfer.core.AbsOrdinaryAdapter.getItemId, returnValue: 0
BEFORE com.example.arial.bosstransfer.core.AbsOrdinaryAdapter.getItemId(0)
AFTER com.example.arial.bosstransfer.core.AbsOrdinaryAdapter.getItemId, returnValue: 0
AFTER android.widget.ListView.setAdapter
BEFORE android.widget.AdapterView.setOnItemClickListener(com.example.arial.bosstransfer.MainActivity$1)
AFTER android.widget.AdapterView.setOnItemClickListener
AFTER com.example.arial.bosstransfer.MainActivity.onCreate
BEFORE com.example.arial.bosstransfer.core.AbsOrdinaryAdapter.getCount()
AFTER com.example.arial.bosstransfer.core.AbsOrdinaryAdapter.getCount, returnValue: 5
BEFORE com.example.arial.bosstransfer.core.AbsOrdinaryAdapter.getCount()
AFTER com.example.arial.bosstransfer.core.AbsOrdinaryAdapter.getCount, returnValue: 5
BEFORE com.example.arial.bosstransfer.core.AbsOrdinaryAdapter.getCount()
AFTER com.example.arial.bosstransfer.core.AbsOrdinaryAdapter.getCount, returnValue: 5
BEFORE com.example.arial.bosstransfer.core.AbsOrdinaryAdapter.getCount()
AFTER com.example.arial.bosstransfer.core.AbsOrdinaryAdapter.getCount, returnValue: 5
BEFORE com.example.arial.bosstransfer.core.AbsOrdinaryAdapter.getCount()
AFTER com.example.arial.bosstransfer.core.AbsOrdinaryAdapter.getCount, returnValue: 5
BEFORE com.example.arial.bosstransfer.core.AbsOrdinaryAdapter.getView(0,android.widget.ListView)
BEFORE android.widget.BaseAdapter.getItemViewType(0)
AFTER android.widget.BaseAdapter.getItemViewType, returnValue: 0
BEFORE android.view.LayoutInflater.inflate(2130968603)
BEFORE android.view.LayoutInflater.inflate(2130968603)
AFTER android.view.LayoutInflater.inflate, returnValue: android.widget.RelativeLayout{2c1c38d8 V.E..... ......ID 0,0-0,0}
AFTER android.view.LayoutInflater.inflate, returnValue: android.widget.RelativeLayout{2c1c38d8 V.E..... ......ID 0,0-0,0}
AFTER com.example.arial.bosstransfer.core.AbsOrdinaryAdapter.getView, returnValue: android.widget.RelativeLayout{2c1c38d8 V.E..... ......ID 0,0-0,0}
BEFORE com.example.arial.bosstransfer.core.AbsOrdinaryAdapter.getView(1,android.widget.ListView)
BEFORE android.widget.BaseAdapter.getItemViewType(1)
AFTER android.widget.BaseAdapter.getItemViewType, returnValue: 0
BEFORE android.view.LayoutInflater.inflate(2130968603)
BEFORE android.view.LayoutInflater.inflate(2130968603)
AFTER android.view.LayoutInflater.inflate, returnValue: android.widget.RelativeLayout{11a50338 V.E..... ......ID 0,0-0,0}
AFTER android.view.LayoutInflater.inflate, returnValue: android.widget.RelativeLayout{11a50338 V.E..... ......ID 0,0-0,0}
AFTER com.example.arial.bosstransfer.core.AbsOrdinaryAdapter.getView, returnValue: android.widget.RelativeLayout{11a50338 V.E..... ......ID 0,0-0,0}
BEFORE com.example.arial.bosstransfer.core.AbsOrdinaryAdapter.getView(2,android.widget.ListView)
BEFORE android.widget.BaseAdapter.getItemViewType(2)
AFTER android.widget.BaseAdapter.getItemViewType, returnValue: 0
BEFORE android.view.LayoutInflater.inflate(2130968603)
BEFORE android.view.LayoutInflater.inflate(2130968603)
AFTER android.view.LayoutInflater.inflate, returnValue: android.widget.RelativeLayout{20890150 V.E..... ......ID 0,0-0,0}
AFTER android.view.LayoutInflater.inflate, returnValue: android.widget.RelativeLayout{20890150 V.E..... ......ID 0,0-0,0}
AFTER com.example.arial.bosstransfer.core.AbsOrdinaryAdapter.getView, returnValue: android.widget.RelativeLayout{20890150 V.E..... ......ID 0,0-0,0}
BEFORE com.example.arial.bosstransfer.core.AbsOrdinaryAdapter.getView(3,android.widget.ListView)
BEFORE android.widget.BaseAdapter.getItemViewType(3)
AFTER android.widget.BaseAdapter.getItemViewType, returnValue: 0
BEFORE android.view.LayoutInflater.inflate(2130968603)
BEFORE android.view.LayoutInflater.inflate(2130968603)
AFTER android.view.LayoutInflater.inflate, returnValue: android.widget.RelativeLayout{28fbaa68 V.E..... ......ID 0,0-0,0}
AFTER android.view.LayoutInflater.inflate, returnValue: android.widget.RelativeLayout{28fbaa68 V.E..... ......ID 0,0-0,0}
AFTER com.example.arial.bosstransfer.core.AbsOrdinaryAdapter.getView, returnValue: android.widget.RelativeLayout{28fbaa68 V.E..... ......ID 0,0-0,0}
BEFORE com.example.arial.bosstransfer.core.AbsOrdinaryAdapter.getView(4,android.widget.ListView)
BEFORE android.widget.BaseAdapter.getItemViewType(4)
AFTER android.widget.BaseAdapter.getItemViewType, returnValue: 0
BEFORE android.view.LayoutInflater.inflate(2130968603)
BEFORE android.view.LayoutInflater.inflate(2130968603)
AFTER android.view.LayoutInflater.inflate, returnValue: android.widget.RelativeLayout{2c75e80 V.E..... ......ID 0,0-0,0}
AFTER android.view.LayoutInflater.inflate, returnValue: android.widget.RelativeLayout{2c75e80 V.E..... ......ID 0,0-0,0}
AFTER com.example.arial.bosstransfer.core.AbsOrdinaryAdapter.getView, returnValue: android.widget.RelativeLayout{2c75e80 V.E..... ......ID 0,0-0,0}
BEFORE com.example.arial.bosstransfer.core.AbsOrdinaryAdapter.getCount()
AFTER com.example.arial.bosstransfer.core.AbsOrdinaryAdapter.getCount, returnValue: 5
BEFORE com.example.arial.bosstransfer.core.AbsOrdinaryAdapter.getCount()
AFTER com.example.arial.bosstransfer.core.AbsOrdinaryAdapter.getCount, returnValue: 5
BEFORE com.example.arial.bosstransfer.core.AbsOrdinaryAdapter.getCount()
AFTER com.example.arial.bosstransfer.core.AbsOrdinaryAdapter.getCount, returnValue: 5
BEFORE com.example.arial.bosstransfer.core.AbsOrdinaryAdapter.getCount()
AFTER com.example.arial.bosstransfer.core.AbsOrdinaryAdapter.getCount, returnValue: 5
BEFORE com.example.arial.bosstransfer.core.AbsOrdinaryAdapter.getCount()
AFTER com.example.arial.bosstransfer.core.AbsOrdinaryAdapter.getCount, returnValue: 5
BEFORE com.example.arial.bosstransfer.core.AbsOrdinaryAdapter.getCount()
AFTER com.example.arial.bosstransfer.core.AbsOrdinaryAdapter.getCount, returnValue: 5
BEFORE com.example.arial.bosstransfer.core.AbsOrdinaryAdapter.getCount()
AFTER com.example.arial.bosstransfer.core.AbsOrdinaryAdapter.getCount, returnValue: 5
BEFORE com.example.arial.bosstransfer.core.AbsOrdinaryAdapter.getCount()
AFTER com.example.arial.bosstransfer.core.AbsOrdinaryAdapter.getCount, returnValue: 5
BEFORE com.example.arial.bosstransfer.core.AbsOrdinaryAdapter.getCount()
AFTER com.example.arial.bosstransfer.core.AbsOrdinaryAdapter.getCount, returnValue: 5
BEFORE com.example.arial.bosstransfer.core.AbsOrdinaryAdapter.getCount()
AFTER com.example.arial.bosstransfer.core.AbsOrdinaryAdapter.getCount, returnValue: 5
BEFORE com.example.arial.bosstransfer.core.AbsOrdinaryAdapter.getCount()
AFTER com.example.arial.bosstransfer.core.AbsOrdinaryAdapter.getCount, returnValue: 5
BEFORE com.example.arial.bosstransfer.core.AbsOrdinaryAdapter.getCount()
AFTER com.example.arial.bosstransfer.core.AbsOrdinaryAdapter.getCount, returnValue: 5
BEFORE com.example.arial.bosstransfer.core.AbsOrdinaryAdapter.getCount()
AFTER com.example.arial.bosstransfer.core.AbsOrdinaryAdapter.getCount, returnValue: 5
BEFORE com.example.arial.bosstransfer.core.AbsOrdinaryAdapter.getCount()
AFTER com.example.arial.bosstransfer.core.AbsOrdinaryAdapter.getCount, returnValue: 5
BEFORE com.example.arial.bosstransfer.core.AbsOrdinaryAdapter.getCount()
AFTER com.example.arial.bosstransfer.core.AbsOrdinaryAdapter.getCount, returnValue: 5
BEFORE com.example.arial.bosstransfer.core.AbsOrdinaryAdapter.getCount()
AFTER com.example.arial.bosstransfer.core.AbsOrdinaryAdapter.getCount, returnValue: 5
BEFORE com.example.arial.bosstransfer.core.AbsOrdinaryAdapter.getCount()
AFTER com.example.arial.bosstransfer.core.AbsOrdinaryAdapter.getCount, returnValue: 5
BEFORE com.example.arial.bosstransfer.core.AbsOrdinaryAdapter.getCount()
AFTER com.example.arial.bosstransfer.core.AbsOrdinaryAdapter.getCount, returnValue: 5
BEFORE com.example.arial.bosstransfer.core.AbsOrdinaryAdapter.getCount()
AFTER com.example.arial.bosstransfer.core.AbsOrdinaryAdapter.getCount, returnValue: 5
BEFORE com.example.arial.bosstransfer.core.AbsOrdinaryAdapter.getCount()
AFTER com.example.arial.bosstransfer.core.AbsOrdinaryAdapter.getCount, returnValue: 5
BEFORE com.example.arial.bosstransfer.core.AbsOrdinaryAdapter.getCount()
AFTER com.example.arial.bosstransfer.core.AbsOrdinaryAdapter.getCount, returnValue: 5
BEFORE com.example.arial.bosstransfer.core.AbsOrdinaryAdapter.getCount()
AFTER com.example.arial.bosstransfer.core.AbsOrdinaryAdapter.getCount, returnValue: 5
BEFORE com.example.arial.bosstransfer.core.AbsOrdinaryAdapter.getCount()
AFTER com.example.arial.bosstransfer.core.AbsOrdinaryAdapter.getCount, returnValue: 5
BEFORE com.example.arial.bosstransfer.core.AbsOrdinaryAdapter.getCount()
AFTER com.example.arial.bosstransfer.core.AbsOrdinaryAdapter.getCount, returnValue: 5
BEFORE com.example.arial.bosstransfer.core.AbsOrdinaryAdapter.getCount()
AFTER com.example.arial.bosstransfer.core.AbsOrdinaryAdapter.getCount, returnValue: 5
BEFORE com.example.arial.bosstransfer.core.AbsOrdinaryAdapter.getCount()
AFTER com.example.arial.bosstransfer.core.AbsOrdinaryAdapter.getCount, returnValue: 5
BEFORE com.example.arial.bosstransfer.core.AbsOrdinaryAdapter.getCount()
AFTER com.example.arial.bosstransfer.core.AbsOrdinaryAdapter.getCount, returnValue: 5
BEFORE com.example.arial.bosstransfer.core.AbsOrdinaryAdapter.getCount()
AFTER com.example.arial.bosstransfer.core.AbsOrdinaryAdapter.getCount, returnValue: 5
BEFORE com.example.arial.bosstransfer.core.AbsOrdinaryAdapter.getCount()
AFTER com.example.arial.bosstransfer.core.AbsOrdinaryAdapter.getCount, returnValue: 5
BEFORE com.example.arial.bosstransfer.core.AbsOrdinaryAdapter.getItemId(1)
AFTER com.example.arial.bosstransfer.core.AbsOrdinaryAdapter.getItemId, returnValue: 0
BEFORE com.example.arial.bosstransfer.core.AbsOrdinaryAdapter.getCount()
AFTER com.example.arial.bosstransfer.core.AbsOrdinaryAdapter.getCount, returnValue: 5
BEFORE com.example.arial.bosstransfer.core.AbsOrdinaryAdapter.getCount()
AFTER com.example.arial.bosstransfer.core.AbsOrdinaryAdapter.getCount, returnValue: 5
BEFORE com.example.arial.bosstransfer.core.AbsOrdinaryAdapter.getCount()
AFTER com.example.arial.bosstransfer.core.AbsOrdinaryAdapter.getCount, returnValue: 5
BEFORE com.example.arial.bosstransfer.core.AbsOrdinaryAdapter.getItemId(1)
AFTER com.example.arial.bosstransfer.core.AbsOrdinaryAdapter.getItemId, returnValue: 0
BEFORE com.example.arial.bosstransfer.MainActivity$1.onItemClick(android.widget.ListView,android.widget.RelativeLayout,1,java.lang.Long)
BEFORE android.app.Activity.findViewById(16908290)
AFTER android.app.Activity.findViewById, returnValue: android.support.v7.widget.ContentFrameLayout{3038e454 V.E..... .......D 0,168-1080,1701 #1020002 android:id/content}
BEFORE android.content.ContextWrapper.getApplicationContext()
AFTER android.content.ContextWrapper.getApplicationContext, returnValue: android.app.Application
BEFORE android.content.ContextWrapper.getSystemService(window)
AFTER android.content.ContextWrapper.getSystemService, returnValue: android.view.WindowManagerImpl
BEFORE android.view.LayoutInflater.from(com.example.arial.bosstransfer.MainActivity)
AFTER android.view.LayoutInflater.from, returnValue: com.android.internal.policy.impl.PhoneLayoutInflater
BEFORE android.view.LayoutInflater.inflate(2130968604,com.example.arial.bosstransfer.boss.BossTransferView)
BEFORE android.view.LayoutInflater.inflate(2130968604,com.example.arial.bosstransfer.boss.BossTransferView)
AFTER android.view.LayoutInflater.inflate, returnValue: com.example.arial.bosstransfer.boss.BossTransferView{f282b36 V.E..... ......I. 0,0-0,0}
AFTER android.view.LayoutInflater.inflate, returnValue: com.example.arial.bosstransfer.boss.BossTransferView{f282b36 V.E..... ......I. 0,0-0,0}
BEFORE android.view.ContextThemeWrapper.getResources()
AFTER android.view.ContextThemeWrapper.getResources, returnValue: android.content.res.XResources
BEFORE android.content.res.Resources.getIdentifier(status_bar_height,dimen,android)
AFTER android.content.res.Resources.getIdentifier, returnValue: 17104913
BEFORE android.view.ContextThemeWrapper.getResources()
AFTER android.view.ContextThemeWrapper.getResources, returnValue: android.content.res.XResources
BEFORE android.widget.ImageView.setVisibility(8)
AFTER android.widget.ImageView.setVisibility
BEFORE android.app.Activity.getSystemService(window)
AFTER android.app.Activity.getSystemService, returnValue: android.view.WindowManagerImpl
BEFORE android.view.WindowManagerImpl.getDefaultDisplay()
AFTER android.view.WindowManagerImpl.getDefaultDisplay, returnValue: Display id 0: DisplayInfo{"Built-in Screen", uniqueId "local:0", app 1080 x 1776, real 1080 x 1920, largest app 1794 x 1701, smallest app 1080 x 1005, 60.000004 fps, supportedRefreshRates [60.000004], rotation 0, density 480 (480.0 x 480.0) dpi, layerStack 0, appVsyncOff 0, presDeadline 17666666, type BUILT_IN, state ON, FLAG_SECURE, FLAG_SUPPORTS_PROTECTED_BUFFERS}, DisplayMetrics{density=3.0, width=1080, height=1776, scaledDensity=3.0, xdpi=480.0, ydpi=480.0}, isValid=true
BEFORE android.view.Display.getWidth()
AFTER android.view.Display.getWidth, returnValue: 1080
BEFORE android.view.WindowManagerImpl.getDefaultDisplay()
AFTER android.view.WindowManagerImpl.getDefaultDisplay, returnValue: Display id 0: DisplayInfo{"Built-in Screen", uniqueId "local:0", app 1080 x 1776, real 1080 x 1920, largest app 1794 x 1701, smallest app 1080 x 1005, 60.000004 fps, supportedRefreshRates [60.000004], rotation 0, density 480 (480.0 x 480.0) dpi, layerStack 0, appVsyncOff 0, presDeadline 17666666, type BUILT_IN, state ON, FLAG_SECURE, FLAG_SUPPORTS_PROTECTED_BUFFERS}, DisplayMetrics{density=3.0, width=1080, height=1776, scaledDensity=3.0, xdpi=480.0, ydpi=480.0}, isValid=true
BEFORE android.view.Display.getHeight()
AFTER android.view.Display.getHeight, returnValue: 1776
BEFORE android.app.Activity.getSystemService(window)
AFTER android.app.Activity.getSystemService, returnValue: android.view.WindowManagerImpl
BEFORE android.view.WindowManagerImpl.getDefaultDisplay()
AFTER android.view.WindowManagerImpl.getDefaultDisplay, returnValue: Display id 0: DisplayInfo{"Built-in Screen", uniqueId "local:0", app 1080 x 1776, real 1080 x 1920, largest app 1794 x 1701, smallest app 1080 x 1005, 60.000004 fps, supportedRefreshRates [60.000004], rotation 0, density 480 (480.0 x 480.0) dpi, layerStack 0, appVsyncOff 0, presDeadline 17666666, type BUILT_IN, state ON, FLAG_SECURE, FLAG_SUPPORTS_PROTECTED_BUFFERS}, DisplayMetrics{density=3.0, width=1080, height=1776, scaledDensity=3.0, xdpi=480.0, ydpi=480.0}, isValid=true
BEFORE android.view.Display.getWidth()
AFTER android.view.Display.getWidth, returnValue: 1080
BEFORE android.view.WindowManagerImpl.getDefaultDisplay()
AFTER android.view.WindowManagerImpl.getDefaultDisplay, returnValue: Display id 0: DisplayInfo{"Built-in Screen", uniqueId "local:0", app 1080 x 1776, real 1080 x 1920, largest app 1794 x 1701, smallest app 1080 x 1005, 60.000004 fps, supportedRefreshRates [60.000004], rotation 0, density 480 (480.0 x 480.0) dpi, layerStack 0, appVsyncOff 0, presDeadline 17666666, type BUILT_IN, state ON, FLAG_SECURE, FLAG_SUPPORTS_PROTECTED_BUFFERS}, DisplayMetrics{density=3.0, width=1080, height=1776, scaledDensity=3.0, xdpi=480.0, ydpi=480.0}, isValid=true
BEFORE android.view.Display.getHeight()
AFTER android.view.Display.getHeight, returnValue: 1776
BEFORE android.widget.ImageView.setImageBitmap(android.graphics.Bitmap)
AFTER android.widget.ImageView.setImageBitmap
BEFORE android.view.ContextThemeWrapper.getResources()
AFTER android.view.ContextThemeWrapper.getResources, returnValue: android.content.res.XResources
BEFORE android.view.ContextThemeWrapper.getResources()
AFTER android.view.ContextThemeWrapper.getResources, returnValue: android.content.res.XResources
BEFORE android.view.ContextThemeWrapper.getResources()
AFTER android.view.ContextThemeWrapper.getResources, returnValue: android.content.res.XResources
BEFORE android.widget.ImageView.setImageDrawable(android.graphics.drawable.AnimationDrawable)
AFTER android.widget.ImageView.setImageDrawable
BEFORE android.view.WindowManagerImpl.addView(com.example.arial.bosstransfer.boss.BossTransferView,android.view.WindowManager$LayoutParams)
AFTER android.view.WindowManagerImpl.addView
BEFORE android.animation.ObjectAnimator.ofFloat(android.support.v7.widget.ContentFrameLayout,scaleY,[F)
AFTER android.animation.ObjectAnimator.ofFloat, returnValue: android.animation.ObjectAnimator
BEFORE android.animation.ObjectAnimator.ofFloat(android.support.v7.widget.ContentFrameLayout,scaleX,[F)
AFTER android.animation.ObjectAnimator.ofFloat, returnValue: android.animation.ObjectAnimator
BEFORE android.animation.AnimatorSet.play(android.animation.ObjectAnimator)
AFTER android.animation.AnimatorSet.play, returnValue: android.animation.AnimatorSet$Builder
BEFORE android.animation.AnimatorSet$Builder.with(android.animation.ObjectAnimator)
AFTER android.animation.AnimatorSet$Builder.with, returnValue: android.animation.AnimatorSet$Builder
BEFORE android.animation.AnimatorSet.setDuration(java.lang.Long)
AFTER android.animation.AnimatorSet.setDuration, returnValue: android.animation.AnimatorSet
BEFORE android.animation.AnimatorSet.start()
AFTER android.animation.AnimatorSet.start
BEFORE android.os.Handler.postDelayed(com.example.arial.bosstransfer.boss.BossTransferView$1,java.lang.Long)
AFTER android.os.Handler.postDelayed, returnValue: true
AFTER com.example.arial.bosstransfer.MainActivity$1.onItemClick
BEFORE com.example.arial.bosstransfer.core.AbsOrdinaryAdapter.getCount()
AFTER com.example.arial.bosstransfer.core.AbsOrdinaryAdapter.getCount, returnValue: 5
BEFORE com.example.arial.bosstransfer.core.AbsOrdinaryAdapter.getCount()
AFTER com.example.arial.bosstransfer.core.AbsOrdinaryAdapter.getCount, returnValue: 5
BEFORE com.example.arial.bosstransfer.boss.BossTransferView$1.run()
BEFORE android.app.Activity.getSystemService(window)
AFTER android.app.Activity.getSystemService, returnValue: android.view.WindowManagerImpl
BEFORE android.view.WindowManagerImpl.getDefaultDisplay()
AFTER android.view.WindowManagerImpl.getDefaultDisplay, returnValue: Display id 0: DisplayInfo{"Built-in Screen", uniqueId "local:0", app 1080 x 1776, real 1080 x 1920, largest app 1794 x 1701, smallest app 1080 x 1005, 60.000004 fps, supportedRefreshRates [60.000004], rotation 0, density 480 (480.0 x 480.0) dpi, layerStack 0, appVsyncOff 0, presDeadline 17666666, type BUILT_IN, state ON, FLAG_SECURE, FLAG_SUPPORTS_PROTECTED_BUFFERS}, DisplayMetrics{density=3.0, width=1080, height=1776, scaledDensity=3.0, xdpi=480.0, ydpi=480.0}, isValid=true
BEFORE android.view.Display.getWidth()
AFTER android.view.Display.getWidth, returnValue: 1080
BEFORE android.view.WindowManagerImpl.getDefaultDisplay()
AFTER android.view.WindowManagerImpl.getDefaultDisplay, returnValue: Display id 0: DisplayInfo{"Built-in Screen", uniqueId "local:0", app 1080 x 1776, real 1080 x 1920, largest app 1794 x 1701, smallest app 1080 x 1005, 60.000004 fps, supportedRefreshRates [60.000004], rotation 0, density 480 (480.0 x 480.0) dpi, layerStack 0, appVsyncOff 0, presDeadline 17666666, type BUILT_IN, state ON, FLAG_SECURE, FLAG_SUPPORTS_PROTECTED_BUFFERS}, DisplayMetrics{density=3.0, width=1080, height=1776, scaledDensity=3.0, xdpi=480.0, ydpi=480.0}, isValid=true
BEFORE android.view.Display.getHeight()
AFTER android.view.Display.getHeight, returnValue: 1776
BEFORE android.view.ContextThemeWrapper.getResources()
AFTER android.view.ContextThemeWrapper.getResources, returnValue: android.content.res.XResources
BEFORE android.content.res.Resources.getIdentifier(status_bar_height,dimen,android)
AFTER android.content.res.Resources.getIdentifier, returnValue: 17104913
BEFORE android.view.ContextThemeWrapper.getResources()
AFTER android.view.ContextThemeWrapper.getResources, returnValue: android.content.res.XResources
BEFORE android.animation.ObjectAnimator.ofFloat(android.view.View,scaleY,[F)
AFTER android.animation.ObjectAnimator.ofFloat, returnValue: android.animation.ObjectAnimator
BEFORE android.animation.ObjectAnimator.setDuration(java.lang.Long)
AFTER android.animation.ObjectAnimator.setDuration, returnValue: android.animation.ObjectAnimator
BEFORE android.animation.Animator.addListener(com.example.arial.bosstransfer.boss.BossTransferView$2)
AFTER android.animation.Animator.addListener
BEFORE android.animation.ObjectAnimator.start()
AFTER android.animation.ObjectAnimator.start
AFTER com.example.arial.bosstransfer.boss.BossTransferView$1.run
BEFORE com.example.arial.bosstransfer.core.AbsOrdinaryAdapter.getCount()
AFTER com.example.arial.bosstransfer.core.AbsOrdinaryAdapter.getCount, returnValue: 5
BEFORE com.example.arial.bosstransfer.core.AbsOrdinaryAdapter.getCount()
AFTER com.example.arial.bosstransfer.core.AbsOrdinaryAdapter.getCount, returnValue: 5
BEFORE com.example.arial.bosstransfer.boss.BossTransferView$2.onAnimationEnd(android.animation.ObjectAnimator)
BEFORE android.animation.AnimatorListenerAdapter.onAnimationEnd(android.animation.ObjectAnimator)
AFTER android.animation.AnimatorListenerAdapter.onAnimationEnd
BEFORE android.widget.ImageView.setVisibility(8)
AFTER android.widget.ImageView.setVisibility
BEFORE android.app.Activity.startActivity(android.content.Intent)
BEFORE android.app.Activity.startActivity(android.content.Intent)
AFTER android.app.Activity.startActivity
AFTER android.app.Activity.startActivity
BEFORE android.widget.ImageView.setVisibility(0)
AFTER android.widget.ImageView.setVisibility
BEFORE android.os.Handler.postDelayed(com.example.arial.bosstransfer.boss.BossTransferView$2$1,java.lang.Long)
AFTER android.os.Handler.postDelayed, returnValue: true
AFTER com.example.arial.bosstransfer.boss.BossTransferView$2.onAnimationEnd
BEFORE com.example.arial.bosstransfer.core.AbsOrdinaryAdapter.getCount()
AFTER com.example.arial.bosstransfer.core.AbsOrdinaryAdapter.getCount, returnValue: 5
BEFORE com.example.arial.bosstransfer.boss.BossDetailActivity.onCreate()
BEFORE android.support.v7.app.AppCompatActivity.onCreate()
AFTER android.support.v7.app.AppCompatActivity.onCreate
BEFORE android.support.v7.app.AppCompatActivity.setContentView(2130968601)
AFTER android.support.v7.app.AppCompatActivity.setContentView
AFTER com.example.arial.bosstransfer.boss.BossDetailActivity.onCreate
BEFORE com.example.arial.bosstransfer.core.AbsOrdinaryAdapter.getCount()
AFTER com.example.arial.bosstransfer.core.AbsOrdinaryAdapter.getCount, returnValue: 5
BEFORE com.example.arial.bosstransfer.boss.BossTransferView$2$1.run()
BEFORE android.widget.ImageView.setVisibility(8)
AFTER android.widget.ImageView.setVisibility
BEFORE android.animation.ObjectAnimator.ofFloat(android.view.View,alpha,[F)
AFTER android.animation.ObjectAnimator.ofFloat, returnValue: android.animation.ObjectAnimator
BEFORE android.animation.ObjectAnimator.setDuration(java.lang.Long)
AFTER android.animation.ObjectAnimator.setDuration, returnValue: android.animation.ObjectAnimator
BEFORE android.animation.Animator.addListener(com.example.arial.bosstransfer.boss.BossTransferView$3)
AFTER android.animation.Animator.addListener
BEFORE android.animation.ObjectAnimator.start()
AFTER android.animation.ObjectAnimator.start
AFTER com.example.arial.bosstransfer.boss.BossTransferView$2$1.run
BEFORE com.example.arial.bosstransfer.core.AbsOrdinaryAdapter.getCount()
AFTER com.example.arial.bosstransfer.core.AbsOrdinaryAdapter.getCount, returnValue: 5
BEFORE com.example.arial.bosstransfer.core.AbsOrdinaryAdapter.getCount()
AFTER com.example.arial.bosstransfer.core.AbsOrdinaryAdapter.getCount, returnValue: 5
BEFORE com.example.arial.bosstransfer.boss.BossTransferView$3.onAnimationEnd(android.animation.ObjectAnimator)
BEFORE android.animation.AnimatorListenerAdapter.onAnimationEnd(android.animation.ObjectAnimator)
AFTER android.animation.AnimatorListenerAdapter.onAnimationEnd
BEFORE android.widget.ImageView.setVisibility(8)
AFTER android.widget.ImageView.setVisibility
BEFORE android.view.WindowManagerImpl.removeView(com.example.arial.bosstransfer.boss.BossTransferView)
AFTER android.view.WindowManagerImpl.removeView
AFTER com.example.arial.bosstransfer.boss.BossTransferView$3.onAnimationEnd
