38c38
< AFTER android.content.res.Resources$Theme.obtainStyledAttributes, returnValue: [16, -2, -1, 0, 0, 0, 0, 0, 1, 0, 0, 0, 0, 0, 1, 0, 0, 0, 0, 0, 1, 0, 0, 0, 0, 0, 1, 0, 0, 0, 0, 0, 1, 0, 0, 0, 0, 0, 1, 0, 0, 0, 0, 0, 1, 0, 0, 0, 0, 0, 1, 0, 0, 0, 0, 0, 1, 0, 0, 0, 0, 0, 1, 0, 0, 0, 0, 0, 2, 0, 0, 0, 0, 0, 2, 0, 0, 0, 0, 0, 2, 0, 0, 0, 0, 0, 2, 0, 0, 0, 0, 0, 2, 0, 0, 0, 5, 12801, -1, 0, 0, 0, 0, 0, -1, 0, 0, 0, 0, 0, -1, 0, 0, 0, 0, 0, -1, 0, 0, 0, 0, 0, -1, 0, 0, 0, 0, 0, -1, 0, 0, 0, 0, 0, -1, 0, 0, 0, 0, 0, -1, 0, 0, 0, 0, 0, -1, 0, 0, 0, 0, 0, -1, 0, 0, 0, 0, 0, -1, 0, 0, 0, 0, 0, -1, 0, 0, 0, 0, 0, -1, 0, 0, 0, 0, 0, -1, 0, 0, 0, 0, 0, -1, 0, 0, 0, 0, 0, -1, 0, 0, 0, 0, 0, -1, 0, 0, 0, 0, 0, -1, 0, 0, 0, 0, 0, -1, 0, 0, 0, 0, 0, -1, 0, 0, 0, 0, 0, -1, 0, 0, 0, 0, 0, -1, 0, 0, 0, 0, 0, -1, 0, 0, 0, 0, 0, -1, 0, 0, 0, 0, 0, -1, 0, 0, 0, 0, 0, -1, 0, 0, 0, 0, 0, -1, 0, 0, 0, 16, 250, -1, 0, 1073746944, 0, 16, 300, -1, 0, 1073746944, 0, 0, 0, -1, 0, 0, 0, 0, 0, -1, 0, 0, 0, 0, 0, -1, 0, 0, 0, 0, 0, -1, 0, 0, 0, 0, 0, -1, 0, 0, 0, 0, 0, -1, 0, 0, 0, 0, 0, -1, 0, 0, 0, 0, 0, -1, 0, 0, 0, 0, 0, -1, 0, 0, 0, 0, 0, -1, 0, 0, 0, 0, 0, -1, 0, 0, 0, 0, 0, -1, 0, 0, 0, 0, 0, -1, 0, 0, 0, 0, 0, -1, 0, 0, 0, 0, 0, -1, 0, 0, 0, 0, 0, -1, 0, 0, 0, 0, 0, -1, 0, 0, 0, 0, 0, -1, 0, 0, 0, 0, 0, -1, 0, 0, 0, 0, 0, -1, 0, 0, 0, 0, 0, -1, 0, 0, 0, 0, 0, -1, 0, 0, 0, 0, 0, -1, 0, 0, 0, 0, 0, -1, 0, 0, 0, 0, 0, -1, 0, 0, 0, 0, 0, -1, 0, 0, 0, 0, 0, -1, 0, 0, 0, 0, 0, -1, 0, 0, 0, 0, 0, -1, 0, 0, 0, 0, 0, -1, 0, 0, 0, 0, 0, -1, 0, 0, 0, 0, 0, -1, 0, 0, 0, 0, 0, -1, 0, 0, 0, 0, 0, -1, 0, 0, 0, 0, 0, -1, 0, 0, 0]
---
> AFTER android.content.res.Resources$Theme.obtainStyledAttributes, returnValue: [16, -2, -1, 0, 0, 0, 0, 0, 1, 0, 0, 0, 0, 0, 1, 0, 0, 0, 0, 0, 1, 0, 0, 0, 0, 0, 1, 0, 0, 0, 0, 0, 1, 0, 0, 0, 0, 0, 1, 0, 0, 0, 0, 0, 1, 0, 0, 0, 0, 0, 1, 0, 0, 0, 0, 0, 1, 0, 0, 0, 0, 0, 1, 0, 0, 0, 0, 0, 2, 0, 0, 0, 0, 0, 2, 0, 0, 0, 0, 0, 2, 0, 0, 0, 0, 0, 2, 0, 0, 0, 0, 0, 2, 0, 0, 0, 5, 12801, -1, 0, 0, 0, 0, 0, -1, 0, 0, 0, 0, 0, -1, 0, 0, 0, 0, 0, -1, 0, 0, 0, 0, 0, -1, 0, 0, 0, 0, 0, -1, 0, 0, 0, 0, 0, -1, 0, 0, 0, 0, 0, -1, 0, 0, 0, 0, 0, -1, 0, 0, 0, 0, 0, -1, 0, 0, 0, 0, 0, -1, 0, 0, 0, 0, 0, -1, 0, 0, 0, 0, 0, -1, 0, 0, 0, 0, 0, -1, 0, 0, 0, 0, 0, -1, 0, 0, 0, 0, 0, -1, 0, 0, 0, 0, 0, -1, 0, 0, 0, 0, 0, -1, 0, 0, 0, 0, 0, -1, 0, 0, 0, 0, 0, -1, 0, 0, 0, 0, 0, -1, 0, 0, 0, 0, 0, -1, 0, 0, 0, 0, 0, -1, 0, 0, 0, 0, 0, -1, 0, 0, 0, 0, 0, -1, 0, 0, 0, 0, 0, -1, 0, 0, 0, 0, 0, -1, 0, 0, 0, 0, 0, -1, 0, 0, 0, 0, 0, -1, 0, 0, 0, 16, 250, -1, 0, 1073746944, 0, 16, 300, -1, 0, 1073746944, 0, 0, 0, -1, 0, 0, 0, 0, 0, -1, 0, 0, 0, 0, 0, -1, 0, 0, 0, 0, 0, -1, 0, 0, 0, 0, 0, -1, 0, 0, 0, 0, 0, -1, 0, 0, 0, 0, 0, -1, 0, 0, 0, 0, 0, -1, 0, 0, 0, 0, 0, -1, 0, 0, 0, 0, 0, -1, 0, 0, 0, 0, 0, -1, 0, 0, 0, 0, 0, -1, 0, 0, 0, 0, 0, -1, 0, 0, 0, 0, 0, -1, 0, 0, 0, 0, 0, -1, 0, 0, 0, 0, 0, -1, 0, 0, 0, 0, 0, -1, 0, 0, 0, 0, 0, -1, 0, 0, 0, 0, 0, -1, 0, 0, 0, 0, 0, -1, 0, 0, 0, 0, 0, -1, 0, 0, 0, 0, 0, -1, 0, 0, 0, 0, 0, -1, 0, 0, 0, 0, 0, -1, 0, 0, 0, 0, 0, -1, 0, 0, 0, 0, 0, -1, 0, 0, 0, 0, 0, -1, 0, 0, 0, 0, 0, -1, 0, 0, 0, 0, 0, -1, 0, 0, 0, 0, 0, -1, 0, 0, 0, 0, 0, -1, 0, 0, 0, 0, 0, -1, 0, 0, 0, 0, 0, -1, 0, 0, 0, 0, 0, -1, 0, 0, 0, 0, 0, -1, 0, 0, 0, 0, 0, -1, 0, 0, 0, 0, 0, -1, 0, 0, 0, 0, 0, -1, 0, 0, 0, 0, 0, -1, 0, 0, 0, 0, 0, -1, 0, 0, 0]
45c45
< AFTER android.app.Activity.findViewById, returnValue: android.widget.TextView{2f847040 V.ED.... ......ID 0,0-0,0 #7f030016 app:id/textView_toDestName}
---
> AFTER android.app.Activity.findViewById, returnValue: android.widget.TextView{a6910 V.ED..... ......ID 0,0-0,0 #7f030016 app:id/textView_toDestName}
87,105c87,93
< AFTER android.location.LocationManager.getBestProvider, returnValue: gps, isEmpty: false
< BEFORE android.location.LocationManager.isProviderEnabled(gps)
< AFTER android.location.LocationManager.isProviderEnabled, returnValue: true
< BEFORE android.preference.PreferenceManager.getDefaultSharedPreferences(com.github.ruleant.getback_gps.LocationService)
< AFTER android.preference.PreferenceManager.getDefaultSharedPreferences, returnValue: android.app.SharedPreferencesImpl
< BEFORE android.app.SharedPreferencesImpl.getString(loc_update_dist,10)
< AFTER android.app.SharedPreferencesImpl.getString, returnValue: 10, isEmpty: false
< BEFORE android.app.SharedPreferencesImpl.getString(loc_update_time,10000)
< AFTER android.app.SharedPreferencesImpl.getString, returnValue: 10000, isEmpty: false
< BEFORE android.location.LocationManager.requestLocationUpdates(gps,java.lang.Long,10.0,com.github.ruleant.getback_gps.LocationService$1)
< BEFORE android.location.LocationManager.requestLocationUpdates(gps,java.lang.Long,10.0,com.github.ruleant.getback_gps.LocationService$1)
< AFTER android.location.LocationManager.requestLocationUpdates
< AFTER android.location.LocationManager.requestLocationUpdates
< BEFORE android.location.LocationManager.getLastKnownLocation(gps)
< AFTER android.location.LocationManager.getLastKnownLocation, returnValue: Location[gps 0.000000,0.000000 acc=0 et=+1m44s640ms alt=0.0 bear=0.0 {Bundle[mParcelledData.dataSize=40]}]
< BEFORE android.preference.PreferenceManager.getDefaultSharedPreferences(com.github.ruleant.getback_gps.LocationService)
< AFTER android.preference.PreferenceManager.getDefaultSharedPreferences, returnValue: android.app.SharedPreferencesImpl
< BEFORE android.app.SharedPreferencesImpl.getBoolean(enable_sensors,true)
< AFTER android.app.SharedPreferencesImpl.getBoolean, returnValue: true
---
> AFTER android.location.LocationManager.getBestProvider
> BEFORE android.widget.Toast.makeText(com.github.ruleant.getback_gps.LocationService,2131165250,1)
> BEFORE android.widget.Toast.makeText(com.github.ruleant.getback_gps.LocationService,2131165250,1)
> AFTER android.widget.Toast.makeText, returnValue: android.widget.Toast
> AFTER android.widget.Toast.makeText, returnValue: android.widget.Toast
> BEFORE android.widget.Toast.show()
> AFTER android.widget.Toast.show
117,136d104
< BEFORE com.github.ruleant.getback_gps.LocationService$1.onLocationChanged(android.location.Location)
< BEFORE android.location.Location.getTime()
< AFTER android.location.Location.getTime, returnValue: 1613433481000
< BEFORE android.location.Location.getTime()
< AFTER android.location.Location.getTime, returnValue: 1613433481000
< BEFORE android.location.Location.getProvider()
< AFTER android.location.Location.getProvider, returnValue: gps, isEmpty: false
< BEFORE android.location.Location.getProvider()
< AFTER android.location.Location.getProvider, returnValue: gps, isEmpty: false
< BEFORE android.preference.PreferenceManager.getDefaultSharedPreferences(com.github.ruleant.getback_gps.LocationService)
< AFTER android.preference.PreferenceManager.getDefaultSharedPreferences, returnValue: android.app.SharedPreferencesImpl
< BEFORE android.app.SharedPreferencesImpl.getString(debug_level,0)
< AFTER android.app.SharedPreferencesImpl.getString, returnValue: 0, isEmpty: false
< BEFORE android.os.RemoteCallbackList.beginBroadcast()
< AFTER android.os.RemoteCallbackList.beginBroadcast, returnValue: 0
< BEFORE android.os.RemoteCallbackList.finishBroadcast()
< AFTER android.os.RemoteCallbackList.finishBroadcast
< AFTER com.github.ruleant.getback_gps.LocationService$1.onLocationChanged
< BEFORE com.github.ruleant.getback_gps.LocationService$1.onStatusChanged(gps,1,android.os.Bundle)
< AFTER com.github.ruleant.getback_gps.LocationService$1.onStatusChanged
144,149d111
< BEFORE android.location.Location.getElapsedRealtimeNanos()
< AFTER android.location.Location.getElapsedRealtimeNanos, returnValue: 104640755490
< BEFORE android.location.Location.getAccuracy()
< AFTER android.location.Location.getAccuracy, returnValue: 0.0
< BEFORE de.keyboardsurfer.android.widget.crouton.Crouton.cancel()
< AFTER de.keyboardsurfer.android.widget.crouton.Crouton.cancel
155c117
< AFTER android.app.Activity.findViewById, returnValue: android.widget.TextView{3e4eac9c V.ED.... ......ID 3,0-229,73 #7f030012 app:id/textView_currSpeed}
---
> AFTER android.app.Activity.findViewById, returnValue: android.widget.TextView{1d1720f V.ED..... ......ID 3,0-229,73 #7f030012 app:id/textView_currSpeed}
157c119
< AFTER android.app.Activity.findViewById, returnValue: android.widget.TextView{392c22b V.ED.... ......ID 35,6-261,79 #7f030011 app:id/textView_currBearing}
---
> AFTER android.app.Activity.findViewById, returnValue: android.widget.TextView{12fd07a V.ED..... ......ID 35,6-261,79 #7f030011 app:id/textView_currBearing}
162,171d123
< BEFORE android.location.Location.getElapsedRealtimeNanos()
< AFTER android.location.Location.getElapsedRealtimeNanos, returnValue: 104640755490
< BEFORE android.location.Location.getAccuracy()
< AFTER android.location.Location.getAccuracy, returnValue: 0.0
< BEFORE android.location.Location.hasSpeed()
< AFTER android.location.Location.hasSpeed, returnValue: false
< BEFORE android.view.ContextThemeWrapper.getResources()
< AFTER android.view.ContextThemeWrapper.getResources, returnValue: android.content.res.XResources
< BEFORE android.content.res.Resources.getString(2131165262)
< AFTER android.content.res.Resources.getString, returnValue: km/h, isEmpty: false
176,179d127
< BEFORE android.location.Location.getElapsedRealtimeNanos()
< AFTER android.location.Location.getElapsedRealtimeNanos, returnValue: 104640755490
< BEFORE android.location.Location.getAccuracy()
< AFTER android.location.Location.getAccuracy, returnValue: 0.0
183c131
< AFTER android.app.Activity.findViewById, returnValue: com.github.ruleant.getback_gps.NavigationView{13b46970 V.ED.... ......ID 15,150-1065,300 #7f030008 app:id/navigationView_ToDest}
---
> AFTER android.app.Activity.findViewById, returnValue: com.github.ruleant.getback_gps.NavigationView{ed3adb3 V.ED..... ......ID 15,150-1065,300 #7f030008 app:id/navigationView_ToDest}
185c133
< AFTER android.app.Activity.findViewById, returnValue: android.widget.TextView{2f847040 V.ED..C. ......ID 0,0-175,73 #7f030016 app:id/textView_toDestName}
---
> AFTER android.app.Activity.findViewById, returnValue: android.widget.TextView{a6910 V.ED..C.. ......ID 0,0-175,73 #7f030016 app:id/textView_toDestName}
187c135
< AFTER android.app.Activity.findViewById, returnValue: android.widget.TextView{1a2d0ea0 V.ED.... ......ID 0,0-226,73 #7f030015 app:id/textView_toDestDist}
---
> AFTER android.app.Activity.findViewById, returnValue: android.widget.TextView{92369a3 V.ED..... ......ID 0,0-226,73 #7f030015 app:id/textView_toDestDist}
189c137
< AFTER android.app.Activity.findViewById, returnValue: android.widget.TextView{23bcfeff V.ED.... ......ID 15,0-241,73 #7f030014 app:id/textView_toDestDir}
---
> AFTER android.app.Activity.findViewById, returnValue: android.widget.TextView{3388c1e V.ED..... ......ID 15,0-241,73 #7f030014 app:id/textView_toDestDir}
191c139
< AFTER android.app.Activity.findViewById, returnValue: android.widget.TextView{396ab62a V.ED.... ......ID 15,0-172,136 #7f030013 app:id/textView_heightDifference}
---
> AFTER android.app.Activity.findViewById, returnValue: android.widget.TextView{f8b4115 V.ED..... ......ID 15,0-172,136 #7f030013 app:id/textView_heightDifference}
193c141
< AFTER android.app.Activity.findViewById, returnValue: android.widget.LinearLayout{28795607 V.E..... ......ID 30,0-699,367 #7f03000a app:id/section_toDestination}
---
> AFTER android.app.Activity.findViewById, returnValue: android.widget.LinearLayout{1da7a46 V.E...... ......ID 30,0-699,367 #7f03000a app:id/section_toDestination}
195c143
< AFTER android.app.Activity.findViewById, returnValue: android.widget.TextView{35e0446 V.ED.... ......ID 30,0-30,73 #7f030017 app:id/textView_toDest_Message}
---
> AFTER android.app.Activity.findViewById, returnValue: android.widget.TextView{67e2621 V.ED..... ......ID 30,0-30,73 #7f030017 app:id/textView_toDest_Message}
212,215d159
< BEFORE android.location.Location.getElapsedRealtimeNanos()
< AFTER android.location.Location.getElapsedRealtimeNanos, returnValue: 104640755490
< BEFORE android.location.Location.getAccuracy()
< AFTER android.location.Location.getAccuracy, returnValue: 0.0
234c178
< BEFORE com.android.internal.view.menu.MenuItemImpl.setEnabled(true)
---
> BEFORE com.android.internal.view.menu.MenuItemImpl.setEnabled(false)
241,251c185,189
< BEFORE com.github.ruleant.getback_gps.NavigationView.onDraw(android.view.GLES20RecordingCanvas)
< BEFORE android.view.GLES20Canvas.drawCircle(525.0,75.0,71.25,android.graphics.Paint)
< AFTER android.view.GLES20Canvas.drawCircle
< BEFORE android.view.GLES20Canvas.drawPath(android.graphics.Path,android.graphics.Paint)
< AFTER android.view.GLES20Canvas.drawPath
< BEFORE android.view.GLES20Canvas.drawPath(android.graphics.Path,android.graphics.Paint)
< AFTER android.view.GLES20Canvas.drawPath
< BEFORE android.view.GLES20Canvas.drawLines([F,android.graphics.Paint)
< BEFORE android.view.GLES20Canvas.drawLines([F,android.graphics.Paint)
< AFTER android.view.GLES20Canvas.drawLines
< AFTER android.view.GLES20Canvas.drawLines
---
> BEFORE com.github.ruleant.getback_gps.NavigationView.onDraw(android.view.DisplayListCanvas)
> BEFORE android.view.DisplayListCanvas.drawPath(android.graphics.Path,android.graphics.Paint)
> AFTER android.view.DisplayListCanvas.drawPath
> BEFORE android.view.DisplayListCanvas.drawPath(android.graphics.Path,android.graphics.Paint)
> AFTER android.view.DisplayListCanvas.drawPath
253,263c191,195
< BEFORE com.github.ruleant.getback_gps.NavigationView.onDraw(android.view.GLES20RecordingCanvas)
< BEFORE android.view.GLES20Canvas.drawCircle(525.0,525.0,498.75,android.graphics.Paint)
< AFTER android.view.GLES20Canvas.drawCircle
< BEFORE android.view.GLES20Canvas.drawPath(android.graphics.Path,android.graphics.Paint)
< AFTER android.view.GLES20Canvas.drawPath
< BEFORE android.view.GLES20Canvas.drawPath(android.graphics.Path,android.graphics.Paint)
< AFTER android.view.GLES20Canvas.drawPath
< BEFORE android.view.GLES20Canvas.drawLines([F,android.graphics.Paint)
< BEFORE android.view.GLES20Canvas.drawLines([F,android.graphics.Paint)
< AFTER android.view.GLES20Canvas.drawLines
< AFTER android.view.GLES20Canvas.drawLines
---
> BEFORE com.github.ruleant.getback_gps.NavigationView.onDraw(android.view.DisplayListCanvas)
> BEFORE android.view.DisplayListCanvas.drawPath(android.graphics.Path,android.graphics.Paint)
> AFTER android.view.DisplayListCanvas.drawPath
> BEFORE android.view.DisplayListCanvas.drawPath(android.graphics.Path,android.graphics.Paint)
> AFTER android.view.DisplayListCanvas.drawPath
264a197,203
> BEFORE com.github.ruleant.getback_gps.AbstractGetBackGpsActivity.onStop()
> BEFORE android.app.Activity.onStop()
> AFTER android.app.Activity.onStop
> BEFORE android.content.ContextWrapper.unbindService(com.github.ruleant.getback_gps.AbstractGetBackGpsActivity$5)
> AFTER android.content.ContextWrapper.unbindService
> AFTER com.github.ruleant.getback_gps.AbstractGetBackGpsActivity.onStop
> BEFORE com.github.ruleant.getback_gps.LocationService.onUnbind(android.content.Intent)
268a208,210
> AFTER com.github.ruleant.getback_gps.LocationService.onUnbind, returnValue: false
> BEFORE com.github.ruleant.getback_gps.LocationService.onDestroy()
> BEFORE android.os.RemoteCallbackList.kill()
271,280c213,233
< BEFORE android.location.Location.hasSpeed()
< AFTER android.location.Location.hasSpeed, returnValue: false
< BEFORE android.location.Location.hasSpeed()
< AFTER android.location.Location.hasSpeed, returnValue: false
< BEFORE android.location.Location.getAccuracy()
< AFTER android.location.Location.getAccuracy, returnValue: 0.0
< BEFORE android.location.Location.getTime()
< AFTER android.location.Location.getTime, returnValue: 1613433481000
< BEFORE android.location.Location.getProvider()
< AFTER android.location.Location.getProvider, returnValue: gps, isEmpty: false
---
> AFTER android.os.RemoteCallbackList.kill
> BEFORE android.location.LocationManager.removeUpdates(com.github.ruleant.getback_gps.LocationService$1)
> AFTER android.location.LocationManager.removeUpdates
> BEFORE android.app.SharedPreferencesImpl.edit()
> AFTER android.app.SharedPreferencesImpl.edit, returnValue: android.app.SharedPreferencesImpl$EditorImpl
> BEFORE android.app.SharedPreferencesImpl$EditorImpl.putString(saved,false)
> AFTER android.app.SharedPreferencesImpl$EditorImpl.putString, returnValue: android.app.SharedPreferencesImpl$EditorImpl
> BEFORE android.app.SharedPreferencesImpl$EditorImpl.commit()
> AFTER android.app.SharedPreferencesImpl$EditorImpl.commit, returnValue: true
> BEFORE android.app.SharedPreferencesImpl.edit()
> AFTER android.app.SharedPreferencesImpl.edit, returnValue: android.app.SharedPreferencesImpl$EditorImpl
> BEFORE android.app.SharedPreferencesImpl$EditorImpl.putString(saved,false)
> AFTER android.app.SharedPreferencesImpl$EditorImpl.putString, returnValue: android.app.SharedPreferencesImpl$EditorImpl
> BEFORE android.app.SharedPreferencesImpl$EditorImpl.commit()
> AFTER android.app.SharedPreferencesImpl$EditorImpl.commit, returnValue: true
> BEFORE android.app.SharedPreferencesImpl.edit()
> AFTER android.app.SharedPreferencesImpl.edit, returnValue: android.app.SharedPreferencesImpl$EditorImpl
> BEFORE android.app.SharedPreferencesImpl$EditorImpl.putString(saved,false)
> AFTER android.app.SharedPreferencesImpl$EditorImpl.putString, returnValue: android.app.SharedPreferencesImpl$EditorImpl
> BEFORE android.app.SharedPreferencesImpl$EditorImpl.commit()
> AFTER android.app.SharedPreferencesImpl$EditorImpl.commit, returnValue: true
284a238
> AFTER com.github.ruleant.getback_gps.LocationService.onDestroy
