BEFORE com.ascendtv.kanjifix.MainActivity.onCreate()
BEFORE android.app.Activity.onCreate()
AFTER android.app.Activity.onCreate
BEFORE android.app.Activity.setContentView(2131296279)
AFTER android.app.Activity.setContentView
BEFORE android.app.Activity.findViewById(2131165200)
AFTER android.app.Activity.findViewById, returnValue: android.widget.Button{64b6d25 VFED..C. ......I. 0,0-0,0 #7f070010 app:id/apply_fix_btn}
BEFORE android.app.Activity.findViewById(2131165230)
AFTER android.app.Activity.findViewById, returnValue: android.widget.Button{38fceefa VFED..C. ......I. 0,0-0,0 #7f07002e app:id/revert_btn}
BEFORE android.app.Activity.findViewById(2131165249)
AFTER android.app.Activity.findViewById, returnValue: android.widget.TextView{23de1cab V.ED.... ......ID 0,0-0,0 #7f070041 app:id/textField}
BEFORE android.content.ContextWrapper.getFilesDir()
AFTER android.content.ContextWrapper.getFilesDir, returnValue: /data/data/com.ascendtv.kanjifix/files
BEFORE android.content.ContextWrapper.getFilesDir()
AFTER android.content.ContextWrapper.getFilesDir, returnValue: /data/data/com.ascendtv.kanjifix/files
BEFORE android.content.ContextWrapper.getFilesDir()
AFTER android.content.ContextWrapper.getFilesDir, returnValue: /data/data/com.ascendtv.kanjifix/files
AFTER com.ascendtv.kanjifix.MainActivity.onCreate
BEFORE com.ascendtv.kanjifix.MainActivity.onCreateOptionsMenu(com.android.internal.view.menu.MenuBuilder)
BEFORE android.app.Activity.getMenuInflater()
AFTER android.app.Activity.getMenuInflater, returnValue: android.view.MenuInflater
BEFORE android.view.MenuInflater.inflate(2131361792,com.android.internal.view.menu.MenuBuilder)
AFTER android.view.MenuInflater.inflate
AFTER com.ascendtv.kanjifix.MainActivity.onCreateOptionsMenu, returnValue: true
