digraph FULL {
"c6371229-5f82-4776-8982-75ba1bb95574" [label="de.robv.android.xposed.XposedBridge.main\n Susp=0,7333"];
"c6371229-5f82-4776-8982-75ba1bb95574" -> "5ffea307-200c-459c-ab31-7d5605d511d5";
"5ffea307-200c-459c-ab31-7d5605d511d5" [label="com.android.internal.os.ZygoteInit.main\n Susp=0,4335"];
"5ffea307-200c-459c-ab31-7d5605d511d5" -> "a6c1458d-bf2e-42bb-8e9c-aa02606ef6ff";
"a6c1458d-bf2e-42bb-8e9c-aa02606ef6ff" [label="com.android.internal.os.ZygoteInit$MethodAndArgsCaller.run\n Susp=0,4335"];
"a6c1458d-bf2e-42bb-8e9c-aa02606ef6ff" -> "7a605f30-ec1b-4302-8ff6-30b1e46e8143";
"7a605f30-ec1b-4302-8ff6-30b1e46e8143" [label="java.lang.reflect.Method.invoke\n Susp=0,4335"];
"7a605f30-ec1b-4302-8ff6-30b1e46e8143" -> "bb63a981-f999-4b95-8dcd-68b994aadd5d";
"bb63a981-f999-4b95-8dcd-68b994aadd5d" [label="android.app.ActivityThread.main\n Susp=0,4335"];
"bb63a981-f999-4b95-8dcd-68b994aadd5d" -> "42b8c37e-0289-45aa-9eac-c9b5bf72e489";
"42b8c37e-0289-45aa-9eac-c9b5bf72e489" [label="android.os.Looper.loop\n Susp=0,4335"];
"42b8c37e-0289-45aa-9eac-c9b5bf72e489" -> "6ce3715b-35c3-40c2-8ad8-d01dd7e9f372";
"6ce3715b-35c3-40c2-8ad8-d01dd7e9f372" [label="android.os.Handler.dispatchMessage\n Susp=0,9668"];
"6ce3715b-35c3-40c2-8ad8-d01dd7e9f372" -> "0c686529-53eb-4263-8265-d0f7c4a9a780";
"0c686529-53eb-4263-8265-d0f7c4a9a780" [label="de.robv.android.xposed.XposedBridge.handleHookedMethod\n Susp=0,3316"];
"0c686529-53eb-4263-8265-d0f7c4a9a780" -> "2cef7a84-98c5-4503-8544-85b26cc3fd5b";
"2cef7a84-98c5-4503-8544-85b26cc3fd5b" [label="de.robv.android.xposed.XposedBridge.invokeOriginalMethodNative\n Susp=0,3316"];
"2cef7a84-98c5-4503-8544-85b26cc3fd5b" -> "9767ad8e-ede9-49de-b2e5-95a0da347be1";
"9767ad8e-ede9-49de-b2e5-95a0da347be1" [label="android.os.Handler.dispatchMessage\n Susp=0,5983"];
"9767ad8e-ede9-49de-b2e5-95a0da347be1" -> "a9940f00-996a-48e0-b79a-0b0172e87d2d";
"a9940f00-996a-48e0-b79a-0b0172e87d2d" [label="android.os.Handler.handleCallback\n Susp=0,2688"];
"a9940f00-996a-48e0-b79a-0b0172e87d2d" -> "88ed8b9a-29cd-46b0-8fbf-e10a3ebeb111";
"88ed8b9a-29cd-46b0-8fbf-e10a3ebeb111" [label="de.robv.android.xposed.XposedBridge.handleHookedMethod\n Susp=0,2688"];
"88ed8b9a-29cd-46b0-8fbf-e10a3ebeb111" -> "c2247043-9e40-4851-ae31-6314c2d074be";
"c2247043-9e40-4851-ae31-6314c2d074be" [label="de.robv.android.xposed.XposedBridge.invokeOriginalMethodNative\n Susp=0,2688"];
"c2247043-9e40-4851-ae31-6314c2d074be" -> "583f2871-86c3-4543-9339-75fec69a9227";
"583f2871-86c3-4543-9339-75fec69a9227" [label="android.os.Handler.handleCallback\n Susp=0,2688"];
"583f2871-86c3-4543-9339-75fec69a9227" -> "713f137f-471d-497d-a8a0-b767613f8921";
"713f137f-471d-497d-a8a0-b767613f8921" [label="android.view.View$PerformClick.run\n Susp=0,2688"];
"713f137f-471d-497d-a8a0-b767613f8921" -> "d363cd54-546d-455a-82db-d08b6dd05af7";
"d363cd54-546d-455a-82db-d08b6dd05af7" [label="android.view.View.performClick\n Susp=0,2688"];
"d363cd54-546d-455a-82db-d08b6dd05af7" -> "6bc22f9c-6960-4615-a805-ac71ad4173ae";
"6bc22f9c-6960-4615-a805-ac71ad4173ae" [label="com.github.fakegps.ui.MainActivity.onClick\n Susp=0,2688"];
"6bc22f9c-6960-4615-a805-ac71ad4173ae" -> "65b31be0-f826-44ca-bdde-f53667488987";
"65b31be0-f826-44ca-bdde-f53667488987" [label="de.robv.android.xposed.XposedBridge.handleHookedMethod\n Susp=0,2688"];
"65b31be0-f826-44ca-bdde-f53667488987" -> "b71ad33d-4725-4cde-a709-cc9c17ecc2bf";
"b71ad33d-4725-4cde-a709-cc9c17ecc2bf" [label="de.robv.android.xposed.XposedBridge.invokeOriginalMethodNative\n Susp=0,2688"];
"b71ad33d-4725-4cde-a709-cc9c17ecc2bf" -> "1f9f36d8-ed8b-49b9-a4e2-d5f0d32df95d";
"1f9f36d8-ed8b-49b9-a4e2-d5f0d32df95d" [label="com.github.fakegps.ui.MainActivity.onClick\n Susp=0,2688"];
"1f9f36d8-ed8b-49b9-a4e2-d5f0d32df95d" -> "0e224e04-debd-4d95-8a9b-1e4c0fe51398";
"0e224e04-debd-4d95-8a9b-1e4c0fe51398" [label="com.github.fakegps.JoyStickManager.start\n Susp=0,2688"];
"0e224e04-debd-4d95-8a9b-1e4c0fe51398" -> "e9e9eacd-5db6-4f21-9a42-8da315564cd4";
"e9e9eacd-5db6-4f21-9a42-8da315564cd4" [label="de.robv.android.xposed.XposedBridge.handleHookedMethod\n Susp=0,2688"];
"e9e9eacd-5db6-4f21-9a42-8da315564cd4" -> "7be21152-9e10-42cf-8bab-17aaedbffbf4";
"7be21152-9e10-42cf-8bab-17aaedbffbf4" [label="de.robv.android.xposed.XposedBridge.invokeOriginalMethodNative\n Susp=0,2688"];
"7be21152-9e10-42cf-8bab-17aaedbffbf4" -> "6e7f7f7a-0c7f-46f3-ad19-d407c20242ef";
"6e7f7f7a-0c7f-46f3-ad19-d407c20242ef" [label="com.github.fakegps.JoyStickManager.start\n Susp=0,2688"];
"6e7f7f7a-0c7f-46f3-ad19-d407c20242ef" -> "3955e0b1-a83f-4f7d-a3f0-e1b86c1c1b45";
"3955e0b1-a83f-4f7d-a3f0-e1b86c1c1b45" [label="com.github.fakegps.JoyStickManager.showJoyStick\n Susp=0,2688"];
"3955e0b1-a83f-4f7d-a3f0-e1b86c1c1b45" -> "1108786a-cf0a-4bfe-927d-37efd6f2f1a9";
"1108786a-cf0a-4bfe-927d-37efd6f2f1a9" [label="de.robv.android.xposed.XposedBridge.handleHookedMethod\n Susp=0,2688"];
"1108786a-cf0a-4bfe-927d-37efd6f2f1a9" -> "74661142-8695-4c60-9d4e-2cf96f15181e";
"74661142-8695-4c60-9d4e-2cf96f15181e" [label="de.robv.android.xposed.XposedBridge.invokeOriginalMethodNative\n Susp=0,2688"];
"74661142-8695-4c60-9d4e-2cf96f15181e" -> "157ea03d-af65-4330-882e-8af0c9c1f51e";
"157ea03d-af65-4330-882e-8af0c9c1f51e" [label="com.github.fakegps.JoyStickManager.showJoyStick\n Susp=0,2688"];
"157ea03d-af65-4330-882e-8af0c9c1f51e" -> "0028c3ad-7cee-4366-915e-22a585d2e664";
"0028c3ad-7cee-4366-915e-22a585d2e664" [label="com.github.fakegps.ui.JoyStickView.<init>\n Susp=0,2688"];
"0028c3ad-7cee-4366-915e-22a585d2e664" -> "b1c4dde9-263b-41ec-9fa5-9c4253b851d1";
"b1c4dde9-263b-41ec-9fa5-9c4253b851d1" [label="android.view.LayoutInflater.inflate\n Susp=0,2688"];
"b1c4dde9-263b-41ec-9fa5-9c4253b851d1" -> "f4891175-b3a4-4837-8a95-4ee0300434d3";
"f4891175-b3a4-4837-8a95-4ee0300434d3" [label="de.robv.android.xposed.XposedBridge.handleHookedMethod\n Susp=0,2688"];
"f4891175-b3a4-4837-8a95-4ee0300434d3" -> "b0b78058-7bba-444a-b4bd-a065c087a164";
"b0b78058-7bba-444a-b4bd-a065c087a164" [label="de.robv.android.xposed.XposedBridge.invokeOriginalMethodNative\n Susp=0,2688"];
"b0b78058-7bba-444a-b4bd-a065c087a164" -> "b64626fe-5c6e-42f5-a576-ca98ef877109";
"b64626fe-5c6e-42f5-a576-ca98ef877109" [label="android.view.LayoutInflater.inflate\n Susp=0,2688"];
"b64626fe-5c6e-42f5-a576-ca98ef877109" -> "328f03dc-765f-4af7-8763-0d16f37985ca";
"328f03dc-765f-4af7-8763-0d16f37985ca" [label="de.robv.android.xposed.XposedBridge.handleHookedMethod\n Susp=0,2688"];
"328f03dc-765f-4af7-8763-0d16f37985ca" -> "3e4a3077-8d34-43d2-bfdf-53b5f68853f5";
"3e4a3077-8d34-43d2-bfdf-53b5f68853f5" [label="de.robv.android.xposed.XposedBridge.invokeOriginalMethodNative\n Susp=0,2688"];
"3e4a3077-8d34-43d2-bfdf-53b5f68853f5" -> "a0e1b3cc-bba7-4361-9a55-f3fa01ec8af5";
"a0e1b3cc-bba7-4361-9a55-f3fa01ec8af5" [label="android.view.LayoutInflater.inflate\n Susp=0,2688"];
"a0e1b3cc-bba7-4361-9a55-f3fa01ec8af5" -> "46d8c443-97b8-4ceb-986c-99f71006e188";
"46d8c443-97b8-4ceb-986c-99f71006e188" [label="de.robv.android.xposed.XposedBridge.handleHookedMethod\n Susp=0,2688"];
"46d8c443-97b8-4ceb-986c-99f71006e188" -> "d345c492-ed6f-42aa-bd58-9b816ef78528";
"d345c492-ed6f-42aa-bd58-9b816ef78528" [label="it.unimib.disco.lta.unimiblogger.MyMethodHook.beforeHookedMethod\n Susp=0,2688"];
"d345c492-ed6f-42aa-bd58-9b816ef78528" -> "aca56d71-e183-411b-aaf4-dddf5c9f04df";
"aca56d71-e183-411b-aaf4-dddf5c9f04df" [label="java.lang.Thread.getStackTrace\n Susp=0,2688"];
"aca56d71-e183-411b-aaf4-dddf5c9f04df" -> "ad447a4a-425a-4e7b-b0f4-986eb7375eaf";
"ad447a4a-425a-4e7b-b0f4-986eb7375eaf" [label="dalvik.system.VMStack.getThreadStackTrace\n Susp=0,0022"];
"9767ad8e-ede9-49de-b2e5-95a0da347be1" -> "d4b9cc1d-0efe-4429-b756-22dca0d46560";
"d4b9cc1d-0efe-4429-b756-22dca0d46560" [label="android.app.ActivityThread$H.handleMessage\n Susp=0,3295"];
"d4b9cc1d-0efe-4429-b756-22dca0d46560" -> "452f0985-b8e2-4dc3-8250-c74c604dab4e";
"452f0985-b8e2-4dc3-8250-c74c604dab4e" [label="android.app.ActivityThread.-wrap11\n Susp=0,3295"];
"452f0985-b8e2-4dc3-8250-c74c604dab4e" -> "5d98e0ce-768c-43f3-a3ee-0edab92016b8";
"5d98e0ce-768c-43f3-a3ee-0edab92016b8" [label="android.app.ActivityThread.handleLaunchActivity\n Susp=0,3295"];
"5d98e0ce-768c-43f3-a3ee-0edab92016b8" -> "e5b8dc79-096a-4ba0-8dc7-2f1ddc223082";
"e5b8dc79-096a-4ba0-8dc7-2f1ddc223082" [label="android.app.ActivityThread.performLaunchActivity\n Susp=0,3295"];
"e5b8dc79-096a-4ba0-8dc7-2f1ddc223082" -> "f9d74487-cda8-4097-aae4-0c8e51a7d226";
"f9d74487-cda8-4097-aae4-0c8e51a7d226" [label="android.app.Instrumentation.callActivityOnCreate\n Susp=0,3295"];
"f9d74487-cda8-4097-aae4-0c8e51a7d226" -> "905f3c2c-2447-4fcc-bbb4-adcf841ac6ec";
"905f3c2c-2447-4fcc-bbb4-adcf841ac6ec" [label="android.app.Activity.performCreate\n Susp=0,3295"];
"905f3c2c-2447-4fcc-bbb4-adcf841ac6ec" -> "bf838810-c0aa-4bec-90c9-957a044daf71";
"bf838810-c0aa-4bec-90c9-957a044daf71" [label="com.github.fakegps.ui.MainActivity.onCreate\n Susp=0,3295"];
"bf838810-c0aa-4bec-90c9-957a044daf71" -> "3626fe4b-58c7-4e9f-bbb5-fd181ed76357";
"3626fe4b-58c7-4e9f-bbb5-fd181ed76357" [label="de.robv.android.xposed.XposedBridge.handleHookedMethod\n Susp=0,3295"];
"3626fe4b-58c7-4e9f-bbb5-fd181ed76357" -> "8b33aae3-49a6-4b45-a295-7c5433df3952";
"8b33aae3-49a6-4b45-a295-7c5433df3952" [label="de.robv.android.xposed.XposedBridge.invokeOriginalMethodNative\n Susp=0,3295"];
"8b33aae3-49a6-4b45-a295-7c5433df3952" -> "07802601-d1b1-40fe-a8ad-84135eb2a145";
"07802601-d1b1-40fe-a8ad-84135eb2a145" [label="com.github.fakegps.ui.MainActivity.onCreate\n Susp=0,5961"];
"07802601-d1b1-40fe-a8ad-84135eb2a145" -> "dd46fff1-1659-4618-9981-287bcf94c204";
"dd46fff1-1659-4618-9981-287bcf94c204" [label="android.support.v7.app.AppCompatActivity.findViewById\n Susp=0,328"];
"dd46fff1-1659-4618-9981-287bcf94c204" -> "2d85f853-fed6-4254-ad3b-2a0fdbe829f9";
"2d85f853-fed6-4254-ad3b-2a0fdbe829f9" [label="de.robv.android.xposed.XposedBridge.handleHookedMethod\n Susp=0,328"];
"2d85f853-fed6-4254-ad3b-2a0fdbe829f9" -> "6d940d88-8e91-458e-8ba8-d2ad005bfbcf";
"6d940d88-8e91-458e-8ba8-d2ad005bfbcf" [label="it.unimib.disco.lta.unimiblogger.MyMethodHook.beforeHookedMethod\n Susp=0,328"];
"6d940d88-8e91-458e-8ba8-d2ad005bfbcf" -> "00714b7b-79ca-4e0a-ae06-1232cb49fa69";
"00714b7b-79ca-4e0a-ae06-1232cb49fa69" [label="java.lang.Thread.getStackTrace\n Susp=0,328"];
"00714b7b-79ca-4e0a-ae06-1232cb49fa69" -> "ad6067e2-8d2f-42c2-a48f-87ee357a3ad5";
"ad6067e2-8d2f-42c2-a48f-87ee357a3ad5" [label="dalvik.system.VMStack.getThreadStackTrace\n Susp=0,0614"];
"07802601-d1b1-40fe-a8ad-84135eb2a145" -> "9f2cbb2e-b739-4c04-8673-1ac31432e2e6";
"9f2cbb2e-b739-4c04-8673-1ac31432e2e6" [label="com.github.fakegps.ui.MainActivity.initListView\n Susp=0,2681"];
"9f2cbb2e-b739-4c04-8673-1ac31432e2e6" -> "bc317093-cb9e-4777-bf94-af7a30c4c740";
"bc317093-cb9e-4777-bf94-af7a30c4c740" [label="de.robv.android.xposed.XposedBridge.handleHookedMethod\n Susp=0,2681"];
"bc317093-cb9e-4777-bf94-af7a30c4c740" -> "57e86577-645d-4998-99c3-90aac3478c92";
"57e86577-645d-4998-99c3-90aac3478c92" [label="de.robv.android.xposed.XposedBridge.invokeOriginalMethodNative\n Susp=0,2681"];
"57e86577-645d-4998-99c3-90aac3478c92" -> "6367f708-3893-4d12-8ea4-5b248672355a";
"6367f708-3893-4d12-8ea4-5b248672355a" [label="com.github.fakegps.ui.MainActivity.initListView\n Susp=0,2681"];
"6367f708-3893-4d12-8ea4-5b248672355a" -> "15c19c6e-1e80-45ec-91d3-2327bed29088";
"15c19c6e-1e80-45ec-91d3-2327bed29088" [label="android.widget.ListView.setAdapter\n Susp=0,2681"];
"15c19c6e-1e80-45ec-91d3-2327bed29088" -> "498a6918-894a-44d3-9544-a3dd54a244ad";
"498a6918-894a-44d3-9544-a3dd54a244ad" [label="de.robv.android.xposed.XposedBridge.handleHookedMethod\n Susp=0,2681"];
"498a6918-894a-44d3-9544-a3dd54a244ad" -> "e537ed05-78c5-41ac-8cee-c8e37d06084b";
"e537ed05-78c5-41ac-8cee-c8e37d06084b" [label="de.robv.android.xposed.XposedBridge.invokeOriginalMethodNative\n Susp=0,2681"];
"e537ed05-78c5-41ac-8cee-c8e37d06084b" -> "266d4d23-4cac-4f2c-a941-ff5a9132efca";
"266d4d23-4cac-4f2c-a941-ff5a9132efca" [label="android.widget.ListView.setAdapter\n Susp=0,2681"];
"266d4d23-4cac-4f2c-a941-ff5a9132efca" -> "31a5125e-4c3b-4c5e-a363-434abff2342b";
"31a5125e-4c3b-4c5e-a363-434abff2342b" [label="android.widget.ListView.lookForSelectablePosition\n Susp=0,2681"];
"31a5125e-4c3b-4c5e-a363-434abff2342b" -> "7e62b6ce-a7c0-4914-8e6d-8b92d655689f";
"7e62b6ce-a7c0-4914-8e6d-8b92d655689f" [label="de.robv.android.xposed.XposedBridge.handleHookedMethod\n Susp=0,2681"];
"7e62b6ce-a7c0-4914-8e6d-8b92d655689f" -> "3943664b-69b8-46d9-9742-e212c2d4cdfa";
"3943664b-69b8-46d9-9742-e212c2d4cdfa" [label="de.robv.android.xposed.XposedBridge.invokeOriginalMethodNative\n Susp=0,2681"];
"3943664b-69b8-46d9-9742-e212c2d4cdfa" -> "0068b8af-8c8e-468b-bf0f-8c65830baa36";
"0068b8af-8c8e-468b-bf0f-8c65830baa36" [label="android.widget.ListView.lookForSelectablePosition\n Susp=0,2681"];
"0068b8af-8c8e-468b-bf0f-8c65830baa36" -> "22e6316c-eeea-4f99-bed5-b4464cb7a53c";
"22e6316c-eeea-4f99-bed5-b4464cb7a53c" [label="com.github.fakegps.ui.BookmarkAdapter.getCount\n Susp=0,2681"];
"22e6316c-eeea-4f99-bed5-b4464cb7a53c" -> "fb3c257f-a890-4c0d-aaa4-0b6fbe2d9c88";
"fb3c257f-a890-4c0d-aaa4-0b6fbe2d9c88" [label="de.robv.android.xposed.XposedBridge.handleHookedMethod\n Susp=0,2681"];
"fb3c257f-a890-4c0d-aaa4-0b6fbe2d9c88" -> "369ad89f-194b-4b24-aba3-0ba76e48a860";
"369ad89f-194b-4b24-aba3-0ba76e48a860" [label="it.unimib.disco.lta.unimiblogger.MyMethodHook.beforeHookedMethod\n Susp=0,2681"];
"369ad89f-194b-4b24-aba3-0ba76e48a860" -> "a8ad39f1-5e32-4fb8-b16e-c2e8fa528bd2";
"a8ad39f1-5e32-4fb8-b16e-c2e8fa528bd2" [label="java.lang.Thread.getStackTrace\n Susp=0,2681"];
"a8ad39f1-5e32-4fb8-b16e-c2e8fa528bd2" -> "52a1d749-c52d-4fab-8cd7-f1c5839b33b0";
"52a1d749-c52d-4fab-8cd7-f1c5839b33b0" [label="dalvik.system.VMStack.getThreadStackTrace\n Susp=0,0014"];
"6ce3715b-35c3-40c2-8ad8-d01dd7e9f372" -> "308061b2-39a0-4be2-bab1-4e04bb45cc9a";
"308061b2-39a0-4be2-bab1-4e04bb45cc9a" [label="android.app.ActivityThread$H.handleMessage\n Susp=0,271"];
"308061b2-39a0-4be2-bab1-4e04bb45cc9a" -> "dd3e3273-c615-45c2-8329-037208242bd6";
"dd3e3273-c615-45c2-8329-037208242bd6" [label="android.app.ActivityThread.-wrap1\n Susp=0,271"];
"dd3e3273-c615-45c2-8329-037208242bd6" -> "e5465e1e-36ea-427c-a349-da4a5a2b0ffe";
"e5465e1e-36ea-427c-a349-da4a5a2b0ffe" [label="android.app.ActivityThread.handleBindApplication\n Susp=0,271"];
"e5465e1e-36ea-427c-a349-da4a5a2b0ffe" -> "70506745-388f-4937-afff-6645703f6d18";
"70506745-388f-4937-afff-6645703f6d18" [label="de.robv.android.xposed.XposedBridge.handleHookedMethod\n Susp=0,271"];
"70506745-388f-4937-afff-6645703f6d18" -> "d697f85b-3e76-413a-ae88-0580d639b885";
"d697f85b-3e76-413a-ae88-0580d639b885" [label="de.robv.android.xposed.XposedBridge.invokeOriginalMethodNative\n Susp=0,271"];
"d697f85b-3e76-413a-ae88-0580d639b885" -> "7eed6996-bb2d-4815-b727-363a49c57bd3";
"7eed6996-bb2d-4815-b727-363a49c57bd3" [label="android.app.ActivityThread.handleBindApplication\n Susp=0,271"];
"7eed6996-bb2d-4815-b727-363a49c57bd3" -> "70b5e7e8-5792-473e-a15b-58d9290c6017";
"70b5e7e8-5792-473e-a15b-58d9290c6017" [label="android.app.Instrumentation.callApplicationOnCreate\n Susp=0,271"];
"70b5e7e8-5792-473e-a15b-58d9290c6017" -> "cb84d7d0-3bf1-4801-a7d9-982758a07ce5";
"cb84d7d0-3bf1-4801-a7d9-982758a07ce5" [label="com.github.fakegps.FakeGpsApp.onCreate\n Susp=0,271"];
"cb84d7d0-3bf1-4801-a7d9-982758a07ce5" -> "7a3b9880-c621-4eac-a270-90cc144ab258";
"7a3b9880-c621-4eac-a270-90cc144ab258" [label="com.github.fakegps.FakeGpsApp.initLogger\n Susp=0,271"];
"7a3b9880-c621-4eac-a270-90cc144ab258" -> "6f967a82-3415-42c1-8366-d5cf8340a1e1";
"6f967a82-3415-42c1-8366-d5cf8340a1e1" [label="de.robv.android.xposed.XposedBridge.handleHookedMethod\n Susp=0,271"];
"6f967a82-3415-42c1-8366-d5cf8340a1e1" -> "d5bfa4bc-78e2-4be3-97ce-b365a9589f02";
"d5bfa4bc-78e2-4be3-97ce-b365a9589f02" [label="de.robv.android.xposed.XposedBridge.invokeOriginalMethodNative\n Susp=0,271"];
"d5bfa4bc-78e2-4be3-97ce-b365a9589f02" -> "6695d6af-174f-46f4-b449-faf17183a7d0";
"6695d6af-174f-46f4-b449-faf17183a7d0" [label="com.github.fakegps.FakeGpsApp.initLogger\n Susp=0,271"];
"6695d6af-174f-46f4-b449-faf17183a7d0" -> "a9b3b943-241f-4228-83ff-641d1da62bee";
"a9b3b943-241f-4228-83ff-641d1da62bee" [label="android.os.Environment.getExternalStorageDirectory\n Susp=0,271"];
"a9b3b943-241f-4228-83ff-641d1da62bee" -> "8ba8ab21-2e94-4fb1-9142-be2af072bcc4";
"8ba8ab21-2e94-4fb1-9142-be2af072bcc4" [label="de.robv.android.xposed.XposedBridge.handleHookedMethod\n Susp=0,271"];
"8ba8ab21-2e94-4fb1-9142-be2af072bcc4" -> "20c81e34-93cc-4250-9d12-5ae6c7dde165";
"20c81e34-93cc-4250-9d12-5ae6c7dde165" [label="it.unimib.disco.lta.unimiblogger.MyMethodHook.beforeHookedMethod\n Susp=0,271"];
"20c81e34-93cc-4250-9d12-5ae6c7dde165" -> "42eeafdb-cd00-4eac-9cbf-1b7b04d63724";
"42eeafdb-cd00-4eac-9cbf-1b7b04d63724" [label="java.lang.Thread.getStackTrace\n Susp=0,271"];
"42eeafdb-cd00-4eac-9cbf-1b7b04d63724" -> "a306a332-ca87-4450-a270-1e7f8db0846d";
"a306a332-ca87-4450-a270-1e7f8db0846d" [label="dalvik.system.VMStack.getThreadStackTrace\n Susp=0,0043"];
"6ce3715b-35c3-40c2-8ad8-d01dd7e9f372" -> "d5a61303-1500-47c3-92b8-b0695b03a8eb";
"d5a61303-1500-47c3-92b8-b0695b03a8eb" [label="android.os.Handler.handleCallback\n Susp=0,3641"];
"d5a61303-1500-47c3-92b8-b0695b03a8eb" -> "6bfadc45-5a6d-4510-bc3b-1d7a3744623e";
"6bfadc45-5a6d-4510-bc3b-1d7a3744623e" [label="android.view.View$PerformClick.run\n Susp=0,3641"];
"6bfadc45-5a6d-4510-bc3b-1d7a3744623e" -> "6a5574de-348a-482d-9ae2-f096f18cd57e";
"6a5574de-348a-482d-9ae2-f096f18cd57e" [label="android.view.View.performClick\n Susp=0,3641"];
"6a5574de-348a-482d-9ae2-f096f18cd57e" -> "83255557-3d69-4dbc-80a6-b07e874ea352";
"83255557-3d69-4dbc-80a6-b07e874ea352" [label="com.github.fakegps.ui.MainActivity.onClick\n Susp=0,3641"];
"83255557-3d69-4dbc-80a6-b07e874ea352" -> "ee9c8038-fc63-4b6d-abf5-1276df52218e";
"ee9c8038-fc63-4b6d-abf5-1276df52218e" [label="de.robv.android.xposed.XposedBridge.handleHookedMethod\n Susp=0,3641"];
"ee9c8038-fc63-4b6d-abf5-1276df52218e" -> "fc4293b9-a1e1-4704-9db7-b5b505089ca7";
"fc4293b9-a1e1-4704-9db7-b5b505089ca7" [label="de.robv.android.xposed.XposedBridge.invokeOriginalMethodNative\n Susp=0,3641"];
"fc4293b9-a1e1-4704-9db7-b5b505089ca7" -> "209652d8-5f5f-4f95-9f75-ec90d48f4c1c";
"209652d8-5f5f-4f95-9f75-ec90d48f4c1c" [label="com.github.fakegps.ui.MainActivity.onClick\n Susp=0,6308"];
"209652d8-5f5f-4f95-9f75-ec90d48f4c1c" -> "2c04b76a-ae43-44b2-a261-52819bc0e637";
"2c04b76a-ae43-44b2-a261-52819bc0e637" [label="com.github.fakegps.JoyStickManager.start\n Susp=0,2688"];
"2c04b76a-ae43-44b2-a261-52819bc0e637" -> "60dc9e9a-192f-449a-9d4a-5ef74091f049";
"60dc9e9a-192f-449a-9d4a-5ef74091f049" [label="de.robv.android.xposed.XposedBridge.handleHookedMethod\n Susp=0,2688"];
"60dc9e9a-192f-449a-9d4a-5ef74091f049" -> "6275c79f-65ca-4aff-82fb-2507391df46e";
"6275c79f-65ca-4aff-82fb-2507391df46e" [label="de.robv.android.xposed.XposedBridge.invokeOriginalMethodNative\n Susp=0,2688"];
"6275c79f-65ca-4aff-82fb-2507391df46e" -> "ae308f30-27e7-4aa8-85d6-e7ec2694a279";
"ae308f30-27e7-4aa8-85d6-e7ec2694a279" [label="com.github.fakegps.JoyStickManager.start\n Susp=0,2688"];
"ae308f30-27e7-4aa8-85d6-e7ec2694a279" -> "7b4b2248-d696-439e-8f5b-64d269123857";
"7b4b2248-d696-439e-8f5b-64d269123857" [label="com.github.fakegps.JoyStickManager.showJoyStick\n Susp=0,2688"];
"7b4b2248-d696-439e-8f5b-64d269123857" -> "f27da3b6-910c-496c-8f9f-a742c4197ba2";
"f27da3b6-910c-496c-8f9f-a742c4197ba2" [label="com.github.fakegps.ui.JoyStickView.<init>\n Susp=0,2688"];
"f27da3b6-910c-496c-8f9f-a742c4197ba2" -> "0d216410-0e0a-4d33-ad75-ca02538dcfc0";
"0d216410-0e0a-4d33-ad75-ca02538dcfc0" [label="android.view.LayoutInflater.inflate\n Susp=0,2688"];
"0d216410-0e0a-4d33-ad75-ca02538dcfc0" -> "384f8031-2550-405a-949c-48332d17be59";
"384f8031-2550-405a-949c-48332d17be59" [label="de.robv.android.xposed.XposedBridge.handleHookedMethod\n Susp=0,2688"];
"384f8031-2550-405a-949c-48332d17be59" -> "b1d2f6db-dfdd-40e5-9157-faeb7e3ed450";
"b1d2f6db-dfdd-40e5-9157-faeb7e3ed450" [label="de.robv.android.xposed.XposedBridge.invokeOriginalMethodNative\n Susp=0,2688"];
"b1d2f6db-dfdd-40e5-9157-faeb7e3ed450" -> "d4cb453c-09aa-4120-961a-8881d9f841a1";
"d4cb453c-09aa-4120-961a-8881d9f841a1" [label="android.view.LayoutInflater.inflate\n Susp=0,2688"];
"d4cb453c-09aa-4120-961a-8881d9f841a1" -> "cee7df21-a06d-4ca5-9975-33c5820ef2d6";
"cee7df21-a06d-4ca5-9975-33c5820ef2d6" [label="de.robv.android.xposed.XposedBridge.handleHookedMethod\n Susp=0,2688"];
"cee7df21-a06d-4ca5-9975-33c5820ef2d6" -> "cdc0bebf-4526-4185-9001-6c62f88b5f80";
"cdc0bebf-4526-4185-9001-6c62f88b5f80" [label="de.robv.android.xposed.XposedBridge.invokeOriginalMethodNative\n Susp=0,2688"];
"cdc0bebf-4526-4185-9001-6c62f88b5f80" -> "36aae8a9-8bb9-435a-9fc3-5484e7fd1161";
"36aae8a9-8bb9-435a-9fc3-5484e7fd1161" [label="android.view.LayoutInflater.inflate\n Susp=0,2688"];
"36aae8a9-8bb9-435a-9fc3-5484e7fd1161" -> "f8118d5d-0a56-4ca5-b40e-f6a2d1dee7d0";
"f8118d5d-0a56-4ca5-b40e-f6a2d1dee7d0" [label="de.robv.android.xposed.XposedBridge.handleHookedMethod\n Susp=0,2688"];
"f8118d5d-0a56-4ca5-b40e-f6a2d1dee7d0" -> "9fb339f7-0a5a-4820-9541-231a786e33c7";
"9fb339f7-0a5a-4820-9541-231a786e33c7" [label="it.unimib.disco.lta.unimiblogger.MyMethodHook.beforeHookedMethod\n Susp=0,2688"];
"9fb339f7-0a5a-4820-9541-231a786e33c7" -> "06bba095-8688-4b53-929b-13fed2ac853c";
"06bba095-8688-4b53-929b-13fed2ac853c" [label="java.lang.Thread.getStackTrace\n Susp=0,2688"];
"06bba095-8688-4b53-929b-13fed2ac853c" -> "5719f379-4c6a-4bfb-9923-a36b8530c241";
"5719f379-4c6a-4bfb-9923-a36b8530c241" [label="dalvik.system.VMStack.getThreadStackTrace\n Susp=0,0022"];
"209652d8-5f5f-4f95-9f75-ec90d48f4c1c" -> "706f8bb9-642f-4fac-8489-85ed67c7e2a7";
"706f8bb9-642f-4fac-8489-85ed67c7e2a7" [label="android.app.Activity.finish\n Susp=0,362"];
"706f8bb9-642f-4fac-8489-85ed67c7e2a7" -> "b9c6e737-6498-4c50-bc54-855a5acb869c";
"b9c6e737-6498-4c50-bc54-855a5acb869c" [label="de.robv.android.xposed.XposedBridge.handleHookedMethod\n Susp=0,362"];
"b9c6e737-6498-4c50-bc54-855a5acb869c" -> "e227dec7-2754-410e-976c-c47decd956ea";
"e227dec7-2754-410e-976c-c47decd956ea" [label="it.unimib.disco.lta.unimiblogger.MyMethodHook.beforeHookedMethod\n Susp=0,362"];
"e227dec7-2754-410e-976c-c47decd956ea" -> "c39e1aea-f40d-46d1-97d2-1c48fd3bfcf6";
"c39e1aea-f40d-46d1-97d2-1c48fd3bfcf6" [label="java.lang.Thread.getStackTrace\n Susp=0,362"];
"c39e1aea-f40d-46d1-97d2-1c48fd3bfcf6" -> "2ee4f0b5-17d3-4501-a222-8c53973e349c";
"2ee4f0b5-17d3-4501-a222-8c53973e349c" [label="dalvik.system.VMStack.getThreadStackTrace\n Susp=0,0953"];
"c6371229-5f82-4776-8982-75ba1bb95574" -> "101e7cac-32c0-4dfc-a92a-d3b32266f75e";
"101e7cac-32c0-4dfc-a92a-d3b32266f75e" [label="android.os.HandlerThread.run\n Susp=0,2999"];
"101e7cac-32c0-4dfc-a92a-d3b32266f75e" -> "35ce9563-59b4-4de4-9ffd-846041d18385";
"35ce9563-59b4-4de4-9ffd-846041d18385" [label="android.os.Looper.loop\n Susp=0,2999"];
"35ce9563-59b4-4de4-9ffd-846041d18385" -> "bd868a50-171b-47a0-af9f-0c1bc3fd8297";
"bd868a50-171b-47a0-af9f-0c1bc3fd8297" [label="android.os.Handler.dispatchMessage\n Susp=0,2999"];
"bd868a50-171b-47a0-af9f-0c1bc3fd8297" -> "168ba9f4-aa90-40b2-8304-7583b9e0c985";
"168ba9f4-aa90-40b2-8304-7583b9e0c985" [label="android.os.Handler.handleCallback\n Susp=0,2999"];
"168ba9f4-aa90-40b2-8304-7583b9e0c985" -> "c7762adf-2c4e-4e2b-9fa9-d0e8951e0180";
"c7762adf-2c4e-4e2b-9fa9-d0e8951e0180" [label="com.github.fakegps.LocationThread$1.run\n Susp=0,2999"];
"c7762adf-2c4e-4e2b-9fa9-d0e8951e0180" -> "09bb0451-f0cf-42e5-aebc-c9c670658950";
"09bb0451-f0cf-42e5-aebc-c9c670658950" [label="de.robv.android.xposed.XposedBridge.handleHookedMethod\n Susp=0,2999"];
"09bb0451-f0cf-42e5-aebc-c9c670658950" -> "abb6e4ff-94fa-4ddc-9f5b-222d35d9e62f";
"abb6e4ff-94fa-4ddc-9f5b-222d35d9e62f" [label="it.unimib.disco.lta.unimiblogger.MyMethodHook.beforeHookedMethod\n Susp=0,2999"];
"abb6e4ff-94fa-4ddc-9f5b-222d35d9e62f" -> "98a74296-dea3-40fb-b6c1-b29bb5c75319";
"98a74296-dea3-40fb-b6c1-b29bb5c75319" [label="java.lang.Thread.getStackTrace\n Susp=0,2999"];
"98a74296-dea3-40fb-b6c1-b29bb5c75319" -> "acf59c50-c873-4afc-81d2-a021ab936f7e";
"acf59c50-c873-4afc-81d2-a021ab936f7e" [label="dalvik.system.VMStack.getThreadStackTrace\n Susp=0,0332"];
}
