digraph SIB_treshold_2 {
"354fa210-8888-4c6e-961f-8d770dd9704c" [style=filled, fillcolor="#5E5E5E",fontcolor=white, label="com.android.internal.os.ZygoteInit.main\n Susp=0,5333"];
"354fa210-8888-4c6e-961f-8d770dd9704c" -> "72003d4b-a8fc-4527-ac8c-dd61ed3c3904";
"72003d4b-a8fc-4527-ac8c-dd61ed3c3904" [style=filled, fillcolor="#5E5E5E",fontcolor=white, label="com.android.internal.os.ZygoteInit$MethodAndArgsCaller.run\n Susp=0,5358"];
"72003d4b-a8fc-4527-ac8c-dd61ed3c3904" -> "bec3bbcb-3ddc-4417-9cbf-5d3c275b9f4f";
"bec3bbcb-3ddc-4417-9cbf-5d3c275b9f4f" [style=filled, fillcolor="#5E5E5E",fontcolor=white, label="java.lang.reflect.Method.invoke\n Susp=0,5383"];
"bec3bbcb-3ddc-4417-9cbf-5d3c275b9f4f" -> "14ea2a43-04e2-4e71-9712-18a349f4840a";
"14ea2a43-04e2-4e71-9712-18a349f4840a" [style=filled, fillcolor="#5E5E5E",fontcolor=white, label="android.app.ActivityThread.main\n Susp=0,5408"];
"14ea2a43-04e2-4e71-9712-18a349f4840a" -> "86cf3ae3-6e50-4268-8190-f45c8f83c7f3";
"86cf3ae3-6e50-4268-8190-f45c8f83c7f3" [style=filled, fillcolor="#5E5E5E",fontcolor=white, label="android.os.Looper.loop\n Susp=0,5433"];
"86cf3ae3-6e50-4268-8190-f45c8f83c7f3" -> "e543962a-112e-49bc-a278-488d50943937";
"e543962a-112e-49bc-a278-488d50943937" [style=filled, fillcolor="#5E5E5E",fontcolor=white, label="android.os.Handler.dispatchMessage\n Susp=0,8925"];
"e543962a-112e-49bc-a278-488d50943937" -> "a10d20a5-bc51-4f1b-94e1-004075341560";
"a10d20a5-bc51-4f1b-94e1-004075341560" [style=filled, fillcolor="#A9A9A9", label="android.app.ActivityThread$H.handleMessage\n Susp=0,388"];
"a10d20a5-bc51-4f1b-94e1-004075341560" -> "51158695-eed7-4eb8-b842-3078423d7748";
"51158695-eed7-4eb8-b842-3078423d7748" [style=filled, fillcolor="#EBEBEB", label="android.app.ActivityThread.-wrap11\n Susp=0,204"];
"51158695-eed7-4eb8-b842-3078423d7748" -> "9d0e4e2f-f0e4-420b-aabf-3f063256e1b7";
"9d0e4e2f-f0e4-420b-aabf-3f063256e1b7" [style=filled, fillcolor="#EBEBEB", label="android.app.ActivityThread.handleLaunchActivity\n Susp=0,2065"];
"9d0e4e2f-f0e4-420b-aabf-3f063256e1b7" -> "4f498f26-2203-4640-810d-2b855fa9d337";
"4f498f26-2203-4640-810d-2b855fa9d337" [style=filled, fillcolor="#EBEBEB", label="android.app.ActivityThread.performLaunchActivity\n Susp=0,209"];
"4f498f26-2203-4640-810d-2b855fa9d337" -> "17c393de-69f4-417c-b5dc-750c6044a107";
"17c393de-69f4-417c-b5dc-750c6044a107" [style=filled, fillcolor="#EBEBEB", label="android.app.Instrumentation.callActivityOnCreate\n Susp=0,2115"];
"17c393de-69f4-417c-b5dc-750c6044a107" -> "2aa1213f-9644-46c6-841e-1af8b0d600a3";
"2aa1213f-9644-46c6-841e-1af8b0d600a3" [style=filled, fillcolor="#EBEBEB", label="android.app.Activity.performCreate\n Susp=0,214"];
"2aa1213f-9644-46c6-841e-1af8b0d600a3" -> "2398df3c-a7e7-4af5-8784-53be25ccd192";
"2398df3c-a7e7-4af5-8784-53be25ccd192" [style=filled, fillcolor="#EBEBEB", label="com.example.arial.bosstransfer.MainActivity.onCreate\n Susp=0,2165"];
"2398df3c-a7e7-4af5-8784-53be25ccd192" -> "c8a733da-8e28-461c-a6b3-f37adeb33b60";
"c8a733da-8e28-461c-a6b3-f37adeb33b60" [style=filled, fillcolor="#FFFFFF", label="android.app.Activity.getWindow\n Susp=0,0391"];
"a10d20a5-bc51-4f1b-94e1-004075341560" -> "a7a77571-d685-461f-9d95-ff4655897bff";
"a7a77571-d685-461f-9d95-ff4655897bff" [style=filled, fillcolor="#EBEBEB", label="android.app.ActivityThread.access$800\n Susp=0,204"];
"a7a77571-d685-461f-9d95-ff4655897bff" -> "4fd184cf-f530-4ef6-aee4-daefa22183fd";
"4fd184cf-f530-4ef6-aee4-daefa22183fd" [style=filled, fillcolor="#EBEBEB", label="android.app.ActivityThread.handleLaunchActivity\n Susp=0,2065"];
"4fd184cf-f530-4ef6-aee4-daefa22183fd" -> "b7da6c1c-1cd0-43ce-985a-a079d907faa0";
"b7da6c1c-1cd0-43ce-985a-a079d907faa0" [style=filled, fillcolor="#EBEBEB", label="android.app.ActivityThread.performLaunchActivity\n Susp=0,209"];
"b7da6c1c-1cd0-43ce-985a-a079d907faa0" -> "d2d96b95-00f0-4f42-9784-20bb561153f1";
"d2d96b95-00f0-4f42-9784-20bb561153f1" [style=filled, fillcolor="#EBEBEB", label="android.app.Instrumentation.callActivityOnCreate\n Susp=0,2115"];
"d2d96b95-00f0-4f42-9784-20bb561153f1" -> "8e19ecc7-210d-4f3f-8b0b-704bb95047b4";
"8e19ecc7-210d-4f3f-8b0b-704bb95047b4" [style=filled, fillcolor="#EBEBEB", label="android.app.Activity.performCreate\n Susp=0,214"];
"8e19ecc7-210d-4f3f-8b0b-704bb95047b4" -> "5c5b63c1-5a8f-48ff-b8e9-85b6408cee1f";
"5c5b63c1-5a8f-48ff-b8e9-85b6408cee1f" [style=filled, fillcolor="#EBEBEB", label="com.example.arial.bosstransfer.MainActivity.onCreate\n Susp=0,2165"];
"5c5b63c1-5a8f-48ff-b8e9-85b6408cee1f" -> "96841d57-f648-4c13-b2dc-af3c5b834768";
"96841d57-f648-4c13-b2dc-af3c5b834768" [style=filled, fillcolor="#FFFFFF", label="android.app.Activity.getWindow\n Susp=0,0391"];
"e543962a-112e-49bc-a278-488d50943937" -> "c1d06153-520b-4915-9347-4c8b0f90c87b";
"c1d06153-520b-4915-9347-4c8b0f90c87b" [style=filled, fillcolor="#5E5E5E",fontcolor=white, label="android.os.Handler.handleCallback\n Susp=0,6865"];
"c1d06153-520b-4915-9347-4c8b0f90c87b" -> "7af739ad-f7ef-4eb7-abfd-84991e8d1ea0";
"7af739ad-f7ef-4eb7-abfd-84991e8d1ea0" [style=filled, fillcolor="#EBEBEB", label="android.view.Choreographer$FrameDisplayEventReceiver.run\n Susp=0,226"];
"7af739ad-f7ef-4eb7-abfd-84991e8d1ea0" -> "0f30d7a9-dac9-45eb-933a-9a360627fd2b";
"0f30d7a9-dac9-45eb-933a-9a360627fd2b" [style=filled, fillcolor="#EBEBEB", label="android.view.Choreographer.doFrame\n Susp=0,2285"];
"0f30d7a9-dac9-45eb-933a-9a360627fd2b" -> "36262712-f9a2-4d3f-850b-8ae318a3f19d";
"36262712-f9a2-4d3f-850b-8ae318a3f19d" [style=filled, fillcolor="#EBEBEB", label="android.view.Choreographer.doCallbacks\n Susp=0,231"];
"36262712-f9a2-4d3f-850b-8ae318a3f19d" -> "881bcf9a-a867-4b38-946d-b0a4acc33fa8";
"881bcf9a-a867-4b38-946d-b0a4acc33fa8" [style=filled, fillcolor="#EBEBEB", label="android.view.Choreographer$CallbackRecord.run\n Susp=0,2335"];
"881bcf9a-a867-4b38-946d-b0a4acc33fa8" -> "c92175b7-6a84-4ee1-b2d1-e0eb048657e0";
"c92175b7-6a84-4ee1-b2d1-e0eb048657e0" [style=filled, fillcolor="#EBEBEB", label="android.view.ViewRootImpl$TraversalRunnable.run\n Susp=0,236"];
"c92175b7-6a84-4ee1-b2d1-e0eb048657e0" -> "d2be9a40-dd92-4288-b755-593add50bd56";
"d2be9a40-dd92-4288-b755-593add50bd56" [style=filled, fillcolor="#EBEBEB", label="android.view.ViewRootImpl.doTraversal\n Susp=0,2385"];
"d2be9a40-dd92-4288-b755-593add50bd56" -> "9b2c9e89-5e0a-4c82-86d1-5ab7d64b29a4";
"9b2c9e89-5e0a-4c82-86d1-5ab7d64b29a4" [style=filled, fillcolor="#EBEBEB", label="android.view.ViewRootImpl.performTraversals\n Susp=0,241"];
"9b2c9e89-5e0a-4c82-86d1-5ab7d64b29a4" -> "b14b3271-1a67-4a4a-ad39-9e3ca96df837";
"b14b3271-1a67-4a4a-ad39-9e3ca96df837" [style=filled, fillcolor="#EBEBEB", label="android.view.ViewRootImpl.performLayout\n Susp=0,2435"];
"b14b3271-1a67-4a4a-ad39-9e3ca96df837" -> "73293b17-dcb8-49a4-8681-bab3a1d10194";
"73293b17-dcb8-49a4-8681-bab3a1d10194" [style=filled, fillcolor="#EBEBEB", label="android.view.ViewGroup.layout\n Susp=0,246"];
"73293b17-dcb8-49a4-8681-bab3a1d10194" -> "c9c9cb53-b1ee-4f13-8429-fe39d7550a6c";
"c9c9cb53-b1ee-4f13-8429-fe39d7550a6c" [style=filled, fillcolor="#919191", label="android.view.View.layout\n Susp=0,4218"];
"c9c9cb53-b1ee-4f13-8429-fe39d7550a6c" -> "8457ad03-fbfb-4c0f-82a6-732567410c9a";
"8457ad03-fbfb-4c0f-82a6-732567410c9a" [style=filled, fillcolor="#EBEBEB", label="com.android.internal.policy.PhoneWindow$DecorView.onLayout\n Susp=0,229"];
"8457ad03-fbfb-4c0f-82a6-732567410c9a" -> "aaf724ef-df28-45ca-907c-8e01bdd59c5c";
"aaf724ef-df28-45ca-907c-8e01bdd59c5c" [style=filled, fillcolor="#EBEBEB", label="android.widget.FrameLayout.onLayout\n Susp=0,2315"];
"aaf724ef-df28-45ca-907c-8e01bdd59c5c" -> "ee0a9dc2-95dd-4561-9ff0-0b6186fd1e4b";
"ee0a9dc2-95dd-4561-9ff0-0b6186fd1e4b" [style=filled, fillcolor="#EBEBEB", label="android.widget.FrameLayout.layoutChildren\n Susp=0,234"];
"ee0a9dc2-95dd-4561-9ff0-0b6186fd1e4b" -> "3e21ef9d-baf8-4bf2-9b6d-5c141d10f02e";
"3e21ef9d-baf8-4bf2-9b6d-5c141d10f02e" [style=filled, fillcolor="#EBEBEB", label="android.view.ViewGroup.layout\n Susp=0,2365"];
"3e21ef9d-baf8-4bf2-9b6d-5c141d10f02e" -> "c7f531ba-7f1a-40bc-8f39-25f6806f3686";
"c7f531ba-7f1a-40bc-8f39-25f6806f3686" [style=filled, fillcolor="#EBEBEB", label="android.view.View.layout\n Susp=0,239"];
"c7f531ba-7f1a-40bc-8f39-25f6806f3686" -> "05c427b8-725b-4f7a-a41c-64e6c43c8642";
"05c427b8-725b-4f7a-a41c-64e6c43c8642" [style=filled, fillcolor="#EBEBEB", label="android.widget.LinearLayout.onLayout\n Susp=0,2415"];
"05c427b8-725b-4f7a-a41c-64e6c43c8642" -> "975ebc2c-efae-4e21-a550-fffb00b3461e";
"975ebc2c-efae-4e21-a550-fffb00b3461e" [style=filled, fillcolor="#EBEBEB", label="android.widget.LinearLayout.layoutVertical\n Susp=0,244"];
"975ebc2c-efae-4e21-a550-fffb00b3461e" -> "dc8fef03-e897-4ad0-9af9-4a5aec3edd63";
"dc8fef03-e897-4ad0-9af9-4a5aec3edd63" [style=filled, fillcolor="#EBEBEB", label="android.widget.LinearLayout.setChildFrame\n Susp=0,2465"];
"dc8fef03-e897-4ad0-9af9-4a5aec3edd63" -> "d16704bc-7880-485b-be0c-84fc8a79690d";
"d16704bc-7880-485b-be0c-84fc8a79690d" [style=filled, fillcolor="#EBEBEB", label="android.view.ViewGroup.layout\n Susp=0,249"];
"d16704bc-7880-485b-be0c-84fc8a79690d" -> "d401dc8e-1d95-4b29-b925-fa3bb9968d37";
"d401dc8e-1d95-4b29-b925-fa3bb9968d37" [style=filled, fillcolor="#C0C0C0", label="android.view.View.layout\n Susp=0,2515"];
"d401dc8e-1d95-4b29-b925-fa3bb9968d37" -> "906ad7a1-c531-4c12-a871-dc8514d3a5e4";
"906ad7a1-c531-4c12-a871-dc8514d3a5e4" [style=filled, fillcolor="#C0C0C0", label="android.widget.FrameLayout.onLayout\n Susp=0,254"];
"906ad7a1-c531-4c12-a871-dc8514d3a5e4" -> "31bceae4-e8c4-4b0c-9210-725b787fa2ea";
"31bceae4-e8c4-4b0c-9210-725b787fa2ea" [style=filled, fillcolor="#C0C0C0", label="android.widget.FrameLayout.layoutChildren\n Susp=0,2565"];
"31bceae4-e8c4-4b0c-9210-725b787fa2ea" -> "cff806aa-4fa0-481e-8490-4176f1890977";
"cff806aa-4fa0-481e-8490-4176f1890977" [style=filled, fillcolor="#C0C0C0", label="android.view.ViewGroup.layout\n Susp=0,259"];
"cff806aa-4fa0-481e-8490-4176f1890977" -> "8c780b36-21b2-41b6-8257-e6a6943673c7";
"8c780b36-21b2-41b6-8257-e6a6943673c7" [style=filled, fillcolor="#C0C0C0", label="android.view.View.layout\n Susp=0,2615"];
"8c780b36-21b2-41b6-8257-e6a6943673c7" -> "d4b14540-1ab8-49b9-8fa5-af8220691dbe";
"d4b14540-1ab8-49b9-8fa5-af8220691dbe" [style=filled, fillcolor="#C0C0C0", label="android.support.v7.widget.ActionBarOverlayLayout.onLayout\n Susp=0,264"];
"d4b14540-1ab8-49b9-8fa5-af8220691dbe" -> "c4949951-9fec-4eec-a163-2078bfc9678d";
"c4949951-9fec-4eec-a163-2078bfc9678d" [style=filled, fillcolor="#C0C0C0", label="android.view.ViewGroup.layout\n Susp=0,2665"];
"c4949951-9fec-4eec-a163-2078bfc9678d" -> "9fbdbf21-0a9c-468c-b3a2-1001486971cf";
"9fbdbf21-0a9c-468c-b3a2-1001486971cf" [style=filled, fillcolor="#C0C0C0", label="android.view.View.layout\n Susp=0,269"];
"9fbdbf21-0a9c-468c-b3a2-1001486971cf" -> "e3a41426-63b3-4980-acea-9cff3e5bbc45";
"e3a41426-63b3-4980-acea-9cff3e5bbc45" [style=filled, fillcolor="#C0C0C0", label="android.widget.FrameLayout.onLayout\n Susp=0,2715"];
"e3a41426-63b3-4980-acea-9cff3e5bbc45" -> "5fa403c2-0f5b-409d-b7d8-a8d15cffcf7e";
"5fa403c2-0f5b-409d-b7d8-a8d15cffcf7e" [style=filled, fillcolor="#C0C0C0", label="android.widget.FrameLayout.layoutChildren\n Susp=0,274"];
"5fa403c2-0f5b-409d-b7d8-a8d15cffcf7e" -> "a3cc5221-62fb-4a85-b989-32b8c2baaaea";
"a3cc5221-62fb-4a85-b989-32b8c2baaaea" [style=filled, fillcolor="#C0C0C0", label="android.view.ViewGroup.layout\n Susp=0,2765"];
"a3cc5221-62fb-4a85-b989-32b8c2baaaea" -> "fe6fa9aa-e845-4d38-ab31-1b21e6641a56";
"fe6fa9aa-e845-4d38-ab31-1b21e6641a56" [style=filled, fillcolor="#C0C0C0", label="android.view.View.layout\n Susp=0,279"];
"fe6fa9aa-e845-4d38-ab31-1b21e6641a56" -> "6f9c01b0-f7df-4c20-9e26-4a095a29b020";
"6f9c01b0-f7df-4c20-9e26-4a095a29b020" [style=filled, fillcolor="#C0C0C0", label="android.widget.RelativeLayout.onLayout\n Susp=0,2815"];
"6f9c01b0-f7df-4c20-9e26-4a095a29b020" -> "5c45c28e-be9c-441d-a114-fa1cdf3caa53";
"5c45c28e-be9c-441d-a114-fa1cdf3caa53" [style=filled, fillcolor="#C0C0C0", label="android.view.ViewGroup.layout\n Susp=0,284"];
"5c45c28e-be9c-441d-a114-fa1cdf3caa53" -> "c8a799de-42f5-4cba-9bdb-8ee0022a63be";
"c8a799de-42f5-4cba-9bdb-8ee0022a63be" [style=filled, fillcolor="#C0C0C0", label="android.view.View.layout\n Susp=0,2865"];
"c8a799de-42f5-4cba-9bdb-8ee0022a63be" -> "0961b067-3881-4f56-a8b0-ee21e9e51298";
"0961b067-3881-4f56-a8b0-ee21e9e51298" [style=filled, fillcolor="#C0C0C0", label="android.widget.AbsListView.onLayout\n Susp=0,289"];
"0961b067-3881-4f56-a8b0-ee21e9e51298" -> "213b2038-0742-4108-b900-9745addc1a74";
"213b2038-0742-4108-b900-9745addc1a74" [style=filled, fillcolor="#C0C0C0", label="android.widget.ListView.layoutChildren\n Susp=0,2915"];
"213b2038-0742-4108-b900-9745addc1a74" -> "9ab8b615-5122-48cd-870d-34bb4d29dade";
"9ab8b615-5122-48cd-870d-34bb4d29dade" [style=filled, fillcolor="#C0C0C0", label="android.widget.ListView.fillFromTop\n Susp=0,294"];
"9ab8b615-5122-48cd-870d-34bb4d29dade" -> "6af3b32e-0f34-47a9-ab21-73423adb34ed";
"6af3b32e-0f34-47a9-ab21-73423adb34ed" [style=filled, fillcolor="#C0C0C0", label="android.widget.ListView.fillDown\n Susp=0,2965"];
"6af3b32e-0f34-47a9-ab21-73423adb34ed" -> "7cd1aecb-3d3f-46e9-a301-9c439666cb65";
"7cd1aecb-3d3f-46e9-a301-9c439666cb65" [style=filled, fillcolor="#C0C0C0", label="android.widget.ListView.makeAndAddView\n Susp=0,299"];
"7cd1aecb-3d3f-46e9-a301-9c439666cb65" -> "a557440f-3dd8-48cd-abb0-47bd95bcf3b7";
"a557440f-3dd8-48cd-abb0-47bd95bcf3b7" [style=filled, fillcolor="#A9A9A9", label="android.widget.AbsListView.obtainView\n Susp=0,3015"];
"a557440f-3dd8-48cd-abb0-47bd95bcf3b7" -> "0e72c2a7-f641-4d1a-9a42-45fe56b0faaa";
"0e72c2a7-f641-4d1a-9a42-45fe56b0faaa" [style=filled, fillcolor="#A9A9A9", label="com.example.arial.bosstransfer.core.AbsOrdinaryAdapter.getView\n Susp=0,304"];
"0e72c2a7-f641-4d1a-9a42-45fe56b0faaa" -> "31a56a60-58a5-4339-b11c-1efd6a66e2d1";
"31a56a60-58a5-4339-b11c-1efd6a66e2d1" [style=filled, fillcolor="#FFFFFF", label="android.view.LayoutInflater.inflate\n Susp=0,1266"];
"c9c9cb53-b1ee-4f13-8429-fe39d7550a6c" -> "b06dec28-adf1-403b-b3ea-e3109285f532";
"b06dec28-adf1-403b-b3ea-e3109285f532" [style=filled, fillcolor="#EBEBEB", label="android.widget.FrameLayout.onLayout\n Susp=0,2378"];
"b06dec28-adf1-403b-b3ea-e3109285f532" -> "a0f109ea-285d-4fe0-93cf-407832a83d44";
"a0f109ea-285d-4fe0-93cf-407832a83d44" [style=filled, fillcolor="#EBEBEB", label="android.widget.FrameLayout.layoutChildren\n Susp=0,2403"];
"a0f109ea-285d-4fe0-93cf-407832a83d44" -> "e761d698-b6e2-49f2-8577-471b2dfa89c7";
"e761d698-b6e2-49f2-8577-471b2dfa89c7" [style=filled, fillcolor="#EBEBEB", label="android.view.ViewGroup.layout\n Susp=0,2428"];
"e761d698-b6e2-49f2-8577-471b2dfa89c7" -> "0d295b1f-63a5-486a-a6c9-1b6f405cca59";
"0d295b1f-63a5-486a-a6c9-1b6f405cca59" [style=filled, fillcolor="#EBEBEB", label="android.view.View.layout\n Susp=0,2453"];
"0d295b1f-63a5-486a-a6c9-1b6f405cca59" -> "843be1b5-3cc4-4bab-b0fd-ed8facc6df62";
"843be1b5-3cc4-4bab-b0fd-ed8facc6df62" [style=filled, fillcolor="#EBEBEB", label="android.widget.LinearLayout.onLayout\n Susp=0,2478"];
"843be1b5-3cc4-4bab-b0fd-ed8facc6df62" -> "f5bdb716-f2c9-4016-84bc-53259a77b7eb";
"f5bdb716-f2c9-4016-84bc-53259a77b7eb" [style=filled, fillcolor="#C0C0C0", label="android.widget.LinearLayout.layoutVertical\n Susp=0,2503"];
"f5bdb716-f2c9-4016-84bc-53259a77b7eb" -> "1f924330-0372-4379-9b6a-3b57deea060e";
"1f924330-0372-4379-9b6a-3b57deea060e" [style=filled, fillcolor="#C0C0C0", label="android.widget.LinearLayout.setChildFrame\n Susp=0,2528"];
"1f924330-0372-4379-9b6a-3b57deea060e" -> "b16b4bae-a067-436e-b6a8-c1d869adec51";
"b16b4bae-a067-436e-b6a8-c1d869adec51" [style=filled, fillcolor="#C0C0C0", label="android.view.ViewGroup.layout\n Susp=0,2553"];
"b16b4bae-a067-436e-b6a8-c1d869adec51" -> "c7f61dab-3898-427c-aeec-2b7e5b5d5d1f";
"c7f61dab-3898-427c-aeec-2b7e5b5d5d1f" [style=filled, fillcolor="#C0C0C0", label="android.view.View.layout\n Susp=0,2578"];
"c7f61dab-3898-427c-aeec-2b7e5b5d5d1f" -> "8eca1ba0-0190-47a9-a8f1-73342316d0a7";
"8eca1ba0-0190-47a9-a8f1-73342316d0a7" [style=filled, fillcolor="#C0C0C0", label="android.widget.FrameLayout.onLayout\n Susp=0,2603"];
"8eca1ba0-0190-47a9-a8f1-73342316d0a7" -> "aa153636-6960-4c6f-9c25-83514d1719f4";
"aa153636-6960-4c6f-9c25-83514d1719f4" [style=filled, fillcolor="#C0C0C0", label="android.widget.FrameLayout.layoutChildren\n Susp=0,2628"];
"aa153636-6960-4c6f-9c25-83514d1719f4" -> "4ad2cd0c-0a96-4501-b4b7-27b50fb8995e";
"4ad2cd0c-0a96-4501-b4b7-27b50fb8995e" [style=filled, fillcolor="#C0C0C0", label="android.view.ViewGroup.layout\n Susp=0,2653"];
"4ad2cd0c-0a96-4501-b4b7-27b50fb8995e" -> "4f1587a9-81ed-4232-8ab2-97c45c573eb2";
"4f1587a9-81ed-4232-8ab2-97c45c573eb2" [style=filled, fillcolor="#C0C0C0", label="android.view.View.layout\n Susp=0,2678"];
"4f1587a9-81ed-4232-8ab2-97c45c573eb2" -> "0640e279-1f88-438a-988b-3da7f2c3ffc3";
"0640e279-1f88-438a-988b-3da7f2c3ffc3" [style=filled, fillcolor="#C0C0C0", label="android.support.v7.widget.ActionBarOverlayLayout.onLayout\n Susp=0,2703"];
"0640e279-1f88-438a-988b-3da7f2c3ffc3" -> "33331423-5ae1-4ae1-bc8c-da650125ee11";
"33331423-5ae1-4ae1-bc8c-da650125ee11" [style=filled, fillcolor="#C0C0C0", label="android.view.ViewGroup.layout\n Susp=0,2728"];
"33331423-5ae1-4ae1-bc8c-da650125ee11" -> "eea3dd7f-9807-4b19-ad19-2381a21f9ccb";
"eea3dd7f-9807-4b19-ad19-2381a21f9ccb" [style=filled, fillcolor="#C0C0C0", label="android.view.View.layout\n Susp=0,2753"];
"eea3dd7f-9807-4b19-ad19-2381a21f9ccb" -> "aa430233-2a37-49ab-92fd-a3618515b88a";
"aa430233-2a37-49ab-92fd-a3618515b88a" [style=filled, fillcolor="#C0C0C0", label="android.widget.FrameLayout.onLayout\n Susp=0,2778"];
"aa430233-2a37-49ab-92fd-a3618515b88a" -> "117ba4d7-85b6-4acb-b888-14839dc0f1c1";
"117ba4d7-85b6-4acb-b888-14839dc0f1c1" [style=filled, fillcolor="#C0C0C0", label="android.widget.FrameLayout.layoutChildren\n Susp=0,2803"];
"117ba4d7-85b6-4acb-b888-14839dc0f1c1" -> "d16bfa46-5682-482d-bbe1-0a2ba5c66b43";
"d16bfa46-5682-482d-bbe1-0a2ba5c66b43" [style=filled, fillcolor="#C0C0C0", label="android.view.ViewGroup.layout\n Susp=0,2828"];
"d16bfa46-5682-482d-bbe1-0a2ba5c66b43" -> "91338656-c7de-4066-8ca2-bedc51dd5fc3";
"91338656-c7de-4066-8ca2-bedc51dd5fc3" [style=filled, fillcolor="#C0C0C0", label="android.view.View.layout\n Susp=0,2853"];
"91338656-c7de-4066-8ca2-bedc51dd5fc3" -> "9e9f9659-04b9-4dc3-86e5-5796ac2bbabf";
"9e9f9659-04b9-4dc3-86e5-5796ac2bbabf" [style=filled, fillcolor="#C0C0C0", label="android.widget.RelativeLayout.onLayout\n Susp=0,2878"];
"9e9f9659-04b9-4dc3-86e5-5796ac2bbabf" -> "53a025c2-17c2-47e0-8565-9380a37b20ec";
"53a025c2-17c2-47e0-8565-9380a37b20ec" [style=filled, fillcolor="#C0C0C0", label="android.view.ViewGroup.layout\n Susp=0,2903"];
"53a025c2-17c2-47e0-8565-9380a37b20ec" -> "9253b78e-0784-4b63-970d-c3ef34e93a21";
"9253b78e-0784-4b63-970d-c3ef34e93a21" [style=filled, fillcolor="#C0C0C0", label="android.view.View.layout\n Susp=0,2928"];
"9253b78e-0784-4b63-970d-c3ef34e93a21" -> "bfe8747a-0ecf-4d74-9fcf-91d18b55274c";
"bfe8747a-0ecf-4d74-9fcf-91d18b55274c" [style=filled, fillcolor="#C0C0C0", label="android.widget.AbsListView.onLayout\n Susp=0,2953"];
"bfe8747a-0ecf-4d74-9fcf-91d18b55274c" -> "30eafb4f-2289-4ec0-a57c-d27411c68683";
"30eafb4f-2289-4ec0-a57c-d27411c68683" [style=filled, fillcolor="#C0C0C0", label="android.widget.ListView.layoutChildren\n Susp=0,2978"];
"30eafb4f-2289-4ec0-a57c-d27411c68683" -> "e26df879-2d5c-48ea-aaef-926aaa3ef225";
"e26df879-2d5c-48ea-aaef-926aaa3ef225" [style=filled, fillcolor="#A9A9A9", label="android.widget.ListView.fillFromTop\n Susp=0,3003"];
"e26df879-2d5c-48ea-aaef-926aaa3ef225" -> "b7b9057a-ada7-4172-b1d1-c6336acf6185";
"b7b9057a-ada7-4172-b1d1-c6336acf6185" [style=filled, fillcolor="#A9A9A9", label="android.widget.ListView.fillDown\n Susp=0,3028"];
"b7b9057a-ada7-4172-b1d1-c6336acf6185" -> "0ae40245-d64d-4298-97b4-7eddb8d4c10f";
"0ae40245-d64d-4298-97b4-7eddb8d4c10f" [style=filled, fillcolor="#A9A9A9", label="android.widget.ListView.makeAndAddView\n Susp=0,3053"];
"0ae40245-d64d-4298-97b4-7eddb8d4c10f" -> "b74b0cdf-eb1b-4d01-864c-c153f6beafab";
"b74b0cdf-eb1b-4d01-864c-c153f6beafab" [style=filled, fillcolor="#A9A9A9", label="android.widget.AbsListView.obtainView\n Susp=0,3078"];
"b74b0cdf-eb1b-4d01-864c-c153f6beafab" -> "afc592ea-82f3-467e-b89b-9d1a12777fa3";
"afc592ea-82f3-467e-b89b-9d1a12777fa3" [style=filled, fillcolor="#A9A9A9", label="com.example.arial.bosstransfer.core.AbsOrdinaryAdapter.getView\n Susp=0,3103"];
"afc592ea-82f3-467e-b89b-9d1a12777fa3" -> "0d7fec18-ab88-4e2e-84b5-fba48cf97b5b";
"0d7fec18-ab88-4e2e-84b5-fba48cf97b5b" [style=filled, fillcolor="#FFFFFF", label="android.view.LayoutInflater.inflate\n Susp=0,1285"];
"c1d06153-520b-4915-9347-4c8b0f90c87b" -> "9792fedc-0f0c-40fd-bea4-59385d892f56";
"9792fedc-0f0c-40fd-bea4-59385d892f56" [style=filled, fillcolor="#919191", label="android.widget.AbsListView$3.run\n Susp=0,4806"];
"9792fedc-0f0c-40fd-bea4-59385d892f56" -> "8f489086-6886-4d7b-b1a8-f85aa6ef98a9";
"8f489086-6886-4d7b-b1a8-f85aa6ef98a9" [style=filled, fillcolor="#919191", label="android.widget.AbsListView$PerformClick.run\n Susp=0,4831"];
"8f489086-6886-4d7b-b1a8-f85aa6ef98a9" -> "4f10306e-a4e6-43a6-be4a-872c36286977";
"4f10306e-a4e6-43a6-be4a-872c36286977" [style=filled, fillcolor="#5E5E5E",fontcolor=white, label="android.widget.AbsListView.performItemClick\n Susp=0,6589"];
"4f10306e-a4e6-43a6-be4a-872c36286977" -> "1cee41e2-79ec-4ac2-a510-ffd54a48947d";
"1cee41e2-79ec-4ac2-a510-ffd54a48947d" [style=filled, fillcolor="#5E5E5E",fontcolor=white, label="android.widget.AdapterView.performItemClick\n Susp=0,6307"];
"1cee41e2-79ec-4ac2-a510-ffd54a48947d" -> "0bd76fe0-1c1d-4b07-a20a-b8db6e667558";
"0bd76fe0-1c1d-4b07-a20a-b8db6e667558" [style=filled, fillcolor="#C0C0C0", label="com.example.arial.bosstransfer.MainActivity$1.onItemClick\n Susp=0,2755"];
"0bd76fe0-1c1d-4b07-a20a-b8db6e667558" -> "873f92ee-dda1-494a-a3ad-cb9f2ec74f02";
"873f92ee-dda1-494a-a3ad-cb9f2ec74f02" [style=filled, fillcolor="#EBEBEB", label="com.example.arial.bosstransfer.TurnHelp.turn\n Susp=0,2428"];
"873f92ee-dda1-494a-a3ad-cb9f2ec74f02" -> "ce18e352-89f9-4173-863e-0a36422a367a";
"ce18e352-89f9-4173-863e-0a36422a367a" [style=filled, fillcolor="#EBEBEB", label="com.example.arial.bosstransfer.boss.BossTransferView.<init>\n Susp=0,2102"];
"ce18e352-89f9-4173-863e-0a36422a367a" -> "d3c026ca-ecdf-4993-945f-b21f4c1ddea9";
"d3c026ca-ecdf-4993-945f-b21f4c1ddea9" [style=filled, fillcolor="#EBEBEB", label="com.example.arial.bosstransfer.boss.BossTransferView.init\n Susp=0,2127"];
"d3c026ca-ecdf-4993-945f-b21f4c1ddea9" -> "0976c192-36cc-423f-97d7-8fa9a5caba42";
"0976c192-36cc-423f-97d7-8fa9a5caba42" [style=filled, fillcolor="#FFFFFF", label="android.view.LayoutInflater.inflate\n Susp=0,0419"];
"1cee41e2-79ec-4ac2-a510-ffd54a48947d" -> "6bfd7005-e474-4364-aa4d-8ad6c99b4931";
"6bfd7005-e474-4364-aa4d-8ad6c99b4931" [style=filled, fillcolor="#A9A9A9", label="android.view.View.sendAccessibilityEvent\n Susp=0,3852"];
"6bfd7005-e474-4364-aa4d-8ad6c99b4931" -> "ab7e1f49-7d1c-40b4-a7a1-262763fa13a1";
"ab7e1f49-7d1c-40b4-a7a1-262763fa13a1" [style=filled, fillcolor="#A9A9A9", label="android.view.View$AccessibilityDelegate.sendAccessibilityEvent\n Susp=0,3877"];
"ab7e1f49-7d1c-40b4-a7a1-262763fa13a1" -> "93c94fcd-29a5-411d-8a38-091594174ce0";
"93c94fcd-29a5-411d-8a38-091594174ce0" [style=filled, fillcolor="#A9A9A9", label="android.view.View.sendAccessibilityEventInternal\n Susp=0,3902"];
"93c94fcd-29a5-411d-8a38-091594174ce0" -> "529da709-a2a8-45ad-851f-3625f5e6ff89";
"529da709-a2a8-45ad-851f-3625f5e6ff89" [style=filled, fillcolor="#A9A9A9", label="android.view.View.sendAccessibilityEventUnchecked\n Susp=0,3927"];
"529da709-a2a8-45ad-851f-3625f5e6ff89" -> "d0155e77-3077-414c-b6f3-4d0719315dfd";
"d0155e77-3077-414c-b6f3-4d0719315dfd" [style=filled, fillcolor="#A9A9A9", label="android.view.View$AccessibilityDelegate.sendAccessibilityEventUnchecked\n Susp=0,3952"];
"d0155e77-3077-414c-b6f3-4d0719315dfd" -> "c291197d-396c-4d8a-bd3f-40baf8401082";
"c291197d-396c-4d8a-bd3f-40baf8401082" [style=filled, fillcolor="#A9A9A9", label="android.view.View.sendAccessibilityEventUncheckedInternal\n Susp=0,3977"];
"c291197d-396c-4d8a-bd3f-40baf8401082" -> "062cdf93-2c7f-422d-9a27-82d5500230e6";
"062cdf93-2c7f-422d-9a27-82d5500230e6" [style=filled, fillcolor="#919191", label="android.view.ViewGroup.requestSendAccessibilityEvent\n Susp=0,4002"];
"062cdf93-2c7f-422d-9a27-82d5500230e6" -> "df33dd05-9479-4955-9ae1-f4535bd3ddbe";
"df33dd05-9479-4955-9ae1-f4535bd3ddbe" [style=filled, fillcolor="#919191", label="android.widget.AdapterView.onRequestSendAccessibilityEvent\n Susp=0,4027"];
"df33dd05-9479-4955-9ae1-f4535bd3ddbe" -> "419dd4eb-0116-4c3d-a1f3-56f50e63d7ba";
"419dd4eb-0116-4c3d-a1f3-56f50e63d7ba" [style=filled, fillcolor="#919191", label="android.widget.ListView.onInitializeAccessibilityEvent\n Susp=0,4052"];
"419dd4eb-0116-4c3d-a1f3-56f50e63d7ba" -> "b1d59679-302c-4ed1-8979-718a6f1b9d6b";
"b1d59679-302c-4ed1-8979-718a6f1b9d6b" [style=filled, fillcolor="#919191", label="android.widget.AbsListView.onInitializeAccessibilityEvent\n Susp=0,4077"];
"b1d59679-302c-4ed1-8979-718a6f1b9d6b" -> "659046d7-38b5-48dc-974a-2d04f9d199bd";
"659046d7-38b5-48dc-974a-2d04f9d199bd" [style=filled, fillcolor="#919191", label="android.widget.AdapterView.onInitializeAccessibilityEvent\n Susp=0,4102"];
"659046d7-38b5-48dc-974a-2d04f9d199bd" -> "0fdd835f-7d7c-4d83-8703-60b103579c91";
"0fdd835f-7d7c-4d83-8703-60b103579c91" [style=filled, fillcolor="#919191", label="android.widget.AdapterView.isScrollableForAccessibility\n Susp=0,4127"];
"0fdd835f-7d7c-4d83-8703-60b103579c91" -> "bd71ee09-9fef-4cf6-90c8-669e3cad61d0";
"bd71ee09-9fef-4cf6-90c8-669e3cad61d0" [style=filled, fillcolor="#EBEBEB", label="com.example.arial.bosstransfer.core.AbsOrdinaryAdapter.getCount\n Susp=0,2419"];
"4f10306e-a4e6-43a6-be4a-872c36286977" -> "6f3aba46-a577-41f5-a71a-d309b9ae18c0";
"6f3aba46-a577-41f5-a71a-d309b9ae18c0" [style=filled, fillcolor="#EBEBEB", label="android.widget.AdapterView.performItemClick\n Susp=0,2203"];
"6f3aba46-a577-41f5-a71a-d309b9ae18c0" -> "6a44ab6c-61e9-4595-8607-c6ba3a1a6f16";
"6a44ab6c-61e9-4595-8607-c6ba3a1a6f16" [style=filled, fillcolor="#EBEBEB", label="com.example.arial.bosstransfer.MainActivity$1.onItemClick\n Susp=0,214"];
"6a44ab6c-61e9-4595-8607-c6ba3a1a6f16" -> "64641542-eacb-4069-96a9-4717197a4383";
"64641542-eacb-4069-96a9-4717197a4383" [style=filled, fillcolor="#FFFFFF", label="android.content.ContextWrapper.checkSelfPermission\n Susp=0,0344"];
"e543962a-112e-49bc-a278-488d50943937" -> "51e02226-ecd3-4e8f-87e4-10373fa59083";
"51e02226-ecd3-4e8f-87e4-10373fa59083" [style=filled, fillcolor="#FFFFFF", label="android.view.AccessibilityInteractionController$PrivateHandler.handleMessage\n Susp=0,1971"];
"51e02226-ecd3-4e8f-87e4-10373fa59083" -> "e5928413-5b2e-475c-b8a9-211d505a0da1";
"e5928413-5b2e-475c-b8a9-211d505a0da1" [style=filled, fillcolor="#FFFFFF", label="android.view.AccessibilityInteractionController.-wrap1\n Susp=0,1996"];
"e5928413-5b2e-475c-b8a9-211d505a0da1" -> "022af54c-6c48-4cbf-a1c3-de98e10d194f";
"022af54c-6c48-4cbf-a1c3-de98e10d194f" [style=filled, fillcolor="#EBEBEB", label="android.view.AccessibilityInteractionController.findAccessibilityNodeInfoByAccessibilityIdUiThread\n Susp=0,2021"];
"022af54c-6c48-4cbf-a1c3-de98e10d194f" -> "980125c2-17bc-4be3-8818-6496b7f9a5f8";
"980125c2-17bc-4be3-8818-6496b7f9a5f8" [style=filled, fillcolor="#EBEBEB", label="android.view.AccessibilityInteractionController$AccessibilityNodePrefetcher.prefetchAccessibilityNodeInfos\n Susp=0,2046"];
"980125c2-17bc-4be3-8818-6496b7f9a5f8" -> "275d263f-913d-4576-98aa-7e0af74e3178";
"275d263f-913d-4576-98aa-7e0af74e3178" [style=filled, fillcolor="#EBEBEB", label="android.view.AccessibilityInteractionController$AccessibilityNodePrefetcher.prefetchDescendantsOfRealNode\n Susp=0,2071"];
"275d263f-913d-4576-98aa-7e0af74e3178" -> "2cfb7a26-75ae-4281-a293-f0386fc9dffe";
"2cfb7a26-75ae-4281-a293-f0386fc9dffe" [style=filled, fillcolor="#EBEBEB", label="android.view.View.createAccessibilityNodeInfo\n Susp=0,2096"];
"2cfb7a26-75ae-4281-a293-f0386fc9dffe" -> "f05ae913-4185-4a39-980e-4d0e54165f7e";
"f05ae913-4185-4a39-980e-4d0e54165f7e" [style=filled, fillcolor="#EBEBEB", label="android.view.View.createAccessibilityNodeInfoInternal\n Susp=0,2121"];
"f05ae913-4185-4a39-980e-4d0e54165f7e" -> "04f6b6b9-e6c3-4cb5-87e7-60b8d78fe63c";
"04f6b6b9-e6c3-4cb5-87e7-60b8d78fe63c" [style=filled, fillcolor="#EBEBEB", label="android.view.View.onInitializeAccessibilityNodeInfo\n Susp=0,2146"];
"04f6b6b9-e6c3-4cb5-87e7-60b8d78fe63c" -> "2620e78a-ab5b-4f5d-9fbd-69cb8463c0c0";
"2620e78a-ab5b-4f5d-9fbd-69cb8463c0c0" [style=filled, fillcolor="#EBEBEB", label="android.widget.ListView.onInitializeAccessibilityNodeInfoInternal\n Susp=0,2171"];
"2620e78a-ab5b-4f5d-9fbd-69cb8463c0c0" -> "ae6c32d0-0b4e-4bbe-92e6-12635f5a84c0";
"ae6c32d0-0b4e-4bbe-92e6-12635f5a84c0" [style=filled, fillcolor="#EBEBEB", label="android.widget.AbsListView.onInitializeAccessibilityNodeInfoInternal\n Susp=0,2196"];
"ae6c32d0-0b4e-4bbe-92e6-12635f5a84c0" -> "d5d14c02-5c65-4a5e-b96e-4a1d51060a25";
"d5d14c02-5c65-4a5e-b96e-4a1d51060a25" [style=filled, fillcolor="#EBEBEB", label="android.widget.AdapterView.onInitializeAccessibilityNodeInfoInternal\n Susp=0,2221"];
"d5d14c02-5c65-4a5e-b96e-4a1d51060a25" -> "629cf31b-a048-4811-a70d-59119f69ee31";
"629cf31b-a048-4811-a70d-59119f69ee31" [style=filled, fillcolor="#EBEBEB", label="android.widget.AdapterView.isScrollableForAccessibility\n Susp=0,2246"];
"629cf31b-a048-4811-a70d-59119f69ee31" -> "2c039f90-7483-44c0-805d-8605be53ed9d";
"2c039f90-7483-44c0-805d-8605be53ed9d" [style=filled, fillcolor="#FFFFFF", label="com.example.arial.bosstransfer.core.AbsOrdinaryAdapter.getCount\n Susp=0,0538"];
}
