Position |MethodName|Relevancy
0.06666666666666667|android.app.ActivityThread.handleBindApplication|0.9485714285714286
0.13333333333333333|android.app.ActivityThread.access$1500|0.94
0.2|android.app.ActivityThread$H.handleMessage|0.9314285714285714
0.26666666666666666|android.os.Handler.dispatchMessage|0.9228571428571428
0.3333333333333333|android.os.Looper.loop|0.9142857142857143
0.4|android.app.ActivityThread.main|0.9057142857142857
0.4666666666666667|java.lang.reflect.Method.invoke|0.8971428571428571
0.5333333333333333|com.android.internal.os.ZygoteInit$MethodAndArgsCaller.run|0.8885714285714286
0.6|com.squareup.leakcanary.LeakCanary.install|0.8842857142857143
0.6666666666666666|com.android.internal.os.ZygoteInit.main|0.88
0.7333333333333333|com.lapism.searchview.sample.Leak.onCreate|0.8757142857142858
0.8|android.app.Instrumentation.callApplicationOnCreate|0.8671428571428572
0.8666666666666667|com.squareup.leakcanary.LeakCanary.refWatcher|0.8028571428571428
0.9333333333333333|com.squareup.leakcanary.AndroidRefWatcherBuilder.<init>|0.7214285714285714
1.0|android.content.ContextWrapper.getApplicationContext|0.21
