digraph FULL {
"71952292-1914-4447-ba70-bc36b2b4d356" [label="de.robv.android.xposed.XposedBridge.main\n Susp=0,4"];
"71952292-1914-4447-ba70-bc36b2b4d356" -> "325f5f11-f994-41ab-9f8f-cd0987415630";
"325f5f11-f994-41ab-9f8f-cd0987415630" [label="com.android.internal.os.ZygoteInit.main\n Susp=0,4"];
"325f5f11-f994-41ab-9f8f-cd0987415630" -> "7f4dd554-ce75-48aa-a08b-71a0cba2a1f7";
"7f4dd554-ce75-48aa-a08b-71a0cba2a1f7" [label="com.android.internal.os.ZygoteInit$MethodAndArgsCaller.run\n Susp=0,4"];
"7f4dd554-ce75-48aa-a08b-71a0cba2a1f7" -> "9353abe9-948c-4c64-8fe9-3711dd38780d";
"9353abe9-948c-4c64-8fe9-3711dd38780d" [label="java.lang.reflect.Method.invoke\n Susp=0,4"];
"9353abe9-948c-4c64-8fe9-3711dd38780d" -> "00b5f4c5-da1f-4202-9264-68dd73391688";
"00b5f4c5-da1f-4202-9264-68dd73391688" [label="android.app.ActivityThread.main\n Susp=0,4"];
"00b5f4c5-da1f-4202-9264-68dd73391688" -> "5190789a-8c5f-4044-9b52-aeb965470cd6";
"5190789a-8c5f-4044-9b52-aeb965470cd6" [label="android.os.Looper.loop\n Susp=0,4"];
"5190789a-8c5f-4044-9b52-aeb965470cd6" -> "dc5f4312-b592-497d-bbc1-f507e8fcae3b";
"dc5f4312-b592-497d-bbc1-f507e8fcae3b" [label="android.os.Handler.dispatchMessage\n Susp=0,4"];
"dc5f4312-b592-497d-bbc1-f507e8fcae3b" -> "4282d7df-df40-4d81-9791-5109b038d1b5";
"4282d7df-df40-4d81-9791-5109b038d1b5" [label="android.app.ActivityThread$H.handleMessage\n Susp=1"];
"4282d7df-df40-4d81-9791-5109b038d1b5" -> "d3ef9315-0627-44a5-824a-a7ce2f4165b1";
"d3ef9315-0627-44a5-824a-a7ce2f4165b1" [label="android.app.ActivityThread.-wrap11\n Susp=0,2444"];
"d3ef9315-0627-44a5-824a-a7ce2f4165b1" -> "e9c4079f-e5ba-48ed-aa91-0286cd241ade";
"e9c4079f-e5ba-48ed-aa91-0286cd241ade" [label="android.app.ActivityThread.handleLaunchActivity\n Susp=0,2444"];
"e9c4079f-e5ba-48ed-aa91-0286cd241ade" -> "ebae2b1f-9a2b-416c-b6d0-8e67028cdc73";
"ebae2b1f-9a2b-416c-b6d0-8e67028cdc73" [label="android.app.ActivityThread.performLaunchActivity\n Susp=0,2444"];
"ebae2b1f-9a2b-416c-b6d0-8e67028cdc73" -> "fe9609a7-0aeb-442b-905d-1cffca658971";
"fe9609a7-0aeb-442b-905d-1cffca658971" [label="android.app.Instrumentation.callActivityOnCreate\n Susp=0,2444"];
"fe9609a7-0aeb-442b-905d-1cffca658971" -> "c5c59e93-1006-4695-8239-76db365835eb";
"c5c59e93-1006-4695-8239-76db365835eb" [label="android.app.Activity.performCreate\n Susp=0,2444"];
"c5c59e93-1006-4695-8239-76db365835eb" -> "06a86d93-b6f8-4538-86e4-ab800a0e85f0";
"06a86d93-b6f8-4538-86e4-ab800a0e85f0" [label="dk.example.example_fragment_oninflate.MainActivity.onCreate\n Susp=0,2444"];
"06a86d93-b6f8-4538-86e4-ab800a0e85f0" -> "8fa9d232-29dd-480f-8733-58842cdf865d";
"8fa9d232-29dd-480f-8733-58842cdf865d" [label="de.robv.android.xposed.XposedBridge.handleHookedMethod\n Susp=0,2444"];
"8fa9d232-29dd-480f-8733-58842cdf865d" -> "c6ca20a1-dee0-46c6-a542-79687e8ca149";
"c6ca20a1-dee0-46c6-a542-79687e8ca149" [label="de.robv.android.xposed.XposedBridge.invokeOriginalMethodNative\n Susp=0,2444"];
"c6ca20a1-dee0-46c6-a542-79687e8ca149" -> "48620dcd-4b9a-4df0-b92c-771a495ead88";
"48620dcd-4b9a-4df0-b92c-771a495ead88" [label="dk.example.example_fragment_oninflate.MainActivity.onCreate\n Susp=0,2444"];
"48620dcd-4b9a-4df0-b92c-771a495ead88" -> "8c93ea3d-0a27-41ea-926d-97f4fb0d2898";
"8c93ea3d-0a27-41ea-926d-97f4fb0d2898" [label="android.app.Activity.setContentView\n Susp=0,2444"];
"8c93ea3d-0a27-41ea-926d-97f4fb0d2898" -> "64f5c8b8-3414-47d8-b61b-84f937e066cd";
"64f5c8b8-3414-47d8-b61b-84f937e066cd" [label="de.robv.android.xposed.XposedBridge.handleHookedMethod\n Susp=0,2444"];
"64f5c8b8-3414-47d8-b61b-84f937e066cd" -> "330174ea-1fde-43f2-80b4-b2675d501513";
"330174ea-1fde-43f2-80b4-b2675d501513" [label="de.robv.android.xposed.XposedBridge.invokeOriginalMethodNative\n Susp=0,2444"];
"330174ea-1fde-43f2-80b4-b2675d501513" -> "cdcea4f1-3c0f-41de-b107-63f723bffa3b";
"cdcea4f1-3c0f-41de-b107-63f723bffa3b" [label="android.app.Activity.setContentView\n Susp=0,2444"];
"cdcea4f1-3c0f-41de-b107-63f723bffa3b" -> "ddffdb17-09aa-4137-b6ed-fda560235b22";
"ddffdb17-09aa-4137-b6ed-fda560235b22" [label="com.android.internal.policy.PhoneWindow.setContentView\n Susp=0,2444"];
"ddffdb17-09aa-4137-b6ed-fda560235b22" -> "570666bc-281f-430b-bafa-0c6e0c208960";
"570666bc-281f-430b-bafa-0c6e0c208960" [label="android.view.LayoutInflater.inflate\n Susp=0,2444"];
"570666bc-281f-430b-bafa-0c6e0c208960" -> "39b7ca44-fb90-41b4-8c6e-9d5dfa57a810";
"39b7ca44-fb90-41b4-8c6e-9d5dfa57a810" [label="de.robv.android.xposed.XposedBridge.handleHookedMethod\n Susp=0,2444"];
"39b7ca44-fb90-41b4-8c6e-9d5dfa57a810" -> "a65209c3-c804-4660-859d-9e948a39e798";
"a65209c3-c804-4660-859d-9e948a39e798" [label="de.robv.android.xposed.XposedBridge.invokeOriginalMethodNative\n Susp=0,2444"];
"a65209c3-c804-4660-859d-9e948a39e798" -> "73e9a6fd-ab1f-4ac9-81df-30fad3bf6168";
"73e9a6fd-ab1f-4ac9-81df-30fad3bf6168" [label="android.view.LayoutInflater.inflate\n Susp=0,2444"];
"73e9a6fd-ab1f-4ac9-81df-30fad3bf6168" -> "bc5f1fbe-1a27-4b34-9381-066bebc227d1";
"bc5f1fbe-1a27-4b34-9381-066bebc227d1" [label="de.robv.android.xposed.XposedBridge.handleHookedMethod\n Susp=0,2444"];
"bc5f1fbe-1a27-4b34-9381-066bebc227d1" -> "1c96b46d-f3ca-4a51-84ac-af3c4e0b905b";
"1c96b46d-f3ca-4a51-84ac-af3c4e0b905b" [label="de.robv.android.xposed.XposedBridge.invokeOriginalMethodNative\n Susp=0,2444"];
"1c96b46d-f3ca-4a51-84ac-af3c4e0b905b" -> "8bd0e1c5-cb2e-4d66-881d-c11dde6571e0";
"8bd0e1c5-cb2e-4d66-881d-c11dde6571e0" [label="android.view.LayoutInflater.inflate\n Susp=0,2444"];
"8bd0e1c5-cb2e-4d66-881d-c11dde6571e0" -> "0806813e-da18-4f22-92d6-371af65d00b4";
"0806813e-da18-4f22-92d6-371af65d00b4" [label="de.robv.android.xposed.XposedBridge.handleHookedMethod\n Susp=0,2444"];
"0806813e-da18-4f22-92d6-371af65d00b4" -> "c3a94c38-a189-4454-9e28-d774e90ff1ba";
"c3a94c38-a189-4454-9e28-d774e90ff1ba" [label="de.robv.android.xposed.XposedBridge.invokeOriginalMethodNative\n Susp=0,2444"];
"c3a94c38-a189-4454-9e28-d774e90ff1ba" -> "0f6d3d07-d9c2-4fcd-adf3-8e54361fa563";
"0f6d3d07-d9c2-4fcd-adf3-8e54361fa563" [label="android.view.LayoutInflater.inflate\n Susp=0,2444"];
"0f6d3d07-d9c2-4fcd-adf3-8e54361fa563" -> "c0dd4abd-86bf-4e6a-ba20-4a459659edaf";
"c0dd4abd-86bf-4e6a-ba20-4a459659edaf" [label="android.view.LayoutInflater.createViewFromTag\n Susp=0,2444"];
"c0dd4abd-86bf-4e6a-ba20-4a459659edaf" -> "95fb49d3-257d-48f8-965f-d8f5f78ffa70";
"95fb49d3-257d-48f8-965f-d8f5f78ffa70" [label="android.app.Activity.onCreateView\n Susp=0,2444"];
"95fb49d3-257d-48f8-965f-d8f5f78ffa70" -> "ae2fb5be-365e-4167-8c65-ed9f635772bc";
"ae2fb5be-365e-4167-8c65-ed9f635772bc" [label="android.app.FragmentController.onCreateView\n Susp=0,2444"];
"ae2fb5be-365e-4167-8c65-ed9f635772bc" -> "3264d4d2-84e9-45f8-b68d-55d7a2247b3f";
"3264d4d2-84e9-45f8-b68d-55d7a2247b3f" [label="android.app.FragmentManagerImpl.onCreateView\n Susp=0,4444"];
"3264d4d2-84e9-45f8-b68d-55d7a2247b3f" -> "038a7c04-d751-4a3d-a645-d86f2aaea411";
"038a7c04-d751-4a3d-a645-d86f2aaea411" [label="android.app.Fragment.onInflate\n Susp=0,2222"];
"038a7c04-d751-4a3d-a645-d86f2aaea411" -> "a79ca224-c82c-4d48-88ea-5cecee45b383";
"a79ca224-c82c-4d48-88ea-5cecee45b383" [label="dk.example.example_fragment_oninflate.MainActivityFragment.onInflate\n Susp=0,2222"];
"a79ca224-c82c-4d48-88ea-5cecee45b383" -> "366d6a4d-8100-4095-bd15-a3363c5d8a6e";
"366d6a4d-8100-4095-bd15-a3363c5d8a6e" [label="de.robv.android.xposed.XposedBridge.handleHookedMethod\n Susp=0,2222"];
"366d6a4d-8100-4095-bd15-a3363c5d8a6e" -> "ad7d183e-dbeb-4b7e-997d-a75ae34b8128";
"ad7d183e-dbeb-4b7e-997d-a75ae34b8128" [label="it.unimib.disco.lta.unimiblogger.MyMethodHook.beforeHookedMethod\n Susp=0,2222"];
"ad7d183e-dbeb-4b7e-997d-a75ae34b8128" -> "4845a012-cafa-4804-8a8b-61074cb163b9";
"4845a012-cafa-4804-8a8b-61074cb163b9" [label="java.lang.Thread.getStackTrace\n Susp=0,2222"];
"4845a012-cafa-4804-8a8b-61074cb163b9" -> "7512f37f-a90e-49d9-83c3-fd9bef3d6f6a";
"7512f37f-a90e-49d9-83c3-fd9bef3d6f6a" [label="dalvik.system.VMStack.getThreadStackTrace\n Susp=0,0222"];
"3264d4d2-84e9-45f8-b68d-55d7a2247b3f" -> "d245825e-da94-4ad4-b487-59af63ef160e";
"d245825e-da94-4ad4-b487-59af63ef160e" [label="android.app.FragmentManagerImpl.addFragment\n Susp=0,2222"];
"d245825e-da94-4ad4-b487-59af63ef160e" -> "3cd37ad9-0188-4590-a259-463cbd899673";
"3cd37ad9-0188-4590-a259-463cbd899673" [label="android.app.FragmentManagerImpl.moveToState\n Susp=0,2222"];
"3cd37ad9-0188-4590-a259-463cbd899673" -> "9f1ea6e3-c190-4642-a21e-61070ab2418f";
"9f1ea6e3-c190-4642-a21e-61070ab2418f" [label="android.app.Fragment.performCreateView\n Susp=0,2222"];
"9f1ea6e3-c190-4642-a21e-61070ab2418f" -> "00fc0e57-dcda-4051-9499-cced2441d2ba";
"00fc0e57-dcda-4051-9499-cced2441d2ba" [label="dk.example.example_fragment_oninflate.MainActivityFragment.onCreateView\n Susp=0,2222"];
"00fc0e57-dcda-4051-9499-cced2441d2ba" -> "740d9484-eb96-4727-a107-3720e81b747c";
"740d9484-eb96-4727-a107-3720e81b747c" [label="de.robv.android.xposed.XposedBridge.handleHookedMethod\n Susp=0,2222"];
"740d9484-eb96-4727-a107-3720e81b747c" -> "0aa67cd6-71f1-405e-87a4-f4d0e8f32b2f";
"0aa67cd6-71f1-405e-87a4-f4d0e8f32b2f" [label="de.robv.android.xposed.XposedBridge.invokeOriginalMethodNative\n Susp=0,2222"];
"0aa67cd6-71f1-405e-87a4-f4d0e8f32b2f" -> "cae5e566-75b8-4743-82b7-dd5f2d81d019";
"cae5e566-75b8-4743-82b7-dd5f2d81d019" [label="dk.example.example_fragment_oninflate.MainActivityFragment.onCreateView\n Susp=0,2222"];
"cae5e566-75b8-4743-82b7-dd5f2d81d019" -> "268db0a9-a144-4515-8f0d-a8ec26951eef";
"268db0a9-a144-4515-8f0d-a8ec26951eef" [label="android.view.LayoutInflater.inflate\n Susp=0,2222"];
"268db0a9-a144-4515-8f0d-a8ec26951eef" -> "715e488f-12cc-4bd1-b447-61e8d36905eb";
"715e488f-12cc-4bd1-b447-61e8d36905eb" [label="de.robv.android.xposed.XposedBridge.handleHookedMethod\n Susp=0,2222"];
"715e488f-12cc-4bd1-b447-61e8d36905eb" -> "403bf6e5-fa4c-4651-9fd5-daa49a857047";
"403bf6e5-fa4c-4651-9fd5-daa49a857047" [label="de.robv.android.xposed.XposedBridge.invokeOriginalMethodNative\n Susp=0,2222"];
"403bf6e5-fa4c-4651-9fd5-daa49a857047" -> "7f4e5391-33cb-4e7d-aecf-4ca4247a79ce";
"7f4e5391-33cb-4e7d-aecf-4ca4247a79ce" [label="android.view.LayoutInflater.inflate\n Susp=0,2222"];
"7f4e5391-33cb-4e7d-aecf-4ca4247a79ce" -> "d6dc2ef7-e8e7-461c-8df3-faa60f099bc7";
"d6dc2ef7-e8e7-461c-8df3-faa60f099bc7" [label="de.robv.android.xposed.XposedBridge.handleHookedMethod\n Susp=0,2222"];
"d6dc2ef7-e8e7-461c-8df3-faa60f099bc7" -> "adbcfe45-a69d-4e97-883b-afb02388e7b4";
"adbcfe45-a69d-4e97-883b-afb02388e7b4" [label="it.unimib.disco.lta.unimiblogger.MyMethodHook.beforeHookedMethod\n Susp=0,2222"];
"adbcfe45-a69d-4e97-883b-afb02388e7b4" -> "740fe785-a862-4253-b19b-e3733cd9df84";
"740fe785-a862-4253-b19b-e3733cd9df84" [label="java.lang.Thread.getStackTrace\n Susp=0,2222"];
"740fe785-a862-4253-b19b-e3733cd9df84" -> "12db07d5-cfce-4771-809e-ee6ba94f1461";
"12db07d5-cfce-4771-809e-ee6ba94f1461" [label="dalvik.system.VMStack.getThreadStackTrace\n Susp=0,0222"];
"4282d7df-df40-4d81-9791-5109b038d1b5" -> "c0d49760-59d4-4d23-82b1-961d0b2ddaf9";
"c0d49760-59d4-4d23-82b1-961d0b2ddaf9" [label="android.app.ActivityThread.-wrap15\n Susp=0,2556"];
"c0d49760-59d4-4d23-82b1-961d0b2ddaf9" -> "1ab674c4-949d-4426-a7d0-649011d7ae2d";
"1ab674c4-949d-4426-a7d0-649011d7ae2d" [label="android.app.ActivityThread.handleRelaunchActivity\n Susp=0,2556"];
"1ab674c4-949d-4426-a7d0-649011d7ae2d" -> "210b42f4-2d20-4047-a8ae-ff1162334977";
"210b42f4-2d20-4047-a8ae-ff1162334977" [label="android.app.ActivityThread.handleLaunchActivity\n Susp=0,2556"];
"210b42f4-2d20-4047-a8ae-ff1162334977" -> "dde4fce1-b493-43da-9e08-ac5ee544091b";
"dde4fce1-b493-43da-9e08-ac5ee544091b" [label="android.app.ActivityThread.performLaunchActivity\n Susp=0,2556"];
"dde4fce1-b493-43da-9e08-ac5ee544091b" -> "0fd7d16c-515f-40df-935c-520646a7c648";
"0fd7d16c-515f-40df-935c-520646a7c648" [label="android.app.Instrumentation.callActivityOnCreate\n Susp=0,2556"];
"0fd7d16c-515f-40df-935c-520646a7c648" -> "34dcacdf-ab4b-4454-956d-befd1d042292";
"34dcacdf-ab4b-4454-956d-befd1d042292" [label="android.app.Activity.performCreate\n Susp=0,2556"];
"34dcacdf-ab4b-4454-956d-befd1d042292" -> "571bbd0a-98cd-4bb5-8de6-87205edec25a";
"571bbd0a-98cd-4bb5-8de6-87205edec25a" [label="dk.example.example_fragment_oninflate.MainActivity.onCreate\n Susp=0,2556"];
"571bbd0a-98cd-4bb5-8de6-87205edec25a" -> "0bd52ed5-1485-4cdb-af32-98283da3772a";
"0bd52ed5-1485-4cdb-af32-98283da3772a" [label="de.robv.android.xposed.XposedBridge.handleHookedMethod\n Susp=0,2556"];
"0bd52ed5-1485-4cdb-af32-98283da3772a" -> "8f34df1a-8407-4aac-92b9-c838b4aa4210";
"8f34df1a-8407-4aac-92b9-c838b4aa4210" [label="de.robv.android.xposed.XposedBridge.invokeOriginalMethodNative\n Susp=0,2556"];
"8f34df1a-8407-4aac-92b9-c838b4aa4210" -> "e8fa6441-504b-4c3e-aebd-23d3a33a6417";
"e8fa6441-504b-4c3e-aebd-23d3a33a6417" [label="dk.example.example_fragment_oninflate.MainActivity.onCreate\n Susp=0,2556"];
"e8fa6441-504b-4c3e-aebd-23d3a33a6417" -> "7a0aca73-7b46-4356-a2ef-b69543c727f8";
"7a0aca73-7b46-4356-a2ef-b69543c727f8" [label="android.app.Activity.setContentView\n Susp=0,2556"];
"7a0aca73-7b46-4356-a2ef-b69543c727f8" -> "2f9cb479-6b84-4e71-926f-c5613dd79b2e";
"2f9cb479-6b84-4e71-926f-c5613dd79b2e" [label="de.robv.android.xposed.XposedBridge.handleHookedMethod\n Susp=0,2556"];
"2f9cb479-6b84-4e71-926f-c5613dd79b2e" -> "a8911192-383c-4f01-9cb3-8f5714fae3ff";
"a8911192-383c-4f01-9cb3-8f5714fae3ff" [label="de.robv.android.xposed.XposedBridge.invokeOriginalMethodNative\n Susp=0,2556"];
"a8911192-383c-4f01-9cb3-8f5714fae3ff" -> "206d38c4-be3a-47ac-85a3-c5b13ce46643";
"206d38c4-be3a-47ac-85a3-c5b13ce46643" [label="android.app.Activity.setContentView\n Susp=0,2556"];
"206d38c4-be3a-47ac-85a3-c5b13ce46643" -> "65582d08-a639-465e-a23a-ae8b1df91044";
"65582d08-a639-465e-a23a-ae8b1df91044" [label="com.android.internal.policy.PhoneWindow.setContentView\n Susp=0,2556"];
"65582d08-a639-465e-a23a-ae8b1df91044" -> "b878d383-3f5f-4ffa-89c9-da753f91fa4c";
"b878d383-3f5f-4ffa-89c9-da753f91fa4c" [label="android.view.LayoutInflater.inflate\n Susp=0,2556"];
"b878d383-3f5f-4ffa-89c9-da753f91fa4c" -> "b433f9fb-94df-418c-94fa-8059bba889d7";
"b433f9fb-94df-418c-94fa-8059bba889d7" [label="de.robv.android.xposed.XposedBridge.handleHookedMethod\n Susp=0,2556"];
"b433f9fb-94df-418c-94fa-8059bba889d7" -> "782ccec4-3f39-481c-9b7f-7c364bdc6738";
"782ccec4-3f39-481c-9b7f-7c364bdc6738" [label="de.robv.android.xposed.XposedBridge.invokeOriginalMethodNative\n Susp=0,2556"];
"782ccec4-3f39-481c-9b7f-7c364bdc6738" -> "00597d07-12fd-407a-93a2-b6049d5ac96f";
"00597d07-12fd-407a-93a2-b6049d5ac96f" [label="android.view.LayoutInflater.inflate\n Susp=0,2556"];
"00597d07-12fd-407a-93a2-b6049d5ac96f" -> "7cc5365c-96b5-4639-b72f-3318e16374d8";
"7cc5365c-96b5-4639-b72f-3318e16374d8" [label="de.robv.android.xposed.XposedBridge.handleHookedMethod\n Susp=0,2556"];
"7cc5365c-96b5-4639-b72f-3318e16374d8" -> "26f96095-e6e0-4db8-8dd4-c8e13da770c4";
"26f96095-e6e0-4db8-8dd4-c8e13da770c4" [label="de.robv.android.xposed.XposedBridge.invokeOriginalMethodNative\n Susp=0,2556"];
"26f96095-e6e0-4db8-8dd4-c8e13da770c4" -> "732a1e90-4ff0-4c30-ab56-494e7666045c";
"732a1e90-4ff0-4c30-ab56-494e7666045c" [label="android.view.LayoutInflater.inflate\n Susp=0,2556"];
"732a1e90-4ff0-4c30-ab56-494e7666045c" -> "97276f6a-e8b6-4487-96c2-19ffc8269e59";
"97276f6a-e8b6-4487-96c2-19ffc8269e59" [label="de.robv.android.xposed.XposedBridge.handleHookedMethod\n Susp=0,2556"];
"97276f6a-e8b6-4487-96c2-19ffc8269e59" -> "ea8f83c0-7ab8-489a-9c77-0558c1bc61e4";
"ea8f83c0-7ab8-489a-9c77-0558c1bc61e4" [label="de.robv.android.xposed.XposedBridge.invokeOriginalMethodNative\n Susp=0,2556"];
"ea8f83c0-7ab8-489a-9c77-0558c1bc61e4" -> "e7192e67-1bf6-4227-8c44-f161365b20fd";
"e7192e67-1bf6-4227-8c44-f161365b20fd" [label="android.view.LayoutInflater.inflate\n Susp=0,2556"];
"e7192e67-1bf6-4227-8c44-f161365b20fd" -> "ef8920a7-18c3-4cd2-a9ee-8e48a7b1bb7b";
"ef8920a7-18c3-4cd2-a9ee-8e48a7b1bb7b" [label="android.view.LayoutInflater.createViewFromTag\n Susp=0,2556"];
"ef8920a7-18c3-4cd2-a9ee-8e48a7b1bb7b" -> "bd158e74-c80c-4a1f-b052-dab64a71525a";
"bd158e74-c80c-4a1f-b052-dab64a71525a" [label="android.app.Activity.onCreateView\n Susp=0,2556"];
"bd158e74-c80c-4a1f-b052-dab64a71525a" -> "73b6cfeb-c512-40a2-bc60-28d6bbb2785e";
"73b6cfeb-c512-40a2-bc60-28d6bbb2785e" [label="android.app.FragmentController.onCreateView\n Susp=0,2556"];
"73b6cfeb-c512-40a2-bc60-28d6bbb2785e" -> "a1a18608-4a79-49b8-a97f-2ed8e26121b5";
"a1a18608-4a79-49b8-a97f-2ed8e26121b5" [label="android.app.FragmentManagerImpl.onCreateView\n Susp=0,4556"];
"a1a18608-4a79-49b8-a97f-2ed8e26121b5" -> "410386e4-7596-4841-bb23-d2d99973cc2c";
"410386e4-7596-4841-bb23-d2d99973cc2c" [label="android.app.Fragment.onInflate\n Susp=0,2333"];
"410386e4-7596-4841-bb23-d2d99973cc2c" -> "6a54c186-0c13-4ce7-80d9-3df1f94d3249";
"6a54c186-0c13-4ce7-80d9-3df1f94d3249" [label="dk.example.example_fragment_oninflate.MainActivityFragment.onInflate\n Susp=0,2333"];
"6a54c186-0c13-4ce7-80d9-3df1f94d3249" -> "77008963-aa89-4e7d-8ceb-da72f33c8cd6";
"77008963-aa89-4e7d-8ceb-da72f33c8cd6" [label="de.robv.android.xposed.XposedBridge.handleHookedMethod\n Susp=0,2333"];
"77008963-aa89-4e7d-8ceb-da72f33c8cd6" -> "5a24c881-fb72-4c02-805e-82170689a40a";
"5a24c881-fb72-4c02-805e-82170689a40a" [label="it.unimib.disco.lta.unimiblogger.MyMethodHook.beforeHookedMethod\n Susp=0,2333"];
"5a24c881-fb72-4c02-805e-82170689a40a" -> "5d57bc90-b2a0-4646-a0b1-19eb64dfe13d";
"5d57bc90-b2a0-4646-a0b1-19eb64dfe13d" [label="java.lang.Thread.getStackTrace\n Susp=0,2333"];
"5d57bc90-b2a0-4646-a0b1-19eb64dfe13d" -> "af1eb881-e5eb-4717-b8a8-6518d63d368f";
"af1eb881-e5eb-4717-b8a8-6518d63d368f" [label="dalvik.system.VMStack.getThreadStackTrace\n Susp=0,0333"];
"a1a18608-4a79-49b8-a97f-2ed8e26121b5" -> "9348979a-4214-44e7-b0eb-1c2ae8455e8e";
"9348979a-4214-44e7-b0eb-1c2ae8455e8e" [label="android.app.FragmentManagerImpl.moveToState\n Susp=0,2222"];
"9348979a-4214-44e7-b0eb-1c2ae8455e8e" -> "ae9572de-107e-41c8-9bfd-ca0088d539c4";
"ae9572de-107e-41c8-9bfd-ca0088d539c4" [label="android.app.Fragment.performCreateView\n Susp=0,2222"];
"ae9572de-107e-41c8-9bfd-ca0088d539c4" -> "fee902d9-151f-4161-a988-0b7b1af27ea7";
"fee902d9-151f-4161-a988-0b7b1af27ea7" [label="dk.example.example_fragment_oninflate.MainActivityFragment.onCreateView\n Susp=0,2222"];
"fee902d9-151f-4161-a988-0b7b1af27ea7" -> "6d5cf001-3723-49bf-88e3-b97bf25d9431";
"6d5cf001-3723-49bf-88e3-b97bf25d9431" [label="de.robv.android.xposed.XposedBridge.handleHookedMethod\n Susp=0,2222"];
"6d5cf001-3723-49bf-88e3-b97bf25d9431" -> "6b897de0-eca2-46c3-a2cd-8e88d31bfcfd";
"6b897de0-eca2-46c3-a2cd-8e88d31bfcfd" [label="de.robv.android.xposed.XposedBridge.invokeOriginalMethodNative\n Susp=0,2222"];
"6b897de0-eca2-46c3-a2cd-8e88d31bfcfd" -> "0da606e3-e4fd-4117-acc5-fc94d9425968";
"0da606e3-e4fd-4117-acc5-fc94d9425968" [label="dk.example.example_fragment_oninflate.MainActivityFragment.onCreateView\n Susp=0,2222"];
"0da606e3-e4fd-4117-acc5-fc94d9425968" -> "88710255-2191-41b0-8d18-c085bbef4f77";
"88710255-2191-41b0-8d18-c085bbef4f77" [label="android.view.LayoutInflater.inflate\n Susp=0,2222"];
"88710255-2191-41b0-8d18-c085bbef4f77" -> "d2301bd5-796b-4aae-8184-43031857d01b";
"d2301bd5-796b-4aae-8184-43031857d01b" [label="de.robv.android.xposed.XposedBridge.handleHookedMethod\n Susp=0,2222"];
"d2301bd5-796b-4aae-8184-43031857d01b" -> "55a12b4a-3de1-4c8d-9666-b9402e94d2a6";
"55a12b4a-3de1-4c8d-9666-b9402e94d2a6" [label="de.robv.android.xposed.XposedBridge.invokeOriginalMethodNative\n Susp=0,2222"];
"55a12b4a-3de1-4c8d-9666-b9402e94d2a6" -> "9cbc7f68-ea9b-478f-b0e6-6c5392438651";
"9cbc7f68-ea9b-478f-b0e6-6c5392438651" [label="android.view.LayoutInflater.inflate\n Susp=0,2222"];
"9cbc7f68-ea9b-478f-b0e6-6c5392438651" -> "04f021da-38eb-4c9b-8efa-1aec3485e5ac";
"04f021da-38eb-4c9b-8efa-1aec3485e5ac" [label="de.robv.android.xposed.XposedBridge.handleHookedMethod\n Susp=0,2222"];
"04f021da-38eb-4c9b-8efa-1aec3485e5ac" -> "2516ca09-a854-498a-8715-60c8b4a5f87a";
"2516ca09-a854-498a-8715-60c8b4a5f87a" [label="it.unimib.disco.lta.unimiblogger.MyMethodHook.beforeHookedMethod\n Susp=0,2222"];
"2516ca09-a854-498a-8715-60c8b4a5f87a" -> "e4c4a2a5-b7dc-4b74-bd92-c50080621566";
"e4c4a2a5-b7dc-4b74-bd92-c50080621566" [label="java.lang.Thread.getStackTrace\n Susp=0,2222"];
"e4c4a2a5-b7dc-4b74-bd92-c50080621566" -> "cab0e21c-cb3f-498f-b394-53fec2390375";
"cab0e21c-cb3f-498f-b394-53fec2390375" [label="dalvik.system.VMStack.getThreadStackTrace\n Susp=0,0222"];
"4282d7df-df40-4d81-9791-5109b038d1b5" -> "b3362e05-6da0-42b3-b1dc-ea3461b1305a";
"b3362e05-6da0-42b3-b1dc-ea3461b1305a" [label="android.app.ActivityThread.access$800\n Susp=0,2222"];
"b3362e05-6da0-42b3-b1dc-ea3461b1305a" -> "a4aaf364-3300-413e-baa3-2546176d68df";
"a4aaf364-3300-413e-baa3-2546176d68df" [label="android.app.ActivityThread.handleLaunchActivity\n Susp=0,2222"];
"a4aaf364-3300-413e-baa3-2546176d68df" -> "32c73189-a067-438d-b8a9-490d4fc3aed7";
"32c73189-a067-438d-b8a9-490d4fc3aed7" [label="android.app.ActivityThread.performLaunchActivity\n Susp=0,2222"];
"32c73189-a067-438d-b8a9-490d4fc3aed7" -> "960780cc-0856-4c0c-9565-499112d765aa";
"960780cc-0856-4c0c-9565-499112d765aa" [label="android.app.Instrumentation.callActivityOnCreate\n Susp=0,2222"];
"960780cc-0856-4c0c-9565-499112d765aa" -> "6fb6b826-2caf-4419-8b94-2d8c893d43f8";
"6fb6b826-2caf-4419-8b94-2d8c893d43f8" [label="android.app.Activity.performCreate\n Susp=0,2222"];
"6fb6b826-2caf-4419-8b94-2d8c893d43f8" -> "fdd5809c-1921-4ae2-90e6-513f74975366";
"fdd5809c-1921-4ae2-90e6-513f74975366" [label="dk.example.example_fragment_oninflate.MainActivity.onCreate\n Susp=0,2222"];
"fdd5809c-1921-4ae2-90e6-513f74975366" -> "5181b531-4303-4a5d-b25b-33b8161bc9ad";
"5181b531-4303-4a5d-b25b-33b8161bc9ad" [label="de.robv.android.xposed.XposedBridge.handleHookedMethod\n Susp=0,2222"];
"5181b531-4303-4a5d-b25b-33b8161bc9ad" -> "d29c16f4-213f-4208-ab3e-57752a2b12cd";
"d29c16f4-213f-4208-ab3e-57752a2b12cd" [label="de.robv.android.xposed.XposedBridge.invokeOriginalMethodNative\n Susp=0,2222"];
"d29c16f4-213f-4208-ab3e-57752a2b12cd" -> "8de5a6cc-5358-40d8-9207-e58ab3e0da96";
"8de5a6cc-5358-40d8-9207-e58ab3e0da96" [label="dk.example.example_fragment_oninflate.MainActivity.onCreate\n Susp=0,2222"];
"8de5a6cc-5358-40d8-9207-e58ab3e0da96" -> "4227cf2a-09cb-4110-b4b8-70c63843eba7";
"4227cf2a-09cb-4110-b4b8-70c63843eba7" [label="android.app.Activity.setContentView\n Susp=0,2222"];
"4227cf2a-09cb-4110-b4b8-70c63843eba7" -> "793e0e8b-5d0c-459f-b213-d56ffd82747e";
"793e0e8b-5d0c-459f-b213-d56ffd82747e" [label="de.robv.android.xposed.XposedBridge.handleHookedMethod\n Susp=0,2222"];
"793e0e8b-5d0c-459f-b213-d56ffd82747e" -> "1c1bbfd0-8b96-4362-8c99-3c31a483ad88";
"1c1bbfd0-8b96-4362-8c99-3c31a483ad88" [label="de.robv.android.xposed.XposedBridge.invokeOriginalMethodNative\n Susp=0,2222"];
"1c1bbfd0-8b96-4362-8c99-3c31a483ad88" -> "f768e24f-8055-4be6-807e-740ce0adfe7b";
"f768e24f-8055-4be6-807e-740ce0adfe7b" [label="android.app.Activity.setContentView\n Susp=0,2222"];
"f768e24f-8055-4be6-807e-740ce0adfe7b" -> "750d825c-a55e-474a-a76e-dd42fa3487c6";
"750d825c-a55e-474a-a76e-dd42fa3487c6" [label="com.android.internal.policy.impl.PhoneWindow.setContentView\n Susp=0,2222"];
"750d825c-a55e-474a-a76e-dd42fa3487c6" -> "07df60ad-37bd-4628-aa98-6808bbdfc76d";
"07df60ad-37bd-4628-aa98-6808bbdfc76d" [label="android.view.LayoutInflater.inflate\n Susp=0,2222"];
"07df60ad-37bd-4628-aa98-6808bbdfc76d" -> "7037986d-e99d-4d9d-a4cc-ebb72f7fc47f";
"7037986d-e99d-4d9d-a4cc-ebb72f7fc47f" [label="de.robv.android.xposed.XposedBridge.handleHookedMethod\n Susp=0,2222"];
"7037986d-e99d-4d9d-a4cc-ebb72f7fc47f" -> "f1ad3bf5-815c-451e-9338-a0798d0d62b4";
"f1ad3bf5-815c-451e-9338-a0798d0d62b4" [label="de.robv.android.xposed.XposedBridge.invokeOriginalMethodNative\n Susp=0,2222"];
"f1ad3bf5-815c-451e-9338-a0798d0d62b4" -> "a1869049-6a1d-4b4b-8ddc-d337599ccfdf";
"a1869049-6a1d-4b4b-8ddc-d337599ccfdf" [label="android.view.LayoutInflater.inflate\n Susp=0,2222"];
"a1869049-6a1d-4b4b-8ddc-d337599ccfdf" -> "b51ef6f7-f5f5-4f34-9a2b-24bc12b54a4f";
"b51ef6f7-f5f5-4f34-9a2b-24bc12b54a4f" [label="de.robv.android.xposed.XposedBridge.handleHookedMethod\n Susp=0,2222"];
"b51ef6f7-f5f5-4f34-9a2b-24bc12b54a4f" -> "1eacdc95-7dd8-40f8-9b99-0bb843fb576c";
"1eacdc95-7dd8-40f8-9b99-0bb843fb576c" [label="de.robv.android.xposed.XposedBridge.invokeOriginalMethodNative\n Susp=0,2222"];
"1eacdc95-7dd8-40f8-9b99-0bb843fb576c" -> "81001c63-b152-4f08-92fc-727cade55d06";
"81001c63-b152-4f08-92fc-727cade55d06" [label="android.view.LayoutInflater.inflate\n Susp=0,2222"];
"81001c63-b152-4f08-92fc-727cade55d06" -> "17f12ef8-2c88-4434-8a39-3cfc74c646e0";
"17f12ef8-2c88-4434-8a39-3cfc74c646e0" [label="de.robv.android.xposed.XposedBridge.handleHookedMethod\n Susp=0,2222"];
"17f12ef8-2c88-4434-8a39-3cfc74c646e0" -> "20d41b59-976b-4439-9e20-d7e043cc2f2d";
"20d41b59-976b-4439-9e20-d7e043cc2f2d" [label="de.robv.android.xposed.XposedBridge.invokeOriginalMethodNative\n Susp=0,2222"];
"20d41b59-976b-4439-9e20-d7e043cc2f2d" -> "3c77bd4d-a692-4dce-8ec4-07aca3237ad3";
"3c77bd4d-a692-4dce-8ec4-07aca3237ad3" [label="android.view.LayoutInflater.inflate\n Susp=0,2222"];
"3c77bd4d-a692-4dce-8ec4-07aca3237ad3" -> "d23d153d-9cac-4ced-98d1-3fbf807f1cc5";
"d23d153d-9cac-4ced-98d1-3fbf807f1cc5" [label="android.view.LayoutInflater.createViewFromTag\n Susp=0,2222"];
"d23d153d-9cac-4ced-98d1-3fbf807f1cc5" -> "7f4de56f-92d1-4eec-9ce9-2c2ddd1c249e";
"7f4de56f-92d1-4eec-9ce9-2c2ddd1c249e" [label="android.app.Activity.onCreateView\n Susp=0,2222"];
"7f4de56f-92d1-4eec-9ce9-2c2ddd1c249e" -> "38a7ee9d-f1ec-4e86-85d2-f817af5054fc";
"38a7ee9d-f1ec-4e86-85d2-f817af5054fc" [label="android.app.FragmentManagerImpl.onCreateView\n Susp=0,2222"];
"38a7ee9d-f1ec-4e86-85d2-f817af5054fc" -> "10ee7f94-5a8b-4dc2-98c9-cd5c55b2b73a";
"10ee7f94-5a8b-4dc2-98c9-cd5c55b2b73a" [label="android.app.FragmentManagerImpl.addFragment\n Susp=0,2222"];
"10ee7f94-5a8b-4dc2-98c9-cd5c55b2b73a" -> "b4eeb3a8-f67a-4dd3-acc4-84894ce20352";
"b4eeb3a8-f67a-4dd3-acc4-84894ce20352" [label="android.app.FragmentManagerImpl.moveToState\n Susp=0,2222"];
"b4eeb3a8-f67a-4dd3-acc4-84894ce20352" -> "8c715820-64c6-47c3-b447-efe8a073c042";
"8c715820-64c6-47c3-b447-efe8a073c042" [label="android.app.Fragment.performCreateView\n Susp=0,2222"];
"8c715820-64c6-47c3-b447-efe8a073c042" -> "93070dde-cd55-44ca-89ce-e487a8273e23";
"93070dde-cd55-44ca-89ce-e487a8273e23" [label="dk.example.example_fragment_oninflate.MainActivityFragment.onCreateView\n Susp=0,2222"];
"93070dde-cd55-44ca-89ce-e487a8273e23" -> "42daef9f-ffdb-4231-8323-e6ec7d323ec6";
"42daef9f-ffdb-4231-8323-e6ec7d323ec6" [label="de.robv.android.xposed.XposedBridge.handleHookedMethod\n Susp=0,2222"];
"42daef9f-ffdb-4231-8323-e6ec7d323ec6" -> "5da049cd-5bc3-4d4a-a7a7-8cc9b92087a8";
"5da049cd-5bc3-4d4a-a7a7-8cc9b92087a8" [label="de.robv.android.xposed.XposedBridge.invokeOriginalMethodNative\n Susp=0,2222"];
"5da049cd-5bc3-4d4a-a7a7-8cc9b92087a8" -> "563bbcb1-fbd2-4673-a102-7c418c2af092";
"563bbcb1-fbd2-4673-a102-7c418c2af092" [label="dk.example.example_fragment_oninflate.MainActivityFragment.onCreateView\n Susp=0,2222"];
"563bbcb1-fbd2-4673-a102-7c418c2af092" -> "54407bc7-f585-410e-842b-092e9fc82147";
"54407bc7-f585-410e-842b-092e9fc82147" [label="android.view.LayoutInflater.inflate\n Susp=0,2222"];
"54407bc7-f585-410e-842b-092e9fc82147" -> "d3d14332-66c9-4a75-bc3d-0777eb698fe0";
"d3d14332-66c9-4a75-bc3d-0777eb698fe0" [label="de.robv.android.xposed.XposedBridge.handleHookedMethod\n Susp=0,2222"];
"d3d14332-66c9-4a75-bc3d-0777eb698fe0" -> "59c71ec9-fcb1-4670-b3c0-57a7b669f362";
"59c71ec9-fcb1-4670-b3c0-57a7b669f362" [label="de.robv.android.xposed.XposedBridge.invokeOriginalMethodNative\n Susp=0,2222"];
"59c71ec9-fcb1-4670-b3c0-57a7b669f362" -> "86689056-dfb2-47bc-af53-1dd7f57321b8";
"86689056-dfb2-47bc-af53-1dd7f57321b8" [label="android.view.LayoutInflater.inflate\n Susp=0,2222"];
"86689056-dfb2-47bc-af53-1dd7f57321b8" -> "04480965-6a5e-42ef-b004-c6f163641c08";
"04480965-6a5e-42ef-b004-c6f163641c08" [label="de.robv.android.xposed.XposedBridge.handleHookedMethod\n Susp=0,2222"];
"04480965-6a5e-42ef-b004-c6f163641c08" -> "23a7f234-dabf-4edb-8bb7-25ff2c029054";
"23a7f234-dabf-4edb-8bb7-25ff2c029054" [label="it.unimib.disco.lta.unimiblogger.MyMethodHook.beforeHookedMethod\n Susp=0,2222"];
"23a7f234-dabf-4edb-8bb7-25ff2c029054" -> "030ea0f2-f7bb-47f7-8206-5114570483bb";
"030ea0f2-f7bb-47f7-8206-5114570483bb" [label="java.lang.Thread.getStackTrace\n Susp=0,2222"];
"030ea0f2-f7bb-47f7-8206-5114570483bb" -> "82555cd4-5ac0-40d0-a7fe-e8aea082281a";
"82555cd4-5ac0-40d0-a7fe-e8aea082281a" [label="dalvik.system.VMStack.getThreadStackTrace\n Susp=0,0222"];
"4282d7df-df40-4d81-9791-5109b038d1b5" -> "7dadbd10-6943-4ac4-ba89-540d68ae9371";
"7dadbd10-6943-4ac4-ba89-540d68ae9371" [label="android.app.ActivityThread.access$900\n Susp=0,2778"];
"7dadbd10-6943-4ac4-ba89-540d68ae9371" -> "2bd50df9-c6ed-4d0c-835f-c413eac6b8c9";
"2bd50df9-c6ed-4d0c-835f-c413eac6b8c9" [label="android.app.ActivityThread.handleRelaunchActivity\n Susp=0,2778"];
"2bd50df9-c6ed-4d0c-835f-c413eac6b8c9" -> "005b073b-5215-4f9e-8360-8d2a712ab506";
"005b073b-5215-4f9e-8360-8d2a712ab506" [label="android.app.ActivityThread.handleLaunchActivity\n Susp=0,2778"];
"005b073b-5215-4f9e-8360-8d2a712ab506" -> "17c94943-89f9-4a9d-b9d0-a76ed8f359a4";
"17c94943-89f9-4a9d-b9d0-a76ed8f359a4" [label="android.app.ActivityThread.performLaunchActivity\n Susp=0,2778"];
"17c94943-89f9-4a9d-b9d0-a76ed8f359a4" -> "43619f94-8d48-4c70-b842-6e5e519ab7a9";
"43619f94-8d48-4c70-b842-6e5e519ab7a9" [label="android.app.Instrumentation.callActivityOnCreate\n Susp=0,2778"];
"43619f94-8d48-4c70-b842-6e5e519ab7a9" -> "9e7358f4-ec54-41e9-919b-1f6609943703";
"9e7358f4-ec54-41e9-919b-1f6609943703" [label="android.app.Activity.performCreate\n Susp=0,2778"];
"9e7358f4-ec54-41e9-919b-1f6609943703" -> "313c78d0-ac3d-47f9-9e79-a617cde1cf8c";
"313c78d0-ac3d-47f9-9e79-a617cde1cf8c" [label="dk.example.example_fragment_oninflate.MainActivity.onCreate\n Susp=0,2778"];
"313c78d0-ac3d-47f9-9e79-a617cde1cf8c" -> "ba92d561-ea06-488b-8ba0-fbefc43b3f54";
"ba92d561-ea06-488b-8ba0-fbefc43b3f54" [label="de.robv.android.xposed.XposedBridge.handleHookedMethod\n Susp=0,2778"];
"ba92d561-ea06-488b-8ba0-fbefc43b3f54" -> "e66d2ab8-999d-4938-bfdf-ea1b9f22490b";
"e66d2ab8-999d-4938-bfdf-ea1b9f22490b" [label="de.robv.android.xposed.XposedBridge.invokeOriginalMethodNative\n Susp=0,2778"];
"e66d2ab8-999d-4938-bfdf-ea1b9f22490b" -> "10c5b0d0-7800-4365-9665-5da0090d644d";
"10c5b0d0-7800-4365-9665-5da0090d644d" [label="dk.example.example_fragment_oninflate.MainActivity.onCreate\n Susp=0,2778"];
"10c5b0d0-7800-4365-9665-5da0090d644d" -> "8c394cd0-72d3-4108-903b-bbc68a6df3e7";
"8c394cd0-72d3-4108-903b-bbc68a6df3e7" [label="android.app.Activity.setContentView\n Susp=0,2778"];
"8c394cd0-72d3-4108-903b-bbc68a6df3e7" -> "fec67e24-785e-4f5c-9733-e1d3d6798b69";
"fec67e24-785e-4f5c-9733-e1d3d6798b69" [label="de.robv.android.xposed.XposedBridge.handleHookedMethod\n Susp=0,2778"];
"fec67e24-785e-4f5c-9733-e1d3d6798b69" -> "f88e52c7-5833-4aa4-bbf5-e8c784242864";
"f88e52c7-5833-4aa4-bbf5-e8c784242864" [label="de.robv.android.xposed.XposedBridge.invokeOriginalMethodNative\n Susp=0,2778"];
"f88e52c7-5833-4aa4-bbf5-e8c784242864" -> "314ee66e-5cb0-4a40-a9d6-5b79ff944dfd";
"314ee66e-5cb0-4a40-a9d6-5b79ff944dfd" [label="android.app.Activity.setContentView\n Susp=0,2778"];
"314ee66e-5cb0-4a40-a9d6-5b79ff944dfd" -> "daccf680-8580-44c8-9145-5e8a7bd47dee";
"daccf680-8580-44c8-9145-5e8a7bd47dee" [label="com.android.internal.policy.impl.PhoneWindow.setContentView\n Susp=0,2778"];
"daccf680-8580-44c8-9145-5e8a7bd47dee" -> "62c18aaf-22c9-4bbd-8f79-a88f54885927";
"62c18aaf-22c9-4bbd-8f79-a88f54885927" [label="android.view.LayoutInflater.inflate\n Susp=0,2778"];
"62c18aaf-22c9-4bbd-8f79-a88f54885927" -> "e5844e1e-9668-487c-a419-6a4d6b8b69b1";
"e5844e1e-9668-487c-a419-6a4d6b8b69b1" [label="de.robv.android.xposed.XposedBridge.handleHookedMethod\n Susp=0,2778"];
"e5844e1e-9668-487c-a419-6a4d6b8b69b1" -> "f041bbb4-708b-403c-bfe3-9d1380192b95";
"f041bbb4-708b-403c-bfe3-9d1380192b95" [label="de.robv.android.xposed.XposedBridge.invokeOriginalMethodNative\n Susp=0,2778"];
"f041bbb4-708b-403c-bfe3-9d1380192b95" -> "93f31dd8-973f-4159-97ac-106dd7060d37";
"93f31dd8-973f-4159-97ac-106dd7060d37" [label="android.view.LayoutInflater.inflate\n Susp=0,2778"];
"93f31dd8-973f-4159-97ac-106dd7060d37" -> "6e34b91b-9cdc-4417-a952-f9aaa1b6d6e5";
"6e34b91b-9cdc-4417-a952-f9aaa1b6d6e5" [label="de.robv.android.xposed.XposedBridge.handleHookedMethod\n Susp=0,2778"];
"6e34b91b-9cdc-4417-a952-f9aaa1b6d6e5" -> "a21cc002-bf4c-4fbe-8e3c-461cd931613f";
"a21cc002-bf4c-4fbe-8e3c-461cd931613f" [label="de.robv.android.xposed.XposedBridge.invokeOriginalMethodNative\n Susp=0,2778"];
"a21cc002-bf4c-4fbe-8e3c-461cd931613f" -> "d5cd52c3-33f9-4cc1-ac0c-ad8952739760";
"d5cd52c3-33f9-4cc1-ac0c-ad8952739760" [label="android.view.LayoutInflater.inflate\n Susp=0,2778"];
"d5cd52c3-33f9-4cc1-ac0c-ad8952739760" -> "3594f039-a6bd-427c-980f-ba98c2db5901";
"3594f039-a6bd-427c-980f-ba98c2db5901" [label="de.robv.android.xposed.XposedBridge.handleHookedMethod\n Susp=0,2778"];
"3594f039-a6bd-427c-980f-ba98c2db5901" -> "74a2f38a-8255-4ca0-8f4e-4f204eda07fa";
"74a2f38a-8255-4ca0-8f4e-4f204eda07fa" [label="de.robv.android.xposed.XposedBridge.invokeOriginalMethodNative\n Susp=0,2778"];
"74a2f38a-8255-4ca0-8f4e-4f204eda07fa" -> "4e90dfd3-b7cd-4edc-b58d-8420215ba502";
"4e90dfd3-b7cd-4edc-b58d-8420215ba502" [label="android.view.LayoutInflater.inflate\n Susp=0,2778"];
"4e90dfd3-b7cd-4edc-b58d-8420215ba502" -> "1677f716-7a54-4f86-875f-f47a578f8170";
"1677f716-7a54-4f86-875f-f47a578f8170" [label="android.view.LayoutInflater.createViewFromTag\n Susp=0,2778"];
"1677f716-7a54-4f86-875f-f47a578f8170" -> "a034a896-ed47-41e7-8527-e025c2500121";
"a034a896-ed47-41e7-8527-e025c2500121" [label="android.app.Activity.onCreateView\n Susp=0,2778"];
"a034a896-ed47-41e7-8527-e025c2500121" -> "ada53b58-2877-4ef0-9e91-dfe892d72635";
"ada53b58-2877-4ef0-9e91-dfe892d72635" [label="android.app.FragmentManagerImpl.onCreateView\n Susp=0,4778"];
"ada53b58-2877-4ef0-9e91-dfe892d72635" -> "57b1a11f-d64a-4d54-9808-06cd3deb68a8";
"57b1a11f-d64a-4d54-9808-06cd3deb68a8" [label="dk.example.example_fragment_oninflate.MainActivityFragment.onInflate\n Susp=0,2556"];
"57b1a11f-d64a-4d54-9808-06cd3deb68a8" -> "89bfa68d-2f3d-4512-aef5-15ce0fd2df3c";
"89bfa68d-2f3d-4512-aef5-15ce0fd2df3c" [label="de.robv.android.xposed.XposedBridge.handleHookedMethod\n Susp=0,2556"];
"89bfa68d-2f3d-4512-aef5-15ce0fd2df3c" -> "b9a2034f-e004-4cd7-bf49-ca80934b8bb4";
"b9a2034f-e004-4cd7-bf49-ca80934b8bb4" [label="it.unimib.disco.lta.unimiblogger.MyMethodHook.beforeHookedMethod\n Susp=0,2556"];
"b9a2034f-e004-4cd7-bf49-ca80934b8bb4" -> "ac767146-76b6-453a-87f0-03c6971073ad";
"ac767146-76b6-453a-87f0-03c6971073ad" [label="java.lang.Thread.getStackTrace\n Susp=0,2556"];
"ac767146-76b6-453a-87f0-03c6971073ad" -> "51ba1e83-6836-44ce-bdf6-7bd6e2933ffe";
"51ba1e83-6836-44ce-bdf6-7bd6e2933ffe" [label="dalvik.system.VMStack.getThreadStackTrace\n Susp=0,0556"];
"ada53b58-2877-4ef0-9e91-dfe892d72635" -> "f1e24bba-1759-459d-af06-c2da21c3f4dd";
"f1e24bba-1759-459d-af06-c2da21c3f4dd" [label="android.app.FragmentManagerImpl.moveToState\n Susp=0,2222"];
"f1e24bba-1759-459d-af06-c2da21c3f4dd" -> "1ec0f745-a0fb-4044-a22f-a33835325da7";
"1ec0f745-a0fb-4044-a22f-a33835325da7" [label="android.app.Fragment.performCreateView\n Susp=0,2222"];
"1ec0f745-a0fb-4044-a22f-a33835325da7" -> "aac6adaa-725f-4a30-bf9b-524362cb09d8";
"aac6adaa-725f-4a30-bf9b-524362cb09d8" [label="dk.example.example_fragment_oninflate.MainActivityFragment.onCreateView\n Susp=0,2222"];
"aac6adaa-725f-4a30-bf9b-524362cb09d8" -> "3a0fede4-55e9-4a49-93cb-da4d31d9a542";
"3a0fede4-55e9-4a49-93cb-da4d31d9a542" [label="de.robv.android.xposed.XposedBridge.handleHookedMethod\n Susp=0,2222"];
"3a0fede4-55e9-4a49-93cb-da4d31d9a542" -> "f90cd34a-eaa8-4af8-a6a7-43fa2d26b953";
"f90cd34a-eaa8-4af8-a6a7-43fa2d26b953" [label="de.robv.android.xposed.XposedBridge.invokeOriginalMethodNative\n Susp=0,2222"];
"f90cd34a-eaa8-4af8-a6a7-43fa2d26b953" -> "88e098f3-971e-44ae-b44b-3139b27606cf";
"88e098f3-971e-44ae-b44b-3139b27606cf" [label="dk.example.example_fragment_oninflate.MainActivityFragment.onCreateView\n Susp=0,2222"];
"88e098f3-971e-44ae-b44b-3139b27606cf" -> "e68cc0c1-af17-4e52-8d27-1ca5221e7d24";
"e68cc0c1-af17-4e52-8d27-1ca5221e7d24" [label="android.view.LayoutInflater.inflate\n Susp=0,2222"];
"e68cc0c1-af17-4e52-8d27-1ca5221e7d24" -> "0b5c644c-dd6c-4d4f-a171-8f8f5d4116c5";
"0b5c644c-dd6c-4d4f-a171-8f8f5d4116c5" [label="de.robv.android.xposed.XposedBridge.handleHookedMethod\n Susp=0,2222"];
"0b5c644c-dd6c-4d4f-a171-8f8f5d4116c5" -> "6ae1d291-eff6-4502-81d6-721d6b86afde";
"6ae1d291-eff6-4502-81d6-721d6b86afde" [label="de.robv.android.xposed.XposedBridge.invokeOriginalMethodNative\n Susp=0,2222"];
"6ae1d291-eff6-4502-81d6-721d6b86afde" -> "4c1dc54e-d596-4aef-a31b-d4d1d326fd2d";
"4c1dc54e-d596-4aef-a31b-d4d1d326fd2d" [label="android.view.LayoutInflater.inflate\n Susp=0,2222"];
"4c1dc54e-d596-4aef-a31b-d4d1d326fd2d" -> "c9977080-b279-4fe9-8930-a05ce87d570e";
"c9977080-b279-4fe9-8930-a05ce87d570e" [label="de.robv.android.xposed.XposedBridge.handleHookedMethod\n Susp=0,2222"];
"c9977080-b279-4fe9-8930-a05ce87d570e" -> "2885f10e-0dfe-423f-be34-87708daa7158";
"2885f10e-0dfe-423f-be34-87708daa7158" [label="it.unimib.disco.lta.unimiblogger.MyMethodHook.beforeHookedMethod\n Susp=0,2222"];
"2885f10e-0dfe-423f-be34-87708daa7158" -> "12f61038-47c7-432e-bc4b-ca3859c53161";
"12f61038-47c7-432e-bc4b-ca3859c53161" [label="java.lang.Thread.getStackTrace\n Susp=0,2222"];
"12f61038-47c7-432e-bc4b-ca3859c53161" -> "a427a20b-19f0-4db2-9036-1e5bebd01b98";
"a427a20b-19f0-4db2-9036-1e5bebd01b98" [label="dalvik.system.VMStack.getThreadStackTrace\n Susp=0,0222"];
}
