Position |MethodName|Relevancy
0.045454545454545456|android.app.ActivityThread$H.handleMessage|0.9568
0.09090909090909091|android.os.Handler.dispatchMessage|0.62
0.13636363636363635|android.os.Handler.handleCallback|0.6132000000000001
0.18181818181818182|android.os.Looper.loop|0.43
0.22727272727272727|com.github.fakegps.ui.JoyStickView.<init>|0.38480000000000003
0.2727272727272727|com.github.fakegps.ui.MainActivity.onCreate|0.3262
0.3181818181818182|com.github.fakegps.DbUtils.getLastLocPoint|0.2572
0.36363636363636365|com.github.fakegps.ui.MainActivity.onCreate|0.2284
0.4090909090909091|com.github.fakegps.ui.MainActivity.onClick|0.214
0.45454545454545453|android.app.ActivityThread.handleBindApplication|0.2062
0.5|com.github.fakegps.FakeGpsApp.initLogger|0.2008
0.5454545454545454|com.github.fakegps.ui.MainActivity.onClick|0.1996
0.5909090909090909|com.github.fakegps.ui.MainActivity.onDestroy|0.196
0.6363636363636364|com.github.fakegps.ui.JoyStickView.<init>|0.1948
0.6818181818181818|com.github.fakegps.ui.MainActivity.unregisterBroadcastReceiver|0.193
0.7272727272727273|android.app.SharedPreferencesImpl.getString|0.06720000000000001
0.7727272727272727|android.support.v7.app.AppCompatActivity.setContentView|0.0192
0.8181818181818182|android.os.Environment.getExternalStorageDirectory|0.005399999999999999
0.8636363636363636|android.content.ContextWrapper.getSystemService|0.0048
0.9090909090909091|android.content.ContextWrapper.getSystemService|0.0036
0.9545454545454546|android.support.v4.content.LocalBroadcastManager.unregisterReceiver|0.003
1.0|android.view.LayoutInflater.inflate|0.0012
