7c7
< AFTER android.app.Activity.getFragmentManager, returnValue: FragmentManager{3f78b902 in PreferencesActivity{2d10169e}}
---
> AFTER android.app.Activity.getFragmentManager, returnValue: FragmentManager{857efdc in HostCallbacks{8ae58e5}}
9c9
< AFTER android.app.FragmentManagerImpl.beginTransaction, returnValue: BackStackEntry{28519213}, isEmpty: true
---
> AFTER android.app.FragmentManagerImpl.beginTransaction, returnValue: BackStackEntry{76fcfba}, isEmpty: true
12,13c12,13
< AFTER android.app.BackStackRecord.replace, returnValue: BackStackEntry{28519213}, isEmpty: false
< AFTER android.app.BackStackRecord.replace, returnValue: BackStackEntry{28519213}, isEmpty: false
---
> AFTER android.app.BackStackRecord.replace, returnValue: BackStackEntry{76fcfba}, isEmpty: false
> AFTER android.app.BackStackRecord.replace, returnValue: BackStackEntry{76fcfba}, isEmpty: false
55c55
< AFTER android.net.wifi.WifiManager.getScanResults, returnValue: [SSID: WiredSSID, BSSID: 01:80:c2:00:00:03, capabilities: [ESS], level: -55, frequency: 2412, timestamp: 1611022977199, distance: ?(cm), distanceSd: ?(cm)], isEmpty: false
---
> AFTER android.net.wifi.WifiManager.getScanResults, returnValue: [SSID: WiredSSID, BSSID: 01:80:c2:00:00:03, capabilities: [ESS], level: -55, frequency: 2412, timestamp: 1611023852364, distance: ?(cm), distanceSd: ?(cm), passpoint: no, ChannelBandwidth: 0, centerFreq0: 0, centerFreq1: 0, 80211mcResponder: is not supported], isEmpty: false
57c57
< AFTER android.net.wifi.WifiManager.getConfiguredNetworks, returnValue: [ID: 0 SSID: "WiredSSID" BSSID: any FQDN: null REALM: null PRIO: 14  disableReason 5  numAssociation 146  validatedInternetAccess  KeyMgmt: NONE Protocols: WPA RSN  AuthAlgorithms:  PairwiseCiphers: TKIP CCMP  GroupCiphers: WEP40 WEP104 TKIP CCMP  PSK:  Enterprise config: password NULL subject_match NULL engine 0 client_cert NULL ca_cert NULL anonymous_identity NULL identity NULL key_id NULL engine_id NULL phase2 NULL eap NULL IP config: IP assignment: DHCP Proxy settings: NONE  autoJoinBSSID=anyroamingFailureBlackListTimeMilli: 1000 triggeredLow: 0 triggeredBad: 0 triggeredNotHigh: 0 ticksLow: 0 ticksBad: 0 ticksNotHigh: 0 triggeredJoin: 0 autoJoinBailedDueToLowRssi: false autoJoinUseAggressiveJoinAttemptThreshold: 0 ], isEmpty: false
---
> AFTER android.net.wifi.WifiManager.getConfiguredNetworks, returnValue: [ID: 0 SSID: "WiredSSID" PROVIDER-NAME: null BSSID: any FQDN: null PRIO: 9  disableReason 5  numAssociation 45  validatedInternetAccess  KeyMgmt: NONE Protocols: WPA RSN  AuthAlgorithms:  PairwiseCiphers: TKIP CCMP  GroupCiphers: TKIP CCMP  PSK:  Enterprise config: altsubject_match NULL password NULL subject_match NULL engine 0 client_cert NULL ca_cert NULL anonymous_identity NULL identity NULL domain_suffix_match NULL key_id NULL engine_id NULL phase2 NULL eap NULL IP config: IP assignment: DHCP Proxy settings: NONE  autoJoinBSSID=any cuid=-1 cname=null luid=1000 lname=null lcuid=1000 userApproved=USER_APPROVED noInternetAccessExpected=false roamingFailureBlackListTimeMilli: 1000 triggeredLow: 0 triggeredBad: 0 triggeredNotHigh: 0 ticksLow: 0 ticksBad: 0 ticksNotHigh: 0 triggeredJoin: 1 autoJoinBailedDueToLowRssi: false autoJoinUseAggressiveJoinAttemptThreshold: 0 ], isEmpty: false
135c135,225
< AFTER android.support.v4.app.NotificationCompat$Builder.build, returnValue: Notification(pri=2 contentView=be.uhasselt.privacypolicebug/0x1090077 vibrate=null sound=null defaults=0x0 flags=0x0 color=0x00000000 actions=2 vis=PRIVATE)
---
> AFTER android.support.v4.app.NotificationCompat$Builder.build, returnValue: Notification(pri=2 contentView=be.uhasselt.privacypolicebug/0x1090085 vibrate=null sound=null defaults=0x0 flags=0x0 color=0x00000000 actions=2 vis=PRIVATE)
> BEFORE android.app.NotificationManager.notify(0,android.app.Notification)
> BEFORE android.app.NotificationManager.notify(0,android.app.Notification)
> AFTER android.app.NotificationManager.notify
> AFTER android.app.NotificationManager.notify
> BEFORE android.net.wifi.WifiManager.disableNetwork(0)
> AFTER android.net.wifi.WifiManager.disableNetwork, returnValue: true
> AFTER be.uhasselt.privacypolice.ScanResultsChecker.onReceive
> BEFORE be.uhasselt.privacypolice.ScanResultsChecker.onReceive(android.app.ReceiverRestrictedContext,android.content.Intent)
> BEFORE android.net.wifi.WifiManager.getScanResults()
> AFTER android.net.wifi.WifiManager.getScanResults, returnValue: [SSID: WiredSSID, BSSID: 01:80:c2:00:00:03, capabilities: [ESS], level: -55, frequency: 2412, timestamp: 1611023854156, distance: ?(cm), distanceSd: ?(cm), passpoint: no, ChannelBandwidth: 0, centerFreq0: 0, centerFreq1: 0, 80211mcResponder: is not supported], isEmpty: false
> BEFORE android.net.wifi.WifiManager.getConfiguredNetworks()
> AFTER android.net.wifi.WifiManager.getConfiguredNetworks, returnValue: [- DSBLE ID: 0 SSID: "WiredSSID" PROVIDER-NAME: null BSSID: any FQDN: null PRIO: 9  autoJoinStatus 161  disableReason 5  numAssociation 45  validatedInternetAccess  KeyMgmt: NONE Protocols: WPA RSN  AuthAlgorithms:  PairwiseCiphers: TKIP CCMP  GroupCiphers: TKIP CCMP  PSK:  Enterprise config: altsubject_match NULL password NULL subject_match NULL engine 0 client_cert NULL ca_cert NULL anonymous_identity NULL identity NULL domain_suffix_match NULL key_id NULL engine_id NULL phase2 NULL eap NULL IP config: IP assignment: DHCP Proxy settings: NONE  autoJoinBSSID=any cuid=-1 cname=null luid=1000 lname=null lcuid=1000 userApproved=USER_APPROVED noInternetAccessExpected=false roamingFailureBlackListTimeMilli: 1000 triggeredLow: 0 triggeredBad: 0 triggeredNotHigh: 0 ticksLow: 0 ticksBad: 0 ticksNotHigh: 0 triggeredJoin: 1 autoJoinBailedDueToLowRssi: false autoJoinUseAggressiveJoinAttemptThreshold: 0 ], isEmpty: false
> BEFORE android.app.SharedPreferencesImpl.getBoolean(enableOnlyAvailableNetworks,true)
> AFTER android.app.SharedPreferencesImpl.getBoolean, returnValue: true
> BEFORE android.app.SharedPreferencesImpl.getBoolean(onlyConnectToKnownAccessPoints,false)
> AFTER android.app.SharedPreferencesImpl.getBoolean, returnValue: true
> BEFORE android.app.SharedPreferencesImpl.getStringSet(ABSSID//WiredSSID,java.util.HashSet)
> AFTER android.app.SharedPreferencesImpl.getStringSet, returnValue: [], isEmpty: true
> BEFORE android.app.SharedPreferencesImpl.getStringSet(BBSSID//WiredSSID,java.util.HashSet)
> AFTER android.app.SharedPreferencesImpl.getStringSet, returnValue: [], isEmpty: true
> BEFORE android.content.Intent.putExtra(SSID,WiredSSID)
> BEFORE android.content.Intent.putExtra(SSID,WiredSSID)
> AFTER android.content.Intent.putExtra, returnValue: Intent { cmp=be.uhasselt.privacypolicebug/be.uhasselt.privacypolice.PermissionChangeReceiver (has extras) }
> AFTER android.content.Intent.putExtra, returnValue: Intent { cmp=be.uhasselt.privacypolicebug/be.uhasselt.privacypolice.PermissionChangeReceiver (has extras) }
> BEFORE android.content.Intent.putExtra(BSSID,01:80:c2:00:00:03)
> BEFORE android.content.Intent.putExtra(BSSID,01:80:c2:00:00:03)
> AFTER android.content.Intent.putExtra, returnValue: Intent { cmp=be.uhasselt.privacypolicebug/be.uhasselt.privacypolice.PermissionChangeReceiver (has extras) }
> AFTER android.content.Intent.putExtra, returnValue: Intent { cmp=be.uhasselt.privacypolicebug/be.uhasselt.privacypolice.PermissionChangeReceiver (has extras) }
> BEFORE android.content.Intent.putExtra(enable,true)
> BEFORE android.content.Intent.putExtra(enable,true)
> AFTER android.content.Intent.putExtra, returnValue: Intent { cmp=be.uhasselt.privacypolicebug/be.uhasselt.privacypolice.PermissionChangeReceiver (has extras) }
> AFTER android.content.Intent.putExtra, returnValue: Intent { cmp=be.uhasselt.privacypolicebug/be.uhasselt.privacypolice.PermissionChangeReceiver (has extras) }
> BEFORE android.app.PendingIntent.getBroadcast(android.app.ReceiverRestrictedContext,0,android.content.Intent,268435456)
> AFTER android.app.PendingIntent.getBroadcast, returnValue: android.app.PendingIntent
> BEFORE android.content.Intent.putExtra(SSID,WiredSSID)
> BEFORE android.content.Intent.putExtra(SSID,WiredSSID)
> AFTER android.content.Intent.putExtra, returnValue: Intent { cmp=be.uhasselt.privacypolicebug/be.uhasselt.privacypolice.PermissionChangeReceiver (has extras) }
> AFTER android.content.Intent.putExtra, returnValue: Intent { cmp=be.uhasselt.privacypolicebug/be.uhasselt.privacypolice.PermissionChangeReceiver (has extras) }
> BEFORE android.content.Intent.putExtra(BSSID,01:80:c2:00:00:03)
> BEFORE android.content.Intent.putExtra(BSSID,01:80:c2:00:00:03)
> AFTER android.content.Intent.putExtra, returnValue: Intent { cmp=be.uhasselt.privacypolicebug/be.uhasselt.privacypolice.PermissionChangeReceiver (has extras) }
> AFTER android.content.Intent.putExtra, returnValue: Intent { cmp=be.uhasselt.privacypolicebug/be.uhasselt.privacypolice.PermissionChangeReceiver (has extras) }
> BEFORE android.content.Intent.putExtra(enable,false)
> BEFORE android.content.Intent.putExtra(enable,false)
> AFTER android.content.Intent.putExtra, returnValue: Intent { cmp=be.uhasselt.privacypolicebug/be.uhasselt.privacypolice.PermissionChangeReceiver (has extras) }
> AFTER android.content.Intent.putExtra, returnValue: Intent { cmp=be.uhasselt.privacypolicebug/be.uhasselt.privacypolice.PermissionChangeReceiver (has extras) }
> BEFORE android.app.PendingIntent.getBroadcast(android.app.ReceiverRestrictedContext,1,android.content.Intent,268435456)
> AFTER android.app.PendingIntent.getBroadcast, returnValue: android.app.PendingIntent
> BEFORE android.content.Intent.putExtra(SSID,WiredSSID)
> BEFORE android.content.Intent.putExtra(SSID,WiredSSID)
> AFTER android.content.Intent.putExtra, returnValue: Intent { cmp=be.uhasselt.privacypolicebug/be.uhasselt.privacypolice.AskPermissionActivity (has extras) }
> AFTER android.content.Intent.putExtra, returnValue: Intent { cmp=be.uhasselt.privacypolicebug/be.uhasselt.privacypolice.AskPermissionActivity (has extras) }
> BEFORE android.content.Intent.putExtra(BSSID,01:80:c2:00:00:03)
> BEFORE android.content.Intent.putExtra(BSSID,01:80:c2:00:00:03)
> AFTER android.content.Intent.putExtra, returnValue: Intent { cmp=be.uhasselt.privacypolicebug/be.uhasselt.privacypolice.AskPermissionActivity (has extras) }
> AFTER android.content.Intent.putExtra, returnValue: Intent { cmp=be.uhasselt.privacypolicebug/be.uhasselt.privacypolice.AskPermissionActivity (has extras) }
> BEFORE android.app.PendingIntent.getActivity(android.app.ReceiverRestrictedContext,2,android.content.Intent,268435456)
> BEFORE android.app.PendingIntent.getActivity(android.app.ReceiverRestrictedContext,2,android.content.Intent,268435456)
> AFTER android.app.PendingIntent.getActivity, returnValue: android.app.PendingIntent
> AFTER android.app.PendingIntent.getActivity, returnValue: android.app.PendingIntent
> BEFORE android.content.ContextWrapper.getResources()
> AFTER android.content.ContextWrapper.getResources, returnValue: android.content.res.XResources
> BEFORE android.content.res.Resources.getString(2131165199)
> AFTER android.content.res.Resources.getString, returnValue: "%1$s" encountered, isEmpty: false
> BEFORE android.content.res.Resources.getString(2131165186)
> AFTER android.content.res.Resources.getString, returnValue: Are you sure network %1$s should be available right now?, isEmpty: false
> BEFORE android.content.res.Resources.getString(2131165206)
> AFTER android.content.res.Resources.getString, returnValue: Yes, isEmpty: false
> BEFORE android.content.res.Resources.getString(2131165198)
> AFTER android.content.res.Resources.getString, returnValue: No, isEmpty: false
> BEFORE android.support.v4.app.NotificationCompat$Builder.setSmallIcon(2130837506)
> AFTER android.support.v4.app.NotificationCompat$Builder.setSmallIcon, returnValue: android.support.v4.app.NotificationCompat$Builder
> BEFORE android.support.v4.app.NotificationCompat$Builder.setPriority(2)
> AFTER android.support.v4.app.NotificationCompat$Builder.setPriority, returnValue: android.support.v4.app.NotificationCompat$Builder
> BEFORE android.support.v4.app.NotificationCompat$Builder.setContentTitle("WiredSSID" encountered)
> AFTER android.support.v4.app.NotificationCompat$Builder.setContentTitle, returnValue: android.support.v4.app.NotificationCompat$Builder
> BEFORE android.support.v4.app.NotificationCompat$Builder.setContentText(Are you sure network WiredSSID should be available right now?)
> AFTER android.support.v4.app.NotificationCompat$Builder.setContentText, returnValue: android.support.v4.app.NotificationCompat$Builder
> BEFORE android.support.v4.app.NotificationCompat$BigTextStyle.bigText(Are you sure network WiredSSID should be available right now?)
> AFTER android.support.v4.app.NotificationCompat$BigTextStyle.bigText, returnValue: android.support.v4.app.NotificationCompat$BigTextStyle
> BEFORE android.support.v4.app.NotificationCompat$Builder.setStyle(android.support.v4.app.NotificationCompat$BigTextStyle)
> AFTER android.support.v4.app.NotificationCompat$Builder.setStyle, returnValue: android.support.v4.app.NotificationCompat$Builder
> BEFORE android.support.v4.app.NotificationCompat$Builder.setContentIntent(android.app.PendingIntent)
> AFTER android.support.v4.app.NotificationCompat$Builder.setContentIntent, returnValue: android.support.v4.app.NotificationCompat$Builder
> BEFORE android.support.v4.app.NotificationCompat$Builder.addAction(17301533,No,android.app.PendingIntent)
> AFTER android.support.v4.app.NotificationCompat$Builder.addAction, returnValue: android.support.v4.app.NotificationCompat$Builder
> BEFORE android.support.v4.app.NotificationCompat$Builder.addAction(17301547,Yes,android.app.PendingIntent)
> AFTER android.support.v4.app.NotificationCompat$Builder.addAction, returnValue: android.support.v4.app.NotificationCompat$Builder
> BEFORE android.support.v4.app.NotificationCompat$Builder.build()
> AFTER android.support.v4.app.NotificationCompat$Builder.build, returnValue: Notification(pri=2 contentView=be.uhasselt.privacypolicebug/0x1090085 vibrate=null sound=null defaults=0x0 flags=0x0 color=0x00000000 actions=2 vis=PRIVATE)
163c253
< AFTER android.net.wifi.WifiManager.getScanResults, returnValue: [SSID: WiredSSID, BSSID: 01:80:c2:00:00:03, capabilities: [ESS], level: -55, frequency: 2412, timestamp: 1611022977199, distance: ?(cm), distanceSd: ?(cm)], isEmpty: false
---
> AFTER android.net.wifi.WifiManager.getScanResults, returnValue: [SSID: WiredSSID, BSSID: 01:80:c2:00:00:03, capabilities: [ESS], level: -55, frequency: 2412, timestamp: 1611023854156, distance: ?(cm), distanceSd: ?(cm), passpoint: no, ChannelBandwidth: 0, centerFreq0: 0, centerFreq1: 0, 80211mcResponder: is not supported], isEmpty: false
187c277
< AFTER android.net.wifi.WifiManager.getScanResults, returnValue: [SSID: WiredSSID, BSSID: 01:80:c2:00:00:03, capabilities: [ESS], level: -55, frequency: 2412, timestamp: 1611022988387, distance: ?(cm), distanceSd: ?(cm)], isEmpty: false
---
> AFTER android.net.wifi.WifiManager.getScanResults, returnValue: [SSID: WiredSSID, BSSID: 01:80:c2:00:00:03, capabilities: [ESS], level: -55, frequency: 2412, timestamp: 1611023865135, distance: ?(cm), distanceSd: ?(cm), passpoint: no, ChannelBandwidth: 0, centerFreq0: 0, centerFreq1: 0, 80211mcResponder: is not supported], isEmpty: false
189c279
< AFTER android.net.wifi.WifiManager.getConfiguredNetworks, returnValue: [- DSBLE ID: 0 SSID: "WiredSSID" BSSID: any FQDN: null REALM: null PRIO: 14  autoJoinStatus 161  disableReason 5  numAssociation 146  validatedInternetAccess  KeyMgmt: NONE Protocols: WPA RSN  AuthAlgorithms:  PairwiseCiphers: TKIP CCMP  GroupCiphers: WEP40 WEP104 TKIP CCMP  PSK:  Enterprise config: password NULL subject_match NULL engine 0 client_cert NULL ca_cert NULL anonymous_identity NULL identity NULL key_id NULL engine_id NULL phase2 NULL eap NULL IP config: IP assignment: DHCP Proxy settings: NONE  autoJoinBSSID=anyroamingFailureBlackListTimeMilli: 1000 triggeredLow: 0 triggeredBad: 0 triggeredNotHigh: 0 ticksLow: 0 ticksBad: 0 ticksNotHigh: 0 triggeredJoin: 0 autoJoinBailedDueToLowRssi: false autoJoinUseAggressiveJoinAttemptThreshold: 0 ], isEmpty: false
---
> AFTER android.net.wifi.WifiManager.getConfiguredNetworks, returnValue: [- DSBLE ID: 0 SSID: "WiredSSID" PROVIDER-NAME: null BSSID: any FQDN: null PRIO: 9  autoJoinStatus 161  disableReason 5  numAssociation 45  validatedInternetAccess  KeyMgmt: NONE Protocols: WPA RSN  AuthAlgorithms:  PairwiseCiphers: TKIP CCMP  GroupCiphers: TKIP CCMP  PSK:  Enterprise config: altsubject_match NULL password NULL subject_match NULL engine 0 client_cert NULL ca_cert NULL anonymous_identity NULL identity NULL domain_suffix_match NULL key_id NULL engine_id NULL phase2 NULL eap NULL IP config: IP assignment: DHCP Proxy settings: NONE  autoJoinBSSID=any cuid=-1 cname=null luid=1000 lname=null lcuid=1000 userApproved=USER_APPROVED noInternetAccessExpected=false roamingFailureBlackListTimeMilli: 1000 triggeredLow: 0 triggeredBad: 0 triggeredNotHigh: 0 ticksLow: 0 ticksBad: 0 ticksNotHigh: 0 triggeredJoin: 1 autoJoinBailedDueToLowRssi: false autoJoinUseAggressiveJoinAttemptThreshold: 0 ], isEmpty: false
201c291
< AFTER android.net.ConnectivityManager.getNetworkInfo, returnValue: [type: WIFI[], state: DISCONNECTED/DISCONNECTED, reason: (unspecified), extra: (none), roaming: false, failover: false, isAvailable: true, isConnectedToProvisioningNetwork: false]
---
> AFTER android.net.ConnectivityManager.getNetworkInfo, returnValue: [type: WIFI[], state: DISCONNECTED/DISCONNECTED, reason: (unspecified), extra: (none), roaming: false, failover: false, isAvailable: true]
211c301
< AFTER android.net.wifi.WifiManager.getScanResults, returnValue: [SSID: WiredSSID, BSSID: 01:80:c2:00:00:03, capabilities: [ESS], level: -55, frequency: 2412, timestamp: 1611022995333, distance: ?(cm), distanceSd: ?(cm)], isEmpty: false
---
> AFTER android.net.wifi.WifiManager.getScanResults, returnValue: [], isEmpty: true
213c303
< AFTER android.net.wifi.WifiManager.getConfiguredNetworks, returnValue: [* ID: 0 SSID: "WiredSSID" BSSID: any FQDN: null REALM: null PRIO: 14  disableReason 5  numAssociation 147  validatedInternetAccess  KeyMgmt: NONE Protocols: WPA RSN  AuthAlgorithms:  PairwiseCiphers: TKIP CCMP  GroupCiphers: WEP40 WEP104 TKIP CCMP  PSK:  Enterprise config: password NULL subject_match NULL engine 0 client_cert NULL ca_cert NULL anonymous_identity NULL identity NULL key_id NULL engine_id NULL phase2 NULL eap NULL IP config: IP assignment: DHCP Proxy settings: NONE  autoJoinBSSID=anyroamingFailureBlackListTimeMilli: 1000 triggeredLow: 0 triggeredBad: 0 triggeredNotHigh: 0 ticksLow: 0 ticksBad: 0 ticksNotHigh: 0 triggeredJoin: 0 autoJoinBailedDueToLowRssi: false autoJoinUseAggressiveJoinAttemptThreshold: 0 ], isEmpty: false
---
> AFTER android.net.wifi.WifiManager.getConfiguredNetworks, returnValue: [* ID: 0 SSID: "WiredSSID" PROVIDER-NAME: null BSSID: any FQDN: null PRIO: 9  disableReason 5  numAssociation 46  validatedInternetAccess  KeyMgmt: NONE Protocols: WPA RSN  AuthAlgorithms:  PairwiseCiphers: TKIP CCMP  GroupCiphers: TKIP CCMP  PSK:  Enterprise config: altsubject_match NULL password NULL subject_match NULL engine 0 client_cert NULL ca_cert NULL anonymous_identity NULL identity NULL domain_suffix_match NULL key_id NULL engine_id NULL phase2 NULL eap NULL IP config: IP assignment: DHCP Proxy settings: NONE  autoJoinBSSID=any cuid=-1 cname=null luid=1000 lname=null lcuid=1000 userApproved=USER_APPROVED noInternetAccessExpected=false roamingFailureBlackListTimeMilli: 1000 triggeredLow: 0 triggeredBad: 0 triggeredNotHigh: 0 ticksLow: 0 ticksBad: 0 ticksNotHigh: 0 triggeredJoin: 1 autoJoinBailedDueToLowRssi: false autoJoinUseAggressiveJoinAttemptThreshold: 0 ], isEmpty: false
216c306,316
< BEFORE android.app.SharedPreferencesImpl.getBoolean(onlyConnectToKnownAccessPoints,false)
---
> BEFORE android.net.wifi.WifiManager.disableNetwork(0)
> AFTER android.net.wifi.WifiManager.disableNetwork, returnValue: true
> BEFORE android.app.NotificationManager.cancelAll()
> AFTER android.app.NotificationManager.cancelAll
> AFTER be.uhasselt.privacypolice.ScanResultsChecker.onReceive
> BEFORE be.uhasselt.privacypolice.ScanResultsChecker.onReceive(android.app.ReceiverRestrictedContext,android.content.Intent)
> BEFORE android.net.wifi.WifiManager.getScanResults()
> AFTER android.net.wifi.WifiManager.getScanResults, returnValue: [], isEmpty: true
> BEFORE android.net.wifi.WifiManager.getConfiguredNetworks()
> AFTER android.net.wifi.WifiManager.getConfiguredNetworks, returnValue: [- DSBLE ID: 0 SSID: "WiredSSID" PROVIDER-NAME: null BSSID: any FQDN: null PRIO: 9  autoJoinStatus 161  disableReason 5  numAssociation 46  validatedInternetAccess  KeyMgmt: NONE Protocols: WPA RSN  AuthAlgorithms:  PairwiseCiphers: TKIP CCMP  GroupCiphers: TKIP CCMP  PSK:  Enterprise config: altsubject_match NULL password NULL subject_match NULL engine 0 client_cert NULL ca_cert NULL anonymous_identity NULL identity NULL domain_suffix_match NULL key_id NULL engine_id NULL phase2 NULL eap NULL IP config: IP assignment: DHCP Proxy settings: NONE  autoJoinBSSID=any cuid=-1 cname=null luid=1000 lname=null lcuid=1000 userApproved=USER_APPROVED noInternetAccessExpected=false roamingFailureBlackListTimeMilli: 1000 triggeredLow: 0 triggeredBad: 0 triggeredNotHigh: 0 ticksLow: 0 ticksBad: 0 ticksNotHigh: 0 triggeredJoin: 1 autoJoinBailedDueToLowRssi: false autoJoinUseAggressiveJoinAttemptThreshold: 0 ], isEmpty: false
> BEFORE android.app.SharedPreferencesImpl.getBoolean(enableOnlyAvailableNetworks,true)
218,227c318,319
< BEFORE android.app.SharedPreferencesImpl.getStringSet(ABSSID//WiredSSID,java.util.HashSet)
< AFTER android.app.SharedPreferencesImpl.getStringSet, returnValue: [01:80:c2:00:00:03], isEmpty: false
< BEFORE android.net.wifi.WifiManager.enableNetwork(0,false)
< AFTER android.net.wifi.WifiManager.enableNetwork, returnValue: true
< BEFORE android.net.wifi.WifiManager.reconnect()
< AFTER android.net.wifi.WifiManager.reconnect, returnValue: true
< BEFORE android.net.ConnectivityManager.getNetworkInfo(1)
< AFTER android.net.ConnectivityManager.getNetworkInfo, returnValue: [type: WIFI[], state: CONNECTED/CONNECTED, reason: (unspecified), extra: "WiredSSID", roaming: false, failover: false, isAvailable: true, isConnectedToProvisioningNetwork: false]
< BEFORE android.net.NetworkInfo.isConnectedOrConnecting()
< AFTER android.net.NetworkInfo.isConnectedOrConnecting, returnValue: true
---
> BEFORE android.net.wifi.WifiManager.disableNetwork(0)
> AFTER android.net.wifi.WifiManager.disableNetwork, returnValue: true
233c325
< AFTER android.net.wifi.WifiManager.getScanResults, returnValue: [SSID: WiredSSID, BSSID: 01:80:c2:00:00:03, capabilities: [ESS], level: -55, frequency: 2412, timestamp: 1611023005363, distance: ?(cm), distanceSd: ?(cm)], isEmpty: false
---
> AFTER android.net.wifi.WifiManager.getScanResults, returnValue: [], isEmpty: true
235c327
< AFTER android.net.wifi.WifiManager.getConfiguredNetworks, returnValue: [* ID: 0 SSID: "WiredSSID" BSSID: any FQDN: null REALM: null PRIO: 14  disableReason 5  numAssociation 148  validatedInternetAccess  KeyMgmt: NONE Protocols: WPA RSN  AuthAlgorithms:  PairwiseCiphers: TKIP CCMP  GroupCiphers: WEP40 WEP104 TKIP CCMP  PSK:  Enterprise config: password NULL subject_match NULL engine 0 client_cert NULL ca_cert NULL anonymous_identity NULL identity NULL key_id NULL engine_id NULL phase2 NULL eap NULL IP config: IP assignment: DHCP Proxy settings: NONE  autoJoinBSSID=anyroamingFailureBlackListTimeMilli: 1000 triggeredLow: 0 triggeredBad: 0 triggeredNotHigh: 0 ticksLow: 0 ticksBad: 0 ticksNotHigh: 0 triggeredJoin: 0 autoJoinBailedDueToLowRssi: false autoJoinUseAggressiveJoinAttemptThreshold: 0 ], isEmpty: false
---
> AFTER android.net.wifi.WifiManager.getConfiguredNetworks, returnValue: [* ID: 0 SSID: "WiredSSID" PROVIDER-NAME: null BSSID: any FQDN: null PRIO: 9  disableReason 5  numAssociation 47  validatedInternetAccess  KeyMgmt: NONE Protocols: WPA RSN  AuthAlgorithms:  PairwiseCiphers: TKIP CCMP  GroupCiphers: TKIP CCMP  PSK:  Enterprise config: altsubject_match NULL password NULL subject_match NULL engine 0 client_cert NULL ca_cert NULL anonymous_identity NULL identity NULL domain_suffix_match NULL key_id NULL engine_id NULL phase2 NULL eap NULL IP config: IP assignment: DHCP Proxy settings: NONE  autoJoinBSSID=any cuid=-1 cname=null luid=1000 lname=null lcuid=1000 userApproved=USER_APPROVED noInternetAccessExpected=false roamingFailureBlackListTimeMilli: 1000 triggeredLow: 0 triggeredBad: 0 triggeredNotHigh: 0 ticksLow: 0 ticksBad: 0 ticksNotHigh: 0 triggeredJoin: 0 autoJoinBailedDueToLowRssi: false autoJoinUseAggressiveJoinAttemptThreshold: 0 ], isEmpty: false
238c330,340
< BEFORE android.app.SharedPreferencesImpl.getBoolean(onlyConnectToKnownAccessPoints,false)
---
> BEFORE android.net.wifi.WifiManager.disableNetwork(0)
> AFTER android.net.wifi.WifiManager.disableNetwork, returnValue: true
> BEFORE android.app.NotificationManager.cancelAll()
> AFTER android.app.NotificationManager.cancelAll
> AFTER be.uhasselt.privacypolice.ScanResultsChecker.onReceive
> BEFORE be.uhasselt.privacypolice.ScanResultsChecker.onReceive(android.app.ReceiverRestrictedContext,android.content.Intent)
> BEFORE android.net.wifi.WifiManager.getScanResults()
> AFTER android.net.wifi.WifiManager.getScanResults, returnValue: [], isEmpty: true
> BEFORE android.net.wifi.WifiManager.getConfiguredNetworks()
> AFTER android.net.wifi.WifiManager.getConfiguredNetworks, returnValue: [- DSBLE ID: 0 SSID: "WiredSSID" PROVIDER-NAME: null BSSID: any FQDN: null PRIO: 9  autoJoinStatus 161  disableReason 5  numAssociation 47  validatedInternetAccess  KeyMgmt: NONE Protocols: WPA RSN  AuthAlgorithms:  PairwiseCiphers: TKIP CCMP  GroupCiphers: TKIP CCMP  PSK:  Enterprise config: altsubject_match NULL password NULL subject_match NULL engine 0 client_cert NULL ca_cert NULL anonymous_identity NULL identity NULL domain_suffix_match NULL key_id NULL engine_id NULL phase2 NULL eap NULL IP config: IP assignment: DHCP Proxy settings: NONE  autoJoinBSSID=any cuid=-1 cname=null luid=1000 lname=null lcuid=1000 userApproved=USER_APPROVED noInternetAccessExpected=false roamingFailureBlackListTimeMilli: 1000 triggeredLow: 0 triggeredBad: 0 triggeredNotHigh: 0 ticksLow: 0 ticksBad: 0 ticksNotHigh: 0 triggeredJoin: 0 autoJoinBailedDueToLowRssi: false autoJoinUseAggressiveJoinAttemptThreshold: 0 ], isEmpty: false
> BEFORE android.app.SharedPreferencesImpl.getBoolean(enableOnlyAvailableNetworks,true)
240,249c342,343
< BEFORE android.app.SharedPreferencesImpl.getStringSet(ABSSID//WiredSSID,java.util.HashSet)
< AFTER android.app.SharedPreferencesImpl.getStringSet, returnValue: [01:80:c2:00:00:03], isEmpty: false
< BEFORE android.net.wifi.WifiManager.enableNetwork(0,false)
< AFTER android.net.wifi.WifiManager.enableNetwork, returnValue: true
< BEFORE android.net.wifi.WifiManager.reconnect()
< AFTER android.net.wifi.WifiManager.reconnect, returnValue: true
< BEFORE android.net.ConnectivityManager.getNetworkInfo(1)
< AFTER android.net.ConnectivityManager.getNetworkInfo, returnValue: [type: WIFI[], state: CONNECTED/CONNECTED, reason: (unspecified), extra: "WiredSSID", roaming: false, failover: false, isAvailable: true, isConnectedToProvisioningNetwork: false]
< BEFORE android.net.NetworkInfo.isConnectedOrConnecting()
< AFTER android.net.NetworkInfo.isConnectedOrConnecting, returnValue: true
---
> BEFORE android.net.wifi.WifiManager.disableNetwork(0)
> AFTER android.net.wifi.WifiManager.disableNetwork, returnValue: true
255c349
< AFTER android.net.wifi.WifiManager.getScanResults, returnValue: [SSID: WiredSSID, BSSID: 01:80:c2:00:00:03, capabilities: [ESS], level: -55, frequency: 2412, timestamp: 1611023009639, distance: ?(cm), distanceSd: ?(cm)], isEmpty: false
---
> AFTER android.net.wifi.WifiManager.getScanResults, returnValue: [], isEmpty: true
257c351
< AFTER android.net.wifi.WifiManager.getConfiguredNetworks, returnValue: [ID: 0 SSID: "WiredSSID" BSSID: any FQDN: null REALM: null PRIO: 14  disableReason 5  numAssociation 148  validatedInternetAccess  KeyMgmt: NONE Protocols: WPA RSN  AuthAlgorithms:  PairwiseCiphers: TKIP CCMP  GroupCiphers: WEP40 WEP104 TKIP CCMP  PSK:  Enterprise config: password NULL subject_match NULL engine 0 client_cert NULL ca_cert NULL anonymous_identity NULL identity NULL key_id NULL engine_id NULL phase2 NULL eap NULL IP config: IP assignment: DHCP Proxy settings: NONE  autoJoinBSSID=anyroamingFailureBlackListTimeMilli: 1000 triggeredLow: 0 triggeredBad: 0 triggeredNotHigh: 0 ticksLow: 0 ticksBad: 0 ticksNotHigh: 0 triggeredJoin: 0 autoJoinBailedDueToLowRssi: false autoJoinUseAggressiveJoinAttemptThreshold: 0 ], isEmpty: false
---
> AFTER android.net.wifi.WifiManager.getConfiguredNetworks, returnValue: [* ID: 0 SSID: "WiredSSID" PROVIDER-NAME: null BSSID: any FQDN: null PRIO: 10  disableReason 5  numAssociation 48  validatedInternetAccess  KeyMgmt: NONE Protocols: WPA RSN  AuthAlgorithms:  PairwiseCiphers: TKIP CCMP  GroupCiphers: TKIP CCMP  PSK:  Enterprise config: altsubject_match NULL password NULL subject_match NULL engine 0 client_cert NULL ca_cert NULL anonymous_identity NULL identity NULL domain_suffix_match NULL key_id NULL engine_id NULL phase2 NULL eap NULL IP config: IP assignment: DHCP Proxy settings: NONE  autoJoinBSSID=any cuid=-1 cname=null luid=1000 lname=null lcuid=1000 userApproved=USER_APPROVED noInternetAccessExpected=false roamingFailureBlackListTimeMilli: 1000 triggeredLow: 0 triggeredBad: 0 triggeredNotHigh: 0 ticksLow: 0 ticksBad: 0 ticksNotHigh: 0 triggeredJoin: 1 autoJoinBailedDueToLowRssi: false autoJoinUseAggressiveJoinAttemptThreshold: 0 ], isEmpty: false
260c354,364
< BEFORE android.app.SharedPreferencesImpl.getBoolean(onlyConnectToKnownAccessPoints,false)
---
> BEFORE android.net.wifi.WifiManager.disableNetwork(0)
> AFTER android.net.wifi.WifiManager.disableNetwork, returnValue: true
> BEFORE android.app.NotificationManager.cancelAll()
> AFTER android.app.NotificationManager.cancelAll
> AFTER be.uhasselt.privacypolice.ScanResultsChecker.onReceive
> BEFORE be.uhasselt.privacypolice.ScanResultsChecker.onReceive(android.app.ReceiverRestrictedContext,android.content.Intent)
> BEFORE android.net.wifi.WifiManager.getScanResults()
> AFTER android.net.wifi.WifiManager.getScanResults, returnValue: [], isEmpty: true
> BEFORE android.net.wifi.WifiManager.getConfiguredNetworks()
> AFTER android.net.wifi.WifiManager.getConfiguredNetworks, returnValue: [- DSBLE ID: 0 SSID: "WiredSSID" PROVIDER-NAME: null BSSID: any FQDN: null PRIO: 10  autoJoinStatus 161  disableReason 5  numAssociation 48  validatedInternetAccess  KeyMgmt: NONE Protocols: WPA RSN  AuthAlgorithms:  PairwiseCiphers: TKIP CCMP  GroupCiphers: TKIP CCMP  PSK:  Enterprise config: altsubject_match NULL password NULL subject_match NULL engine 0 client_cert NULL ca_cert NULL anonymous_identity NULL identity NULL domain_suffix_match NULL key_id NULL engine_id NULL phase2 NULL eap NULL IP config: IP assignment: DHCP Proxy settings: NONE  autoJoinBSSID=any cuid=-1 cname=null luid=1000 lname=null lcuid=1000 userApproved=USER_APPROVED noInternetAccessExpected=false roamingFailureBlackListTimeMilli: 1000 triggeredLow: 0 triggeredBad: 0 triggeredNotHigh: 0 ticksLow: 0 ticksBad: 0 ticksNotHigh: 0 triggeredJoin: 1 autoJoinBailedDueToLowRssi: false autoJoinUseAggressiveJoinAttemptThreshold: 0 ], isEmpty: false
> BEFORE android.app.SharedPreferencesImpl.getBoolean(enableOnlyAvailableNetworks,true)
262,271c366,367
< BEFORE android.app.SharedPreferencesImpl.getStringSet(ABSSID//WiredSSID,java.util.HashSet)
< AFTER android.app.SharedPreferencesImpl.getStringSet, returnValue: [01:80:c2:00:00:03], isEmpty: false
< BEFORE android.net.wifi.WifiManager.enableNetwork(0,false)
< AFTER android.net.wifi.WifiManager.enableNetwork, returnValue: true
< BEFORE android.net.wifi.WifiManager.reconnect()
< AFTER android.net.wifi.WifiManager.reconnect, returnValue: true
< BEFORE android.net.ConnectivityManager.getNetworkInfo(1)
< AFTER android.net.ConnectivityManager.getNetworkInfo, returnValue: [type: WIFI[], state: CONNECTED/CONNECTED, reason: (unspecified), extra: "WiredSSID", roaming: false, failover: false, isAvailable: true, isConnectedToProvisioningNetwork: false]
< BEFORE android.net.NetworkInfo.isConnectedOrConnecting()
< AFTER android.net.NetworkInfo.isConnectedOrConnecting, returnValue: true
---
> BEFORE android.net.wifi.WifiManager.disableNetwork(0)
> AFTER android.net.wifi.WifiManager.disableNetwork, returnValue: true
