Position |MethodName|Relevancy
0.002127659574468085|de.robv.android.xposed.XposedBridge.main|0.88
0.00425531914893617|com.android.internal.os.ZygoteInit.main|0.46036739031425533
0.006382978723404255|android.os.Handler.dispatchMessage|0.40305070593593445
0.00851063829787234|android.os.Handler.dispatchMessage|0.3758881129497495
0.010638297872340425|android.widget.Gallery.layout|0.3266297252163352
0.01276595744680851|android.view.ViewRootImpl.performTraversals|0.31728176711704875
0.014893617021276596|android.view.ViewRootImpl.performTraversals|0.2725208744496736
0.01702127659574468|android.app.Activity.performCreate|0.2674032184606042
0.019148936170212766|android.app.Activity.performCreate|0.2662555032640049
0.02127659574468085|android.app.ActivityThread.performLaunchActivity|0.2654129345680887
0.023404255319148935|android.app.ActivityThread.performLaunchActivity|0.2642652193714893
0.02553191489361702|android.os.Looper.loop|0.2523364202216487
0.027659574468085105|android.widget.Gallery.makeAndAddView|0.2511211477151966
0.029787234042553193|android.view.View.layout|0.2508114467891301
0.031914893617021274|android.app.ActivityThread.main|0.25019356307879154
0.03404255319148936|java.lang.reflect.Method.invoke|0.2480507059359344
0.036170212765957444|com.android.internal.os.ZygoteInit$MethodAndArgsCaller.run|0.24590784879307725
0.03829787234042553|android.view.View.layout|0.24561029300136633
0.04042553191489362|android.view.View.updateDisplayListIfDirty|0.24316001214513433
0.0425531914893617|android.view.View.layout|0.24101943221496885
0.04468085106382979|org.chromium.content.browser.ChildProcessLauncherHelperImpl.a|0.24045771975102476
0.04680851063829787|android.view.View.layout|0.23474343403673903
0.04893617021276596|android.view.View.updateDisplayListIfDirty|0.2320654319113405
0.05106382978723404|android.view.View.updateDisplayListIfDirty|0.23091771671474115
0.05319148936170213|android.view.View.measure|0.22663200242902687
0.05531914893617021|android.os.Looper.loop|0.22517382723546378
0.0574468085106383|android.view.ThreadedRenderer.updateRootDisplayList|0.22325717321997873
0.059574468085106386|android.app.ActivityThread.main|0.22303097009260664
0.06170212765957447|java.lang.reflect.Method.invoke|0.2208881129497495
0.06382978723404255|android.view.View.updateDisplayListIfDirty|0.2198914528616973
0.06595744680851064|com.android.internal.os.Zygote$MethodAndArgsCaller.run|0.21874525580689236
0.06808510638297872|android.os.Handler.handleCallback|0.2019811750417489
0.07021276595744681|android.view.View.measure|0.197549719143768
0.07234042553191489|android.view.View.measure|0.19678457567936847
0.07446808510638298|android.view.View.updateDisplayListIfDirty|0.19655457719751024
0.07659574468085106|de.skubware.opentraining.activity.start_training.TrainingEntryListAdapter.getView|0.19612114771519662
0.07872340425531915|android.view.ViewGroup.invalidateChild|0.195968574464855
0.08085106382978724|android.widget.AbsListView.obtainView|0.19397829057233945
0.08297872340425531|android.view.View.invalidateInternal|0.19382571732199788
0.0851063829787234|android.view.ThreadedRenderer.updateRootDisplayList|0.1937991498405951
0.08723404255319149|at.technikum.mti.fancycoverflow.FancyCoverFlow.getChildStaticTransformation|0.19336572035828148
0.08936170212765958|de.skubware.opentraining.activity.start_training.TrainingEntryListAdapter.getView|0.19229543039319874
0.09148936170212765|android.widget.ListView.makeAndAddView|0.19183543342948234
0.09361702127659574|android.view.View.invalidate|0.1916828601791407
0.09574468085106383|android.view.View.setDisplayListProperties|0.1912228632154243
0.09787234042553192|android.app.Instrumentation.callActivityOnCreate|0.1909746470320328
0.1|android.widget.AbsListView.obtainView|0.19015257325034157
0.10212765957446808|de.skubware.opentraining.activity.MainActivity.onCreate|0.18990435706695005
0.10425531914893617|android.app.Instrumentation.callActivityOnCreate|0.18982693183543345
0.10638297872340426|android.widget.ListView.fillDown|0.18969257628662517
0.10851063829787234|android.view.ViewGroup.invalidateChild|0.1895400030362836
0.11063829787234042|android.view.View.updateDisplayListIfDirty|0.1890800060725672
0.1127659574468085|android.app.ActivityThread.handleLaunchActivity|0.18898436313951722
0.1148936170212766|de.skubware.opentraining.activity.start_training.FExListAdapter.getView|0.188774859571884
0.11702127659574468|de.skubware.opentraining.activity.MainActivity.onCreate|0.1887566418703507
0.11914893617021277|android.widget.ListView.makeAndAddView|0.18800971610748446
0.12127659574468085|android.app.ActivityThread.handleLaunchActivity|0.18783664794291788
0.12340425531914893|android.widget.ListView.fillFromTop|0.18754971914376806
0.125531914893617|android.view.ViewGroup.invalidateChild|0.18739714589342643
0.1276595744680851|android.view.View.draw|0.18693714892971003
0.12978723404255318|android.app.ActivityThread.-wrap12|0.1868415059966601
0.13191489361702127|android.widget.AbsListView.obtainView|0.18663200242902686
0.13404255319148936|android.widget.ListView.fillDown|0.1858668589646273
0.13617021276595745|android.app.ActivityThread.-wrap11|0.1856937908000607
0.13829787234042554|android.widget.ListView.layoutChildren|0.1854068620009109
0.14042553191489363|android.view.View.invalidateInternal|0.18525428875056932
0.1425531914893617|at.technikum.mti.fancycoverflow.FancyCoverFlowItemWrapper.dispatchDraw|0.18510171550022772
0.14468085106382977|at.technikum.mti.fancycoverflow.FancyCoverFlow.getChildStaticTransformation|0.18479429178685286
0.14680851063829786|android.app.ActivityThread$H.handleMessage|0.18469864885380294
0.14893617021276595|android.widget.ListView.makeAndAddView|0.18448914528616972
0.15106382978723404|android.widget.ListView.fillFromTop|0.18372400182177018
0.15319148936170213|android.app.ActivityThread$H.handleMessage|0.18355093365720357
0.15531914893617021|android.widget.AbsListView.onLayout|0.18326400485805372
0.1574468085106383|android.view.View.invalidate|0.18311143160771215
0.1595744680851064|android.view.View.updateDisplayListIfDirty|0.18295885835737058
0.16170212765957448|android.view.View.setDisplayListProperties|0.18265143464399575
0.16382978723404254|android.widget.ListView.fillDown|0.18234628814331258
0.16595744680851063|android.widget.ListView.layoutChildren|0.181581144678913
0.16808510638297872|android.view.View.layout|0.1811211477151966
0.1702127659574468|android.view.View.layout|0.180968574464855
0.1723404255319149|android.view.View.draw|0.18081600121451344
0.17446808510638298|android.view.View.updateDisplayListIfDirty|0.18050857750113858
0.17659574468085107|android.widget.ListView.fillFromTop|0.18020343100045544
0.17872340425531916|android.widget.AbsListView.onLayout|0.17943828753605584
0.18085106382978725|android.view.ViewGroup.layout|0.17897829057233944
0.1829787234042553|android.view.ViewGroup.invalidateChild|0.17882571732199787
0.1851063829787234|android.view.ViewGroup.drawChild|0.1786731440716563
0.18723404255319148|android.view.ViewGroup.recreateChildDisplayList|0.17836572035828147
0.18936170212765957|android.widget.ListView.layoutChildren|0.1780605738575983
0.19148936170212766|de.skubware.opentraining.activity.NavigationGalleryAdapter.getLayoutParams|0.1779080006072567
0.19361702127659575|android.view.View.layout|0.17729543039319873
0.19574468085106383|android.widget.RelativeLayout.onLayout|0.17683543342948232
0.19787234042553192|android.view.View.invalidateInternal|0.17668286017914073
0.2|de.skubware.opentraining.activity.NavigationGalleryAdapter.getCoverFlowItem|0.17653028692879916
0.20212765957446807|at.technikum.mti.fancycoverflow.FancyCoverFlow.getChildStaticTransformation|0.1762228632154243
0.20425531914893616|android.widget.AbsListView.onLayout|0.17591771671474116
0.20638297872340425|android.widget.Gallery.onLayout|0.17591543950204946
0.20851063829787234|sun.misc.Hashing.singleWordWangJenkinsHash|0.1757651434643996
0.21063829787234042|at.technikum.mti.fancycoverflow.FancyCoverFlowAdapter.getView|0.17515257325034156
0.2127659574468085|android.view.View.layout|0.17469257628662516
0.2148936170212766|android.view.View.invalidate|0.1745400030362836
0.2170212765957447|android.view.View.updateDisplayListIfDirty|0.17438742978594202
0.21914893617021278|android.view.ViewGroup.layout|0.1743828753605587
0.22127659574468084|android.view.View.setDisplayListProperties|0.17408000607256718
0.22340425531914893|android.view.View.layout|0.17377485957188402
0.225531914893617|android.view.View.layout|0.17377258235919235
0.2276595744680851|java.util.HashMap.putForCreate|0.17362228632154242
0.2297872340425532|android.widget.RelativeLayout.onLayout|0.17300971610748445
0.23191489361702128|android.view.ViewGroup.layout|0.17254971914376804
0.23404255319148937|android.view.ViewGroup.invalidateChild|0.17239714589342645
0.23617021276595745|android.view.ViewGroup.recreateChildDisplayList|0.17224457264308488
0.23829787234042554|android.widget.FrameLayout.layoutChildren|0.17224001821770152
0.2404255319148936|android.os.Handler.dispatchMessage|0.17198572946713223
0.2425531914893617|android.view.View.updateDisplayListIfDirty|0.17193714892971002
0.24468085106382978|android.view.ViewGroup.layout|0.17163200242902688
0.24680851063829787|android.view.ViewGroup.layout|0.17162972521633518
0.24893617021276596|java.util.HashMap.readObject|0.1714794291786853
0.251063829787234|android.view.View.layout|0.17086685896462728
0.2531914893617021|android.widget.RelativeLayout.onLayout|0.17040686200091087
0.2553191489361702|android.view.View.invalidateInternal|0.1702542887505693
0.2574468085106383|android.view.ViewGroup.dispatchGetDisplayList|0.17010171550022773
0.25957446808510637|android.widget.FrameLayout.onLayout|0.17009716107484438
0.26170212765957446|at.technikum.mti.fancycoverflow.FancyCoverFlow.getChildStaticTransformation|0.16979429178685287
0.26382978723404255|android.widget.FrameLayout.layoutChildren|0.16948914528616973
0.26595744680851063|android.widget.RelativeLayout.onLayout|0.16948686807347807
0.2680851063829787|java.lang.reflect.Method.invoke|0.16933657203582814
0.2702127659574468|android.view.ViewGroup.layout|0.1691817215727949
0.2723404255319149|yf.<init>|0.16915743130408378
0.274468085106383|android.view.ViewGroup.layout|0.16872400182177016
0.2765957446808511|android.view.View.invalidate|0.16811143160771216
0.27872340425531916|at.technikum.mti.fancycoverflow.FancyCoverFlowItemWrapper.dispatchDraw|0.1679588583573706
0.28085106382978725|android.view.View.layout|0.16795430393198724
0.28297872340425534|yf.a|0.1677797176256262
0.2851063829787234|android.view.View.setDisplayListProperties|0.16765143464399573
0.2872340425531915|android.widget.FrameLayout.onLayout|0.1673462881433126
0.28936170212765955|java.io.ObjectStreamClass.invokeReadObject|0.16719371489297102
0.29148936170212764|android.widget.FrameLayout.layoutChildren|0.16703886442993776
0.2936170212765957|android.os.Handler.handleCallback|0.1668597236981934
0.2957446808510638|android.view.ViewGroup.recreateChildDisplayList|0.16673144071656293
0.2978723404255319|android.widget.RelativeLayout.onLayout|0.166581144678913
0.3|android.view.ViewRootImpl.doTraversal|0.16656748140276303
0.3021276595744681|yr.onServiceConnected|0.16640200394716867
0.30425531914893617|android.view.View.updateDisplayListIfDirty|0.16581600121451345
0.30638297872340425|android.view.ViewGroup.layout|0.1658114467891301
0.30851063829787234|android.view.View.updateDisplayListIfDirty|0.1655085775011386
0.31063829787234043|xY.a|0.16510171550022773
0.3127659574468085|de.skubware.opentraining.activity.NavigationGalleryAdapter.getLayoutParams|0.16505085775011386
0.3148936170212766|android.widget.FrameLayout.onLayout|0.16489600728708062
0.3170212765957447|at.technikum.mti.fancycoverflow.FancyCoverFlowItemWrapper.dispatchDraw|0.16482085926825563
0.3191489361702128|android.view.ViewGroup.layout|0.16459086078639745
0.32127659574468087|android.view.ViewGroup.dispatchGetDisplayList|0.1645885835737058
0.32340425531914896|android.widget.Gallery.onLayout|0.16443828753605585
0.32553191489361705|android.view.ViewRootImpl$TraversalRunnable.run|0.1644246242599059
0.3276595744680851|LO.onAvailable|0.1644117200546531
0.32978723404255317|de.skubware.opentraining.activity.NavigationGalleryAdapter.getCoverFlowItem|0.16367314407165628
0.33191489361702126|android.support.v7.widget.ActionBarOverlayLayout.onLayout|0.16366858964627296
0.33404255319148934|android.view.ViewGroup.recreateChildDisplayList|0.16336572035828145
0.33617021276595743|java.io.ObjectInputStream.readOrdinaryObject|0.1629080006072567
0.3382978723404255|android.view.View.updateDisplayListIfDirty|0.1626780021253985
0.3404255319148936|android.widget.FrameLayout.layoutChildren|0.16244800364354028
0.3425531914893617|android.view.View.updateDisplayListIfDirty|0.16244572643084865
0.3446808510638298|at.technikum.mti.fancycoverflow.FancyCoverFlowAdapter.getView|0.16229543039319871
0.3468085106382979|android.view.Choreographer$CallbackRecord.run|0.16228176711704875
0.34893617021276596|at.technikum.mti.fancycoverflow.FancyCoverFlowItemWrapper.dispatchDraw|0.16153028692879917
0.35106382978723405|android.view.View.layout|0.16152573250341581
0.35319148936170214|android.view.ViewGroup.dispatchGetDisplayList|0.1612228632154243
0.3553191489361702|java.io.ObjectInputStream.readObject0|0.16076514346439957
0.3574468085106383|android.view.ViewGroup.recreateChildDisplayList|0.16053514498254134
0.3595744680851064|android.widget.FrameLayout.onLayout|0.16030514650068317
0.3617021276595745|android.view.ViewGroup.recreateChildDisplayList|0.1603028692879915
0.3638297872340426|android.widget.AbsSpinner.onMeasure|0.16015257325034157
0.3659574468085106|android.view.Choreographer.doCallbacks|0.1601389099741916
0.3680851063829787|android.view.View.updateDisplayListIfDirty|0.159387429785942
0.3702127659574468|android.view.ViewGroup.layout|0.15938287536055867
0.3723404255319149|android.view.View.updateDisplayListIfDirty|0.15908000607256717
0.37446808510638296|java.io.ObjectInputStream.defaultReadFields|0.1586222863215424
0.37659574468085105|android.view.ViewGroup.dispatchGetDisplayList|0.15839228783968423
0.37872340425531914|android.view.ViewGroup.layout|0.15831486260816763
0.38085106382978723|android.view.ViewGroup.dispatchGetDisplayList|0.15816001214513437
0.3829787234042553|android.view.View.measure|0.15800971610748443
0.3851063829787234|android.view.Choreographer.doFrame|0.15799605283133444
0.3872340425531915|android.view.ViewGroup.recreateChildDisplayList|0.1572445726430849
0.3893617021276596|android.widget.FrameLayout.layoutChildren|0.15724001821770153
0.39148936170212767|de.skubware.opentraining.db.DataProvider.loadExercises|0.1570654319113405
0.39361702127659576|android.view.ViewGroup.recreateChildDisplayList|0.15693714892971003
0.39574468085106385|android.widget.ArrayAdapter.createViewFromResource|0.15663200242902686
0.39787234042553193|java.io.ObjectInputStream.readSerialData|0.1564794291786853
0.4|org.chromium.base.ThreadUtils.b|0.15645286169728254
0.4021276595744681|android.widget.FrameLayout.layoutChildren|0.15617200546531046
0.40425531914893614|android.view.View.updateDisplayListIfDirty|0.15601715500227722
0.40638297872340423|android.widget.RelativeLayout.measureChildHorizontal|0.1558668589646273
0.4085106382978723|android.view.Choreographer$FrameDisplayEventReceiver.run|0.15585319568847733
0.4106382978723404|android.view.ViewGroup.recreateChildDisplayList|0.1556368604827691
0.4127659574468085|android.view.ViewGroup.dispatchGetDisplayList|0.15510171550022772
0.4148936170212766|android.widget.FrameLayout.onLayout|0.1550971610748444
0.41702127659574467|android.view.ViewGroup.dispatchGetDisplayList|0.1547942917868529
0.41914893617021276|android.widget.ArrayAdapter.getView|0.15448914528616975
0.42127659574468085|java.io.ObjectInputStream.readOrdinaryObject|0.15433657203582812
0.42340425531914894|android.widget.FrameLayout.onLayout|0.1540291483224533
0.425531914893617|android.view.ViewGroup.recreateChildDisplayList|0.15387429785942008
0.4276595744680851|android.widget.RelativeLayout.onMeasure|0.15372400182177015
0.4297872340425532|android.os.Handler.handleCallback|0.15371033854562016
0.4319148936170213|android.view.ViewGroup.dispatchGetDisplayList|0.15349400333991195
0.4340425531914894|android.view.View.updateDisplayListIfDirty|0.1529588583573706
0.43617021276595747|android.view.View.layout|0.15295430393198725
0.43829787234042555|android.view.View.updateDisplayListIfDirty|0.15265143464399575
0.44042553191489364|org.chromium.net.AndroidNetworkLibrary.getWifiSSID|0.15239714589342646
0.4425531914893617|android.widget.AbsListView.obtainView|0.15234628814331258
0.44468085106382976|java.io.ObjectInputStream.readObject0|0.152193714892971
0.44680851063829785|android.view.View.layout|0.15188629117959618
0.44893617021276594|android.view.ViewGroup.dispatchGetDisplayList|0.15173144071656294
0.451063829787234|android.view.View.measure|0.151581144678913
0.4531914893617021|android.view.View.updateDisplayListIfDirty|0.1513511461970548
0.4553191489361702|android.view.ViewGroup.recreateChildDisplayList|0.15081600121451344
0.4574468085106383|android.view.ViewGroup.layout|0.1508114467891301
0.4595744680851064|android.view.ViewGroup.recreateChildDisplayList|0.1505085775011386
0.46170212765957447|android.widget.ListView.measureHeightOfChildren|0.1502034310004554
0.46382978723404256|java.io.ObjectInputStream.defaultReadFields|0.15005085775011384
0.46595744680851064|android.view.ViewGroup.layout|0.149743434036739
0.46808510638297873|android.view.View.updateDisplayListIfDirty|0.1495885835737058
0.4702127659574468|android.view.ViewGroup.measureChildWithMargins|0.14943828753605587
0.4723404255319149|android.view.ViewGroup.recreateChildDisplayList|0.14920828905419767
0.474468085106383|android.view.ViewGroup.dispatchGetDisplayList|0.14867314407165627
0.4765957446808511|android.widget.LinearLayout.setChildFrame|0.14866858964627294
0.4787234042553192|android.view.ViewGroup.dispatchGetDisplayList|0.14836572035828147
0.4808510638297872|android.widget.ListView.onMeasure|0.1480605738575983
0.4829787234042553|java.io.ObjectInputStream.readSerialData|0.1479080006072567
0.4851063829787234|android.support.v7.widget.ActionBarOverlayLayout.onLayout|0.1476005768938819
0.48723404255319147|android.view.ViewGroup.recreateChildDisplayList|0.14744572643084863
0.48936170212765956|android.widget.FrameLayout.onMeasure|0.14729543039319873
0.49148936170212765|android.view.ViewGroup.dispatchGetDisplayList|0.14706543191134053
0.49361702127659574|android.view.ThreadedRenderer.draw|0.1468286017914073
0.4957446808510638|android.view.View.updateDisplayListIfDirty|0.14653028692879916
0.4978723404255319|android.widget.LinearLayout.layoutVertical|0.14652573250341583
0.5|android.view.View.updateDisplayListIfDirty|0.14622286321542433
0.502127659574468|android.view.View.measure|0.14591771671474113
0.5042553191489362|java.io.ObjectInputStream.readOrdinaryObject|0.14576514346439956
0.5063829787234042|android.view.View.layout|0.14545771975102473
0.5085106382978724|android.view.ViewGroup.dispatchGetDisplayList|0.14530286928799152
0.5106382978723404|android.support.v7.widget.ContentFrameLayout.onMeasure|0.1451525732503416
0.5127659574468085|android.view.View.updateDisplayListIfDirty|0.1449225747684834
0.5148936170212766|android.view.ViewRootImpl.draw|0.14468574464855016
0.5170212765957447|android.view.ViewGroup.recreateChildDisplayList|0.144387429785942
0.5191489361702127|android.widget.LinearLayout.onLayout|0.14438287536055866
0.5212765957446809|android.view.ViewGroup.recreateChildDisplayList|0.14408000607256718
0.5234042553191489|android.view.ViewGroup.measureChildWithMargins|0.14377485957188402
0.5255319148936171|java.io.ObjectInputStream.readObject0|0.14362228632154242
0.5276595744680851|android.view.ThreadedRenderer.updateViewTreeDisplayList|0.14346288143312586
0.5297872340425532|android.view.ViewGroup.layout|0.14331486260816761
0.5319148936170213|android.view.View.updateDisplayListIfDirty|0.14316001214513435
0.5340425531914894|android.view.View.measure|0.14300971610748445
0.5361702127659574|android.view.ViewGroup.recreateChildDisplayList|0.14277971762562625
0.5382978723404256|android.view.ViewRootImpl.performDraw|0.14254288750569302
0.5404255319148936|android.view.ViewGroup.dispatchGetDisplayList|0.14224457264308488
0.5425531914893617|android.view.View.layout|0.14224001821770155
0.5446808510638298|android.view.ViewGroup.dispatchGetDisplayList|0.14193714892971004
0.5468085106382978|android.widget.FrameLayout.onMeasure|0.14163200242902685
0.548936170212766|java.io.ObjectInputStream.readObject|0.14147942917868528
0.551063829787234|android.widget.FrameLayout.layoutChildren|0.14117200546531045
0.5531914893617021|android.view.ViewGroup.recreateChildDisplayList|0.1410171550022772
0.5553191489361702|android.view.ViewGroup.measureChildWithMargins|0.1408668589646273
0.5574468085106383|android.view.ViewGroup.dispatchGetDisplayList|0.1406368604827691
0.5595744680851064|android.view.View.updateDisplayListIfDirty|0.1401017155002277
0.5617021276595745|android.view.ViewGroup.layout|0.14009716107484438
0.5638297872340425|android.view.View.updateDisplayListIfDirty|0.13979429178685288
0.5659574468085107|android.view.View.measure|0.13948914528616974
0.5680851063829787|java.util.ArrayList.readObject|0.13933657203582814
0.5702127659574469|android.widget.FrameLayout.onLayout|0.13902914832245333
0.5723404255319149|android.view.ViewGroup.dispatchGetDisplayList|0.13887429785942007
0.574468085106383|android.support.v7.widget.ActionBarOverlayLayout.onMeasure|0.13872400182177017
0.5765957446808511|android.view.View.updateDisplayListIfDirty|0.13849400333991196
0.5787234042553191|android.view.ViewGroup.recreateChildDisplayList|0.1379588583573706
0.5808510638297872|android.widget.FrameLayout.layoutChildren|0.13795430393198727
0.5829787234042553|android.view.ViewGroup.recreateChildDisplayList|0.13765143464399576
0.5851063829787234|com.android.internal.widget.AlertDialogLayout.tryOnMeasure|0.13734628814331257
0.5872340425531914|java.lang.reflect.Method.invoke|0.137193714892971
0.5893617021276596|android.view.View.layout|0.13688629117959616
0.5914893617021276|android.view.View.updateDisplayListIfDirty|0.13673144071656293
0.5936170212765958|android.view.View.measure|0.13658114467891302
0.5957446808510638|android.view.ViewGroup.recreateChildDisplayList|0.1363511461970548
0.597872340425532|android.view.ViewGroup.dispatchGetDisplayList|0.13581600121451343
0.6|android.widget.FrameLayout.onLayout|0.1358114467891301
0.6021276595744681|android.view.ViewGroup.dispatchGetDisplayList|0.1355085775011386
0.6042553191489362|com.android.internal.widget.AlertDialogLayout.onMeasure|0.13520343100045545
0.6063829787234043|java.io.ObjectStreamClass.invokeReadObject|0.13505085775011386
0.6085106382978723|android.view.ViewGroup.layout|0.13474343403673905
0.6106382978723405|android.view.ViewGroup.recreateChildDisplayList|0.1345885835737058
0.6127659574468085|android.view.ViewGroup.measureChildWithMargins|0.13443828753605586
0.6148936170212767|android.view.ViewGroup.dispatchGetDisplayList|0.13420828905419768
0.6170212765957447|android.view.View.updateDisplayListIfDirty|0.1336731440716563
0.6191489361702127|com.android.internal.policy.DecorView.onLayout|0.13366858964627296
0.6212765957446809|android.view.View.updateDisplayListIfDirty|0.13336572035828145
0.6234042553191489|android.view.View.measure|0.13306057385759829
0.625531914893617|java.io.ObjectInputStream.readSerialData|0.13290800060725672
0.6276595744680851|android.widget.LinearLayout.setChildFrame|0.13260057689388188
0.6297872340425532|android.view.ViewGroup.dispatchGetDisplayList|0.13244572643084865
0.6319148936170212|android.widget.FrameLayout.onMeasure|0.13229543039319874
0.6340425531914894|android.view.View.updateDisplayListIfDirty|0.13206543191134051
0.6361702127659574|android.view.ViewGroup.recreateChildDisplayList|0.13153028692879914
0.6382978723404256|android.view.View.layout|0.13152573250341582
0.6404255319148936|android.view.ViewGroup.recreateChildDisplayList|0.1312228632154243
0.6425531914893617|android.view.ViewGroup.measureChildWithMargins|0.13091771671474117
0.6446808510638298|java.io.ObjectInputStream.readOrdinaryObject|0.13076514346439957
0.6468085106382979|android.widget.LinearLayout.layoutVertical|0.13045771975102474
0.648936170212766|android.view.View.measure|0.13015257325034157
0.6510638297872341|android.view.ViewGroup.recreateChildDisplayList|0.12992257476848337
0.6531914893617021|android.view.ViewGroup.dispatchGetDisplayList|0.12938742978594203
0.6553191489361702|android.view.ViewGroup.layout|0.12938287536055867
0.6574468085106383|android.view.ViewGroup.dispatchGetDisplayList|0.12908000607256717
0.6595744680851063|android.widget.FrameLayout.onMeasure|0.128774859571884
0.6617021276595745|java.io.ObjectInputStream.readObject0|0.12862228632154243
0.6638297872340425|android.widget.LinearLayout.onLayout|0.1283148626081676
0.6659574468085107|android.view.ViewGroup.measureChildWithMargins|0.12800971610748443
0.6680851063829787|android.view.ViewGroup.dispatchGetDisplayList|0.12777971762562623
0.6702127659574468|android.view.View.updateDisplayListIfDirty|0.12724457264308486
0.6723404255319149|android.view.ViewRootImpl.performLayout|0.12724001821770153
0.674468085106383|android.view.View.updateDisplayListIfDirty|0.12693714892971003
0.676595744680851|android.view.View.measure|0.12663200242902686
0.6787234042553192|java.io.ObjectInputStream.defaultReadFields|0.12647942917868527
0.6808510638297872|android.view.View.layout|0.12617200546531046
0.6829787234042554|android.widget.LinearLayout.measureChildBeforeLayout|0.1258668589646273
0.6851063829787234|android.view.View.updateDisplayListIfDirty|0.1256368604827691
0.6872340425531915|at.technikum.mti.fancycoverflow.FancyCoverFlow.applyXmlAttributes|0.12510171550022772
0.6893617021276596|android.view.ViewGroup.recreateChildDisplayList|0.12479429178685289
0.6914893617021277|android.view.ViewGroup.measureChildWithMargins|0.12448914528616972
0.6936170212765957|java.io.ObjectInputStream.readSerialData|0.12433657203582814
0.6957446808510638|android.view.ViewGroup.layout|0.12402914832245332
0.6978723404255319|at.technikum.mti.fancycoverflow.FancyCoverFlow.getChildStaticTransformation|0.12382571732199787
0.7|android.widget.LinearLayout.measureVertical|0.12372400182177015
0.7021276595744681|android.view.ViewGroup.recreateChildDisplayList|0.12349400333991195
0.7042553191489361|at.technikum.mti.fancycoverflow.FancyCoverFlow.<init>|0.12295885835737058
0.7063829787234043|android.view.ViewGroup.dispatchGetDisplayList|0.12265143464399575
0.7085106382978723|android.widget.FrameLayout.onMeasure|0.12234628814331258
0.7106382978723405|java.io.ObjectInputStream.readOrdinaryObject|0.122193714892971
0.7127659574468085|android.widget.FrameLayout.layoutChildren|0.12188629117959618
0.7148936170212766|android.view.ViewRootImpl.doTraversal|0.12180658873538788
0.7170212765957447|android.widget.LinearLayout.onMeasure|0.12158114467891301
0.7191489361702128|android.view.ViewGroup.dispatchGetDisplayList|0.12135114619705481
0.7212765957446808|android.view.ViewGroup.measureChildWithMargins|0.12112114771519661
0.723404255319149|java.lang.reflect.Constructor.newInstance0|0.12081600121451344
0.725531914893617|android.view.View.updateDisplayListIfDirty|0.12050857750113861
0.7276595744680852|android.view.ViewGroup.measureChildWithMargins|0.12035600425079702
0.7297872340425532|com.android.internal.policy.DecorView.draw|0.12020343100045544
0.7319148936170212|android.view.ThreadedRenderer.updateViewTreeDisplayList|0.12012600576893882
0.7340425531914894|java.io.ObjectInputStream.readObject0|0.12005085775011386
0.7361702127659574|android.widget.FrameLayout.onLayout|0.11974343403673904
0.7382978723404255|android.view.ViewRootImpl$TraversalRunnable.run|0.11966373159253074
0.7404255319148936|android.support.v4.app.FragmentManagerImpl.executeOps|0.11943828753605587
0.7425531914893617|android.view.LayoutInflater.inflate|0.1190048580537422
0.7446808510638298|android.widget.FrameLayout.onMeasure|0.11897829057233947
0.7468085106382979|java.lang.reflect.Constructor.newInstance|0.1186731440716563
0.7489361702127659|android.widget.FrameLayout.onMeasure|0.11821314710793988
0.7510638297872341|java.io.ObjectInputStream.readObject|0.11790800060725672
0.7531914893617021|com.android.internal.policy.DecorView.onLayout|0.11760057689388188
0.7553191489361702|android.view.Choreographer$CallbackRecord.run|0.1175208744496736
0.7574468085106383|at.technikum.mti.fancycoverflow.FancyCoverFlow.getChildStaticTransformation|0.11739714589342644
0.7595744680851064|android.view.ThreadedRenderer.draw|0.11737057841202368
0.7617021276595745|android.support.v4.app.FragmentManagerImpl.executeOpsTogether|0.11729543039319873
0.7638297872340426|com.android.internal.policy.DecorView.onMeasure|0.11683543342948231
0.7659574468085106|org.chromium.net.NetworkChangeNotifierAutoDetect.a|0.11660315773493243
0.7680851063829788|android.view.LayoutInflater.createView|0.11653028692879916
0.7702127659574468|com.android.internal.policy.DecorView.onMeasure|0.11607028996508273
0.7723404255319148|android.os.Parcel.readSerializable|0.11576514346439958
0.774468085106383|android.view.View.layout|0.11545771975102474
0.776595744680851|android.view.Choreographer.doCallbacks|0.11537801730681646
0.7787234042553192|at.technikum.mti.fancycoverflow.FancyCoverFlow.getChildStaticTransformation|0.11525428875056931
0.7808510638297872|android.view.ViewRootImpl.draw|0.11522772126916654
0.7829787234042553|android.support.v4.app.FragmentManagerImpl.removeRedundantOperationsAndExecute|0.11515257325034159
0.7851063829787234|android.view.LayoutInflater.inflate|0.11471914376802791
0.7872340425531915|android.view.View.measure|0.11469257628662517
0.7893617021276595|org.chromium.net.NetworkChangeNotifierAutoDetect.onReceive|0.11446030059207529
0.7914893617021277|android.view.LayoutInflater.createViewFromTag|0.11438742978594202
0.7936170212765957|android.view.View.measure|0.11392743282222559
0.7957446808510639|android.os.Parcel.readValue|0.11362228632154243
0.7978723404255319|android.view.ViewGroup.layout|0.1133148626081676
0.8|android.view.Choreographer.doFrame|0.1132351601639593
0.8021276595744681|at.technikum.mti.fancycoverflow.FancyCoverFlow.getChildStaticTransformation|0.11311143160771216
0.8042553191489362|android.view.ViewRootImpl.performDraw|0.1130848641263094
0.8063829787234043|android.support.v4.app.FragmentManagerImpl.execPendingActions|0.11300971610748443
0.8085106382978723|android.view.ViewRootImpl.performMeasure|0.11254971914376803
0.8106382978723404|android.app.LoadedApk$ReceiverDispatcher$Args.lambda$-android_app_LoadedApk$ReceiverDispatcher$Args_51267|0.11231744344921815
0.8127659574468085|android.view.LayoutInflater.rInflate|0.11224457264308486
0.8148936170212766|android.view.RecordingCanvas.drawBitmap|0.112193714892971
0.8170212765957446|android.view.ViewRootImpl.performMeasure|0.11178457567936845
0.8191489361702128|android.os.Parcel.readArrayMapInternal|0.11147942917868528
0.8212765957446808|android.view.ViewRootImpl.performLayout|0.11117200546531046
0.823404255319149|android.view.Choreographer$FrameDisplayEventReceiver.run|0.11109230302110217
0.825531914893617|android.support.v4.app.FragmentManagerImpl.dispatchStateChange|0.1108668589646273
0.8276595744680851|android.view.ViewRootImpl.measureHierarchy|0.11040686200091089
0.8297872340425532|android.app.-$Lambda$FilBqgnXJrN9Mgyks1XHeAxzSTk.$m$0|0.11017458630636101
0.8319148936170213|android.os.BaseBundle.unparcel|0.11010171550022772
0.8340425531914893|android.view.ViewRootImpl.measureHierarchy|0.1096417185365113
0.8361702127659575|android.support.v4.app.FragmentManagerImpl.dispatchActivityCreated|0.10872400182177015
0.8382978723404255|sun.misc.Hashing.singleWordWangJenkinsHash|0.10834143008957037
0.8404255319148937|android.app.-$Lambda$FilBqgnXJrN9Mgyks1XHeAxzSTk.run|0.10803172916350387
0.8425531914893617|android.os.Bundle.getSerializable|0.10734628814331258
0.8446808510638298|at.technikum.mti.fancycoverflow.FancyCoverFlow.getChildStaticTransformation|0.10668286017914072
0.8468085106382979|android.support.v4.app.FragmentController.dispatchActivityCreated|0.10658114467891301
0.8489361702127659|java.util.HashMap.getEntry|0.10619857294671323
0.851063829787234|android.content.Intent.getSerializableExtra|0.10596857446485503
0.8531914893617021|android.content.res.Resources.getConfiguration|0.10576514346439957
0.8553191489361702|de.skubware.opentraining.activity.start_training.FExDetailActivity.onCreate|0.10535600425079703
0.8574468085106383|android.support.v4.app.FragmentActivity.onStart|0.10443828753605587
0.8595744680851064|java.util.HashMap.containsKey|0.10405571580385609
0.8617021276595744|de.skubware.opentraining.basic.Translatable.hashCode|0.10362228632154241
0.8638297872340426|at.technikum.mti.fancycoverflow.FancyCoverFlow.getChildStaticTransformation|0.10239714589342644
0.8659574468085106|android.support.v7.app.AppCompatActivity.onStart|0.10229543039319872
0.8680851063829788|de.skubware.opentraining.basic.ExerciseType.<init>|0.10191285866099895
0.8702127659574468|sun.misc.Hashing.singleWordWangJenkinsHash|0.10153028692879915
0.8723404255319149|de.skubware.opentraining.basic.Translatable.hashCode|0.10147942917868528
0.874468085106383|at.technikum.mti.fancycoverflow.FancyCoverFlow.getChildStaticTransformation|0.10025428875056931
0.8765957446808511|android.app.Instrumentation.callActivityOnStart|0.10015257325034158
0.8787234042553191|de.skubware.opentraining.basic.ExerciseType$Builder.build|0.0997700015181418
0.8808510638297873|java.util.HashMap.put|0.099387429785942
0.8829787234042553|de.skubware.opentraining.activity.start_training.TrainingEntryListAdapter.getCount|0.09933657203582813
0.8851063829787233|android.app.Activity.performStart|0.09800971610748443
0.8872340425531915|de.skubware.opentraining.db.parser.ExerciseTypeXMLParser.endElement|0.09762714437528466
0.8893617021276595|de.skubware.opentraining.db.parser.ExerciseTypeXMLParser.startElement|0.09724457264308486
0.8914893617021277|android.os.Looper.loop|0.0955571580385608
0.8936170212765957|org.apache.harmony.xml.ExpatParser.endElement|0.09548428723242752
0.8957446808510638|org.apache.harmony.xml.ExpatParser.startElement|0.09510171550022772
0.8978723404255319|android.view.RecordingCanvas.drawBitmap|0.09505085775011385
0.9|xZ.a|0.09487171701836952
0.902127659574468|android.os.HandlerThread.run|0.09341430089570366
0.9042553191489362|android.content.res.Resources.getConfiguration|0.09290800060725672
0.9063829787234042|xY.a|0.09272885987551238
0.9085106382978724|LM.d|0.09249886139365417
0.9106382978723404|yH.a|0.092193714892971
0.9127659574468086|android.view.RecordingCanvas.drawBitmap|0.09076514346439957
0.9148936170212766|BW.<init>|0.09058600273265524
0.9170212765957447|LM.a|0.09035600425079703
0.9191489361702128|android.app.LoadedApk$ServiceDispatcher.doConnected|0.08997343251859724
0.9212765957446809|Bs.run|0.08974343403673904
0.9234042553191489|org.chromium.content.browser.ChildProcessLauncherHelperImpl.b|0.0886731440716563
0.925531914893617|android.view.RecordingCanvas.drawBitmap|0.08862228632154241
0.9276595744680851|org.apache.harmony.xml.ExpatReader.parse|0.0884431455897981
0.9297872340425531|de.skubware.opentraining.activity.MainActivity$1.run|0.08844086837710642
0.9319148936170213|android.net.ConnectivityManager$CallbackHandler.handleMessage|0.08798314862608167
0.9340425531914893|android.app.LoadedApk$ServiceDispatcher$RunConnection.run|0.0878305753757401
0.9361702127659575|LO.a|0.08691285866099895
0.9382978723404255|javax.xml.parsers.SAXParser.parse|0.08630028844694096
0.9404255319148936|de.skubware.opentraining.db.Cache.updateCache|0.08561029300136633
0.9425531914893617|de.skubware.opentraining.basic.Workout.toString|0.08448914528616973
0.9446808510638298|de.skubware.opentraining.db.parser.ExerciseTypeXMLParser.read|0.0841574313040838
0.9468085106382979|de.skubware.opentraining.activity.start_training.RecoveryTimerManager$1.run|0.08277971762562623
0.948936170212766|org.chromium.base.ThreadUtils.d|0.0808668589646273
0.951063829787234|java.util.TimerThread.mainLoop|0.0806368604827691
0.9531914893617022|org.chromium.base.ApplicationStatus.registerThreadSafeNativeApplicationStateListener|0.0800242902687111
0.9553191489361702|java.util.TimerThread.run|0.07849400333991195
0.9574468085106383|kq.run|0.07543342948231366
0.9595744680851064|android.view.LayoutInflater.inflate|0.05900485805374222
0.9617021276595744|android.content.Context.obtainStyledAttributes|0.052193714892971
0.9638297872340426|android.os.Looper.myLooper|0.0444603005920753
0.9659574468085106|de.skubware.opentraining.basic.Translatable.hashCode|0.03619857294671322
0.9680851063829787|de.skubware.opentraining.basic.Translatable.hashCode|0.02938742978594201
0.9702127659574468|android.os.Handler.post|0.022728859875512375
0.9723404255319149|android.content.Intent.putExtras|0.021198572946713224
0.9744680851063829|android.os.BaseBundle.putBoolean|0.02081600121451344
0.9765957446808511|android.net.ConnectivityManager.getNetworkInfo|0.020356004250797022
0.9787234042553191|android.os.BinderProxy.transact|0.02005085775011386
0.9808510638297873|android.os.BaseBundle.getInt|0.017908000607256714
0.9829787234042553|android.os.Looper.myLooper|0.015765143464399573
0.9851063829787234|android.net.NetworkCapabilities.hasTransport|0.014770001518141793
0.9872340425531915|android.os.Looper.myLooper|0.008724001821770152
0.9893617021276596|android.app.NotificationManager.notify|0.007958858357370577
0.9914893617021276|android.os.Handler.post|0.007728859875512372
0.9936170212765958|android.content.res.AssetManager.open|0.007193714892971002
0.9957446808510638|android.net.wifi.WifiInfo.getSSID|0.005203431000455442
0.997872340425532|android.app.ApplicationPackageManager.getPackageInfo|0.003290572339456505
1.0|android.content.Intent.getParcelableExtra|0.002908000607256717
