Position |MethodName|Relevancy
0.014084507042253521|android.app.ActivityThread$H.handleMessage|0.91
0.028169014084507043|android.os.Handler.dispatchMessage|0.515
0.04225352112676056|android.os.Looper.loop|0.51
0.056338028169014086|android.app.ActivityThread.main|0.505
0.07042253521126761|java.lang.reflect.Method.invoke|0.5
0.08450704225352113|com.android.internal.os.ZygoteInit$MethodAndArgsCaller.run|0.495
0.09859154929577464|com.android.internal.os.ZygoteInit.main|0.49
0.11267605633802817|android.app.FragmentManagerImpl.onCreateView|0.3874590163934426
0.1267605633802817|android.app.FragmentManagerImpl.onCreateView|0.38655737704918036
0.14084507042253522|android.app.FragmentManagerImpl.onCreateView|0.3786065573770492
0.15492957746478872|dk.example.example_fragment_oninflate.MainActivity.onCreate|0.32188524590163936
0.16901408450704225|android.app.Activity.performCreate|0.31688524590163936
0.18309859154929578|android.app.Instrumentation.callActivityOnCreate|0.31188524590163935
0.19718309859154928|android.app.ActivityThread.performLaunchActivity|0.30688524590163935
0.2112676056338028|android.app.Activity.setContentView|0.30327868852459017
0.22535211267605634|android.app.ActivityThread.handleLaunchActivity|0.30188524590163934
0.23943661971830985|android.app.ActivityThread.handleRelaunchActivity|0.29688524590163934
0.2535211267605634|dk.example.example_fragment_oninflate.MainActivity.onCreate|0.29237704918032786
0.2676056338028169|android.app.ActivityThread.access$900|0.29188524590163933
0.28169014084507044|android.app.Activity.performCreate|0.28737704918032786
0.29577464788732394|com.android.internal.policy.impl.PhoneWindow.setContentView|0.284672131147541
0.30985915492957744|android.app.Instrumentation.callActivityOnCreate|0.28237704918032785
0.323943661971831|android.app.Activity.setContentView|0.27967213114754097
0.3380281690140845|android.app.ActivityThread.performLaunchActivity|0.27737704918032785
0.352112676056338|dk.example.example_fragment_oninflate.MainActivity.onCreate|0.27262295081967214
0.36619718309859156|android.app.ActivityThread.handleLaunchActivity|0.27237704918032785
0.38028169014084506|android.app.Activity.performCreate|0.26762295081967213
0.39436619718309857|android.app.ActivityThread.handleRelaunchActivity|0.26737704918032784
0.4084507042253521|com.android.internal.policy.PhoneWindow.setContentView|0.2669672131147541
0.4225352112676056|android.view.LayoutInflater.inflate|0.2660655737704918
0.43661971830985913|android.app.Activity.setContentView|0.26286885245901637
0.4507042253521127|dk.example.example_fragment_oninflate.MainActivityFragment.onCreateView|0.2627049180327869
0.4647887323943662|android.app.Instrumentation.callActivityOnCreate|0.26262295081967213
0.4788732394366197|android.app.ActivityThread.-wrap15|0.2623770491803279
0.49295774647887325|dk.example.example_fragment_oninflate.MainActivityFragment.onCreateView|0.2577049180327869
0.5070422535211268|android.app.ActivityThread.performLaunchActivity|0.2576229508196721
0.5211267605633803|android.view.LayoutInflater.inflate|0.2542622950819672
0.5352112676056338|com.android.internal.policy.PhoneWindow.setContentView|0.25311475409836065
0.5492957746478874|android.app.Fragment.performCreateView|0.2527049180327869
0.5633802816901409|android.app.ActivityThread.handleLaunchActivity|0.2526229508196721
0.5774647887323944|android.app.Activity.onCreateView|0.2524590163934426
0.5915492957746479|android.app.FragmentController.onCreateView|0.2515573770491803
0.6056338028169014|android.app.FragmentManagerImpl.moveToState|0.2477049180327869
0.6197183098591549|android.app.ActivityThread.-wrap11|0.24762295081967214
0.6338028169014085|android.view.LayoutInflater.createViewFromTag|0.24745901639344264
0.647887323943662|android.app.Activity.onCreateView|0.24655737704918032
0.6619718309859155|android.app.Fragment.onInflate|0.24385245901639346
0.676056338028169|android.app.FragmentController.onCreateView|0.24360655737704917
0.6901408450704225|android.view.LayoutInflater.inflate|0.24336065573770493
0.704225352112676|dk.example.example_fragment_oninflate.MainActivity.onCreate|0.24311475409836064
0.7183098591549296|android.app.FragmentManagerImpl.addFragment|0.24270491803278688
0.7323943661971831|android.view.LayoutInflater.createViewFromTag|0.24155737704918034
0.7464788732394366|android.app.Activity.setContentView|0.23926229508196722
0.7605633802816901|android.app.Activity.onCreateView|0.23860655737704917
0.7746478873239436|android.app.Activity.performCreate|0.23811475409836064
0.7887323943661971|android.app.FragmentManagerImpl.onCreateView|0.2377049180327869
0.8028169014084507|android.app.Fragment.onInflate|0.2359016393442623
0.8169014084507042|com.android.internal.policy.impl.PhoneWindow.setContentView|0.23540983606557378
0.8309859154929577|android.view.LayoutInflater.createViewFromTag|0.23360655737704916
0.8450704225352113|android.app.Instrumentation.callActivityOnCreate|0.23311475409836063
0.8591549295774648|android.app.Activity.onCreateView|0.23270491803278692
0.8732394366197183|android.view.LayoutInflater.inflate|0.23155737704918034
0.8873239436619719|android.app.ActivityThread.performLaunchActivity|0.22811475409836063
0.9014084507042254|android.view.LayoutInflater.createViewFromTag|0.2277049180327869
0.9154929577464789|android.app.ActivityThread.handleLaunchActivity|0.22311475409836062
0.9295774647887324|android.app.ActivityThread.access$800|0.21811475409836065
0.9436619718309859|android.view.LayoutInflater.inflate|0.12885245901639344
0.9577464788732394|android.view.LayoutInflater.inflate|0.12385245901639344
0.971830985915493|dk.example.example_fragment_oninflate.MainActivityFragment.onInflate|0.11885245901639344
0.9859154929577465|dk.example.example_fragment_oninflate.MainActivityFragment.onInflate|0.11475409836065574
1.0|dk.example.example_fragment_oninflate.MainActivityFragment.onInflate|0.1109016393442623
