digraph SIB_treshold_2 {
"12bb7878-2902-45b5-a3db-8a761549cfc0" [style=filled, fillcolor="#919191", label="com.android.internal.os.ZygoteInit.main\n Susp=0,4467"];
"12bb7878-2902-45b5-a3db-8a761549cfc0" -> "888df61d-fc99-41ec-848d-0eb033a92c5e";
"888df61d-fc99-41ec-848d-0eb033a92c5e" [style=filled, fillcolor="#919191", label="com.android.internal.os.ZygoteInit$MethodAndArgsCaller.run\n Susp=0,4488"];
"888df61d-fc99-41ec-848d-0eb033a92c5e" -> "08e3bab7-62f7-4567-91e3-a646d135d738";
"08e3bab7-62f7-4567-91e3-a646d135d738" [style=filled, fillcolor="#919191", label="java.lang.reflect.Method.invoke\n Susp=0,451"];
"08e3bab7-62f7-4567-91e3-a646d135d738" -> "3015a56d-41da-45d2-9b95-2f1cc05d507d";
"3015a56d-41da-45d2-9b95-2f1cc05d507d" [style=filled, fillcolor="#919191", label="android.app.ActivityThread.main\n Susp=0,4532"];
"3015a56d-41da-45d2-9b95-2f1cc05d507d" -> "edb363b5-8592-4847-904d-78b7c08bc12d";
"edb363b5-8592-4847-904d-78b7c08bc12d" [style=filled, fillcolor="#919191", label="android.os.Looper.loop\n Susp=0,4554"];
"edb363b5-8592-4847-904d-78b7c08bc12d" -> "3cc31df4-5e50-44b9-a7fe-524f1dd663a3";
"3cc31df4-5e50-44b9-a7fe-524f1dd663a3" [style=filled, fillcolor="#5E5E5E",fontcolor=white, label="android.os.Handler.dispatchMessage\n Susp=0,6309"];
"3cc31df4-5e50-44b9-a7fe-524f1dd663a3" -> "64dfc062-3099-4a68-bc14-86cbcdf6325b";
"64dfc062-3099-4a68-bc14-86cbcdf6325b" [style=filled, fillcolor="#5E5E5E",fontcolor=white, label="android.app.ActivityThread$H.handleMessage\n Susp=0,7522"];
"64dfc062-3099-4a68-bc14-86cbcdf6325b" -> "9161c5da-3e3c-419f-9094-85f00a1636ce";
"9161c5da-3e3c-419f-9094-85f00a1636ce" [style=filled, fillcolor="#FFFFFF", label="android.app.ActivityThread.-wrap4\n Susp=0,1348"];
"9161c5da-3e3c-419f-9094-85f00a1636ce" -> "e67167b9-6eb7-4e2e-8c78-abb69b4a3b30";
"e67167b9-6eb7-4e2e-8c78-abb69b4a3b30" [style=filled, fillcolor="#FFFFFF", label="android.app.ActivityThread.handleCreateService\n Susp=0,137"];
"e67167b9-6eb7-4e2e-8c78-abb69b4a3b30" -> "b0eedcb8-dcc8-405f-beab-ae41110278b1";
"b0eedcb8-dcc8-405f-beab-ae41110278b1" [style=filled, fillcolor="#FFFFFF", label="com.github.ruleant.getback_gps.LocationService.onCreate\n Susp=0,1392"];
"b0eedcb8-dcc8-405f-beab-ae41110278b1" -> "410731b4-66a8-4f5d-ad3f-83477bbd8e2f";
"410731b4-66a8-4f5d-ad3f-83477bbd8e2f" [style=filled, fillcolor="#FFFFFF", label="com.github.ruleant.getback_gps.LocationService.updateLocationProvider\n Susp=0,1304"];
"410731b4-66a8-4f5d-ad3f-83477bbd8e2f" -> "7e92054b-fad5-4b72-9d75-bc163769eb67";
"7e92054b-fad5-4b72-9d75-bc163769eb67" [style=filled, fillcolor="#FFFFFF", label="android.location.LocationManager.getBestProvider\n Susp=0,035"];
"64dfc062-3099-4a68-bc14-86cbcdf6325b" -> "fbc6d7a8-ff95-47b3-87a1-4e58748ec1d8";
"fbc6d7a8-ff95-47b3-87a1-4e58748ec1d8" [style=filled, fillcolor="#FFFFFF", label="android.app.ActivityThread.-wrap20\n Susp=0,1129"];
"fbc6d7a8-ff95-47b3-87a1-4e58748ec1d8" -> "698fd950-2c0d-4de7-be9e-44ff9bb9e9cd";
"698fd950-2c0d-4de7-be9e-44ff9bb9e9cd" [style=filled, fillcolor="#FFFFFF", label="android.app.ActivityThread.handleStopActivity\n Susp=0,1151"];
"698fd950-2c0d-4de7-be9e-44ff9bb9e9cd" -> "522deca2-0247-4724-9137-70ba11785056";
"522deca2-0247-4724-9137-70ba11785056" [style=filled, fillcolor="#FFFFFF", label="android.app.ActivityThread.performStopActivityInner\n Susp=0,1173"];
"522deca2-0247-4724-9137-70ba11785056" -> "9808e9dd-8642-4b7c-838f-c3df1fdcd7c4";
"9808e9dd-8642-4b7c-838f-c3df1fdcd7c4" [style=filled, fillcolor="#FFFFFF", label="android.app.Activity.performStop\n Susp=0,1194"];
"9808e9dd-8642-4b7c-838f-c3df1fdcd7c4" -> "376ce328-55bf-41da-b8b3-7c99837af32c";
"376ce328-55bf-41da-b8b3-7c99837af32c" [style=filled, fillcolor="#FFFFFF", label="android.app.Instrumentation.callActivityOnStop\n Susp=0,1216"];
"376ce328-55bf-41da-b8b3-7c99837af32c" -> "a0dd91f6-9348-4dd5-b5a3-b9faf80e98eb";
"a0dd91f6-9348-4dd5-b5a3-b9faf80e98eb" [style=filled, fillcolor="#FFFFFF", label="com.github.ruleant.getback_gps.AbstractGetBackGpsActivity.onStop\n Susp=0,0371"];
"64dfc062-3099-4a68-bc14-86cbcdf6325b" -> "02eb563f-a1e4-4c2d-a0f3-1fc0d0d53bbd";
"02eb563f-a1e4-4c2d-a0f3-1fc0d0d53bbd" [style=filled, fillcolor="#FFFFFF", label="android.app.ActivityThread.-wrap22\n Susp=0,1066"];
"02eb563f-a1e4-4c2d-a0f3-1fc0d0d53bbd" -> "a4ffff57-5eb1-46e5-8731-df9206c777c9";
"a4ffff57-5eb1-46e5-8731-df9206c777c9" [style=filled, fillcolor="#FFFFFF", label="android.app.ActivityThread.handleUnbindService\n Susp=0,1088"];
"a4ffff57-5eb1-46e5-8731-df9206c777c9" -> "174bb0e0-ee7a-4835-ae80-f79b9249b62b";
"174bb0e0-ee7a-4835-ae80-f79b9249b62b" [style=filled, fillcolor="#FFFFFF", label="com.github.ruleant.getback_gps.LocationService.onUnbind\n Susp=0,0243"];
"64dfc062-3099-4a68-bc14-86cbcdf6325b" -> "0d56c959-e33c-4c52-9ec8-e88bc3afb510";
"0d56c959-e33c-4c52-9ec8-e88bc3afb510" [style=filled, fillcolor="#FFFFFF", label="android.app.ActivityThread.-wrap21\n Susp=0,1677"];
"0d56c959-e33c-4c52-9ec8-e88bc3afb510" -> "025e30a5-e59e-4740-80b1-e45410d3f715";
"025e30a5-e59e-4740-80b1-e45410d3f715" [style=filled, fillcolor="#FFFFFF", label="android.app.ActivityThread.handleStopService\n Susp=0,1699"];
"025e30a5-e59e-4740-80b1-e45410d3f715" -> "8b2fdffd-56da-484a-8a88-4c4263879a25";
"8b2fdffd-56da-484a-8a88-4c4263879a25" [style=filled, fillcolor="#FFFFFF", label="com.github.ruleant.getback_gps.LocationService.onDestroy\n Susp=0,172"];
"8b2fdffd-56da-484a-8a88-4c4263879a25" -> "0270b592-f56c-4627-aa3a-cb8d33407162";
"0270b592-f56c-4627-aa3a-cb8d33407162" [style=filled, fillcolor="#FFFFFF", label="android.os.RemoteCallbackList.kill\n Susp=0,0547"];
"64dfc062-3099-4a68-bc14-86cbcdf6325b" -> "30e54c96-eeae-4995-9dd7-067fb26a3906";
"30e54c96-eeae-4995-9dd7-067fb26a3906" [style=filled, fillcolor="#FFFFFF", label="android.app.ActivityThread.access$1800\n Susp=0,1912"];
"30e54c96-eeae-4995-9dd7-067fb26a3906" -> "759feacc-d29e-4fcb-9394-cb80791d58c5";
"759feacc-d29e-4fcb-9394-cb80791d58c5" [style=filled, fillcolor="#FFFFFF", label="android.app.ActivityThread.handleCreateService\n Susp=0,1933"];
"759feacc-d29e-4fcb-9394-cb80791d58c5" -> "9f42f19f-daae-4f88-92d0-771567920170";
"9f42f19f-daae-4f88-92d0-771567920170" [style=filled, fillcolor="#FFFFFF", label="com.github.ruleant.getback_gps.LocationService.onCreate\n Susp=0,1955"];
"9f42f19f-daae-4f88-92d0-771567920170" -> "0dcaafe5-be7c-462c-bd6e-14016dbb7ae5";
"0dcaafe5-be7c-462c-bd6e-14016dbb7ae5" [style=filled, fillcolor="#FFFFFF", label="com.github.ruleant.getback_gps.LocationService.updateLocationProvider\n Susp=0,168"];
"0dcaafe5-be7c-462c-bd6e-14016dbb7ae5" -> "9e4214d6-b916-4d24-bc4c-bf7eacd986f5";
"9e4214d6-b916-4d24-bc4c-bf7eacd986f5" [style=filled, fillcolor="#FFFFFF", label="android.location.LocationManager.getBestProvider\n Susp=0,0537"];
"64dfc062-3099-4a68-bc14-86cbcdf6325b" -> "c0ae48c2-ab46-4761-834b-6f7269b82d61";
"c0ae48c2-ab46-4761-834b-6f7269b82d61" [style=filled, fillcolor="#FFFFFF", label="android.app.ActivityThread.access$2200\n Susp=0,1176"];
"c0ae48c2-ab46-4761-834b-6f7269b82d61" -> "223c4aac-c4ea-48d5-b249-c3f37120ff76";
"223c4aac-c4ea-48d5-b249-c3f37120ff76" [style=filled, fillcolor="#FFFFFF", label="android.app.ActivityThread.handleStopService\n Susp=0,1198"];
"223c4aac-c4ea-48d5-b249-c3f37120ff76" -> "2ef7b42a-31e7-4213-9b16-9e6baef93af4";
"2ef7b42a-31e7-4213-9b16-9e6baef93af4" [style=filled, fillcolor="#FFFFFF", label="com.github.ruleant.getback_gps.LocationService.onDestroy\n Susp=0,122"];
"2ef7b42a-31e7-4213-9b16-9e6baef93af4" -> "608ffe08-5e0d-47bf-aadb-48027d22522f";
"608ffe08-5e0d-47bf-aadb-48027d22522f" [style=filled, fillcolor="#FFFFFF", label="com.github.ruleant.getback_gps.lib.StoredLocation.save\n Susp=0,1241"];
"608ffe08-5e0d-47bf-aadb-48027d22522f" -> "74eb4859-5ce4-44ce-a3ad-f6b1d7abb21a";
"74eb4859-5ce4-44ce-a3ad-f6b1d7abb21a" [style=filled, fillcolor="#FFFFFF", label="android.location.Location.hasSpeed\n Susp=0,0397"];
"3cc31df4-5e50-44b9-a7fe-524f1dd663a3" -> "90fba771-019c-4174-8efb-775e9f94db20";
"90fba771-019c-4174-8efb-775e9f94db20" [style=filled, fillcolor="#C0C0C0", label="android.os.Handler.handleCallback\n Susp=0,296"];
"90fba771-019c-4174-8efb-775e9f94db20" -> "76b02830-4919-4f88-8fb3-1de086f4c0c3";
"76b02830-4919-4f88-8fb3-1de086f4c0c3" [style=filled, fillcolor="#FFFFFF", label="android.view.Choreographer$FrameDisplayEventReceiver.run\n Susp=0,127"];
"76b02830-4919-4f88-8fb3-1de086f4c0c3" -> "bc873c92-eb15-45dc-bb79-c78823fa1c95";
"bc873c92-eb15-45dc-bb79-c78823fa1c95" [style=filled, fillcolor="#FFFFFF", label="android.view.Choreographer.doFrame\n Susp=0,1292"];
"bc873c92-eb15-45dc-bb79-c78823fa1c95" -> "0dbfa66e-7c7b-4d7b-8471-1a78b84b37c3";
"0dbfa66e-7c7b-4d7b-8471-1a78b84b37c3" [style=filled, fillcolor="#FFFFFF", label="android.view.Choreographer.doCallbacks\n Susp=0,1313"];
"0dbfa66e-7c7b-4d7b-8471-1a78b84b37c3" -> "cef59968-cb23-4567-8287-e0d11ffe5f29";
"cef59968-cb23-4567-8287-e0d11ffe5f29" [style=filled, fillcolor="#FFFFFF", label="android.view.Choreographer$CallbackRecord.run\n Susp=0,1335"];
"cef59968-cb23-4567-8287-e0d11ffe5f29" -> "2a0a2eb6-c318-4457-b389-0d5d4ddc6fcd";
"2a0a2eb6-c318-4457-b389-0d5d4ddc6fcd" [style=filled, fillcolor="#FFFFFF", label="android.view.ViewRootImpl$TraversalRunnable.run\n Susp=0,1357"];
"2a0a2eb6-c318-4457-b389-0d5d4ddc6fcd" -> "5a081362-e7aa-4d48-9ac9-a1c45530f77d";
"5a081362-e7aa-4d48-9ac9-a1c45530f77d" [style=filled, fillcolor="#FFFFFF", label="android.view.ViewRootImpl.doTraversal\n Susp=0,1379"];
"5a081362-e7aa-4d48-9ac9-a1c45530f77d" -> "da1a548a-d4f5-4f73-844c-efc229faa247";
"da1a548a-d4f5-4f73-844c-efc229faa247" [style=filled, fillcolor="#FFFFFF", label="android.view.ViewRootImpl.performTraversals\n Susp=0,1401"];
"da1a548a-d4f5-4f73-844c-efc229faa247" -> "2a5c37e6-a56c-45ec-aeaa-b4d3c685a399";
"2a5c37e6-a56c-45ec-aeaa-b4d3c685a399" [style=filled, fillcolor="#FFFFFF", label="android.view.ViewRootImpl.performDraw\n Susp=0,1423"];
"2a5c37e6-a56c-45ec-aeaa-b4d3c685a399" -> "f6e382f8-1b28-4b91-abac-73dae4563658";
"f6e382f8-1b28-4b91-abac-73dae4563658" [style=filled, fillcolor="#FFFFFF", label="android.view.ViewRootImpl.draw\n Susp=0,1444"];
"f6e382f8-1b28-4b91-abac-73dae4563658" -> "67b13b93-c90d-49c2-97f3-7bebe7f5d7cf";
"67b13b93-c90d-49c2-97f3-7bebe7f5d7cf" [style=filled, fillcolor="#FFFFFF", label="android.view.ThreadedRenderer.draw\n Susp=0,1466"];
"67b13b93-c90d-49c2-97f3-7bebe7f5d7cf" -> "49d41611-4cc2-4dde-9554-4c883a32954b";
"49d41611-4cc2-4dde-9554-4c883a32954b" [style=filled, fillcolor="#FFFFFF", label="android.view.ThreadedRenderer.updateRootDisplayList\n Susp=0,1488"];
"49d41611-4cc2-4dde-9554-4c883a32954b" -> "aa97ea46-f68c-44f0-be32-4a1aeee284c5";
"aa97ea46-f68c-44f0-be32-4a1aeee284c5" [style=filled, fillcolor="#EBEBEB", label="android.view.ThreadedRenderer.updateViewTreeDisplayList\n Susp=0,2376"];
"aa97ea46-f68c-44f0-be32-4a1aeee284c5" -> "c5e28ed0-480e-4034-a265-3c19b9fa399d";
"c5e28ed0-480e-4034-a265-3c19b9fa399d" [style=filled, fillcolor="#FFFFFF", label="android.view.View.updateDisplayListIfDirty\n Susp=0,1359"];
"c5e28ed0-480e-4034-a265-3c19b9fa399d" -> "5df17d86-a408-45bb-852d-3351a83e3dad";
"5df17d86-a408-45bb-852d-3351a83e3dad" [style=filled, fillcolor="#FFFFFF", label="com.android.internal.policy.PhoneWindow$DecorView.draw\n Susp=0,1381"];
"5df17d86-a408-45bb-852d-3351a83e3dad" -> "347963f6-d8f3-4cb7-8436-8ed61638fa65";
"347963f6-d8f3-4cb7-8436-8ed61638fa65" [style=filled, fillcolor="#FFFFFF", label="android.view.View.draw\n Susp=0,1403"];
"347963f6-d8f3-4cb7-8436-8ed61638fa65" -> "04a1ac24-75b2-468e-b810-2a1cec023215";
"04a1ac24-75b2-468e-b810-2a1cec023215" [style=filled, fillcolor="#FFFFFF", label="android.view.ViewGroup.dispatchDraw\n Susp=0,1425"];
"04a1ac24-75b2-468e-b810-2a1cec023215" -> "bea1509e-39bb-48c1-a102-767f662cc098";
"bea1509e-39bb-48c1-a102-767f662cc098" [style=filled, fillcolor="#FFFFFF", label="android.view.ViewGroup.drawChild\n Susp=0,1447"];
"bea1509e-39bb-48c1-a102-767f662cc098" -> "4c504105-241d-4c69-b810-469e37da5e44";
"4c504105-241d-4c69-b810-469e37da5e44" [style=filled, fillcolor="#FFFFFF", label="android.view.View.draw\n Susp=0,1469"];
"4c504105-241d-4c69-b810-469e37da5e44" -> "aa6a7422-e221-482a-b346-5ba75bdd9fb2";
"aa6a7422-e221-482a-b346-5ba75bdd9fb2" [style=filled, fillcolor="#FFFFFF", label="android.view.View.updateDisplayListIfDirty\n Susp=0,149"];
"aa6a7422-e221-482a-b346-5ba75bdd9fb2" -> "cfad89bd-f8ab-485c-8202-6fafedd783ac";
"cfad89bd-f8ab-485c-8202-6fafedd783ac" [style=filled, fillcolor="#FFFFFF", label="com.android.internal.widget.ActionBarOverlayLayout.draw\n Susp=0,1512"];
"cfad89bd-f8ab-485c-8202-6fafedd783ac" -> "3c40181e-38d6-4863-a1ed-4eced181c407";
"3c40181e-38d6-4863-a1ed-4eced181c407" [style=filled, fillcolor="#FFFFFF", label="android.view.View.draw\n Susp=0,1534"];
"3c40181e-38d6-4863-a1ed-4eced181c407" -> "b1517a50-09ae-4a23-b97c-f271b3394c15";
"b1517a50-09ae-4a23-b97c-f271b3394c15" [style=filled, fillcolor="#FFFFFF", label="android.view.ViewGroup.dispatchDraw\n Susp=0,1556"];
"b1517a50-09ae-4a23-b97c-f271b3394c15" -> "f01d386d-d0da-46de-be81-78dd60b7e0f1";
"f01d386d-d0da-46de-be81-78dd60b7e0f1" [style=filled, fillcolor="#FFFFFF", label="android.view.ViewGroup.drawChild\n Susp=0,1578"];
"f01d386d-d0da-46de-be81-78dd60b7e0f1" -> "9822d4e6-e0be-46b0-87c4-12d43f32f8c8";
"9822d4e6-e0be-46b0-87c4-12d43f32f8c8" [style=filled, fillcolor="#FFFFFF", label="android.view.View.draw\n Susp=0,1599"];
"9822d4e6-e0be-46b0-87c4-12d43f32f8c8" -> "1f786120-7a73-46d3-a526-b29fe4dc18f5";
"1f786120-7a73-46d3-a526-b29fe4dc18f5" [style=filled, fillcolor="#FFFFFF", label="android.view.View.updateDisplayListIfDirty\n Susp=0,1621"];
"1f786120-7a73-46d3-a526-b29fe4dc18f5" -> "fdba6669-9c27-4c7d-adee-1cd72cd553a1";
"fdba6669-9c27-4c7d-adee-1cd72cd553a1" [style=filled, fillcolor="#FFFFFF", label="android.view.ViewGroup.dispatchDraw\n Susp=0,1643"];
"fdba6669-9c27-4c7d-adee-1cd72cd553a1" -> "87b3d235-c103-49de-ba9c-05c1ae0eac8d";
"87b3d235-c103-49de-ba9c-05c1ae0eac8d" [style=filled, fillcolor="#FFFFFF", label="android.view.ViewGroup.drawChild\n Susp=0,1665"];
"87b3d235-c103-49de-ba9c-05c1ae0eac8d" -> "d4cddbe6-7a67-4905-8b0f-464912e7362c";
"d4cddbe6-7a67-4905-8b0f-464912e7362c" [style=filled, fillcolor="#FFFFFF", label="android.view.View.draw\n Susp=0,1687"];
"d4cddbe6-7a67-4905-8b0f-464912e7362c" -> "0a2cb4c7-efed-40c1-9af8-8735a8617b67";
"0a2cb4c7-efed-40c1-9af8-8735a8617b67" [style=filled, fillcolor="#FFFFFF", label="android.view.View.updateDisplayListIfDirty\n Susp=0,1709"];
"0a2cb4c7-efed-40c1-9af8-8735a8617b67" -> "dcef4ac7-fac4-4458-af14-2a0f6a9d2bb4";
"dcef4ac7-fac4-4458-af14-2a0f6a9d2bb4" [style=filled, fillcolor="#FFFFFF", label="android.widget.ScrollView.draw\n Susp=0,173"];
"dcef4ac7-fac4-4458-af14-2a0f6a9d2bb4" -> "7c4a6615-e50e-47ff-93f7-fd8635c4b957";
"7c4a6615-e50e-47ff-93f7-fd8635c4b957" [style=filled, fillcolor="#FFFFFF", label="android.view.View.draw\n Susp=0,1752"];
"7c4a6615-e50e-47ff-93f7-fd8635c4b957" -> "b68a7b36-fbef-453f-9c16-9f3a448f9ea9";
"b68a7b36-fbef-453f-9c16-9f3a448f9ea9" [style=filled, fillcolor="#FFFFFF", label="android.view.ViewGroup.dispatchDraw\n Susp=0,1774"];
"b68a7b36-fbef-453f-9c16-9f3a448f9ea9" -> "3a5d1188-9905-4298-b5ee-ec72bb45dae4";
"3a5d1188-9905-4298-b5ee-ec72bb45dae4" [style=filled, fillcolor="#FFFFFF", label="android.view.ViewGroup.drawChild\n Susp=0,1796"];
"3a5d1188-9905-4298-b5ee-ec72bb45dae4" -> "955dc0ff-8b5d-447b-bc9e-8974b7d8999f";
"955dc0ff-8b5d-447b-bc9e-8974b7d8999f" [style=filled, fillcolor="#FFFFFF", label="android.view.View.draw\n Susp=0,1818"];
"955dc0ff-8b5d-447b-bc9e-8974b7d8999f" -> "55dfccbf-f891-41dc-ab70-5d0cf5926899";
"55dfccbf-f891-41dc-ab70-5d0cf5926899" [style=filled, fillcolor="#FFFFFF", label="android.view.View.updateDisplayListIfDirty\n Susp=0,1839"];
"55dfccbf-f891-41dc-ab70-5d0cf5926899" -> "7c5b089d-581c-4e84-9874-a0adeb50c692";
"7c5b089d-581c-4e84-9874-a0adeb50c692" [style=filled, fillcolor="#FFFFFF", label="android.view.ViewGroup.dispatchDraw\n Susp=0,1861"];
"7c5b089d-581c-4e84-9874-a0adeb50c692" -> "dfcc9810-e8b3-45f9-9ce1-5200dce3eb11";
"dfcc9810-e8b3-45f9-9ce1-5200dce3eb11" [style=filled, fillcolor="#FFFFFF", label="android.view.ViewGroup.drawChild\n Susp=0,1883"];
"dfcc9810-e8b3-45f9-9ce1-5200dce3eb11" -> "63b597ce-6463-4990-b2d9-0f1c428b780a";
"63b597ce-6463-4990-b2d9-0f1c428b780a" [style=filled, fillcolor="#FFFFFF", label="android.view.View.draw\n Susp=0,1905"];
"63b597ce-6463-4990-b2d9-0f1c428b780a" -> "d382e2a1-d6b9-4a19-8de8-bcda911f9de4";
"d382e2a1-d6b9-4a19-8de8-bcda911f9de4" [style=filled, fillcolor="#FFFFFF", label="android.view.View.updateDisplayListIfDirty\n Susp=0,1927"];
"d382e2a1-d6b9-4a19-8de8-bcda911f9de4" -> "0c9284de-ec63-462d-b370-c4c38c11803f";
"0c9284de-ec63-462d-b370-c4c38c11803f" [style=filled, fillcolor="#FFFFFF", label="android.view.View.draw\n Susp=0,1949"];
"0c9284de-ec63-462d-b370-c4c38c11803f" -> "c7a240ee-bd15-4df9-b71c-ddcb7540eeca";
"c7a240ee-bd15-4df9-b71c-ddcb7540eeca" [style=filled, fillcolor="#FFFFFF", label="com.github.ruleant.getback_gps.NavigationView.onDraw\n Susp=0,1104"];
"aa97ea46-f68c-44f0-be32-4a1aeee284c5" -> "5988731e-66ad-49ac-ad88-2f490f6c8b94";
"5988731e-66ad-49ac-ad88-2f490f6c8b94" [style=filled, fillcolor="#FFFFFF", label="android.view.View.getDisplayList\n Susp=0,1453"];
"5988731e-66ad-49ac-ad88-2f490f6c8b94" -> "137336aa-6034-4c2f-bd40-bc2a2f47d79b";
"137336aa-6034-4c2f-bd40-bc2a2f47d79b" [style=filled, fillcolor="#FFFFFF", label="android.view.View.updateDisplayListIfDirty\n Susp=0,1475"];
"137336aa-6034-4c2f-bd40-bc2a2f47d79b" -> "ee81e71d-9edb-434c-9eb9-f1fd2d90b575";
"ee81e71d-9edb-434c-9eb9-f1fd2d90b575" [style=filled, fillcolor="#FFFFFF", label="com.android.internal.policy.impl.PhoneWindow$DecorView.draw\n Susp=0,1497"];
"ee81e71d-9edb-434c-9eb9-f1fd2d90b575" -> "671e7da1-f458-49d6-b474-3149e7fd3e0b";
"671e7da1-f458-49d6-b474-3149e7fd3e0b" [style=filled, fillcolor="#FFFFFF", label="android.widget.FrameLayout.draw\n Susp=0,1519"];
"671e7da1-f458-49d6-b474-3149e7fd3e0b" -> "19338675-dc1f-4a9e-961c-cd572200752c";
"19338675-dc1f-4a9e-961c-cd572200752c" [style=filled, fillcolor="#FFFFFF", label="android.view.View.draw\n Susp=0,1541"];
"19338675-dc1f-4a9e-961c-cd572200752c" -> "83f83837-de74-451e-a0fb-6b44f2542040";
"83f83837-de74-451e-a0fb-6b44f2542040" [style=filled, fillcolor="#FFFFFF", label="android.view.ViewGroup.dispatchDraw\n Susp=0,1562"];
"83f83837-de74-451e-a0fb-6b44f2542040" -> "486cb74c-f75b-4622-8700-2d6e662cf5e1";
"486cb74c-f75b-4622-8700-2d6e662cf5e1" [style=filled, fillcolor="#FFFFFF", label="android.view.ViewGroup.drawChild\n Susp=0,1584"];
"486cb74c-f75b-4622-8700-2d6e662cf5e1" -> "fc8979af-13a5-407f-b79b-8917abc4ef76";
"fc8979af-13a5-407f-b79b-8917abc4ef76" [style=filled, fillcolor="#FFFFFF", label="android.view.View.draw\n Susp=0,1606"];
"fc8979af-13a5-407f-b79b-8917abc4ef76" -> "4261faf9-8e6c-45bb-8186-663cfb4b5ca1";
"4261faf9-8e6c-45bb-8186-663cfb4b5ca1" [style=filled, fillcolor="#FFFFFF", label="android.view.View.getDisplayList\n Susp=0,1628"];
"4261faf9-8e6c-45bb-8186-663cfb4b5ca1" -> "943ee894-6eca-4e6a-b0cc-cc9dd41bd849";
"943ee894-6eca-4e6a-b0cc-cc9dd41bd849" [style=filled, fillcolor="#FFFFFF", label="android.view.View.updateDisplayListIfDirty\n Susp=0,165"];
"943ee894-6eca-4e6a-b0cc-cc9dd41bd849" -> "5bf04620-94ed-426e-b0a1-b5653117f882";
"5bf04620-94ed-426e-b0a1-b5653117f882" [style=filled, fillcolor="#FFFFFF", label="com.android.internal.widget.ActionBarOverlayLayout.draw\n Susp=0,1672"];
"5bf04620-94ed-426e-b0a1-b5653117f882" -> "c4c5229e-56b5-4af2-aacb-787e435a0a13";
"c4c5229e-56b5-4af2-aacb-787e435a0a13" [style=filled, fillcolor="#FFFFFF", label="android.view.View.draw\n Susp=0,1693"];
"c4c5229e-56b5-4af2-aacb-787e435a0a13" -> "23cd948e-4a88-4c23-889c-58263c279cc1";
"23cd948e-4a88-4c23-889c-58263c279cc1" [style=filled, fillcolor="#FFFFFF", label="android.view.ViewGroup.dispatchDraw\n Susp=0,1715"];
"23cd948e-4a88-4c23-889c-58263c279cc1" -> "a49a99a7-378c-4049-94a2-bf769dab3a6f";
"a49a99a7-378c-4049-94a2-bf769dab3a6f" [style=filled, fillcolor="#FFFFFF", label="android.view.ViewGroup.drawChild\n Susp=0,1737"];
"a49a99a7-378c-4049-94a2-bf769dab3a6f" -> "18285962-f704-40b1-b2c8-cec7203bbc51";
"18285962-f704-40b1-b2c8-cec7203bbc51" [style=filled, fillcolor="#FFFFFF", label="android.view.View.draw\n Susp=0,1759"];
"18285962-f704-40b1-b2c8-cec7203bbc51" -> "a8d26c1b-20e5-423a-95a7-ccbb96695bb7";
"a8d26c1b-20e5-423a-95a7-ccbb96695bb7" [style=filled, fillcolor="#FFFFFF", label="android.view.View.getDisplayList\n Susp=0,1781"];
"a8d26c1b-20e5-423a-95a7-ccbb96695bb7" -> "29d36fcc-44bc-40a5-98d1-111b22acc414";
"29d36fcc-44bc-40a5-98d1-111b22acc414" [style=filled, fillcolor="#FFFFFF", label="android.view.View.updateDisplayListIfDirty\n Susp=0,1802"];
"29d36fcc-44bc-40a5-98d1-111b22acc414" -> "16eb3ece-d127-434d-9457-c28f3e6b911d";
"16eb3ece-d127-434d-9457-c28f3e6b911d" [style=filled, fillcolor="#FFFFFF", label="android.view.ViewGroup.dispatchDraw\n Susp=0,1824"];
"16eb3ece-d127-434d-9457-c28f3e6b911d" -> "977a2f8d-21c9-40c9-bbdf-f88d78a08401";
"977a2f8d-21c9-40c9-bbdf-f88d78a08401" [style=filled, fillcolor="#FFFFFF", label="android.view.ViewGroup.drawChild\n Susp=0,1846"];
"977a2f8d-21c9-40c9-bbdf-f88d78a08401" -> "14e0e091-df08-4941-b032-a3498cbf3b84";
"14e0e091-df08-4941-b032-a3498cbf3b84" [style=filled, fillcolor="#FFFFFF", label="android.view.View.draw\n Susp=0,1868"];
"14e0e091-df08-4941-b032-a3498cbf3b84" -> "9af59498-0390-4213-b76d-d63d8664bc2e";
"9af59498-0390-4213-b76d-d63d8664bc2e" [style=filled, fillcolor="#FFFFFF", label="android.view.View.getDisplayList\n Susp=0,189"];
"9af59498-0390-4213-b76d-d63d8664bc2e" -> "8b39f984-d279-4968-a66f-afbe5f41e1e3";
"8b39f984-d279-4968-a66f-afbe5f41e1e3" [style=filled, fillcolor="#FFFFFF", label="android.view.View.updateDisplayListIfDirty\n Susp=0,1912"];
"8b39f984-d279-4968-a66f-afbe5f41e1e3" -> "3cc111b7-bf92-4e8d-a5a1-35e0ce2e09dd";
"3cc111b7-bf92-4e8d-a5a1-35e0ce2e09dd" [style=filled, fillcolor="#FFFFFF", label="android.widget.ScrollView.draw\n Susp=0,1933"];
"3cc111b7-bf92-4e8d-a5a1-35e0ce2e09dd" -> "ffdd5100-aa1f-4bda-be83-d79ac483386a";
"ffdd5100-aa1f-4bda-be83-d79ac483386a" [style=filled, fillcolor="#FFFFFF", label="android.widget.FrameLayout.draw\n Susp=0,1955"];
"ffdd5100-aa1f-4bda-be83-d79ac483386a" -> "a4c16d4b-6420-425c-a3d3-5dab82c299ba";
"a4c16d4b-6420-425c-a3d3-5dab82c299ba" [style=filled, fillcolor="#FFFFFF", label="android.view.View.draw\n Susp=0,1977"];
"a4c16d4b-6420-425c-a3d3-5dab82c299ba" -> "44b1590e-e140-4458-ae4f-136f189ec41d";
"44b1590e-e140-4458-ae4f-136f189ec41d" [style=filled, fillcolor="#FFFFFF", label="android.view.ViewGroup.dispatchDraw\n Susp=0,1999"];
"44b1590e-e140-4458-ae4f-136f189ec41d" -> "d670da2c-f4b1-4f25-addf-63797f72dfc7";
"d670da2c-f4b1-4f25-addf-63797f72dfc7" [style=filled, fillcolor="#EBEBEB", label="android.view.ViewGroup.drawChild\n Susp=0,2021"];
"d670da2c-f4b1-4f25-addf-63797f72dfc7" -> "af19c888-e1c4-4c7c-a3bb-db044f396038";
"af19c888-e1c4-4c7c-a3bb-db044f396038" [style=filled, fillcolor="#EBEBEB", label="android.view.View.draw\n Susp=0,2042"];
"af19c888-e1c4-4c7c-a3bb-db044f396038" -> "5135dd08-cd1c-4bb8-8381-9e847ae8735e";
"5135dd08-cd1c-4bb8-8381-9e847ae8735e" [style=filled, fillcolor="#EBEBEB", label="android.view.View.getDisplayList\n Susp=0,2064"];
"5135dd08-cd1c-4bb8-8381-9e847ae8735e" -> "7354aea0-af27-444d-b795-24d45fcf46b5";
"7354aea0-af27-444d-b795-24d45fcf46b5" [style=filled, fillcolor="#EBEBEB", label="android.view.View.updateDisplayListIfDirty\n Susp=0,2086"];
"7354aea0-af27-444d-b795-24d45fcf46b5" -> "20cc58b1-2d81-477a-8c37-8277a6d673f1";
"20cc58b1-2d81-477a-8c37-8277a6d673f1" [style=filled, fillcolor="#EBEBEB", label="android.view.ViewGroup.dispatchDraw\n Susp=0,2108"];
"20cc58b1-2d81-477a-8c37-8277a6d673f1" -> "b27b2158-9118-4826-a60a-05ede71b7273";
"b27b2158-9118-4826-a60a-05ede71b7273" [style=filled, fillcolor="#EBEBEB", label="android.view.ViewGroup.drawChild\n Susp=0,213"];
"b27b2158-9118-4826-a60a-05ede71b7273" -> "a40371f2-c6ed-419f-8a4a-a7faa2f66bee";
"a40371f2-c6ed-419f-8a4a-a7faa2f66bee" [style=filled, fillcolor="#EBEBEB", label="android.view.View.draw\n Susp=0,2152"];
"a40371f2-c6ed-419f-8a4a-a7faa2f66bee" -> "9f076bbc-fc9b-4ddb-af84-5c1d1b89ecae";
"9f076bbc-fc9b-4ddb-af84-5c1d1b89ecae" [style=filled, fillcolor="#EBEBEB", label="android.view.View.getDisplayList\n Susp=0,2173"];
"9f076bbc-fc9b-4ddb-af84-5c1d1b89ecae" -> "58e01c21-0a61-481c-a447-2c51aa289607";
"58e01c21-0a61-481c-a447-2c51aa289607" [style=filled, fillcolor="#EBEBEB", label="android.view.View.updateDisplayListIfDirty\n Susp=0,2195"];
"58e01c21-0a61-481c-a447-2c51aa289607" -> "86e55f26-f78d-4780-880b-329c67b455b4";
"86e55f26-f78d-4780-880b-329c67b455b4" [style=filled, fillcolor="#EBEBEB", label="android.view.View.draw\n Susp=0,2217"];
"86e55f26-f78d-4780-880b-329c67b455b4" -> "58b5f66f-8031-4f6a-ad8c-d6d97d5e3f8d";
"58b5f66f-8031-4f6a-ad8c-d6d97d5e3f8d" [style=filled, fillcolor="#FFFFFF", label="com.github.ruleant.getback_gps.NavigationView.onDraw\n Susp=0,1372"];
"90fba771-019c-4174-8efb-775e9f94db20" -> "1c88d921-f9d5-473a-8930-052f79165b91";
"1c88d921-f9d5-473a-8930-052f79165b91" [style=filled, fillcolor="#FFFFFF", label="android.app.LoadedApk$ServiceDispatcher$RunConnection.run\n Susp=0,1865"];
"1c88d921-f9d5-473a-8930-052f79165b91" -> "c12767a6-d3e3-414a-ba7b-36b0461b5e71";
"c12767a6-d3e3-414a-ba7b-36b0461b5e71" [style=filled, fillcolor="#FFFFFF", label="android.app.LoadedApk$ServiceDispatcher.doConnected\n Susp=0,1886"];
"c12767a6-d3e3-414a-ba7b-36b0461b5e71" -> "4c045cd9-85d7-4e00-806f-d907389fe779";
"4c045cd9-85d7-4e00-806f-d907389fe779" [style=filled, fillcolor="#FFFFFF", label="com.github.ruleant.getback_gps.AbstractGetBackGpsActivity$5.onServiceConnected\n Susp=0,1908"];
"4c045cd9-85d7-4e00-806f-d907389fe779" -> "240d9ec3-8dc7-48e9-b800-88c2573b3773";
"240d9ec3-8dc7-48e9-b800-88c2573b3773" [style=filled, fillcolor="#FFFFFF", label="com.github.ruleant.getback_gps.MainActivity.refreshDisplay\n Susp=0,1554"];
"240d9ec3-8dc7-48e9-b800-88c2573b3773" -> "fc17632d-5cbe-43fb-b988-0c6235064d79";
"fc17632d-5cbe-43fb-b988-0c6235064d79" [style=filled, fillcolor="#FFFFFF", label="com.github.ruleant.getback_gps.AbstractGetBackGpsActivity.refreshDisplay\n Susp=0,1201"];
"fc17632d-5cbe-43fb-b988-0c6235064d79" -> "61e1a923-7a16-40da-8499-525fd9c0951b";
"61e1a923-7a16-40da-8499-525fd9c0951b" [style=filled, fillcolor="#FFFFFF", label="com.github.ruleant.getback_gps.AbstractGetBackGpsActivity.refreshCrouton\n Susp=0,1222"];
"61e1a923-7a16-40da-8499-525fd9c0951b" -> "463d6127-986b-43a5-b8f1-410db6cf6677";
"463d6127-986b-43a5-b8f1-410db6cf6677" [style=filled, fillcolor="#FFFFFF", label="com.github.ruleant.getback_gps.lib.Navigator.isLocationAccurate\n Susp=0,1244"];
"463d6127-986b-43a5-b8f1-410db6cf6677" -> "6e9162ab-bbb2-4126-8c79-ce49c92cbfce";
"6e9162ab-bbb2-4126-8c79-ce49c92cbfce" [style=filled, fillcolor="#FFFFFF", label="com.github.ruleant.getback_gps.lib.AriadneLocation.isRecent\n Susp=0,1266"];
"6e9162ab-bbb2-4126-8c79-ce49c92cbfce" -> "8a4b942c-7e25-463a-819c-77bca27def5a";
"8a4b942c-7e25-463a-819c-77bca27def5a" [style=filled, fillcolor="#FFFFFF", label="android.location.Location.getElapsedRealtimeNanos\n Susp=0,0421"];
"3cc31df4-5e50-44b9-a7fe-524f1dd663a3" -> "effb956b-9b4a-49ac-9edb-be3929f7ae43";
"effb956b-9b4a-49ac-9edb-be3929f7ae43" [style=filled, fillcolor="#FFFFFF", label="android.location.LocationManager$ListenerTransport$1.handleMessage\n Susp=0,1311"];
"effb956b-9b4a-49ac-9edb-be3929f7ae43" -> "561c554f-a32d-44f5-bcd0-f56f80d092eb";
"561c554f-a32d-44f5-bcd0-f56f80d092eb" [style=filled, fillcolor="#FFFFFF", label="android.location.LocationManager$ListenerTransport.access$000\n Susp=0,1332"];
"561c554f-a32d-44f5-bcd0-f56f80d092eb" -> "e9c42f9a-04e2-4881-8b43-a6e944d0a653";
"e9c42f9a-04e2-4881-8b43-a6e944d0a653" [style=filled, fillcolor="#FFFFFF", label="android.location.LocationManager$ListenerTransport._handleMessage\n Susp=0,1354"];
"e9c42f9a-04e2-4881-8b43-a6e944d0a653" -> "a22c3ab2-e682-4f8c-a4fa-39f73e958d1b";
"a22c3ab2-e682-4f8c-a4fa-39f73e958d1b" [style=filled, fillcolor="#FFFFFF", label="com.github.ruleant.getback_gps.LocationService$1.onLocationChanged\n Susp=0,0509"];
}
