BEFORE com.example.mapdemo.MapDemoActivity.onCreate(), invoked by: dalvik.system.VMStack.getThreadStackTrace, java.lang.Thread.getStackTrace, it.unimib.disco.lta.unimiblogger.MyMethodHook.beforeHookedMethod, de.robv.android.xposed.XposedBridge.handleHookedMethod, com.example.mapdemo.MapDemoActivity.onCreate, android.app.Activity.performCreate, android.app.Instrumentation.callActivityOnCreate, android.app.ActivityThread.performLaunchActivity, android.app.ActivityThread.handleLaunchActivity, android.app.ActivityThread.-wrap11, android.app.ActivityThread$H.handleMessage, android.os.Handler.dispatchMessage, android.os.Looper.loop, android.app.ActivityThread.main, java.lang.reflect.Method.invoke, com.android.internal.os.ZygoteInit$MethodAndArgsCaller.run, com.android.internal.os.ZygoteInit.main, de.robv.android.xposed.XposedBridge.main
BEFORE android.support.v7.app.AppCompatActivity.onCreate(), invoked by: dalvik.system.VMStack.getThreadStackTrace, java.lang.Thread.getStackTrace, it.unimib.disco.lta.unimiblogger.MyMethodHook.beforeHookedMethod, de.robv.android.xposed.XposedBridge.handleHookedMethod, android.support.v7.app.AppCompatActivity.onCreate, com.example.mapdemo.MapDemoActivity.onCreate, de.robv.android.xposed.XposedBridge.invokeOriginalMethodNative, de.robv.android.xposed.XposedBridge.handleHookedMethod, com.example.mapdemo.MapDemoActivity.onCreate, android.app.Activity.performCreate, android.app.Instrumentation.callActivityOnCreate, android.app.ActivityThread.performLaunchActivity, android.app.ActivityThread.handleLaunchActivity, android.app.ActivityThread.-wrap11, android.app.ActivityThread$H.handleMessage, android.os.Handler.dispatchMessage, android.os.Looper.loop, android.app.ActivityThread.main, java.lang.reflect.Method.invoke, com.android.internal.os.ZygoteInit$MethodAndArgsCaller.run, com.android.internal.os.ZygoteInit.main, de.robv.android.xposed.XposedBridge.main
AFTER android.support.v7.app.AppCompatActivity.onCreate, invoked by: dalvik.system.VMStack.getThreadStackTrace, java.lang.Thread.getStackTrace, it.unimib.disco.lta.unimiblogger.MyMethodHook.beforeHookedMethod, de.robv.android.xposed.XposedBridge.handleHookedMethod, android.support.v7.app.AppCompatActivity.onCreate, com.example.mapdemo.MapDemoActivity.onCreate, de.robv.android.xposed.XposedBridge.invokeOriginalMethodNative, de.robv.android.xposed.XposedBridge.handleHookedMethod, com.example.mapdemo.MapDemoActivity.onCreate, android.app.Activity.performCreate, android.app.Instrumentation.callActivityOnCreate, android.app.ActivityThread.performLaunchActivity, android.app.ActivityThread.handleLaunchActivity, android.app.ActivityThread.-wrap11, android.app.ActivityThread$H.handleMessage, android.os.Handler.dispatchMessage, android.os.Looper.loop, android.app.ActivityThread.main, java.lang.reflect.Method.invoke, com.android.internal.os.ZygoteInit$MethodAndArgsCaller.run, com.android.internal.os.ZygoteInit.main, de.robv.android.xposed.XposedBridge.main
BEFORE android.support.v7.app.AppCompatActivity.setContentView(2131296280), invoked by: dalvik.system.VMStack.getThreadStackTrace, java.lang.Thread.getStackTrace, it.unimib.disco.lta.unimiblogger.MyMethodHook.beforeHookedMethod, de.robv.android.xposed.XposedBridge.handleHookedMethod, android.support.v7.app.AppCompatActivity.setContentView, com.example.mapdemo.MapDemoActivity.onCreate, de.robv.android.xposed.XposedBridge.invokeOriginalMethodNative, de.robv.android.xposed.XposedBridge.handleHookedMethod, com.example.mapdemo.MapDemoActivity.onCreate, android.app.Activity.performCreate, android.app.Instrumentation.callActivityOnCreate, android.app.ActivityThread.performLaunchActivity, android.app.ActivityThread.handleLaunchActivity, android.app.ActivityThread.-wrap11, android.app.ActivityThread$H.handleMessage, android.os.Handler.dispatchMessage, android.os.Looper.loop, android.app.ActivityThread.main, java.lang.reflect.Method.invoke, com.android.internal.os.ZygoteInit$MethodAndArgsCaller.run, com.android.internal.os.ZygoteInit.main, de.robv.android.xposed.XposedBridge.main
BEFORE android.os.Binder.queryLocalInterface(com.google.android.gms.dynamic.IObjectWrapper), invoked by: dalvik.system.VMStack.getThreadStackTrace, java.lang.Thread.getStackTrace, it.unimib.disco.lta.unimiblogger.MyMethodHook.beforeHookedMethod, de.robv.android.xposed.XposedBridge.handleHookedMethod, android.os.Binder.queryLocalInterface, agwy.dU, csi.onTransact, android.os.Binder.transact, de.robv.android.xposed.XposedBridge.invokeOriginalMethodNative, de.robv.android.xposed.XposedBridge.handleHookedMethod, android.os.Binder.transact, com.google.android.gms.maps.internal.zzc$zza$zza.zzd, com.google.android.gms.maps.internal.zzy.zzaG, com.google.android.gms.maps.MapsInitializer.initialize, com.google.android.gms.maps.SupportMapFragment$zzb.zzxL, com.google.android.gms.maps.SupportMapFragment$zzb.zza, com.google.android.gms.dynamic.zza.zza, com.google.android.gms.dynamic.zza.onCreate, com.google.android.gms.maps.SupportMapFragment.onCreate, android.support.v4.app.Fragment.performCreate, android.support.v4.app.FragmentManagerImpl.moveToState, android.support.v4.app.FragmentManagerImpl.moveToState, android.support.v4.app.FragmentManagerImpl.addFragment, android.support.v4.app.FragmentManagerImpl.onCreateView, android.support.v4.app.FragmentController.onCreateView, android.support.v4.app.FragmentActivity.dispatchFragmentsOnCreateView, android.support.v4.app.BaseFragmentActivityHoneycomb.onCreateView, android.support.v4.app.FragmentActivity.onCreateView, android.view.LayoutInflater.createViewFromTag, android.view.LayoutInflater.createViewFromTag, android.view.LayoutInflater.rInflate, android.view.LayoutInflater.rInflateChildren, android.view.LayoutInflater.inflate, de.robv.android.xposed.XposedBridge.invokeOriginalMethodNative, de.robv.android.xposed.XposedBridge.handleHookedMethod, android.view.LayoutInflater.inflate, android.view.LayoutInflater.inflate, android.view.LayoutInflater.inflate, android.support.v7.app.AppCompatDelegateImplV7.setContentView, android.support.v7.app.AppCompatActivity.setContentView, de.robv.android.xposed.XposedBridge.invokeOriginalMethodNative, de.robv.android.xposed.XposedBridge.handleHookedMethod, android.support.v7.app.AppCompatActivity.setContentView, com.example.mapdemo.MapDemoActivity.onCreate, de.robv.android.xposed.XposedBridge.invokeOriginalMethodNative, de.robv.android.xposed.XposedBridge.handleHookedMethod, com.example.mapdemo.MapDemoActivity.onCreate, android.app.Activity.performCreate, android.app.Instrumentation.callActivityOnCreate, android.app.ActivityThread.performLaunchActivity, android.app.ActivityThread.handleLaunchActivity, android.app.ActivityThread.-wrap11, android.app.ActivityThread$H.handleMessage, android.os.Handler.dispatchMessage, android.os.Looper.loop, android.app.ActivityThread.main, java.lang.reflect.Method.invoke, com.android.internal.os.ZygoteInit$MethodAndArgsCaller.run, com.android.internal.os.ZygoteInit.main, de.robv.android.xposed.XposedBridge.main
AFTER android.os.Binder.queryLocalInterface, returnValue: com.google.android.gms.dynamic.zze, invoked by: dalvik.system.VMStack.getThreadStackTrace, java.lang.Thread.getStackTrace, it.unimib.disco.lta.unimiblogger.MyMethodHook.beforeHookedMethod, de.robv.android.xposed.XposedBridge.handleHookedMethod, android.os.Binder.queryLocalInterface, agwy.dU, csi.onTransact, android.os.Binder.transact, de.robv.android.xposed.XposedBridge.invokeOriginalMethodNative, de.robv.android.xposed.XposedBridge.handleHookedMethod, android.os.Binder.transact, com.google.android.gms.maps.internal.zzc$zza$zza.zzd, com.google.android.gms.maps.internal.zzy.zzaG, com.google.android.gms.maps.MapsInitializer.initialize, com.google.android.gms.maps.SupportMapFragment$zzb.zzxL, com.google.android.gms.maps.SupportMapFragment$zzb.zza, com.google.android.gms.dynamic.zza.zza, com.google.android.gms.dynamic.zza.onCreate, com.google.android.gms.maps.SupportMapFragment.onCreate, android.support.v4.app.Fragment.performCreate, android.support.v4.app.FragmentManagerImpl.moveToState, android.support.v4.app.FragmentManagerImpl.moveToState, android.support.v4.app.FragmentManagerImpl.addFragment, android.support.v4.app.FragmentManagerImpl.onCreateView, android.support.v4.app.FragmentController.onCreateView, android.support.v4.app.FragmentActivity.dispatchFragmentsOnCreateView, android.support.v4.app.BaseFragmentActivityHoneycomb.onCreateView, android.support.v4.app.FragmentActivity.onCreateView, android.view.LayoutInflater.createViewFromTag, android.view.LayoutInflater.createViewFromTag, android.view.LayoutInflater.rInflate, android.view.LayoutInflater.rInflateChildren, android.view.LayoutInflater.inflate, de.robv.android.xposed.XposedBridge.invokeOriginalMethodNative, de.robv.android.xposed.XposedBridge.handleHookedMethod, android.view.LayoutInflater.inflate, android.view.LayoutInflater.inflate, android.view.LayoutInflater.inflate, android.support.v7.app.AppCompatDelegateImplV7.setContentView, android.support.v7.app.AppCompatActivity.setContentView, de.robv.android.xposed.XposedBridge.invokeOriginalMethodNative, de.robv.android.xposed.XposedBridge.handleHookedMethod, android.support.v7.app.AppCompatActivity.setContentView, com.example.mapdemo.MapDemoActivity.onCreate, de.robv.android.xposed.XposedBridge.invokeOriginalMethodNative, de.robv.android.xposed.XposedBridge.handleHookedMethod, com.example.mapdemo.MapDemoActivity.onCreate, android.app.Activity.performCreate, android.app.Instrumentation.callActivityOnCreate, android.app.ActivityThread.performLaunchActivity, android.app.ActivityThread.handleLaunchActivity, android.app.ActivityThread.-wrap11, android.app.ActivityThread$H.handleMessage, android.os.Handler.dispatchMessage, android.os.Looper.loop, android.app.ActivityThread.main, java.lang.reflect.Method.invoke, com.android.internal.os.ZygoteInit$MethodAndArgsCaller.run, com.android.internal.os.ZygoteInit.main, de.robv.android.xposed.XposedBridge.main
BEFORE android.os.Binder.queryLocalInterface(com.google.android.gms.dynamic.IObjectWrapper), invoked by: dalvik.system.VMStack.getThreadStackTrace, java.lang.Thread.getStackTrace, it.unimib.disco.lta.unimiblogger.MyMethodHook.beforeHookedMethod, de.robv.android.xposed.XposedBridge.handleHookedMethod, android.os.Binder.queryLocalInterface, agwy.dU, csi.onTransact, android.os.Binder.transact, de.robv.android.xposed.XposedBridge.invokeOriginalMethodNative, de.robv.android.xposed.XposedBridge.handleHookedMethod, android.os.Binder.transact, com.google.android.gms.maps.internal.zzc$zza$zza.zzt, com.google.android.gms.maps.SupportMapFragment$zzb.zzxL, com.google.android.gms.maps.SupportMapFragment$zzb.zza, com.google.android.gms.dynamic.zza.zza, com.google.android.gms.dynamic.zza.onCreate, com.google.android.gms.maps.SupportMapFragment.onCreate, android.support.v4.app.Fragment.performCreate, android.support.v4.app.FragmentManagerImpl.moveToState, android.support.v4.app.FragmentManagerImpl.moveToState, android.support.v4.app.FragmentManagerImpl.addFragment, android.support.v4.app.FragmentManagerImpl.onCreateView, android.support.v4.app.FragmentController.onCreateView, android.support.v4.app.FragmentActivity.dispatchFragmentsOnCreateView, android.support.v4.app.BaseFragmentActivityHoneycomb.onCreateView, android.support.v4.app.FragmentActivity.onCreateView, android.view.LayoutInflater.createViewFromTag, android.view.LayoutInflater.createViewFromTag, android.view.LayoutInflater.rInflate, android.view.LayoutInflater.rInflateChildren, android.view.LayoutInflater.inflate, de.robv.android.xposed.XposedBridge.invokeOriginalMethodNative, de.robv.android.xposed.XposedBridge.handleHookedMethod, android.view.LayoutInflater.inflate, android.view.LayoutInflater.inflate, android.view.LayoutInflater.inflate, android.support.v7.app.AppCompatDelegateImplV7.setContentView, android.support.v7.app.AppCompatActivity.setContentView, de.robv.android.xposed.XposedBridge.invokeOriginalMethodNative, de.robv.android.xposed.XposedBridge.handleHookedMethod, android.support.v7.app.AppCompatActivity.setContentView, com.example.mapdemo.MapDemoActivity.onCreate, de.robv.android.xposed.XposedBridge.invokeOriginalMethodNative, de.robv.android.xposed.XposedBridge.handleHookedMethod, com.example.mapdemo.MapDemoActivity.onCreate, android.app.Activity.performCreate, android.app.Instrumentation.callActivityOnCreate, android.app.ActivityThread.performLaunchActivity, android.app.ActivityThread.handleLaunchActivity, android.app.ActivityThread.-wrap11, android.app.ActivityThread$H.handleMessage, android.os.Handler.dispatchMessage, android.os.Looper.loop, android.app.ActivityThread.main, java.lang.reflect.Method.invoke, com.android.internal.os.ZygoteInit$MethodAndArgsCaller.run, com.android.internal.os.ZygoteInit.main, de.robv.android.xposed.XposedBridge.main
AFTER android.os.Binder.queryLocalInterface, returnValue: com.google.android.gms.dynamic.zze, invoked by: dalvik.system.VMStack.getThreadStackTrace, java.lang.Thread.getStackTrace, it.unimib.disco.lta.unimiblogger.MyMethodHook.beforeHookedMethod, de.robv.android.xposed.XposedBridge.handleHookedMethod, android.os.Binder.queryLocalInterface, agwy.dU, csi.onTransact, android.os.Binder.transact, de.robv.android.xposed.XposedBridge.invokeOriginalMethodNative, de.robv.android.xposed.XposedBridge.handleHookedMethod, android.os.Binder.transact, com.google.android.gms.maps.internal.zzc$zza$zza.zzt, com.google.android.gms.maps.SupportMapFragment$zzb.zzxL, com.google.android.gms.maps.SupportMapFragment$zzb.zza, com.google.android.gms.dynamic.zza.zza, com.google.android.gms.dynamic.zza.onCreate, com.google.android.gms.maps.SupportMapFragment.onCreate, android.support.v4.app.Fragment.performCreate, android.support.v4.app.FragmentManagerImpl.moveToState, android.support.v4.app.FragmentManagerImpl.moveToState, android.support.v4.app.FragmentManagerImpl.addFragment, android.support.v4.app.FragmentManagerImpl.onCreateView, android.support.v4.app.FragmentController.onCreateView, android.support.v4.app.FragmentActivity.dispatchFragmentsOnCreateView, android.support.v4.app.BaseFragmentActivityHoneycomb.onCreateView, android.support.v4.app.FragmentActivity.onCreateView, android.view.LayoutInflater.createViewFromTag, android.view.LayoutInflater.createViewFromTag, android.view.LayoutInflater.rInflate, android.view.LayoutInflater.rInflateChildren, android.view.LayoutInflater.inflate, de.robv.android.xposed.XposedBridge.invokeOriginalMethodNative, de.robv.android.xposed.XposedBridge.handleHookedMethod, android.view.LayoutInflater.inflate, android.view.LayoutInflater.inflate, android.view.LayoutInflater.inflate, android.support.v7.app.AppCompatDelegateImplV7.setContentView, android.support.v7.app.AppCompatActivity.setContentView, de.robv.android.xposed.XposedBridge.invokeOriginalMethodNative, de.robv.android.xposed.XposedBridge.handleHookedMethod, android.support.v7.app.AppCompatActivity.setContentView, com.example.mapdemo.MapDemoActivity.onCreate, de.robv.android.xposed.XposedBridge.invokeOriginalMethodNative, de.robv.android.xposed.XposedBridge.handleHookedMethod, com.example.mapdemo.MapDemoActivity.onCreate, android.app.Activity.performCreate, android.app.Instrumentation.callActivityOnCreate, android.app.ActivityThread.performLaunchActivity, android.app.ActivityThread.handleLaunchActivity, android.app.ActivityThread.-wrap11, android.app.ActivityThread$H.handleMessage, android.os.Handler.dispatchMessage, android.os.Looper.loop, android.app.ActivityThread.main, java.lang.reflect.Method.invoke, com.android.internal.os.ZygoteInit$MethodAndArgsCaller.run, com.android.internal.os.ZygoteInit.main, de.robv.android.xposed.XposedBridge.main
BEFORE android.os.Binder.queryLocalInterface(com.google.android.gms.maps.internal.ICreator), invoked by: dalvik.system.VMStack.getThreadStackTrace, java.lang.Thread.getStackTrace, it.unimib.disco.lta.unimiblogger.MyMethodHook.beforeHookedMethod, de.robv.android.xposed.XposedBridge.handleHookedMethod, android.os.Binder.queryLocalInterface, agwy.asInterface, com.google.android.gms.maps.internal.CreatorImpl.d, com.google.android.gms.maps.internal.CreatorImpl.newMapFragmentDelegate, agwy.dU, csi.onTransact, android.os.Binder.transact, de.robv.android.xposed.XposedBridge.invokeOriginalMethodNative, de.robv.android.xposed.XposedBridge.handleHookedMethod, android.os.Binder.transact, com.google.android.gms.maps.internal.zzc$zza$zza.zzt, com.google.android.gms.maps.SupportMapFragment$zzb.zzxL, com.google.android.gms.maps.SupportMapFragment$zzb.zza, com.google.android.gms.dynamic.zza.zza, com.google.android.gms.dynamic.zza.onCreate, com.google.android.gms.maps.SupportMapFragment.onCreate, android.support.v4.app.Fragment.performCreate, android.support.v4.app.FragmentManagerImpl.moveToState, android.support.v4.app.FragmentManagerImpl.moveToState, android.support.v4.app.FragmentManagerImpl.addFragment, android.support.v4.app.FragmentManagerImpl.onCreateView, android.support.v4.app.FragmentController.onCreateView, android.support.v4.app.FragmentActivity.dispatchFragmentsOnCreateView, android.support.v4.app.BaseFragmentActivityHoneycomb.onCreateView, android.support.v4.app.FragmentActivity.onCreateView, android.view.LayoutInflater.createViewFromTag, android.view.LayoutInflater.createViewFromTag, android.view.LayoutInflater.rInflate, android.view.LayoutInflater.rInflateChildren, android.view.LayoutInflater.inflate, de.robv.android.xposed.XposedBridge.invokeOriginalMethodNative, de.robv.android.xposed.XposedBridge.handleHookedMethod, android.view.LayoutInflater.inflate, android.view.LayoutInflater.inflate, android.view.LayoutInflater.inflate, android.support.v7.app.AppCompatDelegateImplV7.setContentView, android.support.v7.app.AppCompatActivity.setContentView, de.robv.android.xposed.XposedBridge.invokeOriginalMethodNative, de.robv.android.xposed.XposedBridge.handleHookedMethod, android.support.v7.app.AppCompatActivity.setContentView, com.example.mapdemo.MapDemoActivity.onCreate, de.robv.android.xposed.XposedBridge.invokeOriginalMethodNative, de.robv.android.xposed.XposedBridge.handleHookedMethod, com.example.mapdemo.MapDemoActivity.onCreate, android.app.Activity.performCreate, android.app.Instrumentation.callActivityOnCreate, android.app.ActivityThread.performLaunchActivity, android.app.ActivityThread.handleLaunchActivity, android.app.ActivityThread.-wrap11, android.app.ActivityThread$H.handleMessage, android.os.Handler.dispatchMessage, android.os.Looper.loop, android.app.ActivityThread.main, java.lang.reflect.Method.invoke, com.android.internal.os.ZygoteInit$MethodAndArgsCaller.run, com.android.internal.os.ZygoteInit.main, de.robv.android.xposed.XposedBridge.main
AFTER android.os.Binder.queryLocalInterface, returnValue: com.google.android.gms.maps.internal.CreatorImpl, invoked by: dalvik.system.VMStack.getThreadStackTrace, java.lang.Thread.getStackTrace, it.unimib.disco.lta.unimiblogger.MyMethodHook.beforeHookedMethod, de.robv.android.xposed.XposedBridge.handleHookedMethod, android.os.Binder.queryLocalInterface, agwy.asInterface, com.google.android.gms.maps.internal.CreatorImpl.d, com.google.android.gms.maps.internal.CreatorImpl.newMapFragmentDelegate, agwy.dU, csi.onTransact, android.os.Binder.transact, de.robv.android.xposed.XposedBridge.invokeOriginalMethodNative, de.robv.android.xposed.XposedBridge.handleHookedMethod, android.os.Binder.transact, com.google.android.gms.maps.internal.zzc$zza$zza.zzt, com.google.android.gms.maps.SupportMapFragment$zzb.zzxL, com.google.android.gms.maps.SupportMapFragment$zzb.zza, com.google.android.gms.dynamic.zza.zza, com.google.android.gms.dynamic.zza.onCreate, com.google.android.gms.maps.SupportMapFragment.onCreate, android.support.v4.app.Fragment.performCreate, android.support.v4.app.FragmentManagerImpl.moveToState, android.support.v4.app.FragmentManagerImpl.moveToState, android.support.v4.app.FragmentManagerImpl.addFragment, android.support.v4.app.FragmentManagerImpl.onCreateView, android.support.v4.app.FragmentController.onCreateView, android.support.v4.app.FragmentActivity.dispatchFragmentsOnCreateView, android.support.v4.app.BaseFragmentActivityHoneycomb.onCreateView, android.support.v4.app.FragmentActivity.onCreateView, android.view.LayoutInflater.createViewFromTag, android.view.LayoutInflater.createViewFromTag, android.view.LayoutInflater.rInflate, android.view.LayoutInflater.rInflateChildren, android.view.LayoutInflater.inflate, de.robv.android.xposed.XposedBridge.invokeOriginalMethodNative, de.robv.android.xposed.XposedBridge.handleHookedMethod, android.view.LayoutInflater.inflate, android.view.LayoutInflater.inflate, android.view.LayoutInflater.inflate, android.support.v7.app.AppCompatDelegateImplV7.setContentView, android.support.v7.app.AppCompatActivity.setContentView, de.robv.android.xposed.XposedBridge.invokeOriginalMethodNative, de.robv.android.xposed.XposedBridge.handleHookedMethod, android.support.v7.app.AppCompatActivity.setContentView, com.example.mapdemo.MapDemoActivity.onCreate, de.robv.android.xposed.XposedBridge.invokeOriginalMethodNative, de.robv.android.xposed.XposedBridge.handleHookedMethod, com.example.mapdemo.MapDemoActivity.onCreate, android.app.Activity.performCreate, android.app.Instrumentation.callActivityOnCreate, android.app.ActivityThread.performLaunchActivity, android.app.ActivityThread.handleLaunchActivity, android.app.ActivityThread.-wrap11, android.app.ActivityThread$H.handleMessage, android.os.Handler.dispatchMessage, android.os.Looper.loop, android.app.ActivityThread.main, java.lang.reflect.Method.invoke, com.android.internal.os.ZygoteInit$MethodAndArgsCaller.run, com.android.internal.os.ZygoteInit.main, de.robv.android.xposed.XposedBridge.main
BEFORE android.os.Binder.queryLocalInterface(com.google.android.gms.maps.internal.IMapFragmentDelegate), invoked by: dalvik.system.VMStack.getThreadStackTrace, java.lang.Thread.getStackTrace, it.unimib.disco.lta.unimiblogger.MyMethodHook.beforeHookedMethod, de.robv.android.xposed.XposedBridge.handleHookedMethod, android.os.Binder.queryLocalInterface, agwx.newMapFragmentDelegate, com.google.android.gms.maps.internal.CreatorImpl.newMapFragmentDelegate, agwy.dU, csi.onTransact, android.os.Binder.transact, de.robv.android.xposed.XposedBridge.invokeOriginalMethodNative, de.robv.android.xposed.XposedBridge.handleHookedMethod, android.os.Binder.transact, com.google.android.gms.maps.internal.zzc$zza$zza.zzt, com.google.android.gms.maps.SupportMapFragment$zzb.zzxL, com.google.android.gms.maps.SupportMapFragment$zzb.zza, com.google.android.gms.dynamic.zza.zza, com.google.android.gms.dynamic.zza.onCreate, com.google.android.gms.maps.SupportMapFragment.onCreate, android.support.v4.app.Fragment.performCreate, android.support.v4.app.FragmentManagerImpl.moveToState, android.support.v4.app.FragmentManagerImpl.moveToState, android.support.v4.app.FragmentManagerImpl.addFragment, android.support.v4.app.FragmentManagerImpl.onCreateView, android.support.v4.app.FragmentController.onCreateView, android.support.v4.app.FragmentActivity.dispatchFragmentsOnCreateView, android.support.v4.app.BaseFragmentActivityHoneycomb.onCreateView, android.support.v4.app.FragmentActivity.onCreateView, android.view.LayoutInflater.createViewFromTag, android.view.LayoutInflater.createViewFromTag, android.view.LayoutInflater.rInflate, android.view.LayoutInflater.rInflateChildren, android.view.LayoutInflater.inflate, de.robv.android.xposed.XposedBridge.invokeOriginalMethodNative, de.robv.android.xposed.XposedBridge.handleHookedMethod, android.view.LayoutInflater.inflate, android.view.LayoutInflater.inflate, android.view.LayoutInflater.inflate, android.support.v7.app.AppCompatDelegateImplV7.setContentView, android.support.v7.app.AppCompatActivity.setContentView, de.robv.android.xposed.XposedBridge.invokeOriginalMethodNative, de.robv.android.xposed.XposedBridge.handleHookedMethod, android.support.v7.app.AppCompatActivity.setContentView, com.example.mapdemo.MapDemoActivity.onCreate, de.robv.android.xposed.XposedBridge.invokeOriginalMethodNative, de.robv.android.xposed.XposedBridge.handleHookedMethod, com.example.mapdemo.MapDemoActivity.onCreate, android.app.Activity.performCreate, android.app.Instrumentation.callActivityOnCreate, android.app.ActivityThread.performLaunchActivity, android.app.ActivityThread.handleLaunchActivity, android.app.ActivityThread.-wrap11, android.app.ActivityThread$H.handleMessage, android.os.Handler.dispatchMessage, android.os.Looper.loop, android.app.ActivityThread.main, java.lang.reflect.Method.invoke, com.android.internal.os.ZygoteInit$MethodAndArgsCaller.run, com.android.internal.os.ZygoteInit.main, de.robv.android.xposed.XposedBridge.main
AFTER android.os.Binder.queryLocalInterface, returnValue: com.google.maps.api.android.lib6.impl.cp, invoked by: dalvik.system.VMStack.getThreadStackTrace, java.lang.Thread.getStackTrace, it.unimib.disco.lta.unimiblogger.MyMethodHook.beforeHookedMethod, de.robv.android.xposed.XposedBridge.handleHookedMethod, android.os.Binder.queryLocalInterface, agwx.newMapFragmentDelegate, com.google.android.gms.maps.internal.CreatorImpl.newMapFragmentDelegate, agwy.dU, csi.onTransact, android.os.Binder.transact, de.robv.android.xposed.XposedBridge.invokeOriginalMethodNative, de.robv.android.xposed.XposedBridge.handleHookedMethod, android.os.Binder.transact, com.google.android.gms.maps.internal.zzc$zza$zza.zzt, com.google.android.gms.maps.SupportMapFragment$zzb.zzxL, com.google.android.gms.maps.SupportMapFragment$zzb.zza, com.google.android.gms.dynamic.zza.zza, com.google.android.gms.dynamic.zza.onCreate, com.google.android.gms.maps.SupportMapFragment.onCreate, android.support.v4.app.Fragment.performCreate, android.support.v4.app.FragmentManagerImpl.moveToState, android.support.v4.app.FragmentManagerImpl.moveToState, android.support.v4.app.FragmentManagerImpl.addFragment, android.support.v4.app.FragmentManagerImpl.onCreateView, android.support.v4.app.FragmentController.onCreateView, android.support.v4.app.FragmentActivity.dispatchFragmentsOnCreateView, android.support.v4.app.BaseFragmentActivityHoneycomb.onCreateView, android.support.v4.app.FragmentActivity.onCreateView, android.view.LayoutInflater.createViewFromTag, android.view.LayoutInflater.createViewFromTag, android.view.LayoutInflater.rInflate, android.view.LayoutInflater.rInflateChildren, android.view.LayoutInflater.inflate, de.robv.android.xposed.XposedBridge.invokeOriginalMethodNative, de.robv.android.xposed.XposedBridge.handleHookedMethod, android.view.LayoutInflater.inflate, android.view.LayoutInflater.inflate, android.view.LayoutInflater.inflate, android.support.v7.app.AppCompatDelegateImplV7.setContentView, android.support.v7.app.AppCompatActivity.setContentView, de.robv.android.xposed.XposedBridge.invokeOriginalMethodNative, de.robv.android.xposed.XposedBridge.handleHookedMethod, android.support.v7.app.AppCompatActivity.setContentView, com.example.mapdemo.MapDemoActivity.onCreate, de.robv.android.xposed.XposedBridge.invokeOriginalMethodNative, de.robv.android.xposed.XposedBridge.handleHookedMethod, com.example.mapdemo.MapDemoActivity.onCreate, android.app.Activity.performCreate, android.app.Instrumentation.callActivityOnCreate, android.app.ActivityThread.performLaunchActivity, android.app.ActivityThread.handleLaunchActivity, android.app.ActivityThread.-wrap11, android.app.ActivityThread$H.handleMessage, android.os.Handler.dispatchMessage, android.os.Looper.loop, android.app.ActivityThread.main, java.lang.reflect.Method.invoke, com.android.internal.os.ZygoteInit$MethodAndArgsCaller.run, com.android.internal.os.ZygoteInit.main, de.robv.android.xposed.XposedBridge.main
AFTER android.support.v7.app.AppCompatActivity.setContentView, invoked by: dalvik.system.VMStack.getThreadStackTrace, java.lang.Thread.getStackTrace, it.unimib.disco.lta.unimiblogger.MyMethodHook.beforeHookedMethod, de.robv.android.xposed.XposedBridge.handleHookedMethod, android.support.v7.app.AppCompatActivity.setContentView, com.example.mapdemo.MapDemoActivity.onCreate, de.robv.android.xposed.XposedBridge.invokeOriginalMethodNative, de.robv.android.xposed.XposedBridge.handleHookedMethod, com.example.mapdemo.MapDemoActivity.onCreate, android.app.Activity.performCreate, android.app.Instrumentation.callActivityOnCreate, android.app.ActivityThread.performLaunchActivity, android.app.ActivityThread.handleLaunchActivity, android.app.ActivityThread.-wrap11, android.app.ActivityThread$H.handleMessage, android.os.Handler.dispatchMessage, android.os.Looper.loop, android.app.ActivityThread.main, java.lang.reflect.Method.invoke, com.android.internal.os.ZygoteInit$MethodAndArgsCaller.run, com.android.internal.os.ZygoteInit.main, de.robv.android.xposed.XposedBridge.main
BEFORE android.support.v4.app.FragmentActivity.getSupportFragmentManager(), invoked by: dalvik.system.VMStack.getThreadStackTrace, java.lang.Thread.getStackTrace, it.unimib.disco.lta.unimiblogger.MyMethodHook.beforeHookedMethod, de.robv.android.xposed.XposedBridge.handleHookedMethod, android.support.v4.app.FragmentActivity.getSupportFragmentManager, com.example.mapdemo.MapDemoActivity.onCreate, de.robv.android.xposed.XposedBridge.invokeOriginalMethodNative, de.robv.android.xposed.XposedBridge.handleHookedMethod, com.example.mapdemo.MapDemoActivity.onCreate, android.app.Activity.performCreate, android.app.Instrumentation.callActivityOnCreate, android.app.ActivityThread.performLaunchActivity, android.app.ActivityThread.handleLaunchActivity, android.app.ActivityThread.-wrap11, android.app.ActivityThread$H.handleMessage, android.os.Handler.dispatchMessage, android.os.Looper.loop, android.app.ActivityThread.main, java.lang.reflect.Method.invoke, com.android.internal.os.ZygoteInit$MethodAndArgsCaller.run, com.android.internal.os.ZygoteInit.main, de.robv.android.xposed.XposedBridge.main
AFTER android.support.v4.app.FragmentActivity.getSupportFragmentManager, returnValue: FragmentManager{f9c8c32 in HostCallbacks{90b1d83}}, invoked by: dalvik.system.VMStack.getThreadStackTrace, java.lang.Thread.getStackTrace, it.unimib.disco.lta.unimiblogger.MyMethodHook.beforeHookedMethod, de.robv.android.xposed.XposedBridge.handleHookedMethod, android.support.v4.app.FragmentActivity.getSupportFragmentManager, com.example.mapdemo.MapDemoActivity.onCreate, de.robv.android.xposed.XposedBridge.invokeOriginalMethodNative, de.robv.android.xposed.XposedBridge.handleHookedMethod, com.example.mapdemo.MapDemoActivity.onCreate, android.app.Activity.performCreate, android.app.Instrumentation.callActivityOnCreate, android.app.ActivityThread.performLaunchActivity, android.app.ActivityThread.handleLaunchActivity, android.app.ActivityThread.-wrap11, android.app.ActivityThread$H.handleMessage, android.os.Handler.dispatchMessage, android.os.Looper.loop, android.app.ActivityThread.main, java.lang.reflect.Method.invoke, com.android.internal.os.ZygoteInit$MethodAndArgsCaller.run, com.android.internal.os.ZygoteInit.main, de.robv.android.xposed.XposedBridge.main
BEFORE android.support.v4.app.FragmentManagerImpl.findFragmentById(2131165232), invoked by: dalvik.system.VMStack.getThreadStackTrace, java.lang.Thread.getStackTrace, it.unimib.disco.lta.unimiblogger.MyMethodHook.beforeHookedMethod, de.robv.android.xposed.XposedBridge.handleHookedMethod, android.support.v4.app.FragmentManagerImpl.findFragmentById, com.example.mapdemo.MapDemoActivity.onCreate, de.robv.android.xposed.XposedBridge.invokeOriginalMethodNative, de.robv.android.xposed.XposedBridge.handleHookedMethod, com.example.mapdemo.MapDemoActivity.onCreate, android.app.Activity.performCreate, android.app.Instrumentation.callActivityOnCreate, android.app.ActivityThread.performLaunchActivity, android.app.ActivityThread.handleLaunchActivity, android.app.ActivityThread.-wrap11, android.app.ActivityThread$H.handleMessage, android.os.Handler.dispatchMessage, android.os.Looper.loop, android.app.ActivityThread.main, java.lang.reflect.Method.invoke, com.android.internal.os.ZygoteInit$MethodAndArgsCaller.run, com.android.internal.os.ZygoteInit.main, de.robv.android.xposed.XposedBridge.main
AFTER android.support.v4.app.FragmentManagerImpl.findFragmentById, returnValue: SupportMapFragment{30bab00 #0 id=0x7f070030}, invoked by: dalvik.system.VMStack.getThreadStackTrace, java.lang.Thread.getStackTrace, it.unimib.disco.lta.unimiblogger.MyMethodHook.beforeHookedMethod, de.robv.android.xposed.XposedBridge.handleHookedMethod, android.support.v4.app.FragmentManagerImpl.findFragmentById, com.example.mapdemo.MapDemoActivity.onCreate, de.robv.android.xposed.XposedBridge.invokeOriginalMethodNative, de.robv.android.xposed.XposedBridge.handleHookedMethod, com.example.mapdemo.MapDemoActivity.onCreate, android.app.Activity.performCreate, android.app.Instrumentation.callActivityOnCreate, android.app.ActivityThread.performLaunchActivity, android.app.ActivityThread.handleLaunchActivity, android.app.ActivityThread.-wrap11, android.app.ActivityThread$H.handleMessage, android.os.Handler.dispatchMessage, android.os.Looper.loop, android.app.ActivityThread.main, java.lang.reflect.Method.invoke, com.android.internal.os.ZygoteInit$MethodAndArgsCaller.run, com.android.internal.os.ZygoteInit.main, de.robv.android.xposed.XposedBridge.main
BEFORE android.app.Activity.findViewById(2131165240), invoked by: dalvik.system.VMStack.getThreadStackTrace, java.lang.Thread.getStackTrace, it.unimib.disco.lta.unimiblogger.MyMethodHook.beforeHookedMethod, de.robv.android.xposed.XposedBridge.handleHookedMethod, android.app.Activity.findViewById, com.example.mapdemo.MapDemoActivity.onCreate, de.robv.android.xposed.XposedBridge.invokeOriginalMethodNative, de.robv.android.xposed.XposedBridge.handleHookedMethod, com.example.mapdemo.MapDemoActivity.onCreate, android.app.Activity.performCreate, android.app.Instrumentation.callActivityOnCreate, android.app.ActivityThread.performLaunchActivity, android.app.ActivityThread.handleLaunchActivity, android.app.ActivityThread.-wrap11, android.app.ActivityThread$H.handleMessage, android.os.Handler.dispatchMessage, android.os.Looper.loop, android.app.ActivityThread.main, java.lang.reflect.Method.invoke, com.android.internal.os.ZygoteInit$MethodAndArgsCaller.run, com.android.internal.os.ZygoteInit.main, de.robv.android.xposed.XposedBridge.main
AFTER android.app.Activity.findViewById, returnValue: android.support.v7.widget.AppCompatButton{e83397e VFED..C.. ......I. 0,0-0,0 #7f070038 app:id/posButton}, invoked by: dalvik.system.VMStack.getThreadStackTrace, java.lang.Thread.getStackTrace, it.unimib.disco.lta.unimiblogger.MyMethodHook.beforeHookedMethod, de.robv.android.xposed.XposedBridge.handleHookedMethod, android.app.Activity.findViewById, com.example.mapdemo.MapDemoActivity.onCreate, de.robv.android.xposed.XposedBridge.invokeOriginalMethodNative, de.robv.android.xposed.XposedBridge.handleHookedMethod, com.example.mapdemo.MapDemoActivity.onCreate, android.app.Activity.performCreate, android.app.Instrumentation.callActivityOnCreate, android.app.ActivityThread.performLaunchActivity, android.app.ActivityThread.handleLaunchActivity, android.app.ActivityThread.-wrap11, android.app.ActivityThread$H.handleMessage, android.os.Handler.dispatchMessage, android.os.Looper.loop, android.app.ActivityThread.main, java.lang.reflect.Method.invoke, com.android.internal.os.ZygoteInit$MethodAndArgsCaller.run, com.android.internal.os.ZygoteInit.main, de.robv.android.xposed.XposedBridge.main
AFTER com.example.mapdemo.MapDemoActivity.onCreate, invoked by: dalvik.system.VMStack.getThreadStackTrace, java.lang.Thread.getStackTrace, it.unimib.disco.lta.unimiblogger.MyMethodHook.beforeHookedMethod, de.robv.android.xposed.XposedBridge.handleHookedMethod, com.example.mapdemo.MapDemoActivity.onCreate, android.app.Activity.performCreate, android.app.Instrumentation.callActivityOnCreate, android.app.ActivityThread.performLaunchActivity, android.app.ActivityThread.handleLaunchActivity, android.app.ActivityThread.-wrap11, android.app.ActivityThread$H.handleMessage, android.os.Handler.dispatchMessage, android.os.Looper.loop, android.app.ActivityThread.main, java.lang.reflect.Method.invoke, com.android.internal.os.ZygoteInit$MethodAndArgsCaller.run, com.android.internal.os.ZygoteInit.main, de.robv.android.xposed.XposedBridge.main
BEFORE com.example.mapdemo.MapDemoActivity.onStart(), invoked by: dalvik.system.VMStack.getThreadStackTrace, java.lang.Thread.getStackTrace, it.unimib.disco.lta.unimiblogger.MyMethodHook.beforeHookedMethod, de.robv.android.xposed.XposedBridge.handleHookedMethod, com.example.mapdemo.MapDemoActivity.onStart, android.app.Instrumentation.callActivityOnStart, android.app.Activity.performStart, android.app.ActivityThread.performLaunchActivity, android.app.ActivityThread.handleLaunchActivity, android.app.ActivityThread.-wrap11, android.app.ActivityThread$H.handleMessage, android.os.Handler.dispatchMessage, android.os.Looper.loop, android.app.ActivityThread.main, java.lang.reflect.Method.invoke, com.android.internal.os.ZygoteInit$MethodAndArgsCaller.run, com.android.internal.os.ZygoteInit.main, de.robv.android.xposed.XposedBridge.main
BEFORE android.support.v4.app.FragmentActivity.onStart(), invoked by: dalvik.system.VMStack.getThreadStackTrace, java.lang.Thread.getStackTrace, it.unimib.disco.lta.unimiblogger.MyMethodHook.beforeHookedMethod, de.robv.android.xposed.XposedBridge.handleHookedMethod, android.support.v4.app.FragmentActivity.onStart, com.example.mapdemo.MapDemoActivity.onStart, de.robv.android.xposed.XposedBridge.invokeOriginalMethodNative, de.robv.android.xposed.XposedBridge.handleHookedMethod, com.example.mapdemo.MapDemoActivity.onStart, android.app.Instrumentation.callActivityOnStart, android.app.Activity.performStart, android.app.ActivityThread.performLaunchActivity, android.app.ActivityThread.handleLaunchActivity, android.app.ActivityThread.-wrap11, android.app.ActivityThread$H.handleMessage, android.os.Handler.dispatchMessage, android.os.Looper.loop, android.app.ActivityThread.main, java.lang.reflect.Method.invoke, com.android.internal.os.ZygoteInit$MethodAndArgsCaller.run, com.android.internal.os.ZygoteInit.main, de.robv.android.xposed.XposedBridge.main
AFTER android.support.v4.app.FragmentActivity.onStart, invoked by: dalvik.system.VMStack.getThreadStackTrace, java.lang.Thread.getStackTrace, it.unimib.disco.lta.unimiblogger.MyMethodHook.beforeHookedMethod, de.robv.android.xposed.XposedBridge.handleHookedMethod, android.support.v4.app.FragmentActivity.onStart, com.example.mapdemo.MapDemoActivity.onStart, de.robv.android.xposed.XposedBridge.invokeOriginalMethodNative, de.robv.android.xposed.XposedBridge.handleHookedMethod, com.example.mapdemo.MapDemoActivity.onStart, android.app.Instrumentation.callActivityOnStart, android.app.Activity.performStart, android.app.ActivityThread.performLaunchActivity, android.app.ActivityThread.handleLaunchActivity, android.app.ActivityThread.-wrap11, android.app.ActivityThread$H.handleMessage, android.os.Handler.dispatchMessage, android.os.Looper.loop, android.app.ActivityThread.main, java.lang.reflect.Method.invoke, com.android.internal.os.ZygoteInit$MethodAndArgsCaller.run, com.android.internal.os.ZygoteInit.main, de.robv.android.xposed.XposedBridge.main
AFTER com.example.mapdemo.MapDemoActivity.onStart, invoked by: dalvik.system.VMStack.getThreadStackTrace, java.lang.Thread.getStackTrace, it.unimib.disco.lta.unimiblogger.MyMethodHook.beforeHookedMethod, de.robv.android.xposed.XposedBridge.handleHookedMethod, com.example.mapdemo.MapDemoActivity.onStart, android.app.Instrumentation.callActivityOnStart, android.app.Activity.performStart, android.app.ActivityThread.performLaunchActivity, android.app.ActivityThread.handleLaunchActivity, android.app.ActivityThread.-wrap11, android.app.ActivityThread$H.handleMessage, android.os.Handler.dispatchMessage, android.os.Looper.loop, android.app.ActivityThread.main, java.lang.reflect.Method.invoke, com.android.internal.os.ZygoteInit$MethodAndArgsCaller.run, com.android.internal.os.ZygoteInit.main, de.robv.android.xposed.XposedBridge.main
BEFORE com.example.mapdemo.MapDemoActivity$1.onMapReady(com.google.android.gms.maps.GoogleMap), invoked by: dalvik.system.VMStack.getThreadStackTrace, java.lang.Thread.getStackTrace, it.unimib.disco.lta.unimiblogger.MyMethodHook.beforeHookedMethod, de.robv.android.xposed.XposedBridge.handleHookedMethod, com.example.mapdemo.MapDemoActivity$1.onMapReady, com.google.android.gms.maps.SupportMapFragment$zza$1.zza, com.google.android.gms.maps.internal.zzl$zza.onTransact, android.os.Binder.transact, de.robv.android.xposed.XposedBridge.invokeOriginalMethodNative, de.robv.android.xposed.XposedBridge.handleHookedMethod, android.os.Binder.transact, dt.aZ, com.google.maps.api.android.lib6.impl.bi.run, android.os.Handler.handleCallback, de.robv.android.xposed.XposedBridge.invokeOriginalMethodNative, de.robv.android.xposed.XposedBridge.handleHookedMethod, android.os.Handler.handleCallback, android.os.Handler.dispatchMessage, android.os.Looper.loop, android.app.ActivityThread.main, java.lang.reflect.Method.invoke, com.android.internal.os.ZygoteInit$MethodAndArgsCaller.run, com.android.internal.os.ZygoteInit.main, de.robv.android.xposed.XposedBridge.main
BEFORE android.widget.Toast.makeText(com.example.mapdemo.MapDemoActivity,Map Fragment was loaded properly!,0), invoked by: dalvik.system.VMStack.getThreadStackTrace, java.lang.Thread.getStackTrace, it.unimib.disco.lta.unimiblogger.MyMethodHook.beforeHookedMethod, de.robv.android.xposed.XposedBridge.handleHookedMethod, android.widget.Toast.makeText, com.example.mapdemo.MapDemoActivity.loadMap, com.example.mapdemo.MapDemoActivity$1.onMapReady, de.robv.android.xposed.XposedBridge.invokeOriginalMethodNative, de.robv.android.xposed.XposedBridge.handleHookedMethod, com.example.mapdemo.MapDemoActivity$1.onMapReady, com.google.android.gms.maps.SupportMapFragment$zza$1.zza, com.google.android.gms.maps.internal.zzl$zza.onTransact, android.os.Binder.transact, de.robv.android.xposed.XposedBridge.invokeOriginalMethodNative, de.robv.android.xposed.XposedBridge.handleHookedMethod, android.os.Binder.transact, dt.aZ, com.google.maps.api.android.lib6.impl.bi.run, android.os.Handler.handleCallback, de.robv.android.xposed.XposedBridge.invokeOriginalMethodNative, de.robv.android.xposed.XposedBridge.handleHookedMethod, android.os.Handler.handleCallback, android.os.Handler.dispatchMessage, android.os.Looper.loop, android.app.ActivityThread.main, java.lang.reflect.Method.invoke, com.android.internal.os.ZygoteInit$MethodAndArgsCaller.run, com.android.internal.os.ZygoteInit.main, de.robv.android.xposed.XposedBridge.main
AFTER android.widget.Toast.makeText, returnValue: android.widget.Toast, invoked by: dalvik.system.VMStack.getThreadStackTrace, java.lang.Thread.getStackTrace, it.unimib.disco.lta.unimiblogger.MyMethodHook.beforeHookedMethod, de.robv.android.xposed.XposedBridge.handleHookedMethod, android.widget.Toast.makeText, com.example.mapdemo.MapDemoActivity.loadMap, com.example.mapdemo.MapDemoActivity$1.onMapReady, de.robv.android.xposed.XposedBridge.invokeOriginalMethodNative, de.robv.android.xposed.XposedBridge.handleHookedMethod, com.example.mapdemo.MapDemoActivity$1.onMapReady, com.google.android.gms.maps.SupportMapFragment$zza$1.zza, com.google.android.gms.maps.internal.zzl$zza.onTransact, android.os.Binder.transact, de.robv.android.xposed.XposedBridge.invokeOriginalMethodNative, de.robv.android.xposed.XposedBridge.handleHookedMethod, android.os.Binder.transact, dt.aZ, com.google.maps.api.android.lib6.impl.bi.run, android.os.Handler.handleCallback, de.robv.android.xposed.XposedBridge.invokeOriginalMethodNative, de.robv.android.xposed.XposedBridge.handleHookedMethod, android.os.Handler.handleCallback, android.os.Handler.dispatchMessage, android.os.Looper.loop, android.app.ActivityThread.main, java.lang.reflect.Method.invoke, com.android.internal.os.ZygoteInit$MethodAndArgsCaller.run, com.android.internal.os.ZygoteInit.main, de.robv.android.xposed.XposedBridge.main
BEFORE android.widget.Toast.show(), invoked by: dalvik.system.VMStack.getThreadStackTrace, java.lang.Thread.getStackTrace, it.unimib.disco.lta.unimiblogger.MyMethodHook.beforeHookedMethod, de.robv.android.xposed.XposedBridge.handleHookedMethod, android.widget.Toast.show, com.example.mapdemo.MapDemoActivity.loadMap, com.example.mapdemo.MapDemoActivity$1.onMapReady, de.robv.android.xposed.XposedBridge.invokeOriginalMethodNative, de.robv.android.xposed.XposedBridge.handleHookedMethod, com.example.mapdemo.MapDemoActivity$1.onMapReady, com.google.android.gms.maps.SupportMapFragment$zza$1.zza, com.google.android.gms.maps.internal.zzl$zza.onTransact, android.os.Binder.transact, de.robv.android.xposed.XposedBridge.invokeOriginalMethodNative, de.robv.android.xposed.XposedBridge.handleHookedMethod, android.os.Binder.transact, dt.aZ, com.google.maps.api.android.lib6.impl.bi.run, android.os.Handler.handleCallback, de.robv.android.xposed.XposedBridge.invokeOriginalMethodNative, de.robv.android.xposed.XposedBridge.handleHookedMethod, android.os.Handler.handleCallback, android.os.Handler.dispatchMessage, android.os.Looper.loop, android.app.ActivityThread.main, java.lang.reflect.Method.invoke, com.android.internal.os.ZygoteInit$MethodAndArgsCaller.run, com.android.internal.os.ZygoteInit.main, de.robv.android.xposed.XposedBridge.main
AFTER android.widget.Toast.show, invoked by: dalvik.system.VMStack.getThreadStackTrace, java.lang.Thread.getStackTrace, it.unimib.disco.lta.unimiblogger.MyMethodHook.beforeHookedMethod, de.robv.android.xposed.XposedBridge.handleHookedMethod, android.widget.Toast.show, com.example.mapdemo.MapDemoActivity.loadMap, com.example.mapdemo.MapDemoActivity$1.onMapReady, de.robv.android.xposed.XposedBridge.invokeOriginalMethodNative, de.robv.android.xposed.XposedBridge.handleHookedMethod, com.example.mapdemo.MapDemoActivity$1.onMapReady, com.google.android.gms.maps.SupportMapFragment$zza$1.zza, com.google.android.gms.maps.internal.zzl$zza.onTransact, android.os.Binder.transact, de.robv.android.xposed.XposedBridge.invokeOriginalMethodNative, de.robv.android.xposed.XposedBridge.handleHookedMethod, android.os.Binder.transact, dt.aZ, com.google.maps.api.android.lib6.impl.bi.run, android.os.Handler.handleCallback, de.robv.android.xposed.XposedBridge.invokeOriginalMethodNative, de.robv.android.xposed.XposedBridge.handleHookedMethod, android.os.Handler.handleCallback, android.os.Handler.dispatchMessage, android.os.Looper.loop, android.app.ActivityThread.main, java.lang.reflect.Method.invoke, com.android.internal.os.ZygoteInit$MethodAndArgsCaller.run, com.android.internal.os.ZygoteInit.main, de.robv.android.xposed.XposedBridge.main
AFTER com.example.mapdemo.MapDemoActivity$1.onMapReady, invoked by: dalvik.system.VMStack.getThreadStackTrace, java.lang.Thread.getStackTrace, it.unimib.disco.lta.unimiblogger.MyMethodHook.beforeHookedMethod, de.robv.android.xposed.XposedBridge.handleHookedMethod, com.example.mapdemo.MapDemoActivity$1.onMapReady, com.google.android.gms.maps.SupportMapFragment$zza$1.zza, com.google.android.gms.maps.internal.zzl$zza.onTransact, android.os.Binder.transact, de.robv.android.xposed.XposedBridge.invokeOriginalMethodNative, de.robv.android.xposed.XposedBridge.handleHookedMethod, android.os.Binder.transact, dt.aZ, com.google.maps.api.android.lib6.impl.bi.run, android.os.Handler.handleCallback, de.robv.android.xposed.XposedBridge.invokeOriginalMethodNative, de.robv.android.xposed.XposedBridge.handleHookedMethod, android.os.Handler.handleCallback, android.os.Handler.dispatchMessage, android.os.Looper.loop, android.app.ActivityThread.main, java.lang.reflect.Method.invoke, com.android.internal.os.ZygoteInit$MethodAndArgsCaller.run, com.android.internal.os.ZygoteInit.main, de.robv.android.xposed.XposedBridge.main
BEFORE com.example.mapdemo.MapDemoActivity.onConnected(), invoked by: dalvik.system.VMStack.getThreadStackTrace, java.lang.Thread.getStackTrace, it.unimib.disco.lta.unimiblogger.MyMethodHook.beforeHookedMethod, de.robv.android.xposed.XposedBridge.handleHookedMethod, com.example.mapdemo.MapDemoActivity.onConnected, com.google.android.gms.common.internal.zzk.zzh, com.google.android.gms.internal.zzlg.zznU, com.google.android.gms.internal.zzlg.onConnected, com.google.android.gms.internal.zzli$2.onConnected, com.google.android.gms.common.internal.zzj$zzg.zzpf, com.google.android.gms.common.internal.zzj$zza.zzc, com.google.android.gms.common.internal.zzj$zza.zzt, com.google.android.gms.common.internal.zzj$zzc.zzph, com.google.android.gms.common.internal.zzj$zzb.handleMessage, android.os.Handler.dispatchMessage, android.os.Looper.loop, android.app.ActivityThread.main, java.lang.reflect.Method.invoke, com.android.internal.os.ZygoteInit$MethodAndArgsCaller.run, com.android.internal.os.ZygoteInit.main, de.robv.android.xposed.XposedBridge.main
BEFORE android.widget.Toast.makeText(com.example.mapdemo.MapDemoActivity,Current location was null, enable GPS on emulator!,0), invoked by: dalvik.system.VMStack.getThreadStackTrace, java.lang.Thread.getStackTrace, it.unimib.disco.lta.unimiblogger.MyMethodHook.beforeHookedMethod, de.robv.android.xposed.XposedBridge.handleHookedMethod, android.widget.Toast.makeText, com.example.mapdemo.MapDemoActivity.onConnected, de.robv.android.xposed.XposedBridge.invokeOriginalMethodNative, de.robv.android.xposed.XposedBridge.handleHookedMethod, com.example.mapdemo.MapDemoActivity.onConnected, com.google.android.gms.common.internal.zzk.zzh, com.google.android.gms.internal.zzlg.zznU, com.google.android.gms.internal.zzlg.onConnected, com.google.android.gms.internal.zzli$2.onConnected, com.google.android.gms.common.internal.zzj$zzg.zzpf, com.google.android.gms.common.internal.zzj$zza.zzc, com.google.android.gms.common.internal.zzj$zza.zzt, com.google.android.gms.common.internal.zzj$zzc.zzph, com.google.android.gms.common.internal.zzj$zzb.handleMessage, android.os.Handler.dispatchMessage, android.os.Looper.loop, android.app.ActivityThread.main, java.lang.reflect.Method.invoke, com.android.internal.os.ZygoteInit$MethodAndArgsCaller.run, com.android.internal.os.ZygoteInit.main, de.robv.android.xposed.XposedBridge.main
AFTER android.widget.Toast.makeText, returnValue: android.widget.Toast, invoked by: dalvik.system.VMStack.getThreadStackTrace, java.lang.Thread.getStackTrace, it.unimib.disco.lta.unimiblogger.MyMethodHook.beforeHookedMethod, de.robv.android.xposed.XposedBridge.handleHookedMethod, android.widget.Toast.makeText, com.example.mapdemo.MapDemoActivity.onConnected, de.robv.android.xposed.XposedBridge.invokeOriginalMethodNative, de.robv.android.xposed.XposedBridge.handleHookedMethod, com.example.mapdemo.MapDemoActivity.onConnected, com.google.android.gms.common.internal.zzk.zzh, com.google.android.gms.internal.zzlg.zznU, com.google.android.gms.internal.zzlg.onConnected, com.google.android.gms.internal.zzli$2.onConnected, com.google.android.gms.common.internal.zzj$zzg.zzpf, com.google.android.gms.common.internal.zzj$zza.zzc, com.google.android.gms.common.internal.zzj$zza.zzt, com.google.android.gms.common.internal.zzj$zzc.zzph, com.google.android.gms.common.internal.zzj$zzb.handleMessage, android.os.Handler.dispatchMessage, android.os.Looper.loop, android.app.ActivityThread.main, java.lang.reflect.Method.invoke, com.android.internal.os.ZygoteInit$MethodAndArgsCaller.run, com.android.internal.os.ZygoteInit.main, de.robv.android.xposed.XposedBridge.main
BEFORE android.widget.Toast.show(), invoked by: dalvik.system.VMStack.getThreadStackTrace, java.lang.Thread.getStackTrace, it.unimib.disco.lta.unimiblogger.MyMethodHook.beforeHookedMethod, de.robv.android.xposed.XposedBridge.handleHookedMethod, android.widget.Toast.show, com.example.mapdemo.MapDemoActivity.onConnected, de.robv.android.xposed.XposedBridge.invokeOriginalMethodNative, de.robv.android.xposed.XposedBridge.handleHookedMethod, com.example.mapdemo.MapDemoActivity.onConnected, com.google.android.gms.common.internal.zzk.zzh, com.google.android.gms.internal.zzlg.zznU, com.google.android.gms.internal.zzlg.onConnected, com.google.android.gms.internal.zzli$2.onConnected, com.google.android.gms.common.internal.zzj$zzg.zzpf, com.google.android.gms.common.internal.zzj$zza.zzc, com.google.android.gms.common.internal.zzj$zza.zzt, com.google.android.gms.common.internal.zzj$zzc.zzph, com.google.android.gms.common.internal.zzj$zzb.handleMessage, android.os.Handler.dispatchMessage, android.os.Looper.loop, android.app.ActivityThread.main, java.lang.reflect.Method.invoke, com.android.internal.os.ZygoteInit$MethodAndArgsCaller.run, com.android.internal.os.ZygoteInit.main, de.robv.android.xposed.XposedBridge.main
AFTER android.widget.Toast.show, invoked by: dalvik.system.VMStack.getThreadStackTrace, java.lang.Thread.getStackTrace, it.unimib.disco.lta.unimiblogger.MyMethodHook.beforeHookedMethod, de.robv.android.xposed.XposedBridge.handleHookedMethod, android.widget.Toast.show, com.example.mapdemo.MapDemoActivity.onConnected, de.robv.android.xposed.XposedBridge.invokeOriginalMethodNative, de.robv.android.xposed.XposedBridge.handleHookedMethod, com.example.mapdemo.MapDemoActivity.onConnected, com.google.android.gms.common.internal.zzk.zzh, com.google.android.gms.internal.zzlg.zznU, com.google.android.gms.internal.zzlg.onConnected, com.google.android.gms.internal.zzli$2.onConnected, com.google.android.gms.common.internal.zzj$zzg.zzpf, com.google.android.gms.common.internal.zzj$zza.zzc, com.google.android.gms.common.internal.zzj$zza.zzt, com.google.android.gms.common.internal.zzj$zzc.zzph, com.google.android.gms.common.internal.zzj$zzb.handleMessage, android.os.Handler.dispatchMessage, android.os.Looper.loop, android.app.ActivityThread.main, java.lang.reflect.Method.invoke, com.android.internal.os.ZygoteInit$MethodAndArgsCaller.run, com.android.internal.os.ZygoteInit.main, de.robv.android.xposed.XposedBridge.main
AFTER com.example.mapdemo.MapDemoActivity.onConnected, invoked by: dalvik.system.VMStack.getThreadStackTrace, java.lang.Thread.getStackTrace, it.unimib.disco.lta.unimiblogger.MyMethodHook.beforeHookedMethod, de.robv.android.xposed.XposedBridge.handleHookedMethod, com.example.mapdemo.MapDemoActivity.onConnected, com.google.android.gms.common.internal.zzk.zzh, com.google.android.gms.internal.zzlg.zznU, com.google.android.gms.internal.zzlg.onConnected, com.google.android.gms.internal.zzli$2.onConnected, com.google.android.gms.common.internal.zzj$zzg.zzpf, com.google.android.gms.common.internal.zzj$zza.zzc, com.google.android.gms.common.internal.zzj$zza.zzt, com.google.android.gms.common.internal.zzj$zzc.zzph, com.google.android.gms.common.internal.zzj$zzb.handleMessage, android.os.Handler.dispatchMessage, android.os.Looper.loop, android.app.ActivityThread.main, java.lang.reflect.Method.invoke, com.android.internal.os.ZygoteInit$MethodAndArgsCaller.run, com.android.internal.os.ZygoteInit.main, de.robv.android.xposed.XposedBridge.main
BEFORE com.example.mapdemo.MapDemoActivity$2.onClick(android.support.v7.widget.AppCompatButton), invoked by: dalvik.system.VMStack.getThreadStackTrace, java.lang.Thread.getStackTrace, it.unimib.disco.lta.unimiblogger.MyMethodHook.beforeHookedMethod, de.robv.android.xposed.XposedBridge.handleHookedMethod, com.example.mapdemo.MapDemoActivity$2.onClick, android.view.View.performClick, android.view.View$PerformClick.run, android.os.Handler.handleCallback, de.robv.android.xposed.XposedBridge.invokeOriginalMethodNative, de.robv.android.xposed.XposedBridge.handleHookedMethod, android.os.Handler.handleCallback, android.os.Handler.dispatchMessage, android.os.Looper.loop, android.app.ActivityThread.main, java.lang.reflect.Method.invoke, com.android.internal.os.ZygoteInit$MethodAndArgsCaller.run, com.android.internal.os.ZygoteInit.main, de.robv.android.xposed.XposedBridge.main
BEFORE android.content.ContextWrapper.getApplicationContext(), invoked by: dalvik.system.VMStack.getThreadStackTrace, java.lang.Thread.getStackTrace, it.unimib.disco.lta.unimiblogger.MyMethodHook.beforeHookedMethod, de.robv.android.xposed.XposedBridge.handleHookedMethod, android.content.ContextWrapper.getApplicationContext, com.example.mapdemo.MapDemoActivity$2.onClick, de.robv.android.xposed.XposedBridge.invokeOriginalMethodNative, de.robv.android.xposed.XposedBridge.handleHookedMethod, com.example.mapdemo.MapDemoActivity$2.onClick, android.view.View.performClick, android.view.View$PerformClick.run, android.os.Handler.handleCallback, de.robv.android.xposed.XposedBridge.invokeOriginalMethodNative, de.robv.android.xposed.XposedBridge.handleHookedMethod, android.os.Handler.handleCallback, android.os.Handler.dispatchMessage, android.os.Looper.loop, android.app.ActivityThread.main, java.lang.reflect.Method.invoke, com.android.internal.os.ZygoteInit$MethodAndArgsCaller.run, com.android.internal.os.ZygoteInit.main, de.robv.android.xposed.XposedBridge.main
AFTER android.content.ContextWrapper.getApplicationContext, returnValue: android.app.Application, invoked by: dalvik.system.VMStack.getThreadStackTrace, java.lang.Thread.getStackTrace, it.unimib.disco.lta.unimiblogger.MyMethodHook.beforeHookedMethod, de.robv.android.xposed.XposedBridge.handleHookedMethod, android.content.ContextWrapper.getApplicationContext, com.example.mapdemo.MapDemoActivity$2.onClick, de.robv.android.xposed.XposedBridge.invokeOriginalMethodNative, de.robv.android.xposed.XposedBridge.handleHookedMethod, com.example.mapdemo.MapDemoActivity$2.onClick, android.view.View.performClick, android.view.View$PerformClick.run, android.os.Handler.handleCallback, de.robv.android.xposed.XposedBridge.invokeOriginalMethodNative, de.robv.android.xposed.XposedBridge.handleHookedMethod, android.os.Handler.handleCallback, android.os.Handler.dispatchMessage, android.os.Looper.loop, android.app.ActivityThread.main, java.lang.reflect.Method.invoke, com.android.internal.os.ZygoteInit$MethodAndArgsCaller.run, com.android.internal.os.ZygoteInit.main, de.robv.android.xposed.XposedBridge.main
AFTER com.example.mapdemo.MapDemoActivity$2.onClick, invoked by: dalvik.system.VMStack.getThreadStackTrace, java.lang.Thread.getStackTrace, it.unimib.disco.lta.unimiblogger.MyMethodHook.beforeHookedMethod, de.robv.android.xposed.XposedBridge.handleHookedMethod, com.example.mapdemo.MapDemoActivity$2.onClick, android.view.View.performClick, android.view.View$PerformClick.run, android.os.Handler.handleCallback, de.robv.android.xposed.XposedBridge.invokeOriginalMethodNative, de.robv.android.xposed.XposedBridge.handleHookedMethod, android.os.Handler.handleCallback, android.os.Handler.dispatchMessage, android.os.Looper.loop, android.app.ActivityThread.main, java.lang.reflect.Method.invoke, com.android.internal.os.ZygoteInit$MethodAndArgsCaller.run, com.android.internal.os.ZygoteInit.main, de.robv.android.xposed.XposedBridge.main
