digraph FULL {
"95963b96-aecd-4c1c-a68a-09ae5d5b0bc1" [label="de.robv.android.xposed.XposedBridge.main\n Susp=0,4667"];
"95963b96-aecd-4c1c-a68a-09ae5d5b0bc1" -> "56dc3ba0-5dea-4f54-b389-82a98c16c54a";
"56dc3ba0-5dea-4f54-b389-82a98c16c54a" [label="com.android.internal.os.ZygoteInit.main\n Susp=0,4667"];
"56dc3ba0-5dea-4f54-b389-82a98c16c54a" -> "aca81015-d88c-45be-b878-ef6b485d5b2a";
"aca81015-d88c-45be-b878-ef6b485d5b2a" [label="com.android.internal.os.ZygoteInit$MethodAndArgsCaller.run\n Susp=0,4667"];
"aca81015-d88c-45be-b878-ef6b485d5b2a" -> "bd7cb4fe-0c5f-4a62-a3f5-81d42f278936";
"bd7cb4fe-0c5f-4a62-a3f5-81d42f278936" [label="java.lang.reflect.Method.invoke\n Susp=0,4667"];
"bd7cb4fe-0c5f-4a62-a3f5-81d42f278936" -> "3204b851-5948-4530-addf-207054f154d1";
"3204b851-5948-4530-addf-207054f154d1" [label="android.app.ActivityThread.main\n Susp=0,4667"];
"3204b851-5948-4530-addf-207054f154d1" -> "7ef3ed96-fe8c-44de-910f-70ea837b73db";
"7ef3ed96-fe8c-44de-910f-70ea837b73db" [label="android.os.Looper.loop\n Susp=0,4667"];
"7ef3ed96-fe8c-44de-910f-70ea837b73db" -> "e183122f-4ce3-4321-a080-6467d90367a0";
"e183122f-4ce3-4321-a080-6467d90367a0" [label="android.os.Handler.dispatchMessage\n Susp=1"];
"e183122f-4ce3-4321-a080-6467d90367a0" -> "c2a3c49b-a1dc-4cc4-ad30-9357dd74ed6e";
"c2a3c49b-a1dc-4cc4-ad30-9357dd74ed6e" [label="de.robv.android.xposed.XposedBridge.handleHookedMethod\n Susp=0,302"];
"c2a3c49b-a1dc-4cc4-ad30-9357dd74ed6e" -> "417dfc75-c0a4-4b59-8fa7-cbcedc93e4d1";
"417dfc75-c0a4-4b59-8fa7-cbcedc93e4d1" [label="de.robv.android.xposed.XposedBridge.invokeOriginalMethodNative\n Susp=0,302"];
"417dfc75-c0a4-4b59-8fa7-cbcedc93e4d1" -> "2db2ff9b-6efb-4acb-a2a7-b68b5a262419";
"2db2ff9b-6efb-4acb-a2a7-b68b5a262419" [label="android.os.Handler.dispatchMessage\n Susp=0,5687"];
"2db2ff9b-6efb-4acb-a2a7-b68b5a262419" -> "2f761c0c-bf80-4534-a37d-12524fd07896";
"2f761c0c-bf80-4534-a37d-12524fd07896" [label="android.os.Handler.handleCallback\n Susp=0,2678"];
"2f761c0c-bf80-4534-a37d-12524fd07896" -> "126aebe8-4c7a-44dc-96f8-b9e0b767de3a";
"126aebe8-4c7a-44dc-96f8-b9e0b767de3a" [label="de.robv.android.xposed.XposedBridge.handleHookedMethod\n Susp=0,2678"];
"126aebe8-4c7a-44dc-96f8-b9e0b767de3a" -> "1b62416f-6395-4560-9aa2-d6f4904b4637";
"1b62416f-6395-4560-9aa2-d6f4904b4637" [label="de.robv.android.xposed.XposedBridge.invokeOriginalMethodNative\n Susp=0,2678"];
"1b62416f-6395-4560-9aa2-d6f4904b4637" -> "2383de3e-b978-4f93-a0de-e9f74ce39c92";
"2383de3e-b978-4f93-a0de-e9f74ce39c92" [label="android.os.Handler.handleCallback\n Susp=0,2678"];
"2383de3e-b978-4f93-a0de-e9f74ce39c92" -> "970c9750-6f14-4961-b262-5267bf4a4e15";
"970c9750-6f14-4961-b262-5267bf4a4e15" [label="android.view.View$PerformClick.run\n Susp=0,2678"];
"970c9750-6f14-4961-b262-5267bf4a4e15" -> "9f82fdff-28cc-48c0-978c-d03a675c8c02";
"9f82fdff-28cc-48c0-978c-d03a675c8c02" [label="android.view.View.performClick\n Susp=0,2678"];
"9f82fdff-28cc-48c0-978c-d03a675c8c02" -> "a55ff037-321a-4de1-83bf-bcc412b4c908";
"a55ff037-321a-4de1-83bf-bcc412b4c908" [label="com.github.fakegps.ui.MainActivity.onClick\n Susp=0,2678"];
"a55ff037-321a-4de1-83bf-bcc412b4c908" -> "f3d623d2-d5a2-484c-95a9-bac8832803d6";
"f3d623d2-d5a2-484c-95a9-bac8832803d6" [label="de.robv.android.xposed.XposedBridge.handleHookedMethod\n Susp=0,2678"];
"f3d623d2-d5a2-484c-95a9-bac8832803d6" -> "b1212a14-a32f-4bcb-8e0e-21bd5c70c4b3";
"b1212a14-a32f-4bcb-8e0e-21bd5c70c4b3" [label="de.robv.android.xposed.XposedBridge.invokeOriginalMethodNative\n Susp=0,2678"];
"b1212a14-a32f-4bcb-8e0e-21bd5c70c4b3" -> "7c168204-1b99-48d1-b438-0b8fca5c6970";
"7c168204-1b99-48d1-b438-0b8fca5c6970" [label="com.github.fakegps.ui.MainActivity.onClick\n Susp=0,2678"];
"7c168204-1b99-48d1-b438-0b8fca5c6970" -> "993ce6e9-6898-4e9a-8efe-4c1220c4e1ad";
"993ce6e9-6898-4e9a-8efe-4c1220c4e1ad" [label="com.github.fakegps.JoyStickManager.start\n Susp=0,2678"];
"993ce6e9-6898-4e9a-8efe-4c1220c4e1ad" -> "d3ffa580-04da-4eb3-a002-2eb84b85eec9";
"d3ffa580-04da-4eb3-a002-2eb84b85eec9" [label="de.robv.android.xposed.XposedBridge.handleHookedMethod\n Susp=0,2678"];
"d3ffa580-04da-4eb3-a002-2eb84b85eec9" -> "33a70c7b-8c8c-4815-bb8a-febd81a5137f";
"33a70c7b-8c8c-4815-bb8a-febd81a5137f" [label="de.robv.android.xposed.XposedBridge.invokeOriginalMethodNative\n Susp=0,2678"];
"33a70c7b-8c8c-4815-bb8a-febd81a5137f" -> "1dc1b40d-5d06-4f97-a1b3-db9096839a1a";
"1dc1b40d-5d06-4f97-a1b3-db9096839a1a" [label="com.github.fakegps.JoyStickManager.start\n Susp=0,2678"];
"1dc1b40d-5d06-4f97-a1b3-db9096839a1a" -> "0783b00c-fb97-4436-a99c-6004cef8504f";
"0783b00c-fb97-4436-a99c-6004cef8504f" [label="com.github.fakegps.JoyStickManager.showJoyStick\n Susp=0,2678"];
"0783b00c-fb97-4436-a99c-6004cef8504f" -> "46e9a78c-898a-4657-92be-341a58966d8d";
"46e9a78c-898a-4657-92be-341a58966d8d" [label="com.github.fakegps.ui.JoyStickView.<init>\n Susp=0,2678"];
"46e9a78c-898a-4657-92be-341a58966d8d" -> "cae6a28f-295a-4180-be6f-9c120115a11e";
"cae6a28f-295a-4180-be6f-9c120115a11e" [label="android.view.LayoutInflater.inflate\n Susp=0,2678"];
"cae6a28f-295a-4180-be6f-9c120115a11e" -> "52ca418c-c933-422e-aa82-0190cb3a5712";
"52ca418c-c933-422e-aa82-0190cb3a5712" [label="de.robv.android.xposed.XposedBridge.handleHookedMethod\n Susp=0,2678"];
"52ca418c-c933-422e-aa82-0190cb3a5712" -> "72ec1a56-2899-48cf-9296-e2daebc2c655";
"72ec1a56-2899-48cf-9296-e2daebc2c655" [label="de.robv.android.xposed.XposedBridge.invokeOriginalMethodNative\n Susp=0,2678"];
"72ec1a56-2899-48cf-9296-e2daebc2c655" -> "47412bdd-5378-4831-95f1-8f85119136f4";
"47412bdd-5378-4831-95f1-8f85119136f4" [label="android.view.LayoutInflater.inflate\n Susp=0,2678"];
"47412bdd-5378-4831-95f1-8f85119136f4" -> "49bd7019-52bc-4952-b242-1bd8e82f115c";
"49bd7019-52bc-4952-b242-1bd8e82f115c" [label="de.robv.android.xposed.XposedBridge.handleHookedMethod\n Susp=0,2678"];
"49bd7019-52bc-4952-b242-1bd8e82f115c" -> "68e077a9-be30-402d-bbb4-35e1f7f263d5";
"68e077a9-be30-402d-bbb4-35e1f7f263d5" [label="de.robv.android.xposed.XposedBridge.invokeOriginalMethodNative\n Susp=0,2678"];
"68e077a9-be30-402d-bbb4-35e1f7f263d5" -> "55b5318a-7baa-4fe2-af8f-4f30ddf90b41";
"55b5318a-7baa-4fe2-af8f-4f30ddf90b41" [label="android.view.LayoutInflater.inflate\n Susp=0,2678"];
"55b5318a-7baa-4fe2-af8f-4f30ddf90b41" -> "53ea5548-2fd2-4f2e-970f-178fde50831c";
"53ea5548-2fd2-4f2e-970f-178fde50831c" [label="de.robv.android.xposed.XposedBridge.handleHookedMethod\n Susp=0,2678"];
"53ea5548-2fd2-4f2e-970f-178fde50831c" -> "46ea3d8f-60ed-4193-b3f7-6e31df78178e";
"46ea3d8f-60ed-4193-b3f7-6e31df78178e" [label="it.unimib.disco.lta.unimiblogger.MyMethodHook.beforeHookedMethod\n Susp=0,2678"];
"46ea3d8f-60ed-4193-b3f7-6e31df78178e" -> "e90f0ea0-66c8-4b85-bfb6-a93c14224a22";
"e90f0ea0-66c8-4b85-bfb6-a93c14224a22" [label="java.lang.Thread.getStackTrace\n Susp=0,2678"];
"e90f0ea0-66c8-4b85-bfb6-a93c14224a22" -> "558da0d2-a2b0-4a08-9617-f6b104c6baa2";
"558da0d2-a2b0-4a08-9617-f6b104c6baa2" [label="dalvik.system.VMStack.getThreadStackTrace\n Susp=0,0012"];
"2db2ff9b-6efb-4acb-a2a7-b68b5a262419" -> "7ce8bd3b-5ee5-4984-9c44-6a5e69041f25";
"7ce8bd3b-5ee5-4984-9c44-6a5e69041f25" [label="android.app.ActivityThread$H.handleMessage\n Susp=0,3009"];
"7ce8bd3b-5ee5-4984-9c44-6a5e69041f25" -> "32c272a9-59a5-427d-971e-f4cba28aee06";
"32c272a9-59a5-427d-971e-f4cba28aee06" [label="android.app.ActivityThread.-wrap11\n Susp=0,3009"];
"32c272a9-59a5-427d-971e-f4cba28aee06" -> "1c53319f-1148-488c-8d38-9e77b912ad5f";
"1c53319f-1148-488c-8d38-9e77b912ad5f" [label="android.app.ActivityThread.handleLaunchActivity\n Susp=0,3009"];
"1c53319f-1148-488c-8d38-9e77b912ad5f" -> "73c79709-be2b-41b5-b626-fba2b09b99d4";
"73c79709-be2b-41b5-b626-fba2b09b99d4" [label="android.app.ActivityThread.performLaunchActivity\n Susp=0,3009"];
"73c79709-be2b-41b5-b626-fba2b09b99d4" -> "bef92b98-13df-47a4-ba3f-15ba716fcdd3";
"bef92b98-13df-47a4-ba3f-15ba716fcdd3" [label="android.app.Instrumentation.callActivityOnCreate\n Susp=0,3009"];
"bef92b98-13df-47a4-ba3f-15ba716fcdd3" -> "f7a65170-3530-487c-af70-52fafa22055c";
"f7a65170-3530-487c-af70-52fafa22055c" [label="android.app.Activity.performCreate\n Susp=0,3009"];
"f7a65170-3530-487c-af70-52fafa22055c" -> "7cddf9cf-1f35-4ac1-b01a-cfd53bc03086";
"7cddf9cf-1f35-4ac1-b01a-cfd53bc03086" [label="com.github.fakegps.ui.MainActivity.onCreate\n Susp=0,3009"];
"7cddf9cf-1f35-4ac1-b01a-cfd53bc03086" -> "42d25871-3560-4bd0-a515-a47e46f3a579";
"42d25871-3560-4bd0-a515-a47e46f3a579" [label="de.robv.android.xposed.XposedBridge.handleHookedMethod\n Susp=0,3009"];
"42d25871-3560-4bd0-a515-a47e46f3a579" -> "88e4ba22-0a2b-4078-b293-889c4b4c22be";
"88e4ba22-0a2b-4078-b293-889c4b4c22be" [label="de.robv.android.xposed.XposedBridge.invokeOriginalMethodNative\n Susp=0,3009"];
"88e4ba22-0a2b-4078-b293-889c4b4c22be" -> "91362628-c332-4247-bb91-cb1607affb84";
"91362628-c332-4247-bb91-cb1607affb84" [label="com.github.fakegps.ui.MainActivity.onCreate\n Susp=0,5675"];
"91362628-c332-4247-bb91-cb1607affb84" -> "d05817e6-f018-4832-97f3-3e36e2c77b2b";
"d05817e6-f018-4832-97f3-3e36e2c77b2b" [label="android.support.v7.app.AppCompatActivity.findViewById\n Susp=0,3001"];
"d05817e6-f018-4832-97f3-3e36e2c77b2b" -> "24bc4300-2d86-4ffa-9d9c-d2b87fa66c43";
"24bc4300-2d86-4ffa-9d9c-d2b87fa66c43" [label="de.robv.android.xposed.XposedBridge.handleHookedMethod\n Susp=0,3001"];
"24bc4300-2d86-4ffa-9d9c-d2b87fa66c43" -> "3985adab-b283-45bc-9017-cb4c2e04011a";
"3985adab-b283-45bc-9017-cb4c2e04011a" [label="it.unimib.disco.lta.unimiblogger.MyMethodHook.beforeHookedMethod\n Susp=0,3001"];
"3985adab-b283-45bc-9017-cb4c2e04011a" -> "b3c70055-7c3a-487a-98cb-183a6569367a";
"b3c70055-7c3a-487a-98cb-183a6569367a" [label="java.lang.Thread.getStackTrace\n Susp=0,3001"];
"b3c70055-7c3a-487a-98cb-183a6569367a" -> "1ae01ef9-4295-47c4-baa8-aade3e03aeda";
"1ae01ef9-4295-47c4-baa8-aade3e03aeda" [label="dalvik.system.VMStack.getThreadStackTrace\n Susp=0,0334"];
"91362628-c332-4247-bb91-cb1607affb84" -> "9176e9b5-c63d-486f-860a-ed54c1f38a53";
"9176e9b5-c63d-486f-860a-ed54c1f38a53" [label="com.github.fakegps.ui.MainActivity.initListView\n Susp=0,2675"];
"9176e9b5-c63d-486f-860a-ed54c1f38a53" -> "be71aa21-af0a-49f8-9166-e61c6b90350c";
"be71aa21-af0a-49f8-9166-e61c6b90350c" [label="de.robv.android.xposed.XposedBridge.handleHookedMethod\n Susp=0,2675"];
"be71aa21-af0a-49f8-9166-e61c6b90350c" -> "22d7f1a6-1db6-422b-afb4-213b3615d40b";
"22d7f1a6-1db6-422b-afb4-213b3615d40b" [label="de.robv.android.xposed.XposedBridge.invokeOriginalMethodNative\n Susp=0,2675"];
"22d7f1a6-1db6-422b-afb4-213b3615d40b" -> "ea4d19bd-f159-405e-87e2-196cb0aa60a4";
"ea4d19bd-f159-405e-87e2-196cb0aa60a4" [label="com.github.fakegps.ui.MainActivity.initListView\n Susp=0,2675"];
"ea4d19bd-f159-405e-87e2-196cb0aa60a4" -> "44a5f825-4ac5-455a-95f3-4580cc56307e";
"44a5f825-4ac5-455a-95f3-4580cc56307e" [label="android.widget.ListView.setAdapter\n Susp=0,2675"];
"44a5f825-4ac5-455a-95f3-4580cc56307e" -> "9afd08c2-871a-445b-9647-912e07e0bcb5";
"9afd08c2-871a-445b-9647-912e07e0bcb5" [label="de.robv.android.xposed.XposedBridge.handleHookedMethod\n Susp=0,2675"];
"9afd08c2-871a-445b-9647-912e07e0bcb5" -> "dde7747a-7117-49bb-b87c-0313f822da05";
"dde7747a-7117-49bb-b87c-0313f822da05" [label="de.robv.android.xposed.XposedBridge.invokeOriginalMethodNative\n Susp=0,2675"];
"dde7747a-7117-49bb-b87c-0313f822da05" -> "2c9b93ed-3e29-4e87-8a76-f1a1ba5b9cb8";
"2c9b93ed-3e29-4e87-8a76-f1a1ba5b9cb8" [label="android.widget.ListView.setAdapter\n Susp=0,2675"];
"2c9b93ed-3e29-4e87-8a76-f1a1ba5b9cb8" -> "859ba98e-97a9-466d-bd2e-f21cfc09f998";
"859ba98e-97a9-466d-bd2e-f21cfc09f998" [label="android.widget.ListView.lookForSelectablePosition\n Susp=0,2675"];
"859ba98e-97a9-466d-bd2e-f21cfc09f998" -> "3bb2743a-9113-46cd-b56d-1ee392e7709d";
"3bb2743a-9113-46cd-b56d-1ee392e7709d" [label="de.robv.android.xposed.XposedBridge.handleHookedMethod\n Susp=0,2675"];
"3bb2743a-9113-46cd-b56d-1ee392e7709d" -> "fd69ad42-d0da-45f3-a804-829629fc616a";
"fd69ad42-d0da-45f3-a804-829629fc616a" [label="de.robv.android.xposed.XposedBridge.invokeOriginalMethodNative\n Susp=0,2675"];
"fd69ad42-d0da-45f3-a804-829629fc616a" -> "ed4bfc2e-059b-477d-ab17-448b918bc71f";
"ed4bfc2e-059b-477d-ab17-448b918bc71f" [label="android.widget.ListView.lookForSelectablePosition\n Susp=0,2675"];
"ed4bfc2e-059b-477d-ab17-448b918bc71f" -> "3bd95b4a-aefd-469f-8ef6-285c23b9aeb7";
"3bd95b4a-aefd-469f-8ef6-285c23b9aeb7" [label="com.github.fakegps.ui.BookmarkAdapter.getCount\n Susp=0,2675"];
"3bd95b4a-aefd-469f-8ef6-285c23b9aeb7" -> "db0dde4d-fb43-4076-9da7-642fdef52cd9";
"db0dde4d-fb43-4076-9da7-642fdef52cd9" [label="de.robv.android.xposed.XposedBridge.handleHookedMethod\n Susp=0,2675"];
"db0dde4d-fb43-4076-9da7-642fdef52cd9" -> "b340fa07-e640-49dd-b16c-ee9c163139b5";
"b340fa07-e640-49dd-b16c-ee9c163139b5" [label="it.unimib.disco.lta.unimiblogger.MyMethodHook.beforeHookedMethod\n Susp=0,2675"];
"b340fa07-e640-49dd-b16c-ee9c163139b5" -> "d8737f61-956f-4a37-aad0-371d909feaeb";
"d8737f61-956f-4a37-aad0-371d909feaeb" [label="java.lang.Thread.getStackTrace\n Susp=0,2675"];
"d8737f61-956f-4a37-aad0-371d909feaeb" -> "50c064df-8120-4c8f-8264-176e87bb72a7";
"50c064df-8120-4c8f-8264-176e87bb72a7" [label="dalvik.system.VMStack.getThreadStackTrace\n Susp=0,0008"];
"e183122f-4ce3-4321-a080-6467d90367a0" -> "5d524e07-1cd8-42e1-a667-60b662af0e3e";
"5d524e07-1cd8-42e1-a667-60b662af0e3e" [label="android.app.ActivityThread$H.handleMessage\n Susp=0,6371"];
"5d524e07-1cd8-42e1-a667-60b662af0e3e" -> "698e40b4-1844-4690-b47f-5f32b0ad2bf0";
"698e40b4-1844-4690-b47f-5f32b0ad2bf0" [label="android.app.ActivityThread.-wrap1\n Susp=0,269"];
"698e40b4-1844-4690-b47f-5f32b0ad2bf0" -> "ae424d84-01e0-4fb9-8618-65e43db67e0b";
"ae424d84-01e0-4fb9-8618-65e43db67e0b" [label="android.app.ActivityThread.handleBindApplication\n Susp=0,269"];
"ae424d84-01e0-4fb9-8618-65e43db67e0b" -> "b5d0db10-5f1e-497b-9a6f-f42cec2489a0";
"b5d0db10-5f1e-497b-9a6f-f42cec2489a0" [label="de.robv.android.xposed.XposedBridge.handleHookedMethod\n Susp=0,269"];
"b5d0db10-5f1e-497b-9a6f-f42cec2489a0" -> "a224ba5c-6285-4a5c-8d4d-8a8e9a5e6133";
"a224ba5c-6285-4a5c-8d4d-8a8e9a5e6133" [label="de.robv.android.xposed.XposedBridge.invokeOriginalMethodNative\n Susp=0,269"];
"a224ba5c-6285-4a5c-8d4d-8a8e9a5e6133" -> "ebf0f96c-16fb-46d0-81a6-ca42f531706a";
"ebf0f96c-16fb-46d0-81a6-ca42f531706a" [label="android.app.ActivityThread.handleBindApplication\n Susp=0,269"];
"ebf0f96c-16fb-46d0-81a6-ca42f531706a" -> "3be96f2b-5ef2-4870-bf38-84eb6d122621";
"3be96f2b-5ef2-4870-bf38-84eb6d122621" [label="android.app.Instrumentation.callApplicationOnCreate\n Susp=0,269"];
"3be96f2b-5ef2-4870-bf38-84eb6d122621" -> "de6b4515-0219-4993-bf17-e65184583ed0";
"de6b4515-0219-4993-bf17-e65184583ed0" [label="com.github.fakegps.FakeGpsApp.onCreate\n Susp=0,269"];
"de6b4515-0219-4993-bf17-e65184583ed0" -> "60af3f40-5ba5-4163-9c5e-c00a83160a49";
"60af3f40-5ba5-4163-9c5e-c00a83160a49" [label="com.github.fakegps.FakeGpsApp.initLogger\n Susp=0,269"];
"60af3f40-5ba5-4163-9c5e-c00a83160a49" -> "7bcfbcd4-b291-4667-9e85-3ce2f654f621";
"7bcfbcd4-b291-4667-9e85-3ce2f654f621" [label="de.robv.android.xposed.XposedBridge.handleHookedMethod\n Susp=0,269"];
"7bcfbcd4-b291-4667-9e85-3ce2f654f621" -> "bac2cff6-c29d-4b73-80cf-9b98f750381f";
"bac2cff6-c29d-4b73-80cf-9b98f750381f" [label="de.robv.android.xposed.XposedBridge.invokeOriginalMethodNative\n Susp=0,269"];
"bac2cff6-c29d-4b73-80cf-9b98f750381f" -> "2ab227d5-421d-4e45-9f91-44e5db7eb225";
"2ab227d5-421d-4e45-9f91-44e5db7eb225" [label="com.github.fakegps.FakeGpsApp.initLogger\n Susp=0,269"];
"2ab227d5-421d-4e45-9f91-44e5db7eb225" -> "fa42ca40-1d17-475e-987e-4928bb8d1e36";
"fa42ca40-1d17-475e-987e-4928bb8d1e36" [label="android.os.Environment.getExternalStorageDirectory\n Susp=0,269"];
"fa42ca40-1d17-475e-987e-4928bb8d1e36" -> "822e8c60-ee09-45e4-a118-f17567573ff4";
"822e8c60-ee09-45e4-a118-f17567573ff4" [label="de.robv.android.xposed.XposedBridge.handleHookedMethod\n Susp=0,269"];
"822e8c60-ee09-45e4-a118-f17567573ff4" -> "1a319d7b-bfa7-4811-a5ba-c31cfb150f32";
"1a319d7b-bfa7-4811-a5ba-c31cfb150f32" [label="it.unimib.disco.lta.unimiblogger.MyMethodHook.beforeHookedMethod\n Susp=0,269"];
"1a319d7b-bfa7-4811-a5ba-c31cfb150f32" -> "22366b31-3a46-4029-b2b7-a06a01435cc9";
"22366b31-3a46-4029-b2b7-a06a01435cc9" [label="java.lang.Thread.getStackTrace\n Susp=0,269"];
"22366b31-3a46-4029-b2b7-a06a01435cc9" -> "5f99951c-d82f-4797-bc1e-fd1ba7f696d5";
"5f99951c-d82f-4797-bc1e-fd1ba7f696d5" [label="dalvik.system.VMStack.getThreadStackTrace\n Susp=0,0024"];
"5d524e07-1cd8-42e1-a667-60b662af0e3e" -> "259e0715-b5eb-4e62-b911-72095b7971dc";
"259e0715-b5eb-4e62-b911-72095b7971dc" [label="android.app.ActivityThread.access$1400\n Susp=0,368"];
"259e0715-b5eb-4e62-b911-72095b7971dc" -> "18412a1f-7e77-4ed3-bf47-d73146da76e8";
"18412a1f-7e77-4ed3-bf47-d73146da76e8" [label="android.app.ActivityThread.handleDestroyActivity\n Susp=0,368"];
"18412a1f-7e77-4ed3-bf47-d73146da76e8" -> "fda277d0-f208-4ced-ae75-bccc98e36fd3";
"fda277d0-f208-4ced-ae75-bccc98e36fd3" [label="android.app.ActivityThread.performDestroyActivity\n Susp=0,368"];
"fda277d0-f208-4ced-ae75-bccc98e36fd3" -> "c7ed21bb-2e7f-471c-9bb3-44a596a002f5";
"c7ed21bb-2e7f-471c-9bb3-44a596a002f5" [label="android.app.Instrumentation.callActivityOnDestroy\n Susp=0,368"];
"c7ed21bb-2e7f-471c-9bb3-44a596a002f5" -> "d988802b-ef6e-4d85-bf2f-16dc24cee8c9";
"d988802b-ef6e-4d85-bf2f-16dc24cee8c9" [label="android.app.Activity.performDestroy\n Susp=0,368"];
"d988802b-ef6e-4d85-bf2f-16dc24cee8c9" -> "ec6f0475-4011-4755-9bd1-c0c36a342cdc";
"ec6f0475-4011-4755-9bd1-c0c36a342cdc" [label="com.github.fakegps.ui.MainActivity.onDestroy\n Susp=0,368"];
"ec6f0475-4011-4755-9bd1-c0c36a342cdc" -> "fa50b5f5-f1db-462e-9086-7af19516a3bd";
"fa50b5f5-f1db-462e-9086-7af19516a3bd" [label="de.robv.android.xposed.XposedBridge.handleHookedMethod\n Susp=0,368"];
"fa50b5f5-f1db-462e-9086-7af19516a3bd" -> "087b13c8-66d0-43a3-8384-323713f6c3d6";
"087b13c8-66d0-43a3-8384-323713f6c3d6" [label="it.unimib.disco.lta.unimiblogger.MyMethodHook.beforeHookedMethod\n Susp=0,368"];
"087b13c8-66d0-43a3-8384-323713f6c3d6" -> "55fc2285-d5e4-4e74-ae95-580260e1e90c";
"55fc2285-d5e4-4e74-ae95-580260e1e90c" [label="java.lang.Thread.getStackTrace\n Susp=0,368"];
"55fc2285-d5e4-4e74-ae95-580260e1e90c" -> "2e4a1e75-5061-44fc-8e44-f5380cfc732b";
"2e4a1e75-5061-44fc-8e44-f5380cfc732b" [label="dalvik.system.VMStack.getThreadStackTrace\n Susp=0,1014"];
"e183122f-4ce3-4321-a080-6467d90367a0" -> "67eaf089-118b-4ef5-a9d9-9cb7f257a9b3";
"67eaf089-118b-4ef5-a9d9-9cb7f257a9b3" [label="android.os.Handler.handleCallback\n Susp=0,3276"];
"67eaf089-118b-4ef5-a9d9-9cb7f257a9b3" -> "8bcd6473-816d-4321-96f7-dfb97cd9c95f";
"8bcd6473-816d-4321-96f7-dfb97cd9c95f" [label="android.view.View$PerformClick.run\n Susp=0,3276"];
"8bcd6473-816d-4321-96f7-dfb97cd9c95f" -> "77d01313-c8ce-4ee1-a715-d2ef2184a24b";
"77d01313-c8ce-4ee1-a715-d2ef2184a24b" [label="android.view.View.performClick\n Susp=0,3276"];
"77d01313-c8ce-4ee1-a715-d2ef2184a24b" -> "0abc8bb1-1096-462f-853a-875a6cdf8ea4";
"0abc8bb1-1096-462f-853a-875a6cdf8ea4" [label="com.github.fakegps.ui.MainActivity.onClick\n Susp=0,3276"];
"0abc8bb1-1096-462f-853a-875a6cdf8ea4" -> "65e058a7-519a-4f2c-a5fd-deffce0e8902";
"65e058a7-519a-4f2c-a5fd-deffce0e8902" [label="de.robv.android.xposed.XposedBridge.handleHookedMethod\n Susp=0,3276"];
"65e058a7-519a-4f2c-a5fd-deffce0e8902" -> "d42a7192-f3e8-46ac-9c56-d62879f2c7fa";
"d42a7192-f3e8-46ac-9c56-d62879f2c7fa" [label="de.robv.android.xposed.XposedBridge.invokeOriginalMethodNative\n Susp=0,3276"];
"d42a7192-f3e8-46ac-9c56-d62879f2c7fa" -> "b1dc0828-d87f-4f5f-896b-117499f13958";
"b1dc0828-d87f-4f5f-896b-117499f13958" [label="com.github.fakegps.ui.MainActivity.onClick\n Susp=0,5942"];
"b1dc0828-d87f-4f5f-896b-117499f13958" -> "b6074e3a-51ff-48bf-b93f-f339d5591f75";
"b6074e3a-51ff-48bf-b93f-f339d5591f75" [label="com.github.fakegps.JoyStickManager.start\n Susp=0,2678"];
"b6074e3a-51ff-48bf-b93f-f339d5591f75" -> "83bf892b-afe0-4e40-b9a2-f517d2443886";
"83bf892b-afe0-4e40-b9a2-f517d2443886" [label="de.robv.android.xposed.XposedBridge.handleHookedMethod\n Susp=0,2678"];
"83bf892b-afe0-4e40-b9a2-f517d2443886" -> "83d9a39b-85a1-47ab-8b7f-124e732ef9ea";
"83d9a39b-85a1-47ab-8b7f-124e732ef9ea" [label="de.robv.android.xposed.XposedBridge.invokeOriginalMethodNative\n Susp=0,2678"];
"83d9a39b-85a1-47ab-8b7f-124e732ef9ea" -> "59ba1705-46ba-466e-8a9e-6a7bec6be28b";
"59ba1705-46ba-466e-8a9e-6a7bec6be28b" [label="com.github.fakegps.JoyStickManager.start\n Susp=0,2678"];
"59ba1705-46ba-466e-8a9e-6a7bec6be28b" -> "41ab55e1-50dc-4fac-bec7-30a5d6868a15";
"41ab55e1-50dc-4fac-bec7-30a5d6868a15" [label="com.github.fakegps.JoyStickManager.showJoyStick\n Susp=0,2678"];
"41ab55e1-50dc-4fac-bec7-30a5d6868a15" -> "97d8a23f-9647-4faf-bf0f-63c6a5c58297";
"97d8a23f-9647-4faf-bf0f-63c6a5c58297" [label="com.github.fakegps.ui.JoyStickView.<init>\n Susp=0,2678"];
"97d8a23f-9647-4faf-bf0f-63c6a5c58297" -> "52e27212-2588-4b0b-bd34-20a8167b4c89";
"52e27212-2588-4b0b-bd34-20a8167b4c89" [label="android.view.LayoutInflater.inflate\n Susp=0,2678"];
"52e27212-2588-4b0b-bd34-20a8167b4c89" -> "dfc2ad12-9613-4c72-852a-a9f86739db99";
"dfc2ad12-9613-4c72-852a-a9f86739db99" [label="de.robv.android.xposed.XposedBridge.handleHookedMethod\n Susp=0,2678"];
"dfc2ad12-9613-4c72-852a-a9f86739db99" -> "85effd99-0950-4f43-b900-414535269e8e";
"85effd99-0950-4f43-b900-414535269e8e" [label="de.robv.android.xposed.XposedBridge.invokeOriginalMethodNative\n Susp=0,2678"];
"85effd99-0950-4f43-b900-414535269e8e" -> "84200be9-dc10-4bc7-822d-89330d7ef7fd";
"84200be9-dc10-4bc7-822d-89330d7ef7fd" [label="android.view.LayoutInflater.inflate\n Susp=0,2678"];
"84200be9-dc10-4bc7-822d-89330d7ef7fd" -> "0a578fbb-f397-49fd-9724-afc67e952aef";
"0a578fbb-f397-49fd-9724-afc67e952aef" [label="de.robv.android.xposed.XposedBridge.handleHookedMethod\n Susp=0,2678"];
"0a578fbb-f397-49fd-9724-afc67e952aef" -> "367dd94c-2791-4bb4-b158-ace2679c692d";
"367dd94c-2791-4bb4-b158-ace2679c692d" [label="de.robv.android.xposed.XposedBridge.invokeOriginalMethodNative\n Susp=0,2678"];
"367dd94c-2791-4bb4-b158-ace2679c692d" -> "c8998592-a0e4-431b-912f-4779763fee29";
"c8998592-a0e4-431b-912f-4779763fee29" [label="android.view.LayoutInflater.inflate\n Susp=0,2678"];
"c8998592-a0e4-431b-912f-4779763fee29" -> "b9445a5a-9a51-4823-99ef-49b223d1e7fe";
"b9445a5a-9a51-4823-99ef-49b223d1e7fe" [label="de.robv.android.xposed.XposedBridge.handleHookedMethod\n Susp=0,2678"];
"b9445a5a-9a51-4823-99ef-49b223d1e7fe" -> "cabb652e-2f66-4eee-8f18-0f9e923a6574";
"cabb652e-2f66-4eee-8f18-0f9e923a6574" [label="it.unimib.disco.lta.unimiblogger.MyMethodHook.beforeHookedMethod\n Susp=0,2678"];
"cabb652e-2f66-4eee-8f18-0f9e923a6574" -> "4d2722dc-1008-43e1-aaf8-dcecdadaa6c1";
"4d2722dc-1008-43e1-aaf8-dcecdadaa6c1" [label="java.lang.Thread.getStackTrace\n Susp=0,2678"];
"4d2722dc-1008-43e1-aaf8-dcecdadaa6c1" -> "cf4f6298-7b9b-4837-975f-b781055bb83f";
"cf4f6298-7b9b-4837-975f-b781055bb83f" [label="dalvik.system.VMStack.getThreadStackTrace\n Susp=0,0012"];
"b1dc0828-d87f-4f5f-896b-117499f13958" -> "91b9fff1-6ae3-4774-85d3-860f1fd66332";
"91b9fff1-6ae3-4774-85d3-860f1fd66332" [label="android.app.Activity.finish\n Susp=0,3264"];
"91b9fff1-6ae3-4774-85d3-860f1fd66332" -> "f459c13d-146a-42d3-8476-a3013fd4bef0";
"f459c13d-146a-42d3-8476-a3013fd4bef0" [label="de.robv.android.xposed.XposedBridge.handleHookedMethod\n Susp=0,3264"];
"f459c13d-146a-42d3-8476-a3013fd4bef0" -> "8855d72e-14dc-414d-a5f4-d5656cab123c";
"8855d72e-14dc-414d-a5f4-d5656cab123c" [label="it.unimib.disco.lta.unimiblogger.MyMethodHook.beforeHookedMethod\n Susp=0,3264"];
"8855d72e-14dc-414d-a5f4-d5656cab123c" -> "63225789-7dc1-4311-b997-9286b315c2d3";
"63225789-7dc1-4311-b997-9286b315c2d3" [label="java.lang.Thread.getStackTrace\n Susp=0,3264"];
"63225789-7dc1-4311-b997-9286b315c2d3" -> "66fcaf3d-3cfe-4633-a862-b0294ffbd444";
"66fcaf3d-3cfe-4633-a862-b0294ffbd444" [label="dalvik.system.VMStack.getThreadStackTrace\n Susp=0,0597"];
}
