BEFORE com.example.mapdemo.MapDemoActivity.onCreate(), invoked by: dalvik.system.VMStack.getThreadStackTrace, java.lang.Thread.getStackTrace, it.unimib.disco.lta.unimiblogger.MyMethodHook.beforeHookedMethod, de.robv.android.xposed.XposedBridge.handleHookedMethod, com.example.mapdemo.MapDemoActivity.onCreate, android.app.Activity.performCreate, android.app.Instrumentation.callActivityOnCreate, android.app.ActivityThread.performLaunchActivity, android.app.ActivityThread.handleLaunchActivity, android.app.ActivityThread.access$800, android.app.ActivityThread$H.handleMessage, android.os.Handler.dispatchMessage, android.os.Looper.loop, android.app.ActivityThread.main, java.lang.reflect.Method.invoke, java.lang.reflect.Method.invoke, com.android.internal.os.ZygoteInit$MethodAndArgsCaller.run, com.android.internal.os.ZygoteInit.main, de.robv.android.xposed.XposedBridge.main
BEFORE android.support.v7.app.AppCompatActivity.onCreate(), invoked by: dalvik.system.VMStack.getThreadStackTrace, java.lang.Thread.getStackTrace, it.unimib.disco.lta.unimiblogger.MyMethodHook.beforeHookedMethod, de.robv.android.xposed.XposedBridge.handleHookedMethod, android.support.v7.app.AppCompatActivity.onCreate, com.example.mapdemo.MapDemoActivity.onCreate, de.robv.android.xposed.XposedBridge.invokeOriginalMethodNative, de.robv.android.xposed.XposedBridge.handleHookedMethod, com.example.mapdemo.MapDemoActivity.onCreate, android.app.Activity.performCreate, android.app.Instrumentation.callActivityOnCreate, android.app.ActivityThread.performLaunchActivity, android.app.ActivityThread.handleLaunchActivity, android.app.ActivityThread.access$800, android.app.ActivityThread$H.handleMessage, android.os.Handler.dispatchMessage, android.os.Looper.loop, android.app.ActivityThread.main, java.lang.reflect.Method.invoke, java.lang.reflect.Method.invoke, com.android.internal.os.ZygoteInit$MethodAndArgsCaller.run, com.android.internal.os.ZygoteInit.main, de.robv.android.xposed.XposedBridge.main
AFTER android.support.v7.app.AppCompatActivity.onCreate, invoked by: dalvik.system.VMStack.getThreadStackTrace, java.lang.Thread.getStackTrace, it.unimib.disco.lta.unimiblogger.MyMethodHook.beforeHookedMethod, de.robv.android.xposed.XposedBridge.handleHookedMethod, android.support.v7.app.AppCompatActivity.onCreate, com.example.mapdemo.MapDemoActivity.onCreate, de.robv.android.xposed.XposedBridge.invokeOriginalMethodNative, de.robv.android.xposed.XposedBridge.handleHookedMethod, com.example.mapdemo.MapDemoActivity.onCreate, android.app.Activity.performCreate, android.app.Instrumentation.callActivityOnCreate, android.app.ActivityThread.performLaunchActivity, android.app.ActivityThread.handleLaunchActivity, android.app.ActivityThread.access$800, android.app.ActivityThread$H.handleMessage, android.os.Handler.dispatchMessage, android.os.Looper.loop, android.app.ActivityThread.main, java.lang.reflect.Method.invoke, java.lang.reflect.Method.invoke, com.android.internal.os.ZygoteInit$MethodAndArgsCaller.run, com.android.internal.os.ZygoteInit.main, de.robv.android.xposed.XposedBridge.main
BEFORE android.support.v7.app.AppCompatActivity.setContentView(2131296280), invoked by: dalvik.system.VMStack.getThreadStackTrace, java.lang.Thread.getStackTrace, it.unimib.disco.lta.unimiblogger.MyMethodHook.beforeHookedMethod, de.robv.android.xposed.XposedBridge.handleHookedMethod, android.support.v7.app.AppCompatActivity.setContentView, com.example.mapdemo.MapDemoActivity.onCreate, de.robv.android.xposed.XposedBridge.invokeOriginalMethodNative, de.robv.android.xposed.XposedBridge.handleHookedMethod, com.example.mapdemo.MapDemoActivity.onCreate, android.app.Activity.performCreate, android.app.Instrumentation.callActivityOnCreate, android.app.ActivityThread.performLaunchActivity, android.app.ActivityThread.handleLaunchActivity, android.app.ActivityThread.access$800, android.app.ActivityThread$H.handleMessage, android.os.Handler.dispatchMessage, android.os.Looper.loop, android.app.ActivityThread.main, java.lang.reflect.Method.invoke, java.lang.reflect.Method.invoke, com.android.internal.os.ZygoteInit$MethodAndArgsCaller.run, com.android.internal.os.ZygoteInit.main, de.robv.android.xposed.XposedBridge.main
BEFORE android.os.Binder.queryLocalInterface(com.google.android.gms.dynamic.IObjectWrapper), invoked by: dalvik.system.VMStack.getThreadStackTrace, java.lang.Thread.getStackTrace, it.unimib.disco.lta.unimiblogger.MyMethodHook.beforeHookedMethod, de.robv.android.xposed.XposedBridge.handleHookedMethod, android.os.Binder.queryLocalInterface, agbg.dU, cse.onTransact, android.os.Binder.transact, de.robv.android.xposed.XposedBridge.invokeOriginalMethodNative, de.robv.android.xposed.XposedBridge.handleHookedMethod, android.os.Binder.transact, com.google.android.gms.maps.internal.zzc$zza$zza.zzd, com.google.android.gms.maps.internal.zzy.zzaG, com.google.android.gms.maps.MapsInitializer.initialize, com.google.android.gms.maps.SupportMapFragment$zzb.zzxL, com.google.android.gms.maps.SupportMapFragment$zzb.zza, com.google.android.gms.dynamic.zza.zza, com.google.android.gms.dynamic.zza.onCreate, com.google.android.gms.maps.SupportMapFragment.onCreate, android.support.v4.app.Fragment.performCreate, android.support.v4.app.FragmentManagerImpl.moveToState, android.support.v4.app.FragmentManagerImpl.moveToState, android.support.v4.app.FragmentManagerImpl.addFragment, android.support.v4.app.FragmentManagerImpl.onCreateView, android.support.v4.app.FragmentController.onCreateView, android.support.v4.app.FragmentActivity.dispatchFragmentsOnCreateView, android.support.v4.app.BaseFragmentActivityHoneycomb.onCreateView, android.support.v4.app.FragmentActivity.onCreateView, android.view.LayoutInflater.createViewFromTag, android.view.LayoutInflater.rInflate, android.view.LayoutInflater.inflate, de.robv.android.xposed.XposedBridge.invokeOriginalMethodNative, de.robv.android.xposed.XposedBridge.handleHookedMethod, android.view.LayoutInflater.inflate, android.view.LayoutInflater.inflate, android.view.LayoutInflater.inflate, android.support.v7.app.AppCompatDelegateImplV7.setContentView, android.support.v7.app.AppCompatActivity.setContentView, de.robv.android.xposed.XposedBridge.invokeOriginalMethodNative, de.robv.android.xposed.XposedBridge.handleHookedMethod, android.support.v7.app.AppCompatActivity.setContentView, com.example.mapdemo.MapDemoActivity.onCreate, de.robv.android.xposed.XposedBridge.invokeOriginalMethodNative, de.robv.android.xposed.XposedBridge.handleHookedMethod, com.example.mapdemo.MapDemoActivity.onCreate, android.app.Activity.performCreate, android.app.Instrumentation.callActivityOnCreate, android.app.ActivityThread.performLaunchActivity, android.app.ActivityThread.handleLaunchActivity, android.app.ActivityThread.access$800, android.app.ActivityThread$H.handleMessage, android.os.Handler.dispatchMessage, android.os.Looper.loop, android.app.ActivityThread.main, java.lang.reflect.Method.invoke, java.lang.reflect.Method.invoke, com.android.internal.os.ZygoteInit$MethodAndArgsCaller.run, com.android.internal.os.ZygoteInit.main, de.robv.android.xposed.XposedBridge.main
AFTER android.os.Binder.queryLocalInterface, returnValue: com.google.android.gms.dynamic.zze, invoked by: dalvik.system.VMStack.getThreadStackTrace, java.lang.Thread.getStackTrace, it.unimib.disco.lta.unimiblogger.MyMethodHook.beforeHookedMethod, de.robv.android.xposed.XposedBridge.handleHookedMethod, android.os.Binder.queryLocalInterface, agbg.dU, cse.onTransact, android.os.Binder.transact, de.robv.android.xposed.XposedBridge.invokeOriginalMethodNative, de.robv.android.xposed.XposedBridge.handleHookedMethod, android.os.Binder.transact, com.google.android.gms.maps.internal.zzc$zza$zza.zzd, com.google.android.gms.maps.internal.zzy.zzaG, com.google.android.gms.maps.MapsInitializer.initialize, com.google.android.gms.maps.SupportMapFragment$zzb.zzxL, com.google.android.gms.maps.SupportMapFragment$zzb.zza, com.google.android.gms.dynamic.zza.zza, com.google.android.gms.dynamic.zza.onCreate, com.google.android.gms.maps.SupportMapFragment.onCreate, android.support.v4.app.Fragment.performCreate, android.support.v4.app.FragmentManagerImpl.moveToState, android.support.v4.app.FragmentManagerImpl.moveToState, android.support.v4.app.FragmentManagerImpl.addFragment, android.support.v4.app.FragmentManagerImpl.onCreateView, android.support.v4.app.FragmentController.onCreateView, android.support.v4.app.FragmentActivity.dispatchFragmentsOnCreateView, android.support.v4.app.BaseFragmentActivityHoneycomb.onCreateView, android.support.v4.app.FragmentActivity.onCreateView, android.view.LayoutInflater.createViewFromTag, android.view.LayoutInflater.rInflate, android.view.LayoutInflater.inflate, de.robv.android.xposed.XposedBridge.invokeOriginalMethodNative, de.robv.android.xposed.XposedBridge.handleHookedMethod, android.view.LayoutInflater.inflate, android.view.LayoutInflater.inflate, android.view.LayoutInflater.inflate, android.support.v7.app.AppCompatDelegateImplV7.setContentView, android.support.v7.app.AppCompatActivity.setContentView, de.robv.android.xposed.XposedBridge.invokeOriginalMethodNative, de.robv.android.xposed.XposedBridge.handleHookedMethod, android.support.v7.app.AppCompatActivity.setContentView, com.example.mapdemo.MapDemoActivity.onCreate, de.robv.android.xposed.XposedBridge.invokeOriginalMethodNative, de.robv.android.xposed.XposedBridge.handleHookedMethod, com.example.mapdemo.MapDemoActivity.onCreate, android.app.Activity.performCreate, android.app.Instrumentation.callActivityOnCreate, android.app.ActivityThread.performLaunchActivity, android.app.ActivityThread.handleLaunchActivity, android.app.ActivityThread.access$800, android.app.ActivityThread$H.handleMessage, android.os.Handler.dispatchMessage, android.os.Looper.loop, android.app.ActivityThread.main, java.lang.reflect.Method.invoke, java.lang.reflect.Method.invoke, com.android.internal.os.ZygoteInit$MethodAndArgsCaller.run, com.android.internal.os.ZygoteInit.main, de.robv.android.xposed.XposedBridge.main
BEFORE android.os.Binder.queryLocalInterface(com.google.android.gms.dynamic.IObjectWrapper), invoked by: dalvik.system.VMStack.getThreadStackTrace, java.lang.Thread.getStackTrace, it.unimib.disco.lta.unimiblogger.MyMethodHook.beforeHookedMethod, de.robv.android.xposed.XposedBridge.handleHookedMethod, android.os.Binder.queryLocalInterface, agbg.dU, cse.onTransact, android.os.Binder.transact, de.robv.android.xposed.XposedBridge.invokeOriginalMethodNative, de.robv.android.xposed.XposedBridge.handleHookedMethod, android.os.Binder.transact, com.google.android.gms.maps.internal.zzc$zza$zza.zzt, com.google.android.gms.maps.SupportMapFragment$zzb.zzxL, com.google.android.gms.maps.SupportMapFragment$zzb.zza, com.google.android.gms.dynamic.zza.zza, com.google.android.gms.dynamic.zza.onCreate, com.google.android.gms.maps.SupportMapFragment.onCreate, android.support.v4.app.Fragment.performCreate, android.support.v4.app.FragmentManagerImpl.moveToState, android.support.v4.app.FragmentManagerImpl.moveToState, android.support.v4.app.FragmentManagerImpl.addFragment, android.support.v4.app.FragmentManagerImpl.onCreateView, android.support.v4.app.FragmentController.onCreateView, android.support.v4.app.FragmentActivity.dispatchFragmentsOnCreateView, android.support.v4.app.BaseFragmentActivityHoneycomb.onCreateView, android.support.v4.app.FragmentActivity.onCreateView, android.view.LayoutInflater.createViewFromTag, android.view.LayoutInflater.rInflate, android.view.LayoutInflater.inflate, de.robv.android.xposed.XposedBridge.invokeOriginalMethodNative, de.robv.android.xposed.XposedBridge.handleHookedMethod, android.view.LayoutInflater.inflate, android.view.LayoutInflater.inflate, android.view.LayoutInflater.inflate, android.support.v7.app.AppCompatDelegateImplV7.setContentView, android.support.v7.app.AppCompatActivity.setContentView, de.robv.android.xposed.XposedBridge.invokeOriginalMethodNative, de.robv.android.xposed.XposedBridge.handleHookedMethod, android.support.v7.app.AppCompatActivity.setContentView, com.example.mapdemo.MapDemoActivity.onCreate, de.robv.android.xposed.XposedBridge.invokeOriginalMethodNative, de.robv.android.xposed.XposedBridge.handleHookedMethod, com.example.mapdemo.MapDemoActivity.onCreate, android.app.Activity.performCreate, android.app.Instrumentation.callActivityOnCreate, android.app.ActivityThread.performLaunchActivity, android.app.ActivityThread.handleLaunchActivity, android.app.ActivityThread.access$800, android.app.ActivityThread$H.handleMessage, android.os.Handler.dispatchMessage, android.os.Looper.loop, android.app.ActivityThread.main, java.lang.reflect.Method.invoke, java.lang.reflect.Method.invoke, com.android.internal.os.ZygoteInit$MethodAndArgsCaller.run, com.android.internal.os.ZygoteInit.main, de.robv.android.xposed.XposedBridge.main
AFTER android.os.Binder.queryLocalInterface, returnValue: com.google.android.gms.dynamic.zze, invoked by: dalvik.system.VMStack.getThreadStackTrace, java.lang.Thread.getStackTrace, it.unimib.disco.lta.unimiblogger.MyMethodHook.beforeHookedMethod, de.robv.android.xposed.XposedBridge.handleHookedMethod, android.os.Binder.queryLocalInterface, agbg.dU, cse.onTransact, android.os.Binder.transact, de.robv.android.xposed.XposedBridge.invokeOriginalMethodNative, de.robv.android.xposed.XposedBridge.handleHookedMethod, android.os.Binder.transact, com.google.android.gms.maps.internal.zzc$zza$zza.zzt, com.google.android.gms.maps.SupportMapFragment$zzb.zzxL, com.google.android.gms.maps.SupportMapFragment$zzb.zza, com.google.android.gms.dynamic.zza.zza, com.google.android.gms.dynamic.zza.onCreate, com.google.android.gms.maps.SupportMapFragment.onCreate, android.support.v4.app.Fragment.performCreate, android.support.v4.app.FragmentManagerImpl.moveToState, android.support.v4.app.FragmentManagerImpl.moveToState, android.support.v4.app.FragmentManagerImpl.addFragment, android.support.v4.app.FragmentManagerImpl.onCreateView, android.support.v4.app.FragmentController.onCreateView, android.support.v4.app.FragmentActivity.dispatchFragmentsOnCreateView, android.support.v4.app.BaseFragmentActivityHoneycomb.onCreateView, android.support.v4.app.FragmentActivity.onCreateView, android.view.LayoutInflater.createViewFromTag, android.view.LayoutInflater.rInflate, android.view.LayoutInflater.inflate, de.robv.android.xposed.XposedBridge.invokeOriginalMethodNative, de.robv.android.xposed.XposedBridge.handleHookedMethod, android.view.LayoutInflater.inflate, android.view.LayoutInflater.inflate, android.view.LayoutInflater.inflate, android.support.v7.app.AppCompatDelegateImplV7.setContentView, android.support.v7.app.AppCompatActivity.setContentView, de.robv.android.xposed.XposedBridge.invokeOriginalMethodNative, de.robv.android.xposed.XposedBridge.handleHookedMethod, android.support.v7.app.AppCompatActivity.setContentView, com.example.mapdemo.MapDemoActivity.onCreate, de.robv.android.xposed.XposedBridge.invokeOriginalMethodNative, de.robv.android.xposed.XposedBridge.handleHookedMethod, com.example.mapdemo.MapDemoActivity.onCreate, android.app.Activity.performCreate, android.app.Instrumentation.callActivityOnCreate, android.app.ActivityThread.performLaunchActivity, android.app.ActivityThread.handleLaunchActivity, android.app.ActivityThread.access$800, android.app.ActivityThread$H.handleMessage, android.os.Handler.dispatchMessage, android.os.Looper.loop, android.app.ActivityThread.main, java.lang.reflect.Method.invoke, java.lang.reflect.Method.invoke, com.android.internal.os.ZygoteInit$MethodAndArgsCaller.run, com.android.internal.os.ZygoteInit.main, de.robv.android.xposed.XposedBridge.main
BEFORE android.os.Binder.queryLocalInterface(com.google.android.gms.maps.internal.ICreator), invoked by: dalvik.system.VMStack.getThreadStackTrace, java.lang.Thread.getStackTrace, it.unimib.disco.lta.unimiblogger.MyMethodHook.beforeHookedMethod, de.robv.android.xposed.XposedBridge.handleHookedMethod, android.os.Binder.queryLocalInterface, agbg.asInterface, com.google.android.gms.maps.internal.CreatorImpl.d, com.google.android.gms.maps.internal.CreatorImpl.newMapFragmentDelegate, agbg.dU, cse.onTransact, android.os.Binder.transact, de.robv.android.xposed.XposedBridge.invokeOriginalMethodNative, de.robv.android.xposed.XposedBridge.handleHookedMethod, android.os.Binder.transact, com.google.android.gms.maps.internal.zzc$zza$zza.zzt, com.google.android.gms.maps.SupportMapFragment$zzb.zzxL, com.google.android.gms.maps.SupportMapFragment$zzb.zza, com.google.android.gms.dynamic.zza.zza, com.google.android.gms.dynamic.zza.onCreate, com.google.android.gms.maps.SupportMapFragment.onCreate, android.support.v4.app.Fragment.performCreate, android.support.v4.app.FragmentManagerImpl.moveToState, android.support.v4.app.FragmentManagerImpl.moveToState, android.support.v4.app.FragmentManagerImpl.addFragment, android.support.v4.app.FragmentManagerImpl.onCreateView, android.support.v4.app.FragmentController.onCreateView, android.support.v4.app.FragmentActivity.dispatchFragmentsOnCreateView, android.support.v4.app.BaseFragmentActivityHoneycomb.onCreateView, android.support.v4.app.FragmentActivity.onCreateView, android.view.LayoutInflater.createViewFromTag, android.view.LayoutInflater.rInflate, android.view.LayoutInflater.inflate, de.robv.android.xposed.XposedBridge.invokeOriginalMethodNative, de.robv.android.xposed.XposedBridge.handleHookedMethod, android.view.LayoutInflater.inflate, android.view.LayoutInflater.inflate, android.view.LayoutInflater.inflate, android.support.v7.app.AppCompatDelegateImplV7.setContentView, android.support.v7.app.AppCompatActivity.setContentView, de.robv.android.xposed.XposedBridge.invokeOriginalMethodNative, de.robv.android.xposed.XposedBridge.handleHookedMethod, android.support.v7.app.AppCompatActivity.setContentView, com.example.mapdemo.MapDemoActivity.onCreate, de.robv.android.xposed.XposedBridge.invokeOriginalMethodNative, de.robv.android.xposed.XposedBridge.handleHookedMethod, com.example.mapdemo.MapDemoActivity.onCreate, android.app.Activity.performCreate, android.app.Instrumentation.callActivityOnCreate, android.app.ActivityThread.performLaunchActivity, android.app.ActivityThread.handleLaunchActivity, android.app.ActivityThread.access$800, android.app.ActivityThread$H.handleMessage, android.os.Handler.dispatchMessage, android.os.Looper.loop, android.app.ActivityThread.main, java.lang.reflect.Method.invoke, java.lang.reflect.Method.invoke, com.android.internal.os.ZygoteInit$MethodAndArgsCaller.run, com.android.internal.os.ZygoteInit.main, de.robv.android.xposed.XposedBridge.main
AFTER android.os.Binder.queryLocalInterface, returnValue: com.google.android.gms.maps.internal.CreatorImpl, invoked by: dalvik.system.VMStack.getThreadStackTrace, java.lang.Thread.getStackTrace, it.unimib.disco.lta.unimiblogger.MyMethodHook.beforeHookedMethod, de.robv.android.xposed.XposedBridge.handleHookedMethod, android.os.Binder.queryLocalInterface, agbg.asInterface, com.google.android.gms.maps.internal.CreatorImpl.d, com.google.android.gms.maps.internal.CreatorImpl.newMapFragmentDelegate, agbg.dU, cse.onTransact, android.os.Binder.transact, de.robv.android.xposed.XposedBridge.invokeOriginalMethodNative, de.robv.android.xposed.XposedBridge.handleHookedMethod, android.os.Binder.transact, com.google.android.gms.maps.internal.zzc$zza$zza.zzt, com.google.android.gms.maps.SupportMapFragment$zzb.zzxL, com.google.android.gms.maps.SupportMapFragment$zzb.zza, com.google.android.gms.dynamic.zza.zza, com.google.android.gms.dynamic.zza.onCreate, com.google.android.gms.maps.SupportMapFragment.onCreate, android.support.v4.app.Fragment.performCreate, android.support.v4.app.FragmentManagerImpl.moveToState, android.support.v4.app.FragmentManagerImpl.moveToState, android.support.v4.app.FragmentManagerImpl.addFragment, android.support.v4.app.FragmentManagerImpl.onCreateView, android.support.v4.app.FragmentController.onCreateView, android.support.v4.app.FragmentActivity.dispatchFragmentsOnCreateView, android.support.v4.app.BaseFragmentActivityHoneycomb.onCreateView, android.support.v4.app.FragmentActivity.onCreateView, android.view.LayoutInflater.createViewFromTag, android.view.LayoutInflater.rInflate, android.view.LayoutInflater.inflate, de.robv.android.xposed.XposedBridge.invokeOriginalMethodNative, de.robv.android.xposed.XposedBridge.handleHookedMethod, android.view.LayoutInflater.inflate, android.view.LayoutInflater.inflate, android.view.LayoutInflater.inflate, android.support.v7.app.AppCompatDelegateImplV7.setContentView, android.support.v7.app.AppCompatActivity.setContentView, de.robv.android.xposed.XposedBridge.invokeOriginalMethodNative, de.robv.android.xposed.XposedBridge.handleHookedMethod, android.support.v7.app.AppCompatActivity.setContentView, com.example.mapdemo.MapDemoActivity.onCreate, de.robv.android.xposed.XposedBridge.invokeOriginalMethodNative, de.robv.android.xposed.XposedBridge.handleHookedMethod, com.example.mapdemo.MapDemoActivity.onCreate, android.app.Activity.performCreate, android.app.Instrumentation.callActivityOnCreate, android.app.ActivityThread.performLaunchActivity, android.app.ActivityThread.handleLaunchActivity, android.app.ActivityThread.access$800, android.app.ActivityThread$H.handleMessage, android.os.Handler.dispatchMessage, android.os.Looper.loop, android.app.ActivityThread.main, java.lang.reflect.Method.invoke, java.lang.reflect.Method.invoke, com.android.internal.os.ZygoteInit$MethodAndArgsCaller.run, com.android.internal.os.ZygoteInit.main, de.robv.android.xposed.XposedBridge.main
BEFORE android.os.Binder.queryLocalInterface(com.google.android.gms.maps.internal.IMapFragmentDelegate), invoked by: dalvik.system.VMStack.getThreadStackTrace, java.lang.Thread.getStackTrace, it.unimib.disco.lta.unimiblogger.MyMethodHook.beforeHookedMethod, de.robv.android.xposed.XposedBridge.handleHookedMethod, android.os.Binder.queryLocalInterface, agbf.newMapFragmentDelegate, com.google.android.gms.maps.internal.CreatorImpl.newMapFragmentDelegate, agbg.dU, cse.onTransact, android.os.Binder.transact, de.robv.android.xposed.XposedBridge.invokeOriginalMethodNative, de.robv.android.xposed.XposedBridge.handleHookedMethod, android.os.Binder.transact, com.google.android.gms.maps.internal.zzc$zza$zza.zzt, com.google.android.gms.maps.SupportMapFragment$zzb.zzxL, com.google.android.gms.maps.SupportMapFragment$zzb.zza, com.google.android.gms.dynamic.zza.zza, com.google.android.gms.dynamic.zza.onCreate, com.google.android.gms.maps.SupportMapFragment.onCreate, android.support.v4.app.Fragment.performCreate, android.support.v4.app.FragmentManagerImpl.moveToState, android.support.v4.app.FragmentManagerImpl.moveToState, android.support.v4.app.FragmentManagerImpl.addFragment, android.support.v4.app.FragmentManagerImpl.onCreateView, android.support.v4.app.FragmentController.onCreateView, android.support.v4.app.FragmentActivity.dispatchFragmentsOnCreateView, android.support.v4.app.BaseFragmentActivityHoneycomb.onCreateView, android.support.v4.app.FragmentActivity.onCreateView, android.view.LayoutInflater.createViewFromTag, android.view.LayoutInflater.rInflate, android.view.LayoutInflater.inflate, de.robv.android.xposed.XposedBridge.invokeOriginalMethodNative, de.robv.android.xposed.XposedBridge.handleHookedMethod, android.view.LayoutInflater.inflate, android.view.LayoutInflater.inflate, android.view.LayoutInflater.inflate, android.support.v7.app.AppCompatDelegateImplV7.setContentView, android.support.v7.app.AppCompatActivity.setContentView, de.robv.android.xposed.XposedBridge.invokeOriginalMethodNative, de.robv.android.xposed.XposedBridge.handleHookedMethod, android.support.v7.app.AppCompatActivity.setContentView, com.example.mapdemo.MapDemoActivity.onCreate, de.robv.android.xposed.XposedBridge.invokeOriginalMethodNative, de.robv.android.xposed.XposedBridge.handleHookedMethod, com.example.mapdemo.MapDemoActivity.onCreate, android.app.Activity.performCreate, android.app.Instrumentation.callActivityOnCreate, android.app.ActivityThread.performLaunchActivity, android.app.ActivityThread.handleLaunchActivity, android.app.ActivityThread.access$800, android.app.ActivityThread$H.handleMessage, android.os.Handler.dispatchMessage, android.os.Looper.loop, android.app.ActivityThread.main, java.lang.reflect.Method.invoke, java.lang.reflect.Method.invoke, com.android.internal.os.ZygoteInit$MethodAndArgsCaller.run, com.android.internal.os.ZygoteInit.main, de.robv.android.xposed.XposedBridge.main
AFTER android.os.Binder.queryLocalInterface, returnValue: com.google.maps.api.android.lib6.impl.cq, invoked by: dalvik.system.VMStack.getThreadStackTrace, java.lang.Thread.getStackTrace, it.unimib.disco.lta.unimiblogger.MyMethodHook.beforeHookedMethod, de.robv.android.xposed.XposedBridge.handleHookedMethod, android.os.Binder.queryLocalInterface, agbf.newMapFragmentDelegate, com.google.android.gms.maps.internal.CreatorImpl.newMapFragmentDelegate, agbg.dU, cse.onTransact, android.os.Binder.transact, de.robv.android.xposed.XposedBridge.invokeOriginalMethodNative, de.robv.android.xposed.XposedBridge.handleHookedMethod, android.os.Binder.transact, com.google.android.gms.maps.internal.zzc$zza$zza.zzt, com.google.android.gms.maps.SupportMapFragment$zzb.zzxL, com.google.android.gms.maps.SupportMapFragment$zzb.zza, com.google.android.gms.dynamic.zza.zza, com.google.android.gms.dynamic.zza.onCreate, com.google.android.gms.maps.SupportMapFragment.onCreate, android.support.v4.app.Fragment.performCreate, android.support.v4.app.FragmentManagerImpl.moveToState, android.support.v4.app.FragmentManagerImpl.moveToState, android.support.v4.app.FragmentManagerImpl.addFragment, android.support.v4.app.FragmentManagerImpl.onCreateView, android.support.v4.app.FragmentController.onCreateView, android.support.v4.app.FragmentActivity.dispatchFragmentsOnCreateView, android.support.v4.app.BaseFragmentActivityHoneycomb.onCreateView, android.support.v4.app.FragmentActivity.onCreateView, android.view.LayoutInflater.createViewFromTag, android.view.LayoutInflater.rInflate, android.view.LayoutInflater.inflate, de.robv.android.xposed.XposedBridge.invokeOriginalMethodNative, de.robv.android.xposed.XposedBridge.handleHookedMethod, android.view.LayoutInflater.inflate, android.view.LayoutInflater.inflate, android.view.LayoutInflater.inflate, android.support.v7.app.AppCompatDelegateImplV7.setContentView, android.support.v7.app.AppCompatActivity.setContentView, de.robv.android.xposed.XposedBridge.invokeOriginalMethodNative, de.robv.android.xposed.XposedBridge.handleHookedMethod, android.support.v7.app.AppCompatActivity.setContentView, com.example.mapdemo.MapDemoActivity.onCreate, de.robv.android.xposed.XposedBridge.invokeOriginalMethodNative, de.robv.android.xposed.XposedBridge.handleHookedMethod, com.example.mapdemo.MapDemoActivity.onCreate, android.app.Activity.performCreate, android.app.Instrumentation.callActivityOnCreate, android.app.ActivityThread.performLaunchActivity, android.app.ActivityThread.handleLaunchActivity, android.app.ActivityThread.access$800, android.app.ActivityThread$H.handleMessage, android.os.Handler.dispatchMessage, android.os.Looper.loop, android.app.ActivityThread.main, java.lang.reflect.Method.invoke, java.lang.reflect.Method.invoke, com.android.internal.os.ZygoteInit$MethodAndArgsCaller.run, com.android.internal.os.ZygoteInit.main, de.robv.android.xposed.XposedBridge.main
AFTER android.support.v7.app.AppCompatActivity.setContentView, invoked by: dalvik.system.VMStack.getThreadStackTrace, java.lang.Thread.getStackTrace, it.unimib.disco.lta.unimiblogger.MyMethodHook.beforeHookedMethod, de.robv.android.xposed.XposedBridge.handleHookedMethod, android.support.v7.app.AppCompatActivity.setContentView, com.example.mapdemo.MapDemoActivity.onCreate, de.robv.android.xposed.XposedBridge.invokeOriginalMethodNative, de.robv.android.xposed.XposedBridge.handleHookedMethod, com.example.mapdemo.MapDemoActivity.onCreate, android.app.Activity.performCreate, android.app.Instrumentation.callActivityOnCreate, android.app.ActivityThread.performLaunchActivity, android.app.ActivityThread.handleLaunchActivity, android.app.ActivityThread.access$800, android.app.ActivityThread$H.handleMessage, android.os.Handler.dispatchMessage, android.os.Looper.loop, android.app.ActivityThread.main, java.lang.reflect.Method.invoke, java.lang.reflect.Method.invoke, com.android.internal.os.ZygoteInit$MethodAndArgsCaller.run, com.android.internal.os.ZygoteInit.main, de.robv.android.xposed.XposedBridge.main
BEFORE android.support.v4.app.FragmentActivity.getSupportFragmentManager(), invoked by: dalvik.system.VMStack.getThreadStackTrace, java.lang.Thread.getStackTrace, it.unimib.disco.lta.unimiblogger.MyMethodHook.beforeHookedMethod, de.robv.android.xposed.XposedBridge.handleHookedMethod, android.support.v4.app.FragmentActivity.getSupportFragmentManager, com.example.mapdemo.MapDemoActivity.onCreate, de.robv.android.xposed.XposedBridge.invokeOriginalMethodNative, de.robv.android.xposed.XposedBridge.handleHookedMethod, com.example.mapdemo.MapDemoActivity.onCreate, android.app.Activity.performCreate, android.app.Instrumentation.callActivityOnCreate, android.app.ActivityThread.performLaunchActivity, android.app.ActivityThread.handleLaunchActivity, android.app.ActivityThread.access$800, android.app.ActivityThread$H.handleMessage, android.os.Handler.dispatchMessage, android.os.Looper.loop, android.app.ActivityThread.main, java.lang.reflect.Method.invoke, java.lang.reflect.Method.invoke, com.android.internal.os.ZygoteInit$MethodAndArgsCaller.run, com.android.internal.os.ZygoteInit.main, de.robv.android.xposed.XposedBridge.main
AFTER android.support.v4.app.FragmentActivity.getSupportFragmentManager, returnValue: FragmentManager{e01ff9b in HostCallbacks{1f9d3f38}}, invoked by: dalvik.system.VMStack.getThreadStackTrace, java.lang.Thread.getStackTrace, it.unimib.disco.lta.unimiblogger.MyMethodHook.beforeHookedMethod, de.robv.android.xposed.XposedBridge.handleHookedMethod, android.support.v4.app.FragmentActivity.getSupportFragmentManager, com.example.mapdemo.MapDemoActivity.onCreate, de.robv.android.xposed.XposedBridge.invokeOriginalMethodNative, de.robv.android.xposed.XposedBridge.handleHookedMethod, com.example.mapdemo.MapDemoActivity.onCreate, android.app.Activity.performCreate, android.app.Instrumentation.callActivityOnCreate, android.app.ActivityThread.performLaunchActivity, android.app.ActivityThread.handleLaunchActivity, android.app.ActivityThread.access$800, android.app.ActivityThread$H.handleMessage, android.os.Handler.dispatchMessage, android.os.Looper.loop, android.app.ActivityThread.main, java.lang.reflect.Method.invoke, java.lang.reflect.Method.invoke, com.android.internal.os.ZygoteInit$MethodAndArgsCaller.run, com.android.internal.os.ZygoteInit.main, de.robv.android.xposed.XposedBridge.main
BEFORE android.support.v4.app.FragmentManagerImpl.findFragmentById(2131165232), invoked by: dalvik.system.VMStack.getThreadStackTrace, java.lang.Thread.getStackTrace, it.unimib.disco.lta.unimiblogger.MyMethodHook.beforeHookedMethod, de.robv.android.xposed.XposedBridge.handleHookedMethod, android.support.v4.app.FragmentManagerImpl.findFragmentById, com.example.mapdemo.MapDemoActivity.onCreate, de.robv.android.xposed.XposedBridge.invokeOriginalMethodNative, de.robv.android.xposed.XposedBridge.handleHookedMethod, com.example.mapdemo.MapDemoActivity.onCreate, android.app.Activity.performCreate, android.app.Instrumentation.callActivityOnCreate, android.app.ActivityThread.performLaunchActivity, android.app.ActivityThread.handleLaunchActivity, android.app.ActivityThread.access$800, android.app.ActivityThread$H.handleMessage, android.os.Handler.dispatchMessage, android.os.Looper.loop, android.app.ActivityThread.main, java.lang.reflect.Method.invoke, java.lang.reflect.Method.invoke, com.android.internal.os.ZygoteInit$MethodAndArgsCaller.run, com.android.internal.os.ZygoteInit.main, de.robv.android.xposed.XposedBridge.main
AFTER android.support.v4.app.FragmentManagerImpl.findFragmentById, returnValue: SupportMapFragment{3c872b11 #0 id=0x7f070030}, invoked by: dalvik.system.VMStack.getThreadStackTrace, java.lang.Thread.getStackTrace, it.unimib.disco.lta.unimiblogger.MyMethodHook.beforeHookedMethod, de.robv.android.xposed.XposedBridge.handleHookedMethod, android.support.v4.app.FragmentManagerImpl.findFragmentById, com.example.mapdemo.MapDemoActivity.onCreate, de.robv.android.xposed.XposedBridge.invokeOriginalMethodNative, de.robv.android.xposed.XposedBridge.handleHookedMethod, com.example.mapdemo.MapDemoActivity.onCreate, android.app.Activity.performCreate, android.app.Instrumentation.callActivityOnCreate, android.app.ActivityThread.performLaunchActivity, android.app.ActivityThread.handleLaunchActivity, android.app.ActivityThread.access$800, android.app.ActivityThread$H.handleMessage, android.os.Handler.dispatchMessage, android.os.Looper.loop, android.app.ActivityThread.main, java.lang.reflect.Method.invoke, java.lang.reflect.Method.invoke, com.android.internal.os.ZygoteInit$MethodAndArgsCaller.run, com.android.internal.os.ZygoteInit.main, de.robv.android.xposed.XposedBridge.main
BEFORE android.app.Activity.findViewById(2131165240), invoked by: dalvik.system.VMStack.getThreadStackTrace, java.lang.Thread.getStackTrace, it.unimib.disco.lta.unimiblogger.MyMethodHook.beforeHookedMethod, de.robv.android.xposed.XposedBridge.handleHookedMethod, android.app.Activity.findViewById, com.example.mapdemo.MapDemoActivity.onCreate, de.robv.android.xposed.XposedBridge.invokeOriginalMethodNative, de.robv.android.xposed.XposedBridge.handleHookedMethod, com.example.mapdemo.MapDemoActivity.onCreate, android.app.Activity.performCreate, android.app.Instrumentation.callActivityOnCreate, android.app.ActivityThread.performLaunchActivity, android.app.ActivityThread.handleLaunchActivity, android.app.ActivityThread.access$800, android.app.ActivityThread$H.handleMessage, android.os.Handler.dispatchMessage, android.os.Looper.loop, android.app.ActivityThread.main, java.lang.reflect.Method.invoke, java.lang.reflect.Method.invoke, com.android.internal.os.ZygoteInit$MethodAndArgsCaller.run, com.android.internal.os.ZygoteInit.main, de.robv.android.xposed.XposedBridge.main
AFTER android.app.Activity.findViewById, returnValue: android.support.v7.widget.AppCompatButton{19f6fa77 VFED..C. ......I. 0,0-0,0 #7f070038 app:id/posButton}, invoked by: dalvik.system.VMStack.getThreadStackTrace, java.lang.Thread.getStackTrace, it.unimib.disco.lta.unimiblogger.MyMethodHook.beforeHookedMethod, de.robv.android.xposed.XposedBridge.handleHookedMethod, android.app.Activity.findViewById, com.example.mapdemo.MapDemoActivity.onCreate, de.robv.android.xposed.XposedBridge.invokeOriginalMethodNative, de.robv.android.xposed.XposedBridge.handleHookedMethod, com.example.mapdemo.MapDemoActivity.onCreate, android.app.Activity.performCreate, android.app.Instrumentation.callActivityOnCreate, android.app.ActivityThread.performLaunchActivity, android.app.ActivityThread.handleLaunchActivity, android.app.ActivityThread.access$800, android.app.ActivityThread$H.handleMessage, android.os.Handler.dispatchMessage, android.os.Looper.loop, android.app.ActivityThread.main, java.lang.reflect.Method.invoke, java.lang.reflect.Method.invoke, com.android.internal.os.ZygoteInit$MethodAndArgsCaller.run, com.android.internal.os.ZygoteInit.main, de.robv.android.xposed.XposedBridge.main
AFTER com.example.mapdemo.MapDemoActivity.onCreate, invoked by: dalvik.system.VMStack.getThreadStackTrace, java.lang.Thread.getStackTrace, it.unimib.disco.lta.unimiblogger.MyMethodHook.beforeHookedMethod, de.robv.android.xposed.XposedBridge.handleHookedMethod, com.example.mapdemo.MapDemoActivity.onCreate, android.app.Activity.performCreate, android.app.Instrumentation.callActivityOnCreate, android.app.ActivityThread.performLaunchActivity, android.app.ActivityThread.handleLaunchActivity, android.app.ActivityThread.access$800, android.app.ActivityThread$H.handleMessage, android.os.Handler.dispatchMessage, android.os.Looper.loop, android.app.ActivityThread.main, java.lang.reflect.Method.invoke, java.lang.reflect.Method.invoke, com.android.internal.os.ZygoteInit$MethodAndArgsCaller.run, com.android.internal.os.ZygoteInit.main, de.robv.android.xposed.XposedBridge.main
BEFORE com.example.mapdemo.MapDemoActivity.onStart(), invoked by: dalvik.system.VMStack.getThreadStackTrace, java.lang.Thread.getStackTrace, it.unimib.disco.lta.unimiblogger.MyMethodHook.beforeHookedMethod, de.robv.android.xposed.XposedBridge.handleHookedMethod, com.example.mapdemo.MapDemoActivity.onStart, android.app.Instrumentation.callActivityOnStart, android.app.Activity.performStart, android.app.ActivityThread.performLaunchActivity, android.app.ActivityThread.handleLaunchActivity, android.app.ActivityThread.access$800, android.app.ActivityThread$H.handleMessage, android.os.Handler.dispatchMessage, android.os.Looper.loop, android.app.ActivityThread.main, java.lang.reflect.Method.invoke, java.lang.reflect.Method.invoke, com.android.internal.os.ZygoteInit$MethodAndArgsCaller.run, com.android.internal.os.ZygoteInit.main, de.robv.android.xposed.XposedBridge.main
BEFORE android.support.v4.app.FragmentActivity.onStart(), invoked by: dalvik.system.VMStack.getThreadStackTrace, java.lang.Thread.getStackTrace, it.unimib.disco.lta.unimiblogger.MyMethodHook.beforeHookedMethod, de.robv.android.xposed.XposedBridge.handleHookedMethod, android.support.v4.app.FragmentActivity.onStart, com.example.mapdemo.MapDemoActivity.onStart, de.robv.android.xposed.XposedBridge.invokeOriginalMethodNative, de.robv.android.xposed.XposedBridge.handleHookedMethod, com.example.mapdemo.MapDemoActivity.onStart, android.app.Instrumentation.callActivityOnStart, android.app.Activity.performStart, android.app.ActivityThread.performLaunchActivity, android.app.ActivityThread.handleLaunchActivity, android.app.ActivityThread.access$800, android.app.ActivityThread$H.handleMessage, android.os.Handler.dispatchMessage, android.os.Looper.loop, android.app.ActivityThread.main, java.lang.reflect.Method.invoke, java.lang.reflect.Method.invoke, com.android.internal.os.ZygoteInit$MethodAndArgsCaller.run, com.android.internal.os.ZygoteInit.main, de.robv.android.xposed.XposedBridge.main
AFTER android.support.v4.app.FragmentActivity.onStart, invoked by: dalvik.system.VMStack.getThreadStackTrace, java.lang.Thread.getStackTrace, it.unimib.disco.lta.unimiblogger.MyMethodHook.beforeHookedMethod, de.robv.android.xposed.XposedBridge.handleHookedMethod, android.support.v4.app.FragmentActivity.onStart, com.example.mapdemo.MapDemoActivity.onStart, de.robv.android.xposed.XposedBridge.invokeOriginalMethodNative, de.robv.android.xposed.XposedBridge.handleHookedMethod, com.example.mapdemo.MapDemoActivity.onStart, android.app.Instrumentation.callActivityOnStart, android.app.Activity.performStart, android.app.ActivityThread.performLaunchActivity, android.app.ActivityThread.handleLaunchActivity, android.app.ActivityThread.access$800, android.app.ActivityThread$H.handleMessage, android.os.Handler.dispatchMessage, android.os.Looper.loop, android.app.ActivityThread.main, java.lang.reflect.Method.invoke, java.lang.reflect.Method.invoke, com.android.internal.os.ZygoteInit$MethodAndArgsCaller.run, com.android.internal.os.ZygoteInit.main, de.robv.android.xposed.XposedBridge.main
AFTER com.example.mapdemo.MapDemoActivity.onStart, invoked by: dalvik.system.VMStack.getThreadStackTrace, java.lang.Thread.getStackTrace, it.unimib.disco.lta.unimiblogger.MyMethodHook.beforeHookedMethod, de.robv.android.xposed.XposedBridge.handleHookedMethod, com.example.mapdemo.MapDemoActivity.onStart, android.app.Instrumentation.callActivityOnStart, android.app.Activity.performStart, android.app.ActivityThread.performLaunchActivity, android.app.ActivityThread.handleLaunchActivity, android.app.ActivityThread.access$800, android.app.ActivityThread$H.handleMessage, android.os.Handler.dispatchMessage, android.os.Looper.loop, android.app.ActivityThread.main, java.lang.reflect.Method.invoke, java.lang.reflect.Method.invoke, com.android.internal.os.ZygoteInit$MethodAndArgsCaller.run, com.android.internal.os.ZygoteInit.main, de.robv.android.xposed.XposedBridge.main
BEFORE com.example.mapdemo.MapDemoActivity$1.onMapReady(com.google.android.gms.maps.GoogleMap), invoked by: dalvik.system.VMStack.getThreadStackTrace, java.lang.Thread.getStackTrace, it.unimib.disco.lta.unimiblogger.MyMethodHook.beforeHookedMethod, de.robv.android.xposed.XposedBridge.handleHookedMethod, com.example.mapdemo.MapDemoActivity$1.onMapReady, com.google.android.gms.maps.SupportMapFragment$zza$1.zza, com.google.android.gms.maps.internal.zzl$zza.onTransact, android.os.Binder.transact, de.robv.android.xposed.XposedBridge.invokeOriginalMethodNative, de.robv.android.xposed.XposedBridge.handleHookedMethod, android.os.Binder.transact, do.aV, com.google.maps.api.android.lib6.impl.bj.run, android.os.Handler.handleCallback, android.os.Handler.dispatchMessage, android.os.Looper.loop, android.app.ActivityThread.main, java.lang.reflect.Method.invoke, java.lang.reflect.Method.invoke, com.android.internal.os.ZygoteInit$MethodAndArgsCaller.run, com.android.internal.os.ZygoteInit.main, de.robv.android.xposed.XposedBridge.main
BEFORE android.widget.Toast.makeText(com.example.mapdemo.MapDemoActivity,Map Fragment was loaded properly!,0), invoked by: dalvik.system.VMStack.getThreadStackTrace, java.lang.Thread.getStackTrace, it.unimib.disco.lta.unimiblogger.MyMethodHook.beforeHookedMethod, de.robv.android.xposed.XposedBridge.handleHookedMethod, android.widget.Toast.makeText, com.example.mapdemo.MapDemoActivity.loadMap, de.robv.android.xposed.XposedBridge.invokeOriginalMethodNative, de.robv.android.xposed.XposedBridge.handleHookedMethod, com.example.mapdemo.MapDemoActivity.loadMap, com.example.mapdemo.MapDemoActivity$1.onMapReady, de.robv.android.xposed.XposedBridge.invokeOriginalMethodNative, de.robv.android.xposed.XposedBridge.handleHookedMethod, com.example.mapdemo.MapDemoActivity$1.onMapReady, com.google.android.gms.maps.SupportMapFragment$zza$1.zza, com.google.android.gms.maps.internal.zzl$zza.onTransact, android.os.Binder.transact, de.robv.android.xposed.XposedBridge.invokeOriginalMethodNative, de.robv.android.xposed.XposedBridge.handleHookedMethod, android.os.Binder.transact, do.aV, com.google.maps.api.android.lib6.impl.bj.run, android.os.Handler.handleCallback, android.os.Handler.dispatchMessage, android.os.Looper.loop, android.app.ActivityThread.main, java.lang.reflect.Method.invoke, java.lang.reflect.Method.invoke, com.android.internal.os.ZygoteInit$MethodAndArgsCaller.run, com.android.internal.os.ZygoteInit.main, de.robv.android.xposed.XposedBridge.main
AFTER android.widget.Toast.makeText, returnValue: android.widget.Toast, invoked by: dalvik.system.VMStack.getThreadStackTrace, java.lang.Thread.getStackTrace, it.unimib.disco.lta.unimiblogger.MyMethodHook.beforeHookedMethod, de.robv.android.xposed.XposedBridge.handleHookedMethod, android.widget.Toast.makeText, com.example.mapdemo.MapDemoActivity.loadMap, de.robv.android.xposed.XposedBridge.invokeOriginalMethodNative, de.robv.android.xposed.XposedBridge.handleHookedMethod, com.example.mapdemo.MapDemoActivity.loadMap, com.example.mapdemo.MapDemoActivity$1.onMapReady, de.robv.android.xposed.XposedBridge.invokeOriginalMethodNative, de.robv.android.xposed.XposedBridge.handleHookedMethod, com.example.mapdemo.MapDemoActivity$1.onMapReady, com.google.android.gms.maps.SupportMapFragment$zza$1.zza, com.google.android.gms.maps.internal.zzl$zza.onTransact, android.os.Binder.transact, de.robv.android.xposed.XposedBridge.invokeOriginalMethodNative, de.robv.android.xposed.XposedBridge.handleHookedMethod, android.os.Binder.transact, do.aV, com.google.maps.api.android.lib6.impl.bj.run, android.os.Handler.handleCallback, android.os.Handler.dispatchMessage, android.os.Looper.loop, android.app.ActivityThread.main, java.lang.reflect.Method.invoke, java.lang.reflect.Method.invoke, com.android.internal.os.ZygoteInit$MethodAndArgsCaller.run, com.android.internal.os.ZygoteInit.main, de.robv.android.xposed.XposedBridge.main
BEFORE android.widget.Toast.show(), invoked by: dalvik.system.VMStack.getThreadStackTrace, java.lang.Thread.getStackTrace, it.unimib.disco.lta.unimiblogger.MyMethodHook.beforeHookedMethod, de.robv.android.xposed.XposedBridge.handleHookedMethod, android.widget.Toast.show, com.example.mapdemo.MapDemoActivity.loadMap, de.robv.android.xposed.XposedBridge.invokeOriginalMethodNative, de.robv.android.xposed.XposedBridge.handleHookedMethod, com.example.mapdemo.MapDemoActivity.loadMap, com.example.mapdemo.MapDemoActivity$1.onMapReady, de.robv.android.xposed.XposedBridge.invokeOriginalMethodNative, de.robv.android.xposed.XposedBridge.handleHookedMethod, com.example.mapdemo.MapDemoActivity$1.onMapReady, com.google.android.gms.maps.SupportMapFragment$zza$1.zza, com.google.android.gms.maps.internal.zzl$zza.onTransact, android.os.Binder.transact, de.robv.android.xposed.XposedBridge.invokeOriginalMethodNative, de.robv.android.xposed.XposedBridge.handleHookedMethod, android.os.Binder.transact, do.aV, com.google.maps.api.android.lib6.impl.bj.run, android.os.Handler.handleCallback, android.os.Handler.dispatchMessage, android.os.Looper.loop, android.app.ActivityThread.main, java.lang.reflect.Method.invoke, java.lang.reflect.Method.invoke, com.android.internal.os.ZygoteInit$MethodAndArgsCaller.run, com.android.internal.os.ZygoteInit.main, de.robv.android.xposed.XposedBridge.main
AFTER android.widget.Toast.show, invoked by: dalvik.system.VMStack.getThreadStackTrace, java.lang.Thread.getStackTrace, it.unimib.disco.lta.unimiblogger.MyMethodHook.beforeHookedMethod, de.robv.android.xposed.XposedBridge.handleHookedMethod, android.widget.Toast.show, com.example.mapdemo.MapDemoActivity.loadMap, de.robv.android.xposed.XposedBridge.invokeOriginalMethodNative, de.robv.android.xposed.XposedBridge.handleHookedMethod, com.example.mapdemo.MapDemoActivity.loadMap, com.example.mapdemo.MapDemoActivity$1.onMapReady, de.robv.android.xposed.XposedBridge.invokeOriginalMethodNative, de.robv.android.xposed.XposedBridge.handleHookedMethod, com.example.mapdemo.MapDemoActivity$1.onMapReady, com.google.android.gms.maps.SupportMapFragment$zza$1.zza, com.google.android.gms.maps.internal.zzl$zza.onTransact, android.os.Binder.transact, de.robv.android.xposed.XposedBridge.invokeOriginalMethodNative, de.robv.android.xposed.XposedBridge.handleHookedMethod, android.os.Binder.transact, do.aV, com.google.maps.api.android.lib6.impl.bj.run, android.os.Handler.handleCallback, android.os.Handler.dispatchMessage, android.os.Looper.loop, android.app.ActivityThread.main, java.lang.reflect.Method.invoke, java.lang.reflect.Method.invoke, com.android.internal.os.ZygoteInit$MethodAndArgsCaller.run, com.android.internal.os.ZygoteInit.main, de.robv.android.xposed.XposedBridge.main
AFTER com.example.mapdemo.MapDemoActivity$1.onMapReady, invoked by: dalvik.system.VMStack.getThreadStackTrace, java.lang.Thread.getStackTrace, it.unimib.disco.lta.unimiblogger.MyMethodHook.beforeHookedMethod, de.robv.android.xposed.XposedBridge.handleHookedMethod, com.example.mapdemo.MapDemoActivity$1.onMapReady, com.google.android.gms.maps.SupportMapFragment$zza$1.zza, com.google.android.gms.maps.internal.zzl$zza.onTransact, android.os.Binder.transact, de.robv.android.xposed.XposedBridge.invokeOriginalMethodNative, de.robv.android.xposed.XposedBridge.handleHookedMethod, android.os.Binder.transact, do.aV, com.google.maps.api.android.lib6.impl.bj.run, android.os.Handler.handleCallback, android.os.Handler.dispatchMessage, android.os.Looper.loop, android.app.ActivityThread.main, java.lang.reflect.Method.invoke, java.lang.reflect.Method.invoke, com.android.internal.os.ZygoteInit$MethodAndArgsCaller.run, com.android.internal.os.ZygoteInit.main, de.robv.android.xposed.XposedBridge.main
BEFORE com.example.mapdemo.MapDemoActivity.onConnected(), invoked by: dalvik.system.VMStack.getThreadStackTrace, java.lang.Thread.getStackTrace, it.unimib.disco.lta.unimiblogger.MyMethodHook.beforeHookedMethod, de.robv.android.xposed.XposedBridge.handleHookedMethod, com.example.mapdemo.MapDemoActivity.onConnected, com.google.android.gms.common.internal.zzk.zzh, com.google.android.gms.internal.zzlg.zznU, com.google.android.gms.internal.zzlg.onConnected, com.google.android.gms.internal.zzli$2.onConnected, com.google.android.gms.common.internal.zzj$zzg.zzpf, com.google.android.gms.common.internal.zzj$zza.zzc, com.google.android.gms.common.internal.zzj$zza.zzt, com.google.android.gms.common.internal.zzj$zzc.zzph, com.google.android.gms.common.internal.zzj$zzb.handleMessage, android.os.Handler.dispatchMessage, android.os.Looper.loop, android.app.ActivityThread.main, java.lang.reflect.Method.invoke, java.lang.reflect.Method.invoke, com.android.internal.os.ZygoteInit$MethodAndArgsCaller.run, com.android.internal.os.ZygoteInit.main, de.robv.android.xposed.XposedBridge.main
BEFORE android.widget.Toast.makeText(com.example.mapdemo.MapDemoActivity,GPS location was found!,0), invoked by: dalvik.system.VMStack.getThreadStackTrace, java.lang.Thread.getStackTrace, it.unimib.disco.lta.unimiblogger.MyMethodHook.beforeHookedMethod, de.robv.android.xposed.XposedBridge.handleHookedMethod, android.widget.Toast.makeText, com.example.mapdemo.MapDemoActivity.onConnected, de.robv.android.xposed.XposedBridge.invokeOriginalMethodNative, de.robv.android.xposed.XposedBridge.handleHookedMethod, com.example.mapdemo.MapDemoActivity.onConnected, com.google.android.gms.common.internal.zzk.zzh, com.google.android.gms.internal.zzlg.zznU, com.google.android.gms.internal.zzlg.onConnected, com.google.android.gms.internal.zzli$2.onConnected, com.google.android.gms.common.internal.zzj$zzg.zzpf, com.google.android.gms.common.internal.zzj$zza.zzc, com.google.android.gms.common.internal.zzj$zza.zzt, com.google.android.gms.common.internal.zzj$zzc.zzph, com.google.android.gms.common.internal.zzj$zzb.handleMessage, android.os.Handler.dispatchMessage, android.os.Looper.loop, android.app.ActivityThread.main, java.lang.reflect.Method.invoke, java.lang.reflect.Method.invoke, com.android.internal.os.ZygoteInit$MethodAndArgsCaller.run, com.android.internal.os.ZygoteInit.main, de.robv.android.xposed.XposedBridge.main
AFTER android.widget.Toast.makeText, returnValue: android.widget.Toast, invoked by: dalvik.system.VMStack.getThreadStackTrace, java.lang.Thread.getStackTrace, it.unimib.disco.lta.unimiblogger.MyMethodHook.beforeHookedMethod, de.robv.android.xposed.XposedBridge.handleHookedMethod, android.widget.Toast.makeText, com.example.mapdemo.MapDemoActivity.onConnected, de.robv.android.xposed.XposedBridge.invokeOriginalMethodNative, de.robv.android.xposed.XposedBridge.handleHookedMethod, com.example.mapdemo.MapDemoActivity.onConnected, com.google.android.gms.common.internal.zzk.zzh, com.google.android.gms.internal.zzlg.zznU, com.google.android.gms.internal.zzlg.onConnected, com.google.android.gms.internal.zzli$2.onConnected, com.google.android.gms.common.internal.zzj$zzg.zzpf, com.google.android.gms.common.internal.zzj$zza.zzc, com.google.android.gms.common.internal.zzj$zza.zzt, com.google.android.gms.common.internal.zzj$zzc.zzph, com.google.android.gms.common.internal.zzj$zzb.handleMessage, android.os.Handler.dispatchMessage, android.os.Looper.loop, android.app.ActivityThread.main, java.lang.reflect.Method.invoke, java.lang.reflect.Method.invoke, com.android.internal.os.ZygoteInit$MethodAndArgsCaller.run, com.android.internal.os.ZygoteInit.main, de.robv.android.xposed.XposedBridge.main
BEFORE android.widget.Toast.show(), invoked by: dalvik.system.VMStack.getThreadStackTrace, java.lang.Thread.getStackTrace, it.unimib.disco.lta.unimiblogger.MyMethodHook.beforeHookedMethod, de.robv.android.xposed.XposedBridge.handleHookedMethod, android.widget.Toast.show, com.example.mapdemo.MapDemoActivity.onConnected, de.robv.android.xposed.XposedBridge.invokeOriginalMethodNative, de.robv.android.xposed.XposedBridge.handleHookedMethod, com.example.mapdemo.MapDemoActivity.onConnected, com.google.android.gms.common.internal.zzk.zzh, com.google.android.gms.internal.zzlg.zznU, com.google.android.gms.internal.zzlg.onConnected, com.google.android.gms.internal.zzli$2.onConnected, com.google.android.gms.common.internal.zzj$zzg.zzpf, com.google.android.gms.common.internal.zzj$zza.zzc, com.google.android.gms.common.internal.zzj$zza.zzt, com.google.android.gms.common.internal.zzj$zzc.zzph, com.google.android.gms.common.internal.zzj$zzb.handleMessage, android.os.Handler.dispatchMessage, android.os.Looper.loop, android.app.ActivityThread.main, java.lang.reflect.Method.invoke, java.lang.reflect.Method.invoke, com.android.internal.os.ZygoteInit$MethodAndArgsCaller.run, com.android.internal.os.ZygoteInit.main, de.robv.android.xposed.XposedBridge.main
AFTER android.widget.Toast.show, invoked by: dalvik.system.VMStack.getThreadStackTrace, java.lang.Thread.getStackTrace, it.unimib.disco.lta.unimiblogger.MyMethodHook.beforeHookedMethod, de.robv.android.xposed.XposedBridge.handleHookedMethod, android.widget.Toast.show, com.example.mapdemo.MapDemoActivity.onConnected, de.robv.android.xposed.XposedBridge.invokeOriginalMethodNative, de.robv.android.xposed.XposedBridge.handleHookedMethod, com.example.mapdemo.MapDemoActivity.onConnected, com.google.android.gms.common.internal.zzk.zzh, com.google.android.gms.internal.zzlg.zznU, com.google.android.gms.internal.zzlg.onConnected, com.google.android.gms.internal.zzli$2.onConnected, com.google.android.gms.common.internal.zzj$zzg.zzpf, com.google.android.gms.common.internal.zzj$zza.zzc, com.google.android.gms.common.internal.zzj$zza.zzt, com.google.android.gms.common.internal.zzj$zzc.zzph, com.google.android.gms.common.internal.zzj$zzb.handleMessage, android.os.Handler.dispatchMessage, android.os.Looper.loop, android.app.ActivityThread.main, java.lang.reflect.Method.invoke, java.lang.reflect.Method.invoke, com.android.internal.os.ZygoteInit$MethodAndArgsCaller.run, com.android.internal.os.ZygoteInit.main, de.robv.android.xposed.XposedBridge.main
BEFORE android.location.Location.getLatitude(), invoked by: dalvik.system.VMStack.getThreadStackTrace, java.lang.Thread.getStackTrace, it.unimib.disco.lta.unimiblogger.MyMethodHook.beforeHookedMethod, de.robv.android.xposed.XposedBridge.handleHookedMethod, android.location.Location.getLatitude, com.example.mapdemo.MapDemoActivity.onConnected, de.robv.android.xposed.XposedBridge.invokeOriginalMethodNative, de.robv.android.xposed.XposedBridge.handleHookedMethod, com.example.mapdemo.MapDemoActivity.onConnected, com.google.android.gms.common.internal.zzk.zzh, com.google.android.gms.internal.zzlg.zznU, com.google.android.gms.internal.zzlg.onConnected, com.google.android.gms.internal.zzli$2.onConnected, com.google.android.gms.common.internal.zzj$zzg.zzpf, com.google.android.gms.common.internal.zzj$zza.zzc, com.google.android.gms.common.internal.zzj$zza.zzt, com.google.android.gms.common.internal.zzj$zzc.zzph, com.google.android.gms.common.internal.zzj$zzb.handleMessage, android.os.Handler.dispatchMessage, android.os.Looper.loop, android.app.ActivityThread.main, java.lang.reflect.Method.invoke, java.lang.reflect.Method.invoke, com.android.internal.os.ZygoteInit$MethodAndArgsCaller.run, com.android.internal.os.ZygoteInit.main, de.robv.android.xposed.XposedBridge.main
AFTER android.location.Location.getLatitude, returnValue: 0.0, invoked by: dalvik.system.VMStack.getThreadStackTrace, java.lang.Thread.getStackTrace, it.unimib.disco.lta.unimiblogger.MyMethodHook.beforeHookedMethod, de.robv.android.xposed.XposedBridge.handleHookedMethod, android.location.Location.getLatitude, com.example.mapdemo.MapDemoActivity.onConnected, de.robv.android.xposed.XposedBridge.invokeOriginalMethodNative, de.robv.android.xposed.XposedBridge.handleHookedMethod, com.example.mapdemo.MapDemoActivity.onConnected, com.google.android.gms.common.internal.zzk.zzh, com.google.android.gms.internal.zzlg.zznU, com.google.android.gms.internal.zzlg.onConnected, com.google.android.gms.internal.zzli$2.onConnected, com.google.android.gms.common.internal.zzj$zzg.zzpf, com.google.android.gms.common.internal.zzj$zza.zzc, com.google.android.gms.common.internal.zzj$zza.zzt, com.google.android.gms.common.internal.zzj$zzc.zzph, com.google.android.gms.common.internal.zzj$zzb.handleMessage, android.os.Handler.dispatchMessage, android.os.Looper.loop, android.app.ActivityThread.main, java.lang.reflect.Method.invoke, java.lang.reflect.Method.invoke, com.android.internal.os.ZygoteInit$MethodAndArgsCaller.run, com.android.internal.os.ZygoteInit.main, de.robv.android.xposed.XposedBridge.main
BEFORE android.location.Location.getLongitude(), invoked by: dalvik.system.VMStack.getThreadStackTrace, java.lang.Thread.getStackTrace, it.unimib.disco.lta.unimiblogger.MyMethodHook.beforeHookedMethod, de.robv.android.xposed.XposedBridge.handleHookedMethod, android.location.Location.getLongitude, com.example.mapdemo.MapDemoActivity.onConnected, de.robv.android.xposed.XposedBridge.invokeOriginalMethodNative, de.robv.android.xposed.XposedBridge.handleHookedMethod, com.example.mapdemo.MapDemoActivity.onConnected, com.google.android.gms.common.internal.zzk.zzh, com.google.android.gms.internal.zzlg.zznU, com.google.android.gms.internal.zzlg.onConnected, com.google.android.gms.internal.zzli$2.onConnected, com.google.android.gms.common.internal.zzj$zzg.zzpf, com.google.android.gms.common.internal.zzj$zza.zzc, com.google.android.gms.common.internal.zzj$zza.zzt, com.google.android.gms.common.internal.zzj$zzc.zzph, com.google.android.gms.common.internal.zzj$zzb.handleMessage, android.os.Handler.dispatchMessage, android.os.Looper.loop, android.app.ActivityThread.main, java.lang.reflect.Method.invoke, java.lang.reflect.Method.invoke, com.android.internal.os.ZygoteInit$MethodAndArgsCaller.run, com.android.internal.os.ZygoteInit.main, de.robv.android.xposed.XposedBridge.main
AFTER android.location.Location.getLongitude, returnValue: 0.0, invoked by: dalvik.system.VMStack.getThreadStackTrace, java.lang.Thread.getStackTrace, it.unimib.disco.lta.unimiblogger.MyMethodHook.beforeHookedMethod, de.robv.android.xposed.XposedBridge.handleHookedMethod, android.location.Location.getLongitude, com.example.mapdemo.MapDemoActivity.onConnected, de.robv.android.xposed.XposedBridge.invokeOriginalMethodNative, de.robv.android.xposed.XposedBridge.handleHookedMethod, com.example.mapdemo.MapDemoActivity.onConnected, com.google.android.gms.common.internal.zzk.zzh, com.google.android.gms.internal.zzlg.zznU, com.google.android.gms.internal.zzlg.onConnected, com.google.android.gms.internal.zzli$2.onConnected, com.google.android.gms.common.internal.zzj$zzg.zzpf, com.google.android.gms.common.internal.zzj$zza.zzc, com.google.android.gms.common.internal.zzj$zza.zzt, com.google.android.gms.common.internal.zzj$zzc.zzph, com.google.android.gms.common.internal.zzj$zzb.handleMessage, android.os.Handler.dispatchMessage, android.os.Looper.loop, android.app.ActivityThread.main, java.lang.reflect.Method.invoke, java.lang.reflect.Method.invoke, com.android.internal.os.ZygoteInit$MethodAndArgsCaller.run, com.android.internal.os.ZygoteInit.main, de.robv.android.xposed.XposedBridge.main
BEFORE android.os.Binder.queryLocalInterface(com.google.android.gms.maps.internal.ICameraUpdateFactoryDelegate), invoked by: dalvik.system.VMStack.getThreadStackTrace, java.lang.Thread.getStackTrace, it.unimib.disco.lta.unimiblogger.MyMethodHook.beforeHookedMethod, de.robv.android.xposed.XposedBridge.handleHookedMethod, android.os.Binder.queryLocalInterface, agbf.newCameraUpdateFactoryDelegate, agay.b, com.google.android.gms.maps.internal.CreatorImpl.c, agbc.m, agbc.dU, cse.onTransact, android.os.Binder.transact, de.robv.android.xposed.XposedBridge.invokeOriginalMethodNative, de.robv.android.xposed.XposedBridge.handleHookedMethod, android.os.Binder.transact, com.google.android.gms.maps.internal.ICameraUpdateFactoryDelegate$zza$zza.newLatLngZoom, com.google.android.gms.maps.CameraUpdateFactory.newLatLngZoom, com.example.mapdemo.MapDemoActivity.onConnected, de.robv.android.xposed.XposedBridge.invokeOriginalMethodNative, de.robv.android.xposed.XposedBridge.handleHookedMethod, com.example.mapdemo.MapDemoActivity.onConnected, com.google.android.gms.common.internal.zzk.zzh, com.google.android.gms.internal.zzlg.zznU, com.google.android.gms.internal.zzlg.onConnected, com.google.android.gms.internal.zzli$2.onConnected, com.google.android.gms.common.internal.zzj$zzg.zzpf, com.google.android.gms.common.internal.zzj$zza.zzc, com.google.android.gms.common.internal.zzj$zza.zzt, com.google.android.gms.common.internal.zzj$zzc.zzph, com.google.android.gms.common.internal.zzj$zzb.handleMessage, android.os.Handler.dispatchMessage, android.os.Looper.loop, android.app.ActivityThread.main, java.lang.reflect.Method.invoke, java.lang.reflect.Method.invoke, com.android.internal.os.ZygoteInit$MethodAndArgsCaller.run, com.android.internal.os.ZygoteInit.main, de.robv.android.xposed.XposedBridge.main
AFTER android.os.Binder.queryLocalInterface, returnValue: com.google.maps.api.android.lib6.impl.an, invoked by: dalvik.system.VMStack.getThreadStackTrace, java.lang.Thread.getStackTrace, it.unimib.disco.lta.unimiblogger.MyMethodHook.beforeHookedMethod, de.robv.android.xposed.XposedBridge.handleHookedMethod, android.os.Binder.queryLocalInterface, agbf.newCameraUpdateFactoryDelegate, agay.b, com.google.android.gms.maps.internal.CreatorImpl.c, agbc.m, agbc.dU, cse.onTransact, android.os.Binder.transact, de.robv.android.xposed.XposedBridge.invokeOriginalMethodNative, de.robv.android.xposed.XposedBridge.handleHookedMethod, android.os.Binder.transact, com.google.android.gms.maps.internal.ICameraUpdateFactoryDelegate$zza$zza.newLatLngZoom, com.google.android.gms.maps.CameraUpdateFactory.newLatLngZoom, com.example.mapdemo.MapDemoActivity.onConnected, de.robv.android.xposed.XposedBridge.invokeOriginalMethodNative, de.robv.android.xposed.XposedBridge.handleHookedMethod, com.example.mapdemo.MapDemoActivity.onConnected, com.google.android.gms.common.internal.zzk.zzh, com.google.android.gms.internal.zzlg.zznU, com.google.android.gms.internal.zzlg.onConnected, com.google.android.gms.internal.zzli$2.onConnected, com.google.android.gms.common.internal.zzj$zzg.zzpf, com.google.android.gms.common.internal.zzj$zza.zzc, com.google.android.gms.common.internal.zzj$zza.zzt, com.google.android.gms.common.internal.zzj$zzc.zzph, com.google.android.gms.common.internal.zzj$zzb.handleMessage, android.os.Handler.dispatchMessage, android.os.Looper.loop, android.app.ActivityThread.main, java.lang.reflect.Method.invoke, java.lang.reflect.Method.invoke, com.android.internal.os.ZygoteInit$MethodAndArgsCaller.run, com.android.internal.os.ZygoteInit.main, de.robv.android.xposed.XposedBridge.main
BEFORE android.os.Binder.queryLocalInterface(com.google.android.gms.dynamic.IObjectWrapper), invoked by: dalvik.system.VMStack.getThreadStackTrace, java.lang.Thread.getStackTrace, it.unimib.disco.lta.unimiblogger.MyMethodHook.beforeHookedMethod, de.robv.android.xposed.XposedBridge.handleHookedMethod, android.os.Binder.queryLocalInterface, agbb.m, agax.a, agay.b, com.google.android.gms.maps.internal.CreatorImpl.c, agbc.m, agbc.dU, cse.onTransact, android.os.Binder.transact, de.robv.android.xposed.XposedBridge.invokeOriginalMethodNative, de.robv.android.xposed.XposedBridge.handleHookedMethod, android.os.Binder.transact, com.google.android.gms.maps.internal.ICameraUpdateFactoryDelegate$zza$zza.newLatLngZoom, com.google.android.gms.maps.CameraUpdateFactory.newLatLngZoom, com.example.mapdemo.MapDemoActivity.onConnected, de.robv.android.xposed.XposedBridge.invokeOriginalMethodNative, de.robv.android.xposed.XposedBridge.handleHookedMethod, com.example.mapdemo.MapDemoActivity.onConnected, com.google.android.gms.common.internal.zzk.zzh, com.google.android.gms.internal.zzlg.zznU, com.google.android.gms.internal.zzlg.onConnected, com.google.android.gms.internal.zzli$2.onConnected, com.google.android.gms.common.internal.zzj$zzg.zzpf, com.google.android.gms.common.internal.zzj$zza.zzc, com.google.android.gms.common.internal.zzj$zza.zzt, com.google.android.gms.common.internal.zzj$zzc.zzph, com.google.android.gms.common.internal.zzj$zzb.handleMessage, android.os.Handler.dispatchMessage, android.os.Looper.loop, android.app.ActivityThread.main, java.lang.reflect.Method.invoke, java.lang.reflect.Method.invoke, com.android.internal.os.ZygoteInit$MethodAndArgsCaller.run, com.android.internal.os.ZygoteInit.main, de.robv.android.xposed.XposedBridge.main
AFTER android.os.Binder.queryLocalInterface, returnValue: com.google.android.gms.dynamic.ObjectWrapper, invoked by: dalvik.system.VMStack.getThreadStackTrace, java.lang.Thread.getStackTrace, it.unimib.disco.lta.unimiblogger.MyMethodHook.beforeHookedMethod, de.robv.android.xposed.XposedBridge.handleHookedMethod, android.os.Binder.queryLocalInterface, agbb.m, agax.a, agay.b, com.google.android.gms.maps.internal.CreatorImpl.c, agbc.m, agbc.dU, cse.onTransact, android.os.Binder.transact, de.robv.android.xposed.XposedBridge.invokeOriginalMethodNative, de.robv.android.xposed.XposedBridge.handleHookedMethod, android.os.Binder.transact, com.google.android.gms.maps.internal.ICameraUpdateFactoryDelegate$zza$zza.newLatLngZoom, com.google.android.gms.maps.CameraUpdateFactory.newLatLngZoom, com.example.mapdemo.MapDemoActivity.onConnected, de.robv.android.xposed.XposedBridge.invokeOriginalMethodNative, de.robv.android.xposed.XposedBridge.handleHookedMethod, com.example.mapdemo.MapDemoActivity.onConnected, com.google.android.gms.common.internal.zzk.zzh, com.google.android.gms.internal.zzlg.zznU, com.google.android.gms.internal.zzlg.onConnected, com.google.android.gms.internal.zzli$2.onConnected, com.google.android.gms.common.internal.zzj$zzg.zzpf, com.google.android.gms.common.internal.zzj$zza.zzc, com.google.android.gms.common.internal.zzj$zza.zzt, com.google.android.gms.common.internal.zzj$zzc.zzph, com.google.android.gms.common.internal.zzj$zzb.handleMessage, android.os.Handler.dispatchMessage, android.os.Looper.loop, android.app.ActivityThread.main, java.lang.reflect.Method.invoke, java.lang.reflect.Method.invoke, com.android.internal.os.ZygoteInit$MethodAndArgsCaller.run, com.android.internal.os.ZygoteInit.main, de.robv.android.xposed.XposedBridge.main
AFTER com.example.mapdemo.MapDemoActivity.onConnected, invoked by: dalvik.system.VMStack.getThreadStackTrace, java.lang.Thread.getStackTrace, it.unimib.disco.lta.unimiblogger.MyMethodHook.beforeHookedMethod, de.robv.android.xposed.XposedBridge.handleHookedMethod, com.example.mapdemo.MapDemoActivity.onConnected, com.google.android.gms.common.internal.zzk.zzh, com.google.android.gms.internal.zzlg.zznU, com.google.android.gms.internal.zzlg.onConnected, com.google.android.gms.internal.zzli$2.onConnected, com.google.android.gms.common.internal.zzj$zzg.zzpf, com.google.android.gms.common.internal.zzj$zza.zzc, com.google.android.gms.common.internal.zzj$zza.zzt, com.google.android.gms.common.internal.zzj$zzc.zzph, com.google.android.gms.common.internal.zzj$zzb.handleMessage, android.os.Handler.dispatchMessage, android.os.Looper.loop, android.app.ActivityThread.main, java.lang.reflect.Method.invoke, java.lang.reflect.Method.invoke, com.android.internal.os.ZygoteInit$MethodAndArgsCaller.run, com.android.internal.os.ZygoteInit.main, de.robv.android.xposed.XposedBridge.main
BEFORE com.example.mapdemo.MapDemoActivity$2.onClick(android.support.v7.widget.AppCompatButton), invoked by: dalvik.system.VMStack.getThreadStackTrace, java.lang.Thread.getStackTrace, it.unimib.disco.lta.unimiblogger.MyMethodHook.beforeHookedMethod, de.robv.android.xposed.XposedBridge.handleHookedMethod, com.example.mapdemo.MapDemoActivity$2.onClick, android.view.View.performClick, android.view.View$PerformClick.run, android.os.Handler.handleCallback, android.os.Handler.dispatchMessage, android.os.Looper.loop, android.app.ActivityThread.main, java.lang.reflect.Method.invoke, java.lang.reflect.Method.invoke, com.android.internal.os.ZygoteInit$MethodAndArgsCaller.run, com.android.internal.os.ZygoteInit.main, de.robv.android.xposed.XposedBridge.main
BEFORE android.content.ContextWrapper.getApplicationContext(), invoked by: dalvik.system.VMStack.getThreadStackTrace, java.lang.Thread.getStackTrace, it.unimib.disco.lta.unimiblogger.MyMethodHook.beforeHookedMethod, de.robv.android.xposed.XposedBridge.handleHookedMethod, android.content.ContextWrapper.getApplicationContext, com.example.mapdemo.MapDemoActivity$2.onClick, de.robv.android.xposed.XposedBridge.invokeOriginalMethodNative, de.robv.android.xposed.XposedBridge.handleHookedMethod, com.example.mapdemo.MapDemoActivity$2.onClick, android.view.View.performClick, android.view.View$PerformClick.run, android.os.Handler.handleCallback, android.os.Handler.dispatchMessage, android.os.Looper.loop, android.app.ActivityThread.main, java.lang.reflect.Method.invoke, java.lang.reflect.Method.invoke, com.android.internal.os.ZygoteInit$MethodAndArgsCaller.run, com.android.internal.os.ZygoteInit.main, de.robv.android.xposed.XposedBridge.main
AFTER android.content.ContextWrapper.getApplicationContext, returnValue: android.app.Application, invoked by: dalvik.system.VMStack.getThreadStackTrace, java.lang.Thread.getStackTrace, it.unimib.disco.lta.unimiblogger.MyMethodHook.beforeHookedMethod, de.robv.android.xposed.XposedBridge.handleHookedMethod, android.content.ContextWrapper.getApplicationContext, com.example.mapdemo.MapDemoActivity$2.onClick, de.robv.android.xposed.XposedBridge.invokeOriginalMethodNative, de.robv.android.xposed.XposedBridge.handleHookedMethod, com.example.mapdemo.MapDemoActivity$2.onClick, android.view.View.performClick, android.view.View$PerformClick.run, android.os.Handler.handleCallback, android.os.Handler.dispatchMessage, android.os.Looper.loop, android.app.ActivityThread.main, java.lang.reflect.Method.invoke, java.lang.reflect.Method.invoke, com.android.internal.os.ZygoteInit$MethodAndArgsCaller.run, com.android.internal.os.ZygoteInit.main, de.robv.android.xposed.XposedBridge.main
BEFORE android.location.Location.getLatitude(), invoked by: dalvik.system.VMStack.getThreadStackTrace, java.lang.Thread.getStackTrace, it.unimib.disco.lta.unimiblogger.MyMethodHook.beforeHookedMethod, de.robv.android.xposed.XposedBridge.handleHookedMethod, android.location.Location.getLatitude, com.example.mapdemo.MapDemoActivity$2.onClick, de.robv.android.xposed.XposedBridge.invokeOriginalMethodNative, de.robv.android.xposed.XposedBridge.handleHookedMethod, com.example.mapdemo.MapDemoActivity$2.onClick, android.view.View.performClick, android.view.View$PerformClick.run, android.os.Handler.handleCallback, android.os.Handler.dispatchMessage, android.os.Looper.loop, android.app.ActivityThread.main, java.lang.reflect.Method.invoke, java.lang.reflect.Method.invoke, com.android.internal.os.ZygoteInit$MethodAndArgsCaller.run, com.android.internal.os.ZygoteInit.main, de.robv.android.xposed.XposedBridge.main
AFTER android.location.Location.getLatitude, returnValue: 0.0, invoked by: dalvik.system.VMStack.getThreadStackTrace, java.lang.Thread.getStackTrace, it.unimib.disco.lta.unimiblogger.MyMethodHook.beforeHookedMethod, de.robv.android.xposed.XposedBridge.handleHookedMethod, android.location.Location.getLatitude, com.example.mapdemo.MapDemoActivity$2.onClick, de.robv.android.xposed.XposedBridge.invokeOriginalMethodNative, de.robv.android.xposed.XposedBridge.handleHookedMethod, com.example.mapdemo.MapDemoActivity$2.onClick, android.view.View.performClick, android.view.View$PerformClick.run, android.os.Handler.handleCallback, android.os.Handler.dispatchMessage, android.os.Looper.loop, android.app.ActivityThread.main, java.lang.reflect.Method.invoke, java.lang.reflect.Method.invoke, com.android.internal.os.ZygoteInit$MethodAndArgsCaller.run, com.android.internal.os.ZygoteInit.main, de.robv.android.xposed.XposedBridge.main
BEFORE android.widget.Toast.makeText(android.app.Application,0.0,1), invoked by: dalvik.system.VMStack.getThreadStackTrace, java.lang.Thread.getStackTrace, it.unimib.disco.lta.unimiblogger.MyMethodHook.beforeHookedMethod, de.robv.android.xposed.XposedBridge.handleHookedMethod, android.widget.Toast.makeText, com.example.mapdemo.MapDemoActivity$2.onClick, de.robv.android.xposed.XposedBridge.invokeOriginalMethodNative, de.robv.android.xposed.XposedBridge.handleHookedMethod, com.example.mapdemo.MapDemoActivity$2.onClick, android.view.View.performClick, android.view.View$PerformClick.run, android.os.Handler.handleCallback, android.os.Handler.dispatchMessage, android.os.Looper.loop, android.app.ActivityThread.main, java.lang.reflect.Method.invoke, java.lang.reflect.Method.invoke, com.android.internal.os.ZygoteInit$MethodAndArgsCaller.run, com.android.internal.os.ZygoteInit.main, de.robv.android.xposed.XposedBridge.main
AFTER android.widget.Toast.makeText, returnValue: android.widget.Toast, invoked by: dalvik.system.VMStack.getThreadStackTrace, java.lang.Thread.getStackTrace, it.unimib.disco.lta.unimiblogger.MyMethodHook.beforeHookedMethod, de.robv.android.xposed.XposedBridge.handleHookedMethod, android.widget.Toast.makeText, com.example.mapdemo.MapDemoActivity$2.onClick, de.robv.android.xposed.XposedBridge.invokeOriginalMethodNative, de.robv.android.xposed.XposedBridge.handleHookedMethod, com.example.mapdemo.MapDemoActivity$2.onClick, android.view.View.performClick, android.view.View$PerformClick.run, android.os.Handler.handleCallback, android.os.Handler.dispatchMessage, android.os.Looper.loop, android.app.ActivityThread.main, java.lang.reflect.Method.invoke, java.lang.reflect.Method.invoke, com.android.internal.os.ZygoteInit$MethodAndArgsCaller.run, com.android.internal.os.ZygoteInit.main, de.robv.android.xposed.XposedBridge.main
BEFORE android.widget.Toast.show(), invoked by: dalvik.system.VMStack.getThreadStackTrace, java.lang.Thread.getStackTrace, it.unimib.disco.lta.unimiblogger.MyMethodHook.beforeHookedMethod, de.robv.android.xposed.XposedBridge.handleHookedMethod, android.widget.Toast.show, com.example.mapdemo.MapDemoActivity$2.onClick, de.robv.android.xposed.XposedBridge.invokeOriginalMethodNative, de.robv.android.xposed.XposedBridge.handleHookedMethod, com.example.mapdemo.MapDemoActivity$2.onClick, android.view.View.performClick, android.view.View$PerformClick.run, android.os.Handler.handleCallback, android.os.Handler.dispatchMessage, android.os.Looper.loop, android.app.ActivityThread.main, java.lang.reflect.Method.invoke, java.lang.reflect.Method.invoke, com.android.internal.os.ZygoteInit$MethodAndArgsCaller.run, com.android.internal.os.ZygoteInit.main, de.robv.android.xposed.XposedBridge.main
AFTER android.widget.Toast.show, invoked by: dalvik.system.VMStack.getThreadStackTrace, java.lang.Thread.getStackTrace, it.unimib.disco.lta.unimiblogger.MyMethodHook.beforeHookedMethod, de.robv.android.xposed.XposedBridge.handleHookedMethod, android.widget.Toast.show, com.example.mapdemo.MapDemoActivity$2.onClick, de.robv.android.xposed.XposedBridge.invokeOriginalMethodNative, de.robv.android.xposed.XposedBridge.handleHookedMethod, com.example.mapdemo.MapDemoActivity$2.onClick, android.view.View.performClick, android.view.View$PerformClick.run, android.os.Handler.handleCallback, android.os.Handler.dispatchMessage, android.os.Looper.loop, android.app.ActivityThread.main, java.lang.reflect.Method.invoke, java.lang.reflect.Method.invoke, com.android.internal.os.ZygoteInit$MethodAndArgsCaller.run, com.android.internal.os.ZygoteInit.main, de.robv.android.xposed.XposedBridge.main
AFTER com.example.mapdemo.MapDemoActivity$2.onClick, invoked by: dalvik.system.VMStack.getThreadStackTrace, java.lang.Thread.getStackTrace, it.unimib.disco.lta.unimiblogger.MyMethodHook.beforeHookedMethod, de.robv.android.xposed.XposedBridge.handleHookedMethod, com.example.mapdemo.MapDemoActivity$2.onClick, android.view.View.performClick, android.view.View$PerformClick.run, android.os.Handler.handleCallback, android.os.Handler.dispatchMessage, android.os.Looper.loop, android.app.ActivityThread.main, java.lang.reflect.Method.invoke, java.lang.reflect.Method.invoke, com.android.internal.os.ZygoteInit$MethodAndArgsCaller.run, com.android.internal.os.ZygoteInit.main, de.robv.android.xposed.XposedBridge.main
